<?xml version="1.0" encoding="UTF-8" standalone="no"?>
<!-- Created with Inkscape (http://www.inkscape.org/) -->

<svg
   xmlns:dc="http://purl.org/dc/elements/1.1/"
   xmlns:cc="http://creativecommons.org/ns#"
   xmlns:rdf="http://www.w3.org/1999/02/22-rdf-syntax-ns#"
   xmlns:svg="http://www.w3.org/2000/svg"
   xmlns="http://www.w3.org/2000/svg"
   xmlns:sodipodi="http://sodipodi.sourceforge.net/DTD/sodipodi-0.dtd"
   xmlns:inkscape="http://www.inkscape.org/namespaces/inkscape"
   width="277.26761"
   height="403.66656"
   id="svg6614"
   version="1.1"
   inkscape:version="0.48.3.1 r9886"
   sodipodi:docname="initial.svg">
  <defs
     id="defs6616">
    <marker
       inkscape:stockid="Arrow1Lstart"
       orient="auto"
       refY="0"
       refX="0"
       id="Arrow1Lstart"
       style="overflow:visible">
      <path
         inkscape:connector-curvature="0"
         id="path5554"
         d="M 0,0 5,-5 -12.5,0 5,5 0,0 z"
         style="fill-rule:evenodd;stroke:#000000;stroke-width:1pt"
         transform="matrix(0.8,0,0,0.8,10,0)" />
    </marker>
    <marker
       style="overflow:visible"
       id="Arrow1Mstart"
       refX="0"
       refY="0"
       orient="auto"
       inkscape:stockid="Arrow1Mstart">
      <path
         inkscape:connector-curvature="0"
         transform="matrix(0.4,0,0,0.4,4,0)"
         style="fill-rule:evenodd;stroke:#000000;stroke-width:1pt"
         d="M 0,0 5,-5 -12.5,0 5,5 0,0 z"
         id="path13226" />
    </marker>
    <marker
       style="overflow:visible"
       id="marker6582"
       refX="0"
       refY="0"
       orient="auto"
       inkscape:stockid="Arrow1Mstart">
      <path
         inkscape:connector-curvature="0"
         transform="matrix(0.4,0,0,0.4,4,0)"
         style="fill-rule:evenodd;stroke:#000000;stroke-width:1pt"
         d="M 0,0 5,-5 -12.5,0 5,5 0,0 z"
         id="path6584" />
    </marker>
    <marker
       style="overflow:visible"
       id="Arrow1Lstart-0"
       refX="0"
       refY="0"
       orient="auto"
       inkscape:stockid="Arrow1Lstart">
      <path
         inkscape:connector-curvature="0"
         transform="matrix(0.8,0,0,0.8,10,0)"
         style="fill-rule:evenodd;stroke:#000000;stroke-width:1pt"
         d="M 0,0 5,-5 -12.5,0 5,5 0,0 z"
         id="path13220" />
    </marker>
    <marker
       style="overflow:visible"
       id="marker3663"
       refX="0"
       refY="0"
       orient="auto"
       inkscape:stockid="Arrow1Lstart">
      <path
         inkscape:connector-curvature="0"
         transform="matrix(0.8,0,0,0.8,10,0)"
         style="fill-rule:evenodd;stroke:#000000;stroke-width:1pt"
         d="M 0,0 5,-5 -12.5,0 5,5 0,0 z"
         id="path3665" />
    </marker>
  </defs>
  <sodipodi:namedview
     id="base"
     pagecolor="#ffffff"
     bordercolor="#666666"
     borderopacity="1.0"
     inkscape:pageopacity="0.0"
     inkscape:pageshadow="2"
     inkscape:zoom="0.98994949"
     inkscape:cx="-449.01497"
     inkscape:cy="357.20058"
     inkscape:document-units="px"
     inkscape:current-layer="layer1"
     showgrid="false"
     fit-margin-top="0"
     fit-margin-left="0"
     fit-margin-right="0"
     fit-margin-bottom="0"
     inkscape:window-width="1855"
     inkscape:window-height="1028"
     inkscape:window-x="65"
     inkscape:window-y="24"
     inkscape:window-maximized="1" />
  <metadata
     id="metadata6619">
    <rdf:RDF>
      <cc:Work
         rdf:about="">
        <dc:format>image/svg+xml</dc:format>
        <dc:type
           rdf:resource="http://purl.org/dc/dcmitype/StillImage" />
        <dc:title />
      </cc:Work>
    </rdf:RDF>
  </metadata>
  <g
     inkscape:label="Layer 1"
     inkscape:groupmode="layer"
     id="layer1"
     transform="translate(-112.79477,-493.60901)">
    <path
       sodipodi:open="true"
       sodipodi:end="3.1415927"
       sodipodi:start="0"
       transform="matrix(-2.3282435,0,0,-2.6210605,-551.63851,2066.7265)"
       d="m -305.71429,458.79074 c 0,6.50907 -5.27664,11.78572 -11.78571,11.78572 -6.50907,0 -11.78571,-5.27665 -11.78571,-11.78572 0,0 0,0 0,0"
       sodipodi:ry="11.785714"
       sodipodi:rx="11.785714"
       sodipodi:cy="458.79074"
       sodipodi:cx="-317.5"
       id="path12240-8-7"
       style="fill:none;stroke:#000000;stroke-width:0.80961263;stroke-linecap:butt;stroke-linejoin:miter;stroke-miterlimit:4;stroke-opacity:0.53424659;stroke-dasharray:none;display:inline"
       sodipodi:type="arc" />
    <path
       inkscape:connector-curvature="0"
       id="path12119-5"
       d="m 230.87587,710.28859 -4.1592,12.00936"
       style="fill:none;stroke:#000000;stroke-width:2;stroke-linecap:butt;stroke-linejoin:miter;stroke-miterlimit:4;stroke-opacity:1;stroke-dasharray:none;display:inline" />
    <path
       transform="matrix(0.36311382,-0.1246363,0.1246363,0.36311382,337.27627,506.1344)"
       d="m -145.71429,176.6479 c 0,40.23789 -32.61925,72.85714 -72.85714,72.85714 -40.23788,0 -72.85714,-32.61925 -72.85714,-72.85714 0,-40.23788 32.61926,-72.85714 72.85714,-72.85714 40.23789,0 72.85714,32.61926 72.85714,72.85714 z"
       sodipodi:ry="72.85714"
       sodipodi:rx="72.85714"
       sodipodi:cy="176.6479"
       sodipodi:cx="-218.57143"
       id="path12125-3"
       style="fill:#4d4d4d;fill-rule:evenodd;stroke:#000000;stroke-width:5.20957279;stroke-linecap:butt;stroke-linejoin:miter;stroke-miterlimit:4;stroke-opacity:1;stroke-dasharray:none;display:inline"
       sodipodi:type="arc" />
    <path
       inkscape:connector-curvature="0"
       id="path12129-9"
       d="m 113.79477,865.24731 148.5715,0"
       style="fill:none;stroke:#000000;stroke-width:2;stroke-linecap:butt;stroke-linejoin:miter;stroke-miterlimit:4;stroke-opacity:0.53424659;stroke-dasharray:none;display:inline" />
    <path
       inkscape:connector-curvature="0"
       id="path12131-0"
       d="m 135.93767,865.60446 -17.6332,30.54166"
       style="fill:none;stroke:#000000;stroke-width:2;stroke-linecap:butt;stroke-linejoin:miter;stroke-miterlimit:4;stroke-opacity:0.53424659;stroke-dasharray:none;display:inline" />
    <path
       inkscape:connector-curvature="0"
       id="path12131-6-8"
       d="m 151.11147,865.69076 -17.6333,30.54166"
       style="fill:none;stroke:#000000;stroke-width:2;stroke-linecap:butt;stroke-linejoin:miter;stroke-miterlimit:4;stroke-opacity:0.53424659;stroke-dasharray:none;display:inline" />
    <path
       inkscape:connector-curvature="0"
       id="path12131-6-1-7"
       d="m 166.62687,865.73391 -17.6332,30.54166"
       style="fill:none;stroke:#000000;stroke-width:2;stroke-linecap:butt;stroke-linejoin:miter;stroke-miterlimit:4;stroke-opacity:0.53424659;stroke-dasharray:none;display:inline" />
    <path
       inkscape:connector-curvature="0"
       id="path12131-6-9-4"
       d="m 178.18127,873.10936 -13.2407,22.93362"
       style="fill:none;stroke:#000000;stroke-width:2;stroke-linecap:butt;stroke-linejoin:miter;stroke-miterlimit:4;stroke-opacity:0.53424659;stroke-dasharray:none;display:inline" />
    <path
       inkscape:connector-curvature="0"
       id="path12131-6-6-1"
       d="m 197.69827,864.66248 -17.6332,30.54166"
       style="fill:none;stroke:#000000;stroke-width:2;stroke-linecap:butt;stroke-linejoin:miter;stroke-miterlimit:4;stroke-opacity:0.53424659;stroke-dasharray:none;display:inline" />
    <path
       inkscape:connector-curvature="0"
       id="path12131-6-3-8"
       d="m 211.98397,865.37677 -17.6332,30.54166"
       style="fill:none;stroke:#000000;stroke-width:2;stroke-linecap:butt;stroke-linejoin:miter;stroke-miterlimit:4;stroke-opacity:0.53424659;stroke-dasharray:none;display:inline" />
    <path
       inkscape:connector-curvature="0"
       id="path12131-6-63-7"
       d="m 227.34117,864.66248 -17.6332,30.54166"
       style="fill:none;stroke:#000000;stroke-width:2;stroke-linecap:butt;stroke-linejoin:miter;stroke-miterlimit:4;stroke-opacity:0.53424659;stroke-dasharray:none;display:inline" />
    <path
       inkscape:connector-curvature="0"
       id="path12131-6-4-9"
       d="m 241.98407,864.66248 -17.6333,30.54166"
       style="fill:none;stroke:#000000;stroke-width:2;stroke-linecap:butt;stroke-linejoin:miter;stroke-miterlimit:4;stroke-opacity:0.53424659;stroke-dasharray:none;display:inline" />
    <path
       inkscape:connector-curvature="0"
       id="path12131-6-2-1"
       d="m 256.62687,865.37677 -17.6332,30.54166"
       style="fill:none;stroke:#000000;stroke-width:2;stroke-linecap:butt;stroke-linejoin:miter;stroke-miterlimit:4;stroke-opacity:0.53424659;stroke-dasharray:none;display:inline" />
    <path
       transform="matrix(-1.1533901,0,0,-1.1533901,-178.62281,1392.6555)"
       d="m -305.71429,458.79074 c 0,6.50907 -5.27664,11.78572 -11.78571,11.78572 -6.50907,0 -11.78571,-5.27665 -11.78571,-11.78572 0,-6.50907 5.27664,-11.78571 11.78571,-11.78571 6.50907,0 11.78571,5.27664 11.78571,11.78571 z"
       sodipodi:ry="11.785714"
       sodipodi:rx="11.785714"
       sodipodi:cy="458.79074"
       sodipodi:cx="-317.5"
       id="path12240-1"
       style="fill:none;stroke:#000000;stroke-width:1.7340188;stroke-linecap:butt;stroke-linejoin:miter;stroke-miterlimit:4;stroke-opacity:0.53424659;stroke-dasharray:none;display:inline"
       sodipodi:type="arc" />
    <path
       inkscape:connector-curvature="0"
       id="path13214-5-7"
       d="m 185.01027,773.22612 0,92.93402"
       style="fill:none;stroke:#000000;stroke-width:2;stroke-linecap:butt;stroke-linejoin:miter;stroke-miterlimit:4;stroke-opacity:1;stroke-dasharray:none;marker-start:url(#Arrow1Mstart);display:inline" />
    <path
       inkscape:connector-curvature="0"
       id="path13214-5-5-1"
       d="m 335.89867,865.14999 -153.0375,0"
       style="fill:none;stroke:#000000;stroke-width:2;stroke-linecap:butt;stroke-linejoin:miter;stroke-miterlimit:4;stroke-opacity:1;stroke-dasharray:none;marker-start:url(#Arrow1Mstart);display:inline" />
    <text
       sodipodi:linespacing="125%"
       id="text13708-9-0-1"
       y="784.03632"
       x="147.53624"
       style="font-size:40px;font-style:normal;font-variant:normal;font-weight:normal;font-stretch:normal;line-height:125%;letter-spacing:0px;word-spacing:0px;fill:#000000;fill-opacity:1;stroke:none;display:inline;font-family:cmmi10;-inkscape-font-specification:cmmi10"
       xml:space="preserve"><tspan
         style="font-style:normal;font-variant:normal;font-weight:normal;font-stretch:normal;font-family:cmmi10;-inkscape-font-specification:cmmi10"
         y="784.03632"
         x="147.53624"
         id="tspan13710-7-6-8"
         sodipodi:role="line">z</tspan></text>
    <path
       transform="matrix(0.44680854,0,0,0.44680854,123.21727,820.95478)"
       d="m 177.14286,95.933609 c 0,18.540991 -15.03044,33.571431 -33.57143,33.571431 C 125.03044,129.50504 110,114.4746 110,95.933609 c 0,-18.540989 15.03044,-33.57143 33.57143,-33.57143 18.54099,0 33.57143,15.030441 33.57143,33.57143 z"
       sodipodi:ry="33.57143"
       sodipodi:rx="33.57143"
       sodipodi:cy="95.933609"
       sodipodi:cx="143.57143"
       id="path18088-2-9-8-3"
       style="opacity:0.77366255;fill:#ff0000;fill-opacity:1;stroke:none;display:inline"
       sodipodi:type="arc" />
    <path
       inkscape:connector-curvature="0"
       id="path12119-0-4"
       d="m 278.68207,600.55876 -91.2353,263.43882"
       style="fill:none;stroke:#000000;stroke-width:2;stroke-linecap:butt;stroke-linejoin:miter;stroke-miterlimit:4;stroke-opacity:1;stroke-dasharray:none;display:inline" />
    <path
       style="fill:none;stroke:#000000;stroke-width:2;stroke-linecap:butt;stroke-linejoin:miter;stroke-miterlimit:4;stroke-opacity:1;stroke-dasharray:none;display:inline"
       d="m 226.38087,721.51894 18.2411,6.75869"
       id="path6525-2"
       inkscape:connector-curvature="0" />
    <path
       inkscape:connector-curvature="0"
       id="path12119-8-5"
       d="m 248.07707,716.48123 -4.1591,12.00936"
       style="fill:none;stroke:#000000;stroke-width:2;stroke-linecap:butt;stroke-linejoin:miter;stroke-miterlimit:4;stroke-opacity:1;stroke-dasharray:none;display:inline" />
    <path
       inkscape:connector-curvature="0"
       id="path13212-0"
       d="m 173.82577,634.01515 215.2366,-74.20056"
       style="fill:none;stroke:#000000;stroke-width:2;stroke-linecap:butt;stroke-linejoin:miter;stroke-miterlimit:4;stroke-opacity:1;stroke-dasharray:6, 6;stroke-dashoffset:0;display:inline" />
    <path
       transform="matrix(0.36273417,-0.12573691,0.12573691,0.36273417,273.59477,528.50801)"
       d="m -145.71429,176.6479 c 0,40.23789 -32.61925,72.85714 -72.85714,72.85714 -40.23788,0 -72.85714,-32.61925 -72.85714,-72.85714 0,-40.23788 32.61926,-72.85714 72.85714,-72.85714 40.23789,0 72.85714,32.61926 72.85714,72.85714 z"
       sodipodi:ry="72.85714"
       sodipodi:rx="72.85714"
       sodipodi:cy="176.6479"
       sodipodi:cx="-218.57143"
       id="path12125-6-4-5-0"
       style="opacity:0.28806589;fill:#4d4d4d;fill-rule:evenodd;stroke:#000000;stroke-width:5.20957279;stroke-linecap:butt;stroke-linejoin:miter;stroke-miterlimit:4;stroke-opacity:1;stroke-dasharray:none;display:inline"
       sodipodi:type="arc" />
    <path
       transform="matrix(0.36273417,-0.12573691,0.12573691,0.36273417,303.21087,518.18506)"
       d="m -145.71429,176.6479 c 0,40.23789 -32.61925,72.85714 -72.85714,72.85714 -40.23788,0 -72.85714,-32.61925 -72.85714,-72.85714 0,-40.23788 32.61926,-72.85714 72.85714,-72.85714 40.23789,0 72.85714,32.61926 72.85714,72.85714 z"
       sodipodi:ry="72.85714"
       sodipodi:rx="72.85714"
       sodipodi:cy="176.6479"
       sodipodi:cx="-218.57143"
       id="path12125-6-5-7-9"
       style="opacity:0.36625516;fill:#4d4d4d;fill-rule:evenodd;stroke:#000000;stroke-width:5.20957279;stroke-linecap:butt;stroke-linejoin:miter;stroke-miterlimit:4;stroke-opacity:1;stroke-dasharray:none;display:inline"
       sodipodi:type="arc" />
    <path
       sodipodi:type="arc"
       style="fill:none;stroke:#000000;stroke-width:2;stroke-linecap:round;stroke-miterlimit:4;stroke-opacity:1;stroke-dasharray:none;stroke-dashoffset:0;marker-start:url(#Arrow1Lstart)"
       id="path4380"
       sodipodi:cx="412.64731"
       sodipodi:cy="42.714714"
       sodipodi:rx="90.408653"
       sodipodi:ry="9.5964489"
       d="m 434.17316,52.035187 c -48.49539,1.261897 -97.44612,-1.888051 -109.33452,-7.035606 -11.8884,-5.147555 17.78743,-10.343443 66.28282,-11.60534 3.61142,-0.09397 7.27401,-0.164207 10.96692,-0.210303"
       sodipodi:start="1.3303923"
       sodipodi:end="4.5953307"
       sodipodi:open="true"
       transform="matrix(0.95437573,-0.29860837,0.15426515,0.4930435,-152.33785,660.01684)" />
    <path
       inkscape:connector-curvature="0"
       id="path13214"
       d="m 278.90464,692.17845 0,-92.93403"
       style="fill:none;stroke:#000000;stroke-width:1px;stroke-linecap:butt;stroke-linejoin:miter;stroke-opacity:1;marker-start:url(#Arrow1Lstart);display:inline" />
    <text
       sodipodi:linespacing="125%"
       id="text13708"
       y="698.17871"
       x="289.0061"
       style="font-size:40px;font-style:normal;font-weight:normal;line-height:125%;letter-spacing:0px;word-spacing:0px;fill:#000000;fill-opacity:1;stroke:none;display:inline;font-family:Sans"
       xml:space="preserve"><tspan
         style="font-style:normal;font-variant:normal;font-weight:normal;font-stretch:normal;font-family:cmmi10;-inkscape-font-specification:cmmi10"
         y="698.17871"
         x="289.0061"
         id="tspan13710"
         sodipodi:role="line">mg</tspan></text>
    <path
       inkscape:connector-curvature="0"
       id="path13214-0"
       d="m 307.21604,511.55388 -28.3385,88.50797"
       style="fill:none;stroke:#000000;stroke-width:1px;stroke-linecap:butt;stroke-linejoin:miter;stroke-opacity:1;marker-start:url(#Arrow1Lstart);display:inline" />
    <text
       sodipodi:linespacing="125%"
       id="text13708-0"
       y="521.81213"
       x="312.94415"
       style="font-size:40px;font-style:italic;font-variant:normal;font-weight:bold;font-stretch:normal;line-height:125%;letter-spacing:0px;word-spacing:0px;fill:#000000;fill-opacity:1;stroke:none;display:inline;font-family:URW Chancery L;-inkscape-font-specification:URW Chancery L Bold Italic"
       xml:space="preserve"><tspan
         style="font-style:italic;font-variant:normal;font-weight:bold;font-stretch:normal;font-family:cmmi10;-inkscape-font-specification:cmmi10 Bold Italic"
         y="521.81213"
         x="312.94415"
         id="tspan13710-2"
         sodipodi:role="line">f</tspan></text>
    <g
       id="g3241"
       transform="matrix(1.6764306,0,0,1.6764306,91.151803,719.55798)">
      <g
         word-spacing="normal"
         letter-spacing="normal"
         font-size-adjust="none"
         font-stretch="normal"
         font-weight="normal"
         font-variant="normal"
         font-style="normal"
         stroke-miterlimit="10.433"
         xml:space="preserve"
         transform="matrix(0.49779767,0,0,-0.49779767,-87.114592,302.74992)"
         id="content"
         style="font-style:normal;font-variant:normal;font-weight:normal;font-stretch:normal;letter-spacing:normal;word-spacing:normal;text-anchor:start;fill:none;stroke:#000000;stroke-linecap:butt;stroke-linejoin:miter;stroke-miterlimit:10.43299961;stroke-opacity:1;stroke-dasharray:none;stroke-dashoffset:0"><path
           id="path3244"
           d="m 479.74,425.18 0.01,0.04 0.01,0.03 0.01,0.06 0.02,0.05 0.01,0.06 0.01,0.05 0.02,0.04 0.01,0.05 0.01,0.04 0.01,0.04 0,0.04 0.01,0.04 0.01,0.04 0.01,0.03 0,0.03 0.01,0.03 0,0.03 0.01,0.03 0,0.03 0.01,0.05 0,0.06 0,0.05 0,0.05 0.01,0.05 0,0.03 0,0.03 0,0.03 0,0.03 c 0,0.91 -0.69,1.35 -1.44,1.35 -0.5,0 -1.3,-0.3 -1.75,-1.05 -0.1,-0.25 -0.5,-1.78 -0.69,-2.69 -0.36,-1.29 -0.7,-2.64 -1,-3.98 l -2.25,-8.97 c -0.19,-0.75 -2.33,-4.23 -5.62,-4.23 -2.54,0 -3.1,2.18 -3.1,4.03 0,2.29 0.86,5.39 2.55,9.76 0.8,2.05 1,2.6 1,3.6 0,2.23 -1.59,4.07 -4.09,4.07 -4.74,0 -6.58,-7.21 -6.58,-7.67 0,-0.5 0.5,-0.5 0.61,-0.5 0.5,0 0.54,0.11 0.79,0.91 1.35,4.69 3.33,6.17 5.03,6.17 0.4,0 1.25,0 1.25,-1.59 0,-1.25 -0.5,-2.53 -0.85,-3.49 -1.99,-5.28 -2.9,-8.12 -2.9,-10.47 0,-4.42 3.15,-5.92 6.08,-5.92 1.96,0 3.64,0.85 5.03,2.24 -0.64,-2.58 -1.23,-5.03 -3.23,-7.68 -1.3,-1.68 -3.19,-3.14 -5.48,-3.14 -0.69,0 -2.94,0.16 -3.79,2.1 0.8,0 1.46,0 2.14,0.61 0.5,0.43 1,1.09 1,2.03 0,1.55 -1.34,1.75 -1.84,1.75 -1.14,0 -2.8,-0.8 -2.8,-3.24 0,-2.5 2.21,-4.34 5.29,-4.34 5.14,0 10.26,4.55 11.67,10.17 z"
           inkscape:connector-curvature="0"
           style="fill:#000000;stroke-width:0" /></g>    </g>
    <path
       sodipodi:type="arc"
       style="fill:#ffb700;fill-opacity:0.63013695;fill-rule:evenodd;stroke:#ff4500;stroke-width:5.20957279;stroke-linecap:butt;stroke-linejoin:miter;stroke-miterlimit:4;stroke-opacity:1;stroke-dasharray:none;display:inline"
       id="path12125-3-0"
       sodipodi:cx="-218.57143"
       sodipodi:cy="176.6479"
       sodipodi:rx="72.85714"
       sodipodi:ry="72.85714"
       d="m -145.71429,176.6479 a 72.85714,72.85714 0 1 1 -145.71428,0 72.85714,72.85714 0 1 1 145.71428,0 z"
       transform="matrix(0.21754859,-0.07467204,0.07467204,0.21754859,302.31396,546.99436)" />
  </g>
</svg>
