<?xml version="1.0" encoding="UTF-8" standalone="no"?>
<!-- Created with Inkscape (http://www.inkscape.org/) -->

<svg
   xmlns:dc="http://purl.org/dc/elements/1.1/"
   xmlns:cc="http://creativecommons.org/ns#"
   xmlns:rdf="http://www.w3.org/1999/02/22-rdf-syntax-ns#"
   xmlns:svg="http://www.w3.org/2000/svg"
   xmlns="http://www.w3.org/2000/svg"
   xmlns:sodipodi="http://sodipodi.sourceforge.net/DTD/sodipodi-0.dtd"
   xmlns:inkscape="http://www.inkscape.org/namespaces/inkscape"
   width="318.65372"
   height="354.4584"
   id="svg19467"
   version="1.1"
   inkscape:version="0.48.3.1 r9886"
   sodipodi:docname="pendulum_3.png">
  <defs
     id="defs19469">
    <marker
       style="overflow:visible"
       id="Arrow1Mstart"
       refX="0"
       refY="0"
       orient="auto"
       inkscape:stockid="Arrow1Mstart">
      <path
         inkscape:connector-curvature="0"
         transform="matrix(0.4,0,0,0.4,4,0)"
         style="fill-rule:evenodd;stroke:#000000;stroke-width:1pt"
         d="M 0,0 5,-5 -12.5,0 5,5 0,0 z"
         id="path13226" />
    </marker>
    <marker
       style="overflow:visible"
       id="marker19430"
       refX="0"
       refY="0"
       orient="auto"
       inkscape:stockid="Arrow1Mstart">
      <path
         inkscape:connector-curvature="0"
         transform="matrix(0.4,0,0,0.4,4,0)"
         style="fill-rule:evenodd;stroke:#000000;stroke-width:1pt"
         d="M 0,0 5,-5 -12.5,0 5,5 0,0 z"
         id="path19432" />
    </marker>
  </defs>
  <sodipodi:namedview
     id="base"
     pagecolor="#ffffff"
     bordercolor="#666666"
     borderopacity="1.0"
     inkscape:pageopacity="0.0"
     inkscape:pageshadow="2"
     inkscape:zoom="0.7"
     inkscape:cx="333.47506"
     inkscape:cy="334.71845"
     inkscape:document-units="px"
     inkscape:current-layer="layer1"
     showgrid="false"
     fit-margin-top="0"
     fit-margin-left="0"
     fit-margin-right="0"
     fit-margin-bottom="0"
     inkscape:window-width="1855"
     inkscape:window-height="1028"
     inkscape:window-x="65"
     inkscape:window-y="24"
     inkscape:window-maximized="1" />
  <metadata
     id="metadata19472">
    <rdf:RDF>
      <cc:Work
         rdf:about="">
        <dc:format>image/svg+xml</dc:format>
        <dc:type
           rdf:resource="http://purl.org/dc/dcmitype/StillImage" />
        <dc:title></dc:title>
      </cc:Work>
    </rdf:RDF>
  </metadata>
  <g
     inkscape:label="Layer 1"
     inkscape:groupmode="layer"
     id="layer1"
     transform="translate(65.041138,-692.27583)">
    <path
       sodipodi:open="true"
       sodipodi:end="3.1415927"
       sodipodi:start="0"
       transform="matrix(-2.3282435,0,0,-2.6210605,-729.47444,2214.5177)"
       d="m -305.71429,458.79074 c 0,6.50907 -5.27664,11.78572 -11.78571,11.78572 -6.50907,0 -11.78571,-5.27665 -11.78571,-11.78572 0,0 0,0 0,0"
       sodipodi:ry="11.785714"
       sodipodi:rx="11.785714"
       sodipodi:cy="458.79074"
       sodipodi:cx="-317.5"
       id="path12240-8"
       style="fill:none;stroke:#000000;stroke-width:0.80961263;stroke-linecap:butt;stroke-linejoin:miter;stroke-miterlimit:4;stroke-opacity:0.53424659;stroke-dasharray:none;display:inline"
       sodipodi:type="arc" />
    <path
       inkscape:connector-curvature="0"
       id="path12119"
       d="m 53.039962,858.07987 -4.1592,12.00936"
       style="fill:none;stroke:#000000;stroke-width:2;stroke-linecap:butt;stroke-linejoin:miter;stroke-miterlimit:4;stroke-opacity:1;stroke-dasharray:none;display:inline" />
    <path
       transform="matrix(0.36311382,-0.1246363,0.1246363,0.36311382,159.44036,653.92569)"
       d="m -145.71429,176.6479 c 0,40.23789 -32.61925,72.85714 -72.85714,72.85714 -40.23788,0 -72.85714,-32.61925 -72.85714,-72.85714 0,-40.23788 32.61926,-72.85714 72.85714,-72.85714 40.23789,0 72.85714,32.61926 72.85714,72.85714 z"
       sodipodi:ry="72.85714"
       sodipodi:rx="72.85714"
       sodipodi:cy="176.6479"
       sodipodi:cx="-218.57143"
       id="path12125"
       style="fill:#4d4d4d;fill-rule:evenodd;stroke:#000000;stroke-width:5.20957279;stroke-linecap:butt;stroke-linejoin:miter;stroke-miterlimit:4;stroke-opacity:1;stroke-dasharray:none;display:inline"
       sodipodi:type="arc" />
    <path
       inkscape:connector-curvature="0"
       id="path12129"
       d="m -64.041138,1013.0386 148.5715,0"
       style="fill:none;stroke:#000000;stroke-width:2;stroke-linecap:butt;stroke-linejoin:miter;stroke-miterlimit:4;stroke-opacity:0.53424659;stroke-dasharray:none;display:inline" />
    <path
       inkscape:connector-curvature="0"
       id="path12131"
       d="m -41.898238,1013.3957 -17.6332,30.5417"
       style="fill:none;stroke:#000000;stroke-width:2;stroke-linecap:butt;stroke-linejoin:miter;stroke-miterlimit:4;stroke-opacity:0.53424659;stroke-dasharray:none;display:inline" />
    <path
       inkscape:connector-curvature="0"
       id="path12131-6"
       d="m -26.724438,1013.482 -17.6333,30.5417"
       style="fill:none;stroke:#000000;stroke-width:2;stroke-linecap:butt;stroke-linejoin:miter;stroke-miterlimit:4;stroke-opacity:0.53424659;stroke-dasharray:none;display:inline" />
    <path
       inkscape:connector-curvature="0"
       id="path12131-6-1"
       d="m -11.209038,1013.5252 -17.6332,30.5417"
       style="fill:none;stroke:#000000;stroke-width:2;stroke-linecap:butt;stroke-linejoin:miter;stroke-miterlimit:4;stroke-opacity:0.53424659;stroke-dasharray:none;display:inline" />
    <path
       inkscape:connector-curvature="0"
       id="path12131-6-9"
       d="M 0.34536155,1020.9006 -12.895338,1043.8343"
       style="fill:none;stroke:#000000;stroke-width:2;stroke-linecap:butt;stroke-linejoin:miter;stroke-miterlimit:4;stroke-opacity:0.53424659;stroke-dasharray:none;display:inline" />
    <path
       inkscape:connector-curvature="0"
       id="path12131-6-6"
       d="M 19.862362,1012.4538 2.2291615,1042.9954"
       style="fill:none;stroke:#000000;stroke-width:2;stroke-linecap:butt;stroke-linejoin:miter;stroke-miterlimit:4;stroke-opacity:0.53424659;stroke-dasharray:none;display:inline" />
    <path
       inkscape:connector-curvature="0"
       id="path12131-6-3"
       d="m 34.148062,1013.1681 -17.6332,30.5416"
       style="fill:none;stroke:#000000;stroke-width:2;stroke-linecap:butt;stroke-linejoin:miter;stroke-miterlimit:4;stroke-opacity:0.53424659;stroke-dasharray:none;display:inline" />
    <path
       inkscape:connector-curvature="0"
       id="path12131-6-63"
       d="m 49.505262,1012.4538 -17.6332,30.5416"
       style="fill:none;stroke:#000000;stroke-width:2;stroke-linecap:butt;stroke-linejoin:miter;stroke-miterlimit:4;stroke-opacity:0.53424659;stroke-dasharray:none;display:inline" />
    <path
       inkscape:connector-curvature="0"
       id="path12131-6-4"
       d="m 64.148162,1012.4538 -17.6333,30.5416"
       style="fill:none;stroke:#000000;stroke-width:2;stroke-linecap:butt;stroke-linejoin:miter;stroke-miterlimit:4;stroke-opacity:0.53424659;stroke-dasharray:none;display:inline" />
    <path
       inkscape:connector-curvature="0"
       id="path12131-6-2"
       d="m 78.790962,1013.1681 -17.6332,30.5416"
       style="fill:none;stroke:#000000;stroke-width:2;stroke-linecap:butt;stroke-linejoin:miter;stroke-miterlimit:4;stroke-opacity:0.53424659;stroke-dasharray:none;display:inline" />
    <path
       transform="matrix(-1.1533901,0,0,-1.1533901,-356.45874,1540.4467)"
       d="m -305.71429,458.79074 c 0,6.50907 -5.27664,11.78572 -11.78571,11.78572 -6.50907,0 -11.78571,-5.27665 -11.78571,-11.78572 0,-6.50907 5.27664,-11.78571 11.78571,-11.78571 6.50907,0 11.78571,5.27664 11.78571,11.78571 z"
       sodipodi:ry="11.785714"
       sodipodi:rx="11.785714"
       sodipodi:cy="458.79074"
       sodipodi:cx="-317.5"
       id="path12240"
       style="fill:none;stroke:#000000;stroke-width:1.7340188;stroke-linecap:butt;stroke-linejoin:miter;stroke-miterlimit:4;stroke-opacity:0.53424659;stroke-dasharray:none;display:inline"
       sodipodi:type="arc" />
    <path
       inkscape:connector-curvature="0"
       id="path13214-5"
       d="m 7.1743615,921.0174 0,92.934"
       style="fill:none;stroke:#000000;stroke-width:2;stroke-linecap:butt;stroke-linejoin:miter;stroke-miterlimit:4;stroke-opacity:1;stroke-dasharray:none;marker-start:url(#Arrow1Mstart);display:inline" />
    <path
       inkscape:connector-curvature="0"
       id="path13214-5-5"
       d="m 158.06276,1012.9413 -153.0374985,0"
       style="fill:none;stroke:#000000;stroke-width:2;stroke-linecap:butt;stroke-linejoin:miter;stroke-miterlimit:4;stroke-opacity:1;stroke-dasharray:none;marker-start:url(#Arrow1Mstart);display:inline" />
    <text
       sodipodi:linespacing="125%"
       id="text13708-9-0"
       y="931.82758"
       x="-30.299713"
       style="font-size:40px;font-style:normal;font-variant:normal;font-weight:normal;font-stretch:normal;line-height:125%;letter-spacing:0px;word-spacing:0px;fill:#000000;fill-opacity:1;stroke:none;display:inline;font-family:cmmi10;-inkscape-font-specification:cmmi10"
       xml:space="preserve"><tspan
         style="font-style:normal;font-variant:normal;font-weight:normal;font-stretch:normal;font-family:cmmi10;-inkscape-font-specification:cmmi10"
         y="931.82758"
         x="-30.299713"
         id="tspan13710-7-6"
         sodipodi:role="line">z</tspan></text>
    <path
       transform="matrix(0.44680854,0,0,0.44680854,-54.618638,968.74606)"
       d="m 177.14286,95.933609 c 0,18.540991 -15.03044,33.571431 -33.57143,33.571431 C 125.03044,129.50504 110,114.4746 110,95.933609 c 0,-18.540989 15.03044,-33.57143 33.57143,-33.57143 18.54099,0 33.57143,15.030441 33.57143,33.57143 z"
       sodipodi:ry="33.57143"
       sodipodi:rx="33.57143"
       sodipodi:cy="95.933609"
       sodipodi:cx="143.57143"
       id="path18088-2-9-8"
       style="opacity:0.77366255;fill:#ff0000;fill-opacity:1;stroke:none;display:inline"
       sodipodi:type="arc" />
    <path
       inkscape:connector-curvature="0"
       id="path12119-0"
       d="M 100.84616,748.35006 9.6108615,1011.7889"
       style="fill:none;stroke:#000000;stroke-width:2;stroke-linecap:butt;stroke-linejoin:miter;stroke-miterlimit:4;stroke-opacity:1;stroke-dasharray:none;display:inline" />
    <path
       style="fill:none;stroke:#000000;stroke-width:2;stroke-linecap:butt;stroke-linejoin:miter;stroke-miterlimit:4;stroke-opacity:1;stroke-dasharray:none;display:inline"
       d="m 48.544962,869.31022 18.2411,6.75869"
       id="path6525"
       inkscape:connector-curvature="0" />
    <path
       inkscape:connector-curvature="0"
       id="path12119-8"
       d="m 70.241162,864.27251 -4.1591,12.00936"
       style="fill:none;stroke:#000000;stroke-width:2;stroke-linecap:butt;stroke-linejoin:miter;stroke-miterlimit:4;stroke-opacity:1;stroke-dasharray:none;display:inline" />
    <rect
       style="fill:none;stroke:#000000;stroke-width:1.32639289;stroke-opacity:1"
       id="rect18004"
       width="128.97314"
       height="55.231998"
       x="123.97623"
       y="957.255" />
    <path
       transform="matrix(-0.44680854,0,0,0.44680854,283.67316,911.07354)"
       d="m 177.14286,95.933609 c 0,18.540991 -15.03044,33.571431 -33.57143,33.571431 C 125.03044,129.50504 110,114.4746 110,95.933609 c 0,-18.540989 15.03044,-33.57143 33.57143,-33.57143 18.54099,0 33.57143,15.030441 33.57143,33.57143 z"
       sodipodi:ry="33.57143"
       sodipodi:rx="33.57143"
       sodipodi:cy="95.933609"
       sodipodi:cx="143.57143"
       id="path18088-2-9-8-5"
       style="opacity:0.77366255;fill:#ff0000;fill-opacity:1;stroke:none;display:inline"
       sodipodi:type="arc" />
    <path
       inkscape:connector-curvature="0"
       id="path12119-0-8"
       d="m 104.46436,750.21144 110.4797,192.81909"
       style="fill:none;stroke:#000000;stroke-width:2.33733416;stroke-linecap:butt;stroke-linejoin:miter;stroke-miterlimit:4;stroke-opacity:1;stroke-dasharray:2.33733409, 7.01200227;stroke-dashoffset:0;display:inline" />
    <path
       inkscape:connector-curvature="0"
       id="path13212"
       d="M -4.0101385,781.80645 211.22646,707.60589"
       style="fill:none;stroke:#000000;stroke-width:2;stroke-linecap:butt;stroke-linejoin:miter;stroke-miterlimit:4;stroke-opacity:1;stroke-dasharray:6, 6;stroke-dashoffset:0;display:inline" />
    <path
       transform="matrix(0.36273417,-0.12573691,0.12573691,0.36273417,95.758862,676.2993)"
       d="m -145.71429,176.6479 c 0,40.23789 -32.61925,72.85714 -72.85714,72.85714 -40.23788,0 -72.85714,-32.61925 -72.85714,-72.85714 0,-40.23788 32.61926,-72.85714 72.85714,-72.85714 40.23789,0 72.85714,32.61926 72.85714,72.85714 z"
       sodipodi:ry="72.85714"
       sodipodi:rx="72.85714"
       sodipodi:cy="176.6479"
       sodipodi:cx="-218.57143"
       id="path12125-6-4-5"
       style="opacity:0.28806589;fill:#4d4d4d;fill-rule:evenodd;stroke:#000000;stroke-width:5.20957279;stroke-linecap:butt;stroke-linejoin:miter;stroke-miterlimit:4;stroke-opacity:1;stroke-dasharray:none;display:inline"
       sodipodi:type="arc" />
    <path
       transform="matrix(0.36273417,-0.12573691,0.12573691,0.36273417,125.37496,665.97635)"
       d="m -145.71429,176.6479 c 0,40.23789 -32.61925,72.85714 -72.85714,72.85714 -40.23788,0 -72.85714,-32.61925 -72.85714,-72.85714 0,-40.23788 32.61926,-72.85714 72.85714,-72.85714 40.23789,0 72.85714,32.61926 72.85714,72.85714 z"
       sodipodi:ry="72.85714"
       sodipodi:rx="72.85714"
       sodipodi:cy="176.6479"
       sodipodi:cx="-218.57143"
       id="path12125-6-5-7"
       style="opacity:0.36625516;fill:#4d4d4d;fill-rule:evenodd;stroke:#000000;stroke-width:5.20957279;stroke-linecap:butt;stroke-linejoin:miter;stroke-miterlimit:4;stroke-opacity:1;stroke-dasharray:none;display:inline"
       sodipodi:type="arc" />
    <path
       transform="matrix(0.36273417,-0.12573691,0.12573691,0.36273417,195.27536,641.7925)"
       d="m -145.71429,176.6479 c 0,40.23789 -32.61925,72.85714 -72.85714,72.85714 -40.23788,0 -72.85714,-32.61925 -72.85714,-72.85714 0,-40.23788 32.61926,-72.85714 72.85714,-72.85714 40.23789,0 72.85714,32.61926 72.85714,72.85714 z"
       sodipodi:ry="72.85714"
       sodipodi:rx="72.85714"
       sodipodi:cy="176.6479"
       sodipodi:cx="-218.57143"
       id="path12125-6-7-7"
       style="opacity:0.46090537;fill:#4d4d4d;fill-rule:evenodd;stroke:#000000;stroke-width:5.20957279;stroke-linecap:butt;stroke-linejoin:miter;stroke-miterlimit:4;stroke-opacity:1;stroke-dasharray:none;display:inline"
       sodipodi:type="arc" />
    <path
       transform="matrix(0.36273417,-0.12573691,0.12573691,0.36273417,229.92666,629.69521)"
       d="m -145.71429,176.6479 c 0,40.23789 -32.61925,72.85714 -72.85714,72.85714 -40.23788,0 -72.85714,-32.61925 -72.85714,-72.85714 0,-40.23788 32.61926,-72.85714 72.85714,-72.85714 40.23789,0 72.85714,32.61926 72.85714,72.85714 z"
       sodipodi:ry="72.85714"
       sodipodi:rx="72.85714"
       sodipodi:cy="176.6479"
       sodipodi:cx="-218.57143"
       id="path12125-6-2-7"
       style="opacity:0.25514401;fill:#4d4d4d;fill-rule:evenodd;stroke:#000000;stroke-width:5.20957279;stroke-linecap:butt;stroke-linejoin:miter;stroke-miterlimit:4;stroke-opacity:1;stroke-dasharray:none;display:inline"
       sodipodi:type="arc" />
    <g
       id="g3241-7"
       transform="matrix(1.6764306,0,0,1.6764306,-82.029568,869.64953)">
      <g
         word-spacing="normal"
         letter-spacing="normal"
         font-size-adjust="none"
         font-stretch="normal"
         font-weight="normal"
         font-variant="normal"
         font-style="normal"
         stroke-miterlimit="10.433"
         xml:space="preserve"
         transform="matrix(0.49779767,0,0,-0.49779767,-87.114592,302.74992)"
         id="content-5"
         style="font-style:normal;font-variant:normal;font-weight:normal;font-stretch:normal;letter-spacing:normal;word-spacing:normal;text-anchor:start;fill:none;stroke:#000000;stroke-linecap:butt;stroke-linejoin:miter;stroke-miterlimit:10.43299961;stroke-opacity:1;stroke-dasharray:none;stroke-dashoffset:0"><path
           id="path3244-9"
           d="m 479.74,425.18 0.01,0.04 0.01,0.03 0.01,0.06 0.02,0.05 0.01,0.06 0.01,0.05 0.02,0.04 0.01,0.05 0.01,0.04 0.01,0.04 0,0.04 0.01,0.04 0.01,0.04 0.01,0.03 0,0.03 0.01,0.03 0,0.03 0.01,0.03 0,0.03 0.01,0.05 0,0.06 0,0.05 0,0.05 0.01,0.05 0,0.03 0,0.03 0,0.03 0,0.03 c 0,0.91 -0.69,1.35 -1.44,1.35 -0.5,0 -1.3,-0.3 -1.75,-1.05 -0.1,-0.25 -0.5,-1.78 -0.69,-2.69 -0.36,-1.29 -0.7,-2.64 -1,-3.98 l -2.25,-8.97 c -0.19,-0.75 -2.33,-4.23 -5.62,-4.23 -2.54,0 -3.1,2.18 -3.1,4.03 0,2.29 0.86,5.39 2.55,9.76 0.8,2.05 1,2.6 1,3.6 0,2.23 -1.59,4.07 -4.09,4.07 -4.74,0 -6.58,-7.21 -6.58,-7.67 0,-0.5 0.5,-0.5 0.61,-0.5 0.5,0 0.54,0.11 0.79,0.91 1.35,4.69 3.33,6.17 5.03,6.17 0.4,0 1.25,0 1.25,-1.59 0,-1.25 -0.5,-2.53 -0.85,-3.49 -1.99,-5.28 -2.9,-8.12 -2.9,-10.47 0,-4.42 3.15,-5.92 6.08,-5.92 1.96,0 3.64,0.85 5.03,2.24 -0.64,-2.58 -1.23,-5.03 -3.23,-7.68 -1.3,-1.68 -3.19,-3.14 -5.48,-3.14 -0.69,0 -2.94,0.16 -3.79,2.1 0.8,0 1.46,0 2.14,0.61 0.5,0.43 1,1.09 1,2.03 0,1.55 -1.34,1.75 -1.84,1.75 -1.14,0 -2.8,-0.8 -2.8,-3.24 0,-2.5 2.21,-4.34 5.29,-4.34 5.14,0 10.26,4.55 11.67,10.17 z"
           inkscape:connector-curvature="0"
           style="fill:#000000;stroke-width:0" /></g>    </g>
  </g>
</svg>
