\relax 
\@writefile{toc}{\contentsline {subsection}{\numberline {-A}Impulse Response}{1}}
\newlabel{Gs}{{1}{1}}
\newlabel{Gcs}{{2}{1}}
\newlabel{forwardChain}{{3}{1}}
\newlabel{polyExpansion}{{4}{1}}
\newlabel{state}{{5}{1}}
\newlabel{A}{{6}{1}}
\newlabel{B}{{7}{1}}
\newlabel{C}{{8}{1}}
\newlabel{D}{{9}{1}}
\newlabel{A2}{{10}{1}}
\newlabel{B2}{{11}{1}}
\newlabel{C2}{{12}{1}}
\newlabel{D2}{{13}{1}}
\newlabel{feedback}{{14}{1}}
\@writefile{toc}{\contentsline {subsection}{\numberline {-B}Effect of the Beta Parameter}{1}}
\@writefile{lof}{\contentsline {figure}{\numberline {1}{\ignorespaces The altitude dynamic response displays no oscillatory behaviour since it has only real roots.}}{2}}
\newlabel{PartAAltitudeResponse}{{1}{2}}
\@writefile{lof}{\contentsline {figure}{\numberline {2}{\ignorespaces The pole at the origin gives the forward chain a DC offset in its impulse response. Impulse response given with unity gain.}}{2}}
\newlabel{PartAForwardChainAltitudeResponse}{{2}{2}}
\@writefile{lof}{\contentsline {figure}{\numberline {3}{\ignorespaces It could be said that the impulse response of this closed loop system is tragic at 280 gain magnitude.}}{2}}
\newlabel{PartAFig1_impulseResponse}{{3}{2}}
\@writefile{lof}{\contentsline {figure}{\numberline {4}{\ignorespaces A look at the maximum real part pole of the closed loop transfer function with logarithmically varying gains shows a clear zone of instability where this pole crosses the $j\omega $ axis and then returns. This is shown for $\beta =10$, the nominal value. Only the positive spectrum of gains are relevant since the pole at the origin flees on the positive real axis for negative gains. More exact crossover points were found using bisection search. Crossover occurs at 0, 0.485, and 136.553 gain units. }}{2}}
\newlabel{partB_PosStabilityAt10Beta}{{4}{2}}
\newlabel{Lyapunov-like}{{15}{2}}
\@writefile{lof}{\contentsline {figure}{\numberline {5}{\ignorespaces While largely the same, the third pole from the origin can be seen increasing in magnitude with lower values of $\beta $, causing a slight change in the locus of the complex poles as they arc out of and then return to the open left half-plane.}}{3}}
\newlabel{PartBPositiveLocusOf8BetaOpen}{{5}{3}}
\@writefile{lof}{\contentsline {figure}{\numberline {6}{\ignorespaces The root locus of the altitude control system is largely the same with variation in $\beta $, but provides a simple explanation for the two distinct ranges of stable gains.}}{3}}
\newlabel{PartBPositiveLocusOf12BetaOpen}{{6}{3}}
\@writefile{toc}{\contentsline {subsection}{\numberline {-C}Step Response of the Closed Loop System}{3}}
\@writefile{lof}{\contentsline {figure}{\numberline {7}{\ignorespaces The closed loop system admits two ranges of stable gains, and in the very low range the dependence of the least eigenvalue of the controllability grammian on $\beta $ is much less significant than the dependence on gain. However, the relationship between controllability and $\beta $ is negative, while for high gains it is positive. }}{3}}
\newlabel{PartBcontrollabilityLowGain}{{7}{3}}
\@writefile{lof}{\contentsline {figure}{\numberline {8}{\ignorespaces The relationship between gain and controllability levels off in the higher register of gains, and the dependence on $\beta $ becomes more clear.}}{3}}
\newlabel{PartBcontrollabilityHighGain}{{8}{3}}
\@writefile{lof}{\contentsline {figure}{\numberline {9}{\ignorespaces The step response illustrates the highly oscillatory step response of the system. Sampling at twice the nyquist frequency followed by bisection showed the settling time to be $43.90$, and a similar method found the percent overshoot to be $92.14\%$, an impressively ill-advised feature. }}{4}}
\newlabel{PartCStepResponse}{{9}{4}}
\@writefile{toc}{\contentsline {subsection}{\numberline {-D}Rejection of Step Control Signal Disturbance}{4}}
\newlabel{disturbance poles}{{16}{4}}
\newlabel{disturbance}{{17}{4}}
\@writefile{toc}{\contentsline {subsection}{\numberline {-E}Inclusion of a Naive Pre-Filter}{4}}
\@writefile{lof}{\contentsline {figure}{\numberline {10}{\ignorespaces The step disturbance response of the closed loop system oscillates at the same frequency as the closed loop impulse response, since the two share the same poles, but the transfer function of the disturbance system has a zero at the origin, which causes its steady state step response error to approach zero. It deviates from the impulse response of the closed loop system only in the lack of the zeros introduced by the controller.}}{4}}
\newlabel{partD_StepResponse}{{10}{4}}
\newlabel{pre}{{18}{4}}
\newlabel{preCancel}{{19}{4}}
\@writefile{lof}{\contentsline {figure}{\numberline {11}{\ignorespaces The addition of a pre-filter clearly improves the impulse response, lowering the magnitude of the spikes by just over a factor of three. This impulse response signal is simply a scaling of the step disturbance response signal since the pre-filter cancels the zeros of the controller transfer function.}}{4}}
\newlabel{PartE-AFig1_impulseResponse}{{11}{4}}
\@writefile{toc}{\contentsline {subsubsection}{\numberline {-E.1}Loss of Controllability}{4}}
\@writefile{lof}{\contentsline {figure}{\numberline {12}{\ignorespaces More a numerical conditioning error than a relationship, the high gain controllability of the system with the pre-filter is absent within numerical precision on matrix operations of this complexity. This is explained by the cancellation between the poles of the pre-filter and the identical zeros introduced by the PID controller. The low gain plot is functionally equivalent.}}{5}}
\newlabel{PartE-BcontrollabilityHighGain}{{12}{5}}
\@writefile{toc}{\contentsline {subsubsection}{\numberline {-E.2}Step Response Performance Improvements}{5}}
\@writefile{lof}{\contentsline {figure}{\numberline {13}{\ignorespaces The effect of the pre-filter on the step response is impressive, bringing the settling time to $25.84$, with percent overshoot of only $7.08\%$. }}{5}}
\newlabel{PartE-CStepResponse}{{13}{5}}
\@writefile{toc}{\contentsline {subsubsection}{\numberline {-E.3}Lack of Effect on Control Signal Disturbances}{5}}
\newlabel{Gs2}{{1}{5}}
\newlabel{Gcs2}{{2}{5}}
\newlabel{CLs2}{{3}{5}}
\@writefile{toc}{\contentsline {subsection}{\numberline {-F}Damping Ratio Choice Problem}{5}}
\newlabel{CL2Poles}{{4}{5}}
\newlabel{QuadraticWithPoles}{{5}{5}}
\newlabel{rem1}{{6}{5}}
\newlabel{rem2}{{7}{5}}
\newlabel{rem3}{{8}{5}}
\newlabel{rem4}{{9}{5}}
\newlabel{rem5}{{10}{5}}
\newlabel{rem6}{{11}{5}}
\newlabel{rem7}{{12}{5}}
\@writefile{lof}{\contentsline {figure}{\numberline {14}{\ignorespaces The root locus of the forward velocity system, highlighting those poles which produce the desired damping ratio of 0.6, as approximated by a numerical computation based on symbolic polynomial long division, algebraic re-arrangement into a single variable third order polynomial, and numerical root finding.}}{6}}
\newlabel{PartF_PositiveLocusWithZeta600}{{14}{6}}
\@writefile{toc}{\contentsline {subsection}{\numberline {-G}Performance of the Closed Loop Forward Velocity System}{6}}
\@writefile{lof}{\contentsline {figure}{\numberline {15}{\ignorespaces The step response of the damping ratio 0.6 closed loop system, using a gain of approximately 0.438 shows no overshoot. The system settling time is 9.686 using the 2\% criteria. }}{6}}
\newlabel{PartGStepResponse438}{{15}{6}}
\@writefile{toc}{\contentsline {subsection}{\numberline {-H}A More Aggressive Damping Ratio Solution}{6}}
\@writefile{lof}{\contentsline {figure}{\numberline {16}{\ignorespaces Using a slightly adjusted desired damping ratio, the new closed loop system is dominated to a lesser extent by the real pole.}}{6}}
\newlabel{PartF_PositiveLocusWithZeta415}{{16}{6}}
\@writefile{toc}{\contentsline {subsubsection}{\numberline {-H.1}Improved Closed Loop Performance}{6}}
\@writefile{lof}{\contentsline {figure}{\numberline {17}{\ignorespaces Using the larger gain required by the damping ratio of $\sqrt  (2)-1$ still produces no overshoot in the step response. The 2\% criteria settling time is much faster, at 4.016 }}{6}}
\newlabel{PartGStepResponse1472}{{17}{6}}
\@writefile{toc}{\contentsline {subsection}{\numberline {-I}Consideration of a Full PID Approach}{6}}
\@writefile{lof}{\contentsline {figure}{\numberline {18}{\ignorespaces The PID compensator keeps the oscillation frequency of the complex poles in check as the gain is increased, and allows the real pole to become arbitrarily fast, ignoring the inevitable time delays. }}{7}}
\newlabel{PartI_PositiveLocus}{{18}{7}}
\@writefile{lof}{\contentsline {figure}{\numberline {19}{\ignorespaces The step response suffers in the original controller at high gain values. At the gain pictured the settling time is 2.27, but the overshoot is 43.52\%}}{7}}
\newlabel{PartGStepResponse7404}{{19}{7}}
\@writefile{lof}{\contentsline {figure}{\numberline {20}{\ignorespaces The original controller gets very high frequency, lightly damped complex poles as the gain increases. This is a gain of 7.4}}{7}}
\newlabel{PartF_PositiveLocusWithZeta200}{{20}{7}}
\@writefile{lof}{\contentsline {figure}{\numberline {21}{\ignorespaces Using a relatively low gain with the PID controller. The 2\% criteria settling time continues to decrease as gain is increased, but the computational task of accurately plotting is much easier at low gains. The settling time of 1.43 is highlighted here. }}{7}}
\newlabel{PartGStepResponse6000}{{21}{7}}
