<?xml version="1.0" encoding="UTF-8" standalone="no"?>
<!-- Created with Inkscape (http://www.inkscape.org/) -->

<svg
   xmlns:dc="http://purl.org/dc/elements/1.1/"
   xmlns:cc="http://creativecommons.org/ns#"
   xmlns:rdf="http://www.w3.org/1999/02/22-rdf-syntax-ns#"
   xmlns:svg="http://www.w3.org/2000/svg"
   xmlns="http://www.w3.org/2000/svg"
   xmlns:sodipodi="http://sodipodi.sourceforge.net/DTD/sodipodi-0.dtd"
   xmlns:inkscape="http://www.inkscape.org/namespaces/inkscape"
   width="360.75391"
   height="140.95923"
   id="svg3249"
   version="1.1"
   inkscape:version="0.48.4 r9939"
   sodipodi:docname="many_step_planning_take2.svg"
   inkscape:export-filename="/home/gray/wk/grayutils/tex/MultiContactTAC2015/figures/many_step_planning.png"
   inkscape:export-xdpi="200.08386"
   inkscape:export-ydpi="200.08386">
  <defs
     id="defs3251" />
  <sodipodi:namedview
     id="base"
     pagecolor="#ffffff"
     bordercolor="#666666"
     borderopacity="1.0"
     inkscape:pageopacity="0.0"
     inkscape:pageshadow="2"
     inkscape:zoom="2.8284271"
     inkscape:cx="236.44687"
     inkscape:cy="97.003522"
     inkscape:document-units="px"
     inkscape:current-layer="layer1"
     showgrid="false"
     inkscape:window-width="1920"
     inkscape:window-height="1030"
     inkscape:window-x="1920"
     inkscape:window-y="0"
     inkscape:window-maximized="1"
     units="in"
     fit-margin-left="0.1"
     fit-margin-top="0.1"
     fit-margin-right="0.1"
     fit-margin-bottom="0.1" />
  <metadata
     id="metadata3254">
    <rdf:RDF>
      <cc:Work
         rdf:about="">
        <dc:format>image/svg+xml</dc:format>
        <dc:type
           rdf:resource="http://purl.org/dc/dcmitype/StillImage" />
        <dc:title />
      </cc:Work>
    </rdf:RDF>
  </metadata>
  <g
     inkscape:label="Layer 1"
     inkscape:groupmode="layer"
     id="layer1"
     transform="translate(35.230581,-869.41089)">
    <path
       style="opacity:0.50691241;fill:none;stroke:#333f48;stroke-width:1.875;stroke-linecap:butt;stroke-linejoin:miter;stroke-miterlimit:4;stroke-opacity:1;stroke-dasharray:none"
       d="m 2.4188314,909.41701 307.3987586,0"
       id="path3276"
       inkscape:connector-curvature="0" />
    <path
       inkscape:connector-curvature="0"
       id="path3278"
       d="m 2.4188314,1000.2913 307.3987586,0"
       style="fill:none;stroke:#000000;stroke-width:1.875;stroke-linecap:butt;stroke-linejoin:miter;stroke-miterlimit:4;stroke-opacity:1;stroke-dasharray:none" />
    <path
       style="fill:none;stroke:#bf5700;stroke-width:1.875;stroke-linecap:butt;stroke-linejoin:miter;stroke-miterlimit:4;stroke-opacity:1;stroke-dasharray:none"
       d="M 2.5603103,999.94819 C 8.8930396,980.58522 11.742768,922.80871 14.064768,909.37955"
       id="path3282"
       inkscape:connector-curvature="0"
       sodipodi:nodetypes="cc" />
    <text
       xml:space="preserve"
       style="font-size:6.16607571px;font-style:normal;font-variant:normal;font-weight:bold;font-stretch:normal;line-height:125%;letter-spacing:0px;word-spacing:0px;fill:#000000;fill-opacity:1;stroke:none;font-family:Times New Roman;-inkscape-font-specification:Times New Roman"
       x="7.5822706"
       y="901.9325"
       id="text3284"
       sodipodi:linespacing="125%"><tspan
         sodipodi:role="line"
         id="tspan3286"
         x="7.5822706"
         y="901.9325">A</tspan></text>
    <text
       sodipodi:linespacing="125%"
       id="text3288"
       y="899.9325"
       x="23.161547"
       style="font-size:6.16607571px;font-style:normal;font-variant:normal;font-weight:bold;font-stretch:normal;line-height:125%;letter-spacing:0px;word-spacing:0px;fill:#000000;fill-opacity:1;stroke:none;font-family:Times New Roman;-inkscape-font-specification:Times New Roman"
       xml:space="preserve"><tspan
         y="899.9325"
         x="23.161547"
         id="tspan3290"
         sodipodi:role="line">Z</tspan></text>
    <text
       xml:space="preserve"
       style="font-size:6.16607571px;font-style:normal;font-variant:normal;font-weight:bold;font-stretch:normal;line-height:125%;letter-spacing:0px;word-spacing:0px;fill:#000000;fill-opacity:1;stroke:none;font-family:Times New Roman;-inkscape-font-specification:Times New Roman"
       x="38.490929"
       y="901.9325"
       id="text3292"
       sodipodi:linespacing="125%"><tspan
         sodipodi:role="line"
         id="tspan3294"
         x="38.490929"
         y="901.9325">D</tspan></text>
    <text
       sodipodi:linespacing="125%"
       id="text3296"
       y="903.9325"
       x="53.991924"
       style="font-size:6.16607571px;font-style:normal;font-variant:normal;font-weight:bold;font-stretch:normal;line-height:125%;letter-spacing:0px;word-spacing:0px;fill:#000000;fill-opacity:1;stroke:none;font-family:Times New Roman;-inkscape-font-specification:Times New Roman"
       xml:space="preserve"><tspan
         y="903.9325"
         x="53.991924"
         id="tspan3298"
         sodipodi:role="line">Z</tspan></text>
    <text
       xml:space="preserve"
       style="font-size:6.16607571px;font-style:normal;font-variant:normal;font-weight:bold;font-stretch:normal;line-height:125%;letter-spacing:0px;word-spacing:0px;fill:#000000;fill-opacity:1;stroke:none;font-family:Times New Roman;-inkscape-font-specification:Times New Roman"
       x="69.243019"
       y="901.9325"
       id="text3300"
       sodipodi:linespacing="125%"><tspan
         sodipodi:role="line"
         id="tspan3302"
         x="69.243019"
         y="901.9325">A</tspan></text>
    <text
       sodipodi:linespacing="125%"
       id="text3304"
       y="899.9325"
       x="84.822304"
       style="font-size:6.16607571px;font-style:normal;font-variant:normal;font-weight:bold;font-stretch:normal;line-height:125%;letter-spacing:0px;word-spacing:0px;fill:#000000;fill-opacity:1;stroke:none;font-family:Times New Roman;-inkscape-font-specification:Times New Roman"
       xml:space="preserve"><tspan
         y="899.9325"
         x="84.822304"
         id="tspan3306"
         sodipodi:role="line">Z</tspan></text>
    <text
       xml:space="preserve"
       style="font-size:6.16607571px;font-style:normal;font-variant:normal;font-weight:bold;font-stretch:normal;line-height:125%;letter-spacing:0px;word-spacing:0px;fill:#000000;fill-opacity:1;stroke:none;font-family:Times New Roman;-inkscape-font-specification:Times New Roman"
       x="100.15169"
       y="901.9325"
       id="text3308"
       sodipodi:linespacing="125%"><tspan
         sodipodi:role="line"
         id="tspan3310"
         x="100.15169"
         y="901.9325">D</tspan></text>
    <text
       sodipodi:linespacing="125%"
       id="text3312"
       y="903.9325"
       x="115.65269"
       style="font-size:6.16607571px;font-style:normal;font-variant:normal;font-weight:bold;font-stretch:normal;line-height:125%;letter-spacing:0px;word-spacing:0px;fill:#000000;fill-opacity:1;stroke:none;font-family:Times New Roman;-inkscape-font-specification:Times New Roman"
       xml:space="preserve"><tspan
         y="903.9325"
         x="115.65269"
         id="tspan3314"
         sodipodi:role="line">Z</tspan></text>
    <text
       xml:space="preserve"
       style="font-size:6.16607571px;font-style:normal;font-variant:normal;font-weight:bold;font-stretch:normal;line-height:125%;letter-spacing:0px;word-spacing:0px;fill:#000000;fill-opacity:1;stroke:none;font-family:Times New Roman;-inkscape-font-specification:Times New Roman"
       x="130.90378"
       y="901.9325"
       id="text3316"
       sodipodi:linespacing="125%"><tspan
         sodipodi:role="line"
         id="tspan3318"
         x="130.90378"
         y="901.9325">A</tspan></text>
    <path
       inkscape:connector-curvature="0"
       id="path3322"
       d="m 17.573595,905.27249 0,-9.24911"
       style="fill:none;stroke:#000000;stroke-width:0.5138396px;stroke-linecap:butt;stroke-linejoin:miter;stroke-opacity:1" />
    <path
       inkscape:connector-curvature="0"
       id="path3324"
       d="m 32.960235,905.27249 0,-9.24911"
       style="fill:none;stroke:#000000;stroke-width:0.5138396px;stroke-linecap:butt;stroke-linejoin:miter;stroke-opacity:1" />
    <path
       style="fill:none;stroke:#000000;stroke-width:0.5138396px;stroke-linecap:butt;stroke-linejoin:miter;stroke-opacity:1"
       d="m 48.346883,905.27249 0,-9.24911"
       id="path3326"
       inkscape:connector-curvature="0" />
    <path
       inkscape:connector-curvature="0"
       id="path3328"
       d="m 63.733519,905.27249 0,-9.24911"
       style="fill:none;stroke:#000000;stroke-width:0.5138396px;stroke-linecap:butt;stroke-linejoin:miter;stroke-opacity:1" />
    <path
       style="fill:none;stroke:#000000;stroke-width:0.5138396px;stroke-linecap:butt;stroke-linejoin:miter;stroke-opacity:1"
       d="m 79.120167,905.27249 0,-9.24911"
       id="path3330"
       inkscape:connector-curvature="0" />
    <path
       style="fill:none;stroke:#000000;stroke-width:0.5138396px;stroke-linecap:butt;stroke-linejoin:miter;stroke-opacity:1"
       d="m 94.506808,905.27249 0,-9.24911"
       id="path3332"
       inkscape:connector-curvature="0" />
    <path
       inkscape:connector-curvature="0"
       id="path3334"
       d="m 109.89345,905.27249 0,-9.24911"
       style="fill:none;stroke:#000000;stroke-width:0.5138396px;stroke-linecap:butt;stroke-linejoin:miter;stroke-opacity:1" />
    <path
       inkscape:connector-curvature="0"
       id="path3336"
       d="m 125.28008,905.27249 0,-9.24911"
       style="fill:none;stroke:#000000;stroke-width:0.5138396px;stroke-linecap:butt;stroke-linejoin:miter;stroke-opacity:1" />
    <path
       style="fill:none;stroke:#000000;stroke-width:0.5138396px;stroke-linecap:butt;stroke-linejoin:miter;stroke-opacity:1"
       d="m 140.66673,905.27249 0,-9.24911"
       id="path3338"
       inkscape:connector-curvature="0" />
    <path
       style="fill:none;stroke:#005f86;stroke-width:1.875;stroke-linecap:butt;stroke-linejoin:miter;stroke-miterlimit:4;stroke-opacity:1;stroke-dasharray:none"
       d="m 17.569925,909.32129 c 0,0 -4.906719,17.25904 -6.257191,27.18435"
       id="path3340"
       inkscape:connector-curvature="0" />
    <path
       style="fill:none;stroke:#bf5700;stroke-width:1.875;stroke-linecap:butt;stroke-linejoin:miter;stroke-miterlimit:4;stroke-opacity:1;stroke-dasharray:none"
       d="m 32.717734,909.21101 c 3.106089,14.00573 7.29844,45.45286 15.319843,46.0767 8.021401,0.62384 12.095764,-12.47692 14.64224,-17.46767 2.546477,-4.99078 13.496326,-16.53191 16.170128,-17.46769 2.6738,-0.93576 8.276049,-11.22921 8.276049,-11.22921"
       id="path3342"
       inkscape:connector-curvature="0" />
    <path
       style="fill:none;stroke:#bf5700;stroke-width:1.875;stroke-linecap:butt;stroke-linejoin:miter;stroke-miterlimit:4;stroke-opacity:1;stroke-dasharray:none"
       d="m 93.874157,909.43506 c 0,0 3.183096,5.61462 4.074363,10.91729 0.891267,5.30269 7.89407,52.71496 12.35041,52.71496 4.45634,0 5.09296,-15.28422 9.03999,-19.96306 3.94705,-4.67885 8.91267,-9.35769 12.73239,-25.57767 3.81971,-16.21998 4.07436,-18.71537 4.07436,-18.71537"
       id="path3344"
       inkscape:connector-curvature="0" />
    <text
       xml:space="preserve"
       style="font-size:6.16607571px;font-style:normal;font-variant:normal;font-weight:bold;font-stretch:normal;line-height:125%;letter-spacing:0px;word-spacing:0px;fill:#000000;fill-opacity:1;stroke:none;font-family:Times New Roman;-inkscape-font-specification:Times New Roman"
       x="146.09106"
       y="899.9325"
       id="text3352"
       sodipodi:linespacing="125%"><tspan
         sodipodi:role="line"
         id="tspan3354"
         x="146.09106"
         y="899.9325">Z</tspan></text>
    <text
       sodipodi:linespacing="125%"
       id="text3356"
       y="901.9325"
       x="161.42047"
       style="font-size:6.16607571px;font-style:normal;font-variant:normal;font-weight:bold;font-stretch:normal;line-height:125%;letter-spacing:0px;word-spacing:0px;fill:#000000;fill-opacity:1;stroke:none;font-family:Times New Roman;-inkscape-font-specification:Times New Roman"
       xml:space="preserve"><tspan
         y="901.9325"
         x="161.42047"
         id="tspan3358"
         sodipodi:role="line">D</tspan></text>
    <text
       xml:space="preserve"
       style="font-size:6.16607571px;font-style:normal;font-variant:normal;font-weight:bold;font-stretch:normal;line-height:125%;letter-spacing:0px;word-spacing:0px;fill:#000000;fill-opacity:1;stroke:none;font-family:Times New Roman;-inkscape-font-specification:Times New Roman"
       x="176.92145"
       y="903.9325"
       id="text3360"
       sodipodi:linespacing="125%"><tspan
         sodipodi:role="line"
         id="tspan3362"
         x="176.92145"
         y="903.9325">Z</tspan></text>
    <text
       sodipodi:linespacing="125%"
       id="text3364"
       y="901.9325"
       x="192.17255"
       style="font-size:6.16607571px;font-style:normal;font-variant:normal;font-weight:bold;font-stretch:normal;line-height:125%;letter-spacing:0px;word-spacing:0px;fill:#000000;fill-opacity:1;stroke:none;font-family:Times New Roman;-inkscape-font-specification:Times New Roman"
       xml:space="preserve"><tspan
         y="901.9325"
         x="192.17255"
         id="tspan3366"
         sodipodi:role="line">A</tspan></text>
    <text
       xml:space="preserve"
       style="font-size:6.16607571px;font-style:normal;font-variant:normal;font-weight:bold;font-stretch:normal;line-height:125%;letter-spacing:0px;word-spacing:0px;fill:#000000;fill-opacity:1;stroke:none;font-family:Times New Roman;-inkscape-font-specification:Times New Roman"
       x="207.75183"
       y="899.9325"
       id="text3368"
       sodipodi:linespacing="125%"><tspan
         sodipodi:role="line"
         id="tspan3370"
         x="207.75183"
         y="899.9325">Z</tspan></text>
    <text
       sodipodi:linespacing="125%"
       id="text3372"
       y="901.9325"
       x="223.08121"
       style="font-size:6.16607571px;font-style:normal;font-variant:normal;font-weight:bold;font-stretch:normal;line-height:125%;letter-spacing:0px;word-spacing:0px;fill:#000000;fill-opacity:1;stroke:none;font-family:Times New Roman;-inkscape-font-specification:Times New Roman"
       xml:space="preserve"><tspan
         y="901.9325"
         x="223.08121"
         id="tspan3374"
         sodipodi:role="line">D</tspan></text>
    <text
       xml:space="preserve"
       style="font-size:6.16607571px;font-style:normal;font-variant:normal;font-weight:bold;font-stretch:normal;line-height:125%;letter-spacing:0px;word-spacing:0px;fill:#000000;fill-opacity:1;stroke:none;font-family:Times New Roman;-inkscape-font-specification:Times New Roman"
       x="238.5822"
       y="903.9325"
       id="text3376"
       sodipodi:linespacing="125%"><tspan
         sodipodi:role="line"
         id="tspan3378"
         x="238.5822"
         y="903.9325">Z</tspan></text>
    <path
       style="fill:none;stroke:#000000;stroke-width:0.5138396px;stroke-linecap:butt;stroke-linejoin:miter;stroke-opacity:1"
       d="m 155.88976,905.27249 0,-9.24911"
       id="path3388"
       inkscape:connector-curvature="0" />
    <path
       inkscape:connector-curvature="0"
       id="path3390"
       d="m 171.27641,905.27249 0,-9.24911"
       style="fill:none;stroke:#000000;stroke-width:0.5138396px;stroke-linecap:butt;stroke-linejoin:miter;stroke-opacity:1" />
    <path
       style="fill:none;stroke:#000000;stroke-width:0.5138396px;stroke-linecap:butt;stroke-linejoin:miter;stroke-opacity:1"
       d="m 186.66305,905.27249 0,-9.24911"
       id="path3392"
       inkscape:connector-curvature="0" />
    <path
       inkscape:connector-curvature="0"
       id="path3394"
       d="m 202.04969,905.27249 0,-9.24911"
       style="fill:none;stroke:#000000;stroke-width:0.5138396px;stroke-linecap:butt;stroke-linejoin:miter;stroke-opacity:1" />
    <path
       inkscape:connector-curvature="0"
       id="path3396"
       d="m 217.43633,905.27249 0,-9.24911"
       style="fill:none;stroke:#000000;stroke-width:0.5138396px;stroke-linecap:butt;stroke-linejoin:miter;stroke-opacity:1" />
    <path
       style="fill:none;stroke:#000000;stroke-width:0.5138396px;stroke-linecap:butt;stroke-linejoin:miter;stroke-opacity:1"
       d="m 232.82298,905.27249 0,-9.24911"
       id="path3398"
       inkscape:connector-curvature="0" />
    <text
       xml:space="preserve"
       style="font-size:6.16607571px;font-style:normal;font-variant:normal;font-weight:bold;font-stretch:normal;line-height:125%;letter-spacing:0px;word-spacing:0px;fill:#000000;fill-opacity:1;stroke:none;font-family:Times New Roman;-inkscape-font-specification:Times New Roman"
       x="254.79701"
       y="901.9325"
       id="text3404"
       sodipodi:linespacing="125%"><tspan
         sodipodi:role="line"
         id="tspan3406"
         x="254.79701"
         y="901.9325">A</tspan></text>
    <text
       sodipodi:linespacing="125%"
       id="text3408"
       y="899.9325"
       x="270.37631"
       style="font-size:6.16607571px;font-style:normal;font-variant:normal;font-weight:bold;font-stretch:normal;line-height:125%;letter-spacing:0px;word-spacing:0px;fill:#000000;fill-opacity:1;stroke:none;font-family:Times New Roman;-inkscape-font-specification:Times New Roman"
       xml:space="preserve"><tspan
         y="899.9325"
         x="270.37631"
         id="tspan3410"
         sodipodi:role="line">Z</tspan></text>
    <text
       xml:space="preserve"
       style="font-size:6.16607571px;font-style:normal;font-variant:normal;font-weight:bold;font-stretch:normal;line-height:125%;letter-spacing:0px;word-spacing:0px;fill:#000000;fill-opacity:1;stroke:none;font-family:Times New Roman;-inkscape-font-specification:Times New Roman"
       x="285.70569"
       y="901.9325"
       id="text3412"
       sodipodi:linespacing="125%"><tspan
         sodipodi:role="line"
         id="tspan3414"
         x="285.70569"
         y="901.9325">D</tspan></text>
    <text
       sodipodi:linespacing="125%"
       id="text3416"
       y="903.9325"
       x="301.20667"
       style="font-size:6.16607571px;font-style:normal;font-variant:normal;font-weight:bold;font-stretch:normal;line-height:125%;letter-spacing:0px;word-spacing:0px;fill:#000000;fill-opacity:1;stroke:none;font-family:Times New Roman;-inkscape-font-specification:Times New Roman"
       xml:space="preserve"><tspan
         y="903.9325"
         x="301.20667"
         id="tspan3418"
         sodipodi:role="line">Z</tspan></text>
    <path
       inkscape:connector-curvature="0"
       id="path3420"
       d="m 249.28752,905.27249 0,-9.24911"
       style="fill:none;stroke:#000000;stroke-width:0.5138396px;stroke-linecap:butt;stroke-linejoin:miter;stroke-opacity:1" />
    <path
       style="fill:none;stroke:#000000;stroke-width:0.5138396px;stroke-linecap:butt;stroke-linejoin:miter;stroke-opacity:1"
       d="m 264.67417,905.27249 0,-9.24911"
       id="path3422"
       inkscape:connector-curvature="0" />
    <path
       style="fill:none;stroke:#000000;stroke-width:0.5138396px;stroke-linecap:butt;stroke-linejoin:miter;stroke-opacity:1"
       d="m 280.0608,905.27249 0,-9.24911"
       id="path3424"
       inkscape:connector-curvature="0" />
    <path
       inkscape:connector-curvature="0"
       id="path3426"
       d="m 295.44745,905.27249 0,-9.24911"
       style="fill:none;stroke:#000000;stroke-width:0.5138396px;stroke-linecap:butt;stroke-linejoin:miter;stroke-opacity:1" />
    <path
       style="fill:none;stroke:#005f86;stroke-width:1.875;stroke-linecap:butt;stroke-linejoin:miter;stroke-miterlimit:4;stroke-opacity:1;stroke-dasharray:none"
       d="M 316.07673,113.40136 C 313.95541,87.238411 292.38865,21.831034 292.38865,21.831034"
       id="path3428"
       inkscape:connector-curvature="0"
       transform="translate(-6.78125,887.03125)" />
    <path
       style="fill:none;stroke:#bf5700;stroke-width:1.875;stroke-linecap:butt;stroke-linejoin:miter;stroke-miterlimit:4;stroke-opacity:1;stroke-dasharray:none"
       d="m 286.7318,22.184587 c 5.61458,14.32815 8.25415,30.570516 30.1432,52.346663"
       id="path3430"
       inkscape:connector-curvature="0"
       transform="translate(-6.78125,887.03125)"
       sodipodi:nodetypes="cc" />
    <path
       style="fill:none;stroke:#005f86;stroke-width:1.875;stroke-linecap:butt;stroke-linejoin:miter;stroke-miterlimit:4;stroke-opacity:1;stroke-dasharray:none"
       d="m 271.25,22.34375 c -7.25,20.75 -9.75,54 -11.75,54.25 -2,0.25 -12.75,-54.25 -12.75,-54.25"
       id="path3432"
       inkscape:connector-curvature="0"
       transform="translate(-6.78125,887.03125)" />
    <path
       style="fill:none;stroke:#005f86;stroke-width:1.87500000000000000;stroke-linecap:butt;stroke-linejoin:miter;stroke-miterlimit:4;stroke-opacity:1;stroke-dasharray:none"
       d="m 24.25,22.09375 15,0"
       id="path3434"
       inkscape:connector-curvature="0"
       transform="translate(-6.78125,887.03125)" />
    <path
       style="fill:none;stroke:#005f86;stroke-width:1.99326932;stroke-linecap:butt;stroke-linejoin:miter;stroke-miterlimit:4;stroke-opacity:1;stroke-dasharray:none"
       d="m 79.333657,909.43413 15.013458,0.19424"
       id="path3436"
       inkscape:connector-curvature="0"
       sodipodi:nodetypes="cc" />
    <path
       style="fill:none;stroke:#005f86;stroke-width:1.87500000000000000;stroke-linecap:butt;stroke-linejoin:miter;stroke-miterlimit:4;stroke-opacity:1;stroke-dasharray:none"
       d="m 271,22.09375 16,0.25"
       id="path3438"
       inkscape:connector-curvature="0"
       transform="translate(-6.78125,887.03125)" />
    <path
       style="fill:none;stroke:#bf5700;stroke-width:1.875;stroke-linecap:butt;stroke-linejoin:miter;stroke-miterlimit:4;stroke-opacity:1;stroke-dasharray:none"
       d="m 224.25,22.34375 c 5.5,24 19,72.75 21.5,72.75 2.5,0 7,2.25 12.75,-3 5.75,-5.25 10.25,-33 12.25,-39.25 2,-6.25 7.66522,-17.451602 10.5,-17.75 4.75,-0.5 31.75,45 31.75,45"
       id="path3440"
       inkscape:connector-curvature="0"
       transform="translate(-6.78125,887.03125)"
       sodipodi:nodetypes="cssssc" />
    <path
       style="fill:none;stroke:#bf5700;stroke-width:1px;stroke-linecap:butt;stroke-linejoin:miter;stroke-opacity:1"
       d="m 189.375,894.875 11.5,-5.25"
       id="path3442"
       inkscape:connector-curvature="0" />
    <path
       inkscape:connector-curvature="0"
       id="path3448"
       d="m 251.25,894.875 11.5,-5.25"
       style="fill:none;stroke:#bf5700;stroke-width:1px;stroke-linecap:butt;stroke-linejoin:miter;stroke-opacity:1" />
    <path
       style="fill:none;stroke:#bf5700;stroke-width:1px;stroke-linecap:butt;stroke-linejoin:miter;stroke-opacity:1"
       d="m 127.5,894.875 11.5,-5.25"
       id="path3458"
       inkscape:connector-curvature="0" />
    <path
       inkscape:connector-curvature="0"
       id="path3464"
       d="m 65.625,894.875 11.5,-5.25"
       style="fill:none;stroke:#bf5700;stroke-width:1px;stroke-linecap:butt;stroke-linejoin:miter;stroke-opacity:1" />
    <path
       style="fill:none;stroke:#bf5700;stroke-width:1px;stroke-linecap:butt;stroke-linejoin:miter;stroke-opacity:1"
       d="m 3.75,894.875 11.5,-5.25"
       id="path3470"
       inkscape:connector-curvature="0" />
    <g
       id="g3502"
       transform="translate(0.75,-2)">
      <path
         style="fill:none;stroke:#bf5700;stroke-width:1px;stroke-linecap:butt;stroke-linejoin:miter;stroke-opacity:1"
         d="m 18.46875,896.875 11.5,-5.25"
         id="path3468"
         inkscape:connector-curvature="0" />
      <path
         style="fill:none;stroke:#005f86;stroke-width:0.99514723px;stroke-linecap:butt;stroke-linejoin:miter;stroke-opacity:1"
         d="M 29.910516,896.86226 18.466324,891.63774"
         id="path3472"
         inkscape:connector-curvature="0" />
    </g>
    <path
       style="fill:none;stroke:#005f86;stroke-width:0.99514723px;stroke-linecap:butt;stroke-linejoin:miter;stroke-opacity:1"
       d="M 46.159596,894.86226 34.715404,889.63774"
       id="path3474"
       inkscape:connector-curvature="0" />
    <g
       id="g3506"
       transform="translate(-0.3125,2)">
      <path
         inkscape:connector-curvature="0"
         id="path3466"
         d="m 50.46875,896.875 11.5,-5.25"
         style="fill:none;stroke:#bf5700;stroke-width:1px;stroke-linecap:butt;stroke-linejoin:miter;stroke-opacity:1" />
      <path
         style="fill:none;stroke:#005f86;stroke-width:0.99514723px;stroke-linecap:butt;stroke-linejoin:miter;stroke-opacity:1"
         d="M 61.910516,896.86226 50.466324,891.63774"
         id="path3476"
         inkscape:connector-curvature="0" />
    </g>
    <g
       id="g3510"
       transform="translate(-0.39016724,-2)">
      <path
         inkscape:connector-curvature="0"
         id="path3462"
         d="m 81.483915,896.875 11.5,-5.25"
         style="fill:none;stroke:#bf5700;stroke-width:1px;stroke-linecap:butt;stroke-linejoin:miter;stroke-opacity:1" />
      <path
         inkscape:connector-curvature="0"
         id="path3478"
         d="M 92.956011,896.86226 81.511819,891.63774"
         style="fill:none;stroke:#005f86;stroke-width:0.99514723px;stroke-linecap:butt;stroke-linejoin:miter;stroke-opacity:1" />
    </g>
    <path
       inkscape:connector-curvature="0"
       id="path3480"
       d="M 108.0346,894.86226 96.590404,889.63774"
       style="fill:none;stroke:#005f86;stroke-width:0.99514723px;stroke-linecap:butt;stroke-linejoin:miter;stroke-opacity:1" />
    <g
       id="g3514"
       transform="translate(-0.4375,4)">
      <path
         style="fill:none;stroke:#bf5700;stroke-width:1px;stroke-linecap:butt;stroke-linejoin:miter;stroke-opacity:1"
         d="m 112.46875,894.875 11.5,-5.25"
         id="path3460"
         inkscape:connector-curvature="0" />
      <path
         inkscape:connector-curvature="0"
         id="path3482"
         d="m 123.94085,894.86226 -11.4442,-5.22452"
         style="fill:none;stroke:#005f86;stroke-width:0.99514723px;stroke-linecap:butt;stroke-linejoin:miter;stroke-opacity:1" />
    </g>
    <g
       id="g3518"
       transform="translate(0.5,-2)">
      <path
         style="fill:none;stroke:#bf5700;stroke-width:1px;stroke-linecap:butt;stroke-linejoin:miter;stroke-opacity:1"
         d="m 142.46875,896.875 11.5,-5.25"
         id="path3456"
         inkscape:connector-curvature="0" />
      <path
         style="fill:none;stroke:#005f86;stroke-width:0.99514723px;stroke-linecap:butt;stroke-linejoin:miter;stroke-opacity:1"
         d="m 153.94085,896.86226 -11.4442,-5.22452"
         id="path3484"
         inkscape:connector-curvature="0" />
    </g>
    <path
       style="fill:none;stroke:#005f86;stroke-width:0.99514723px;stroke-linecap:butt;stroke-linejoin:miter;stroke-opacity:1"
       d="m 169.9096,894.86226 -11.4442,-5.22452"
       id="path3486"
       inkscape:connector-curvature="0" />
    <g
       id="g3522"
       transform="translate(0.42233276,2)">
      <path
         inkscape:connector-curvature="0"
         id="path3454"
         d="m 173.48391,896.875 11.5,-5.25"
         style="fill:none;stroke:#bf5700;stroke-width:1px;stroke-linecap:butt;stroke-linejoin:miter;stroke-opacity:1" />
      <path
         style="fill:none;stroke:#005f86;stroke-width:0.99514723px;stroke-linecap:butt;stroke-linejoin:miter;stroke-opacity:1"
         d="m 184.95601,896.86226 -11.4442,-5.22452"
         id="path3488"
         inkscape:connector-curvature="0" />
    </g>
    <g
       id="g3526"
       transform="translate(0.375,-2)">
      <path
         style="fill:none;stroke:#bf5700;stroke-width:1px;stroke-linecap:butt;stroke-linejoin:miter;stroke-opacity:1"
         d="m 204.46875,896.875 11.5,-5.25"
         id="path3444"
         inkscape:connector-curvature="0" />
      <path
         inkscape:connector-curvature="0"
         id="path3490"
         d="m 215.94085,896.86226 -11.4442,-5.22452"
         style="fill:none;stroke:#005f86;stroke-width:0.99514723px;stroke-linecap:butt;stroke-linejoin:miter;stroke-opacity:1" />
    </g>
    <path
       inkscape:connector-curvature="0"
       id="path3492"
       d="m 231.7846,894.86226 -11.4442,-5.22452"
       style="fill:none;stroke:#005f86;stroke-width:0.99514723px;stroke-linecap:butt;stroke-linejoin:miter;stroke-opacity:1" />
    <g
       id="g3530"
       transform="translate(1.3125,2)">
      <path
         inkscape:connector-curvature="0"
         id="path3446"
         d="m 234.46875,896.875 11.5,-5.25"
         style="fill:none;stroke:#bf5700;stroke-width:1px;stroke-linecap:butt;stroke-linejoin:miter;stroke-opacity:1" />
      <path
         inkscape:connector-curvature="0"
         id="path3494"
         d="m 245.94085,896.86226 -11.4442,-5.22452"
         style="fill:none;stroke:#005f86;stroke-width:0.99514723px;stroke-linecap:butt;stroke-linejoin:miter;stroke-opacity:1" />
    </g>
    <g
       id="g3534"
       transform="translate(0.25,-2)">
      <path
         inkscape:connector-curvature="0"
         id="path3450"
         d="m 266.46875,896.875 11.5,-5.25"
         style="fill:none;stroke:#bf5700;stroke-width:1px;stroke-linecap:butt;stroke-linejoin:miter;stroke-opacity:1" />
      <path
         style="fill:none;stroke:#005f86;stroke-width:0.99514723px;stroke-linecap:butt;stroke-linejoin:miter;stroke-opacity:1"
         d="m 277.91052,896.86226 -11.4442,-5.22452"
         id="path3496"
         inkscape:connector-curvature="0" />
    </g>
    <path
       style="fill:none;stroke:#005f86;stroke-width:0.99514723px;stroke-linecap:butt;stroke-linejoin:miter;stroke-opacity:1"
       d="m 293.6596,894.86226 -11.4442,-5.22452"
       id="path3498"
       inkscape:connector-curvature="0" />
    <g
       id="g3538"
       transform="translate(1.1875,2)">
      <path
         style="fill:none;stroke:#bf5700;stroke-width:1px;stroke-linecap:butt;stroke-linejoin:miter;stroke-opacity:1"
         d="m 296.46875,896.875 11.5,-5.25"
         id="path3452"
         inkscape:connector-curvature="0" />
      <path
         style="fill:none;stroke:#005f86;stroke-width:0.99514723px;stroke-linecap:butt;stroke-linejoin:miter;stroke-opacity:1"
         d="m 307.94085,896.86226 -11.4442,-5.22452"
         id="path3500"
         inkscape:connector-curvature="0" />
    </g>
    <path
       style="fill:none;stroke:#005f86;stroke-width:1px;stroke-linecap:butt;stroke-linejoin:miter;stroke-opacity:1"
       d="m 3.75,896.79727 11.092737,-2.38648"
       id="path3542"
       inkscape:connector-curvature="0" />
    <path
       inkscape:connector-curvature="0"
       id="path3544"
       d="m 65.625,896.79727 11.092737,-2.38648"
       style="fill:none;stroke:#005f86;stroke-width:1px;stroke-linecap:butt;stroke-linejoin:miter;stroke-opacity:1" />
    <path
       style="fill:none;stroke:#005f86;stroke-width:1px;stroke-linecap:butt;stroke-linejoin:miter;stroke-opacity:1"
       d="m 127.5,896.79727 11.09273,-2.38648"
       id="path3546"
       inkscape:connector-curvature="0" />
    <path
       inkscape:connector-curvature="0"
       id="path3548"
       d="m 189.375,896.79727 11.09273,-2.38648"
       style="fill:none;stroke:#005f86;stroke-width:1px;stroke-linecap:butt;stroke-linejoin:miter;stroke-opacity:1" />
    <path
       style="fill:none;stroke:#005f86;stroke-width:1px;stroke-linecap:butt;stroke-linejoin:miter;stroke-opacity:1"
       d="m 251.25,896.79727 11.09273,-2.38648"
       id="path3550"
       inkscape:connector-curvature="0" />
    <path
       style="fill:none;stroke:#bf5700;stroke-width:1px;stroke-linecap:butt;stroke-linejoin:miter;stroke-opacity:1"
       d="M 293.65717,896.8125 283.09467,894.5"
       id="path3554"
       inkscape:connector-curvature="0" />
    <path
       inkscape:connector-curvature="0"
       id="path3556"
       d="M 231.78217,896.8125 221.21967,894.5"
       style="fill:none;stroke:#bf5700;stroke-width:1px;stroke-linecap:butt;stroke-linejoin:miter;stroke-opacity:1" />
    <path
       style="fill:none;stroke:#bf5700;stroke-width:1px;stroke-linecap:butt;stroke-linejoin:miter;stroke-opacity:1"
       d="M 169.90717,896.8125 159.34467,894.5"
       id="path3558"
       inkscape:connector-curvature="0" />
    <path
       inkscape:connector-curvature="0"
       id="path3560"
       d="M 108.03217,896.8125 97.469674,894.5"
       style="fill:none;stroke:#bf5700;stroke-width:1px;stroke-linecap:butt;stroke-linejoin:miter;stroke-opacity:1" />
    <path
       style="fill:none;stroke:#bf5700;stroke-width:1px;stroke-linecap:butt;stroke-linejoin:miter;stroke-opacity:1"
       d="M 46.15717,896.8125 35.59467,894.5"
       id="path3562"
       inkscape:connector-curvature="0" />
    <path
       style="fill:none;stroke:#005f86;stroke-width:1.87500000000000000;stroke-linecap:butt;stroke-linejoin:miter;stroke-miterlimit:4;stroke-opacity:1;stroke-dasharray:none"
       d="m 224.5,22.84375 -15.5,-0.5"
       id="path4332"
       inkscape:connector-curvature="0"
       transform="translate(-6.78125,887.03125)" />
    <path
       style="fill:none;stroke:#005f86;stroke-width:1.875;stroke-linecap:round;stroke-linejoin:round;stroke-miterlimit:4;stroke-opacity:1;stroke-dasharray:none"
       d="m 209.45711,22.34375 c -3.25,11.75 -13.70511,58.153973 -20.62653,58.297727 -8.70305,0.180758 -21.56125,-3.715475 -25.74784,-10.664213 C 150.15207,48.515455 135.91747,55.008371 131.05367,59.466856"
       id="path4334"
       inkscape:connector-curvature="0"
       transform="translate(-6.78125,887.03125)"
       sodipodi:nodetypes="cssc" />
    <path
       style="fill:none;stroke:#bf5700;stroke-width:1.875;stroke-linecap:butt;stroke-linejoin:miter;stroke-miterlimit:4;stroke-opacity:1;stroke-dasharray:none"
       d="m 162.75,22.59375 11.75,6.75 2.5,1 c 6.8671,-1.390293 10.00808,-4.377489 12.25,-7.75"
       id="path4336"
       inkscape:connector-curvature="0"
       transform="translate(-6.78125,887.03125)"
       sodipodi:nodetypes="cccc" />
    <path
       style="fill:none;stroke:#005f86;stroke-width:1.875;stroke-linecap:butt;stroke-linejoin:miter;stroke-miterlimit:4;stroke-opacity:1;stroke-dasharray:none"
       d="m 147.75,22.59375 -10,23.5"
       id="path4338"
       inkscape:connector-curvature="0"
       transform="translate(-6.78125,887.03125)" />
    <text
       xml:space="preserve"
       style="font-size:12px;font-style:normal;font-variant:normal;font-weight:bold;font-stretch:normal;line-height:125%;letter-spacing:0px;word-spacing:0px;fill:#000000;fill-opacity:1;stroke:none;font-family:Times New Roman;-inkscape-font-specification:Times New Roman"
       x="-4.6222401"
       y="947.42065"
       id="text4340"
       sodipodi:linespacing="125%"><tspan
         sodipodi:role="line"
         id="tspan4342"
         x="-4.6222401"
         y="947.42065">(0)</tspan></text>
    <text
       xml:space="preserve"
       style="font-size:12px;font-style:normal;font-variant:normal;font-weight:bold;font-stretch:normal;line-height:125%;letter-spacing:0px;word-spacing:0px;fill:#000000;fill-opacity:1;stroke:none;font-family:Times New Roman;-inkscape-font-specification:Times New Roman"
       x="309.21875"
       y="983.125"
       id="text4344"
       sodipodi:linespacing="125%"><tspan
         sodipodi:role="line"
         id="tspan4346"
         x="309.21875"
         y="983.125">(f)</tspan></text>
    <text
       xml:space="preserve"
       style="font-size:12px;font-style:normal;font-variant:normal;font-weight:bold;font-stretch:normal;line-height:125%;letter-spacing:0px;word-spacing:0px;fill:#000000;fill-opacity:1;stroke:none;font-family:Times New Roman;-inkscape-font-specification:Times New Roman"
       x="17.456186"
       y="922.88239"
       id="text4348"
       sodipodi:linespacing="125%"><tspan
         sodipodi:role="line"
         id="tspan4350"
         x="17.456186"
         y="922.88239">(a)</tspan></text>
    <text
       xml:space="preserve"
       style="font-size:12px;font-style:normal;font-variant:normal;font-weight:bold;font-stretch:normal;line-height:125%;letter-spacing:0px;word-spacing:0px;fill:#000000;fill-opacity:1;stroke:none;font-family:Times New Roman;-inkscape-font-specification:Times New Roman"
       x="299.0723"
       y="943.08087"
       id="text4360"
       sodipodi:linespacing="125%"><tspan
         sodipodi:role="line"
         id="tspan4362"
         x="299.0723"
         y="943.08087">(5)</tspan></text>
    <text
       xml:space="preserve"
       style="font-size:12px;font-style:normal;font-variant:normal;font-weight:bold;font-stretch:normal;line-height:125%;letter-spacing:0px;word-spacing:0px;fill:#000000;fill-opacity:1;stroke:none;font-family:Times New Roman;-inkscape-font-specification:Times New Roman"
       x="245.5619"
       y="922.30945"
       id="text4364"
       sodipodi:linespacing="125%"><tspan
         sodipodi:role="line"
         id="tspan4366"
         x="245.5619"
         y="922.30945">(e)</tspan></text>
    <text
       xml:space="preserve"
       style="font-size:12px;font-style:normal;font-variant:normal;font-weight:bold;font-stretch:normal;line-height:125%;letter-spacing:0px;word-spacing:0px;fill:#000000;fill-opacity:1;stroke:none;font-family:Times New Roman;-inkscape-font-specification:Times New Roman"
       x="42.107838"
       y="944.66357"
       id="text4368"
       sodipodi:linespacing="125%"><tspan
         sodipodi:role="line"
         id="tspan4370"
         x="42.107838"
         y="944.66357">(1)</tspan></text>
    <text
       xml:space="preserve"
       style="font-size:12px;font-style:normal;font-variant:normal;font-weight:bold;font-stretch:normal;line-height:125%;letter-spacing:0px;word-spacing:0px;fill:#000000;fill-opacity:1;stroke:none;font-family:Times New Roman;-inkscape-font-specification:Times New Roman"
       x="237.136"
       y="976.26892"
       id="text4372"
       sodipodi:linespacing="125%"><tspan
         sodipodi:role="line"
         id="tspan4374"
         x="237.136"
         y="976.26892">(4)</tspan></text>
    <text
       xml:space="preserve"
       style="font-size:12px;font-style:normal;font-variant:normal;font-weight:bold;font-stretch:normal;line-height:125%;letter-spacing:0px;word-spacing:0px;fill:#000000;fill-opacity:1;stroke:none;font-family:Times New Roman;-inkscape-font-specification:Times New Roman"
       x="170.80022"
       y="956.91486"
       id="text4376"
       sodipodi:linespacing="125%"><tspan
         sodipodi:role="line"
         id="tspan4378"
         x="170.80022"
         y="956.91486">(d)</tspan></text>
    <text
       xml:space="preserve"
       style="font-size:12px;font-style:normal;font-variant:normal;font-weight:bold;font-stretch:normal;line-height:125%;letter-spacing:0px;word-spacing:0px;fill:#000000;fill-opacity:1;stroke:none;font-family:Times New Roman;-inkscape-font-specification:Times New Roman"
       x="104.40073"
       y="950.7702"
       id="text4380"
       sodipodi:linespacing="125%"><tspan
         sodipodi:role="line"
         id="tspan4382"
         x="104.40073"
         y="950.7702">(2)</tspan></text>
    <g
       id="g4392"
       style="fill:#005f86;stroke:#005f86;stroke-width:0.5;stroke-miterlimit:4;stroke-dasharray:none"
       transform="matrix(1.7301812,0,0,1.8114331,-5.9654806,-771.61926)">
      <path
         style="fill:#005f86;fill-opacity:1;stroke:#005f86;stroke-width:0.5;stroke-linecap:round;stroke-linejoin:round;stroke-miterlimit:4;stroke-opacity:1;stroke-dasharray:none"
         d="m 25.950964,43.000043 -3.942265,0 2.312842,-0.619724 -0.57608,0.576079"
         id="path4388"
         inkscape:connector-curvature="0"
         transform="translate(-6.78125,887.03125)"
         sodipodi:nodetypes="cccc" />
      <path
         inkscape:connector-curvature="0"
         id="path4390"
         d="m 19.184757,930.03129 -3.972351,0 2.323066,0.62247 -0.578626,-0.57863"
         style="fill:#005f86;fill-opacity:1;stroke:#005f86;stroke-width:0.5;stroke-linecap:round;stroke-linejoin:round;stroke-miterlimit:4;stroke-opacity:1;stroke-dasharray:none"
         sodipodi:nodetypes="cccc" />
    </g>
    <g
       transform="matrix(1.7301812,0,0,1.8114331,147.67518,-722.0378)"
       style="fill:#005f86;stroke:#005f86;stroke-width:0.5;stroke-miterlimit:4;stroke-dasharray:none"
       id="g4396">
      <path
         sodipodi:nodetypes="cccc"
         transform="translate(-6.78125,887.03125)"
         inkscape:connector-curvature="0"
         id="path4398"
         d="m 25.950964,43.000043 -3.942265,0 2.312842,-0.619724 -0.57608,0.576079"
         style="fill:#005f86;fill-opacity:1;stroke:#005f86;stroke-width:0.5;stroke-linecap:round;stroke-linejoin:round;stroke-miterlimit:4;stroke-opacity:1;stroke-dasharray:none" />
      <path
         sodipodi:nodetypes="cccc"
         style="fill:#005f86;fill-opacity:1;stroke:#005f86;stroke-width:0.5;stroke-linecap:round;stroke-linejoin:round;stroke-miterlimit:4;stroke-opacity:1;stroke-dasharray:none"
         d="m 19.184757,930.03129 -3.972351,0 2.323066,0.62247 -0.578626,-0.57863"
         id="path4400"
         inkscape:connector-curvature="0" />
    </g>
    <g
       id="g4402"
       style="fill:#bf5700;stroke:#bf5700;stroke-width:0.5;stroke-miterlimit:4;stroke-dasharray:none"
       transform="matrix(-1.7301812,0,0,-1.8114331,33.133631,2637.2254)">
      <path
         style="fill:#bf5700;fill-opacity:1;stroke:#bf5700;stroke-width:0.5;stroke-linecap:round;stroke-linejoin:round;stroke-miterlimit:4;stroke-opacity:1;stroke-dasharray:none"
         d="m 25.950964,43.000043 -3.942265,0 2.312842,-0.619724 -0.57608,0.576079"
         id="path4404"
         inkscape:connector-curvature="0"
         transform="translate(-6.78125,887.03125)"
         sodipodi:nodetypes="cccc" />
      <path
         inkscape:connector-curvature="0"
         id="path4406"
         d="m 19.184757,930.03129 -3.972351,0 2.323066,0.62247 -0.578626,-0.57863"
         style="fill:#bf5700;fill-opacity:1;stroke:#bf5700;stroke-width:0.5;stroke-linecap:round;stroke-linejoin:round;stroke-miterlimit:4;stroke-opacity:1;stroke-dasharray:none"
         sodipodi:nodetypes="cccc" />
    </g>
    <g
       id="g4408"
       style="fill:#005f86;stroke:#005f86;stroke-width:0.5;stroke-miterlimit:4;stroke-dasharray:none"
       transform="matrix(1.7301812,0,0,1.8114331,282.88764,-699.14082)">
      <path
         style="fill:#005f86;fill-opacity:1;stroke:#005f86;stroke-width:0.5;stroke-linecap:round;stroke-linejoin:round;stroke-miterlimit:4;stroke-opacity:1;stroke-dasharray:none"
         d="m 25.950964,43.000043 -3.942265,0 2.312842,-0.619724 -0.57608,0.576079"
         id="path4410"
         inkscape:connector-curvature="0"
         transform="translate(-6.78125,887.03125)"
         sodipodi:nodetypes="cccc" />
      <path
         inkscape:connector-curvature="0"
         id="path4412"
         d="m 19.184757,930.03129 -3.972351,0 2.323066,0.62247 -0.578626,-0.57863"
         style="fill:#005f86;fill-opacity:1;stroke:#005f86;stroke-width:0.5;stroke-linecap:round;stroke-linejoin:round;stroke-miterlimit:4;stroke-opacity:1;stroke-dasharray:none"
         sodipodi:nodetypes="cccc" />
    </g>
    <g
       transform="matrix(-1.7301812,0,0,-1.8114331,335.99411,2633.2505)"
       style="fill:#bf5700;stroke:#bf5700;stroke-width:0.5;stroke-miterlimit:4;stroke-dasharray:none"
       id="g4414">
      <path
         sodipodi:nodetypes="cccc"
         transform="translate(-6.78125,887.03125)"
         inkscape:connector-curvature="0"
         id="path4416"
         d="m 25.950964,43.000043 -3.942265,0 2.312842,-0.619724 -0.57608,0.576079"
         style="fill:#bf5700;fill-opacity:1;stroke:#bf5700;stroke-width:0.5;stroke-linecap:round;stroke-linejoin:round;stroke-miterlimit:4;stroke-opacity:1;stroke-dasharray:none" />
      <path
         sodipodi:nodetypes="cccc"
         style="fill:#bf5700;fill-opacity:1;stroke:#bf5700;stroke-width:0.5;stroke-linecap:round;stroke-linejoin:round;stroke-miterlimit:4;stroke-opacity:1;stroke-dasharray:none"
         d="m 19.184757,930.03129 -3.972351,0 2.323066,0.62247 -0.578626,-0.57863"
         id="path4418"
         inkscape:connector-curvature="0" />
    </g>
    <g
       transform="matrix(1.7301812,0,0,1.8114331,222.05133,-755.93912)"
       style="fill:#005f86;stroke:#005f86;stroke-width:0.5;stroke-miterlimit:4;stroke-dasharray:none"
       id="g4420">
      <path
         sodipodi:nodetypes="cccc"
         transform="translate(-6.78125,887.03125)"
         inkscape:connector-curvature="0"
         id="path4422"
         d="m 25.950964,43.000043 -3.942265,0 2.312842,-0.619724 -0.57608,0.576079"
         style="fill:#005f86;fill-opacity:1;stroke:#005f86;stroke-width:0.5;stroke-linecap:round;stroke-linejoin:round;stroke-miterlimit:4;stroke-opacity:1;stroke-dasharray:none" />
      <path
         sodipodi:nodetypes="cccc"
         style="fill:#005f86;fill-opacity:1;stroke:#005f86;stroke-width:0.5;stroke-linecap:round;stroke-linejoin:round;stroke-miterlimit:4;stroke-opacity:1;stroke-dasharray:none"
         d="m 19.184757,930.03129 -3.972351,0 2.323066,0.62247 -0.578626,-0.57863"
         id="path4424"
         inkscape:connector-curvature="0" />
    </g>
    <g
       transform="matrix(-1.7301812,0,0,-1.8114331,78.742018,2633.8667)"
       style="fill:#bf5700;stroke:#bf5700;stroke-width:0.5;stroke-miterlimit:4;stroke-dasharray:none"
       id="g4426">
      <path
         sodipodi:nodetypes="cccc"
         transform="translate(-6.78125,887.03125)"
         inkscape:connector-curvature="0"
         id="path4428"
         d="m 25.950964,43.000043 -3.942265,0 2.312842,-0.619724 -0.57608,0.576079"
         style="fill:#bf5700;fill-opacity:1;stroke:#bf5700;stroke-width:0.5;stroke-linecap:round;stroke-linejoin:round;stroke-miterlimit:4;stroke-opacity:1;stroke-dasharray:none" />
      <path
         sodipodi:nodetypes="cccc"
         style="fill:#bf5700;fill-opacity:1;stroke:#bf5700;stroke-width:0.5;stroke-linecap:round;stroke-linejoin:round;stroke-miterlimit:4;stroke-opacity:1;stroke-dasharray:none"
         d="m 19.184757,930.03129 -3.972351,0 2.323066,0.62247 -0.578626,-0.57863"
         id="path4430"
         inkscape:connector-curvature="0" />
    </g>
    <g
       id="g4432"
       style="fill:#bf5700;stroke:#bf5700;stroke-width:0.5;stroke-miterlimit:4;stroke-dasharray:none"
       transform="matrix(-1.7301812,0,0,-1.8114331,273.22151,2650.289)">
      <path
         style="fill:#bf5700;fill-opacity:1;stroke:#bf5700;stroke-width:0.5;stroke-linecap:round;stroke-linejoin:round;stroke-miterlimit:4;stroke-opacity:1;stroke-dasharray:none"
         d="m 25.950964,43.000043 -3.942265,0 2.312842,-0.619724 -0.57608,0.576079"
         id="path4434"
         inkscape:connector-curvature="0"
         transform="translate(-6.78125,887.03125)"
         sodipodi:nodetypes="cccc" />
      <path
         inkscape:connector-curvature="0"
         id="path4436"
         d="m 19.184757,930.03129 -3.972351,0 2.323066,0.62247 -0.578626,-0.57863"
         style="fill:#bf5700;fill-opacity:1;stroke:#bf5700;stroke-width:0.5;stroke-linecap:round;stroke-linejoin:round;stroke-miterlimit:4;stroke-opacity:1;stroke-dasharray:none"
         sodipodi:nodetypes="cccc" />
    </g>
    <text
       xml:space="preserve"
       style="font-size:12px;font-style:normal;font-variant:normal;font-weight:bold;font-stretch:normal;line-height:125%;letter-spacing:0px;word-spacing:0px;fill:#000000;fill-opacity:1;stroke:none;font-family:Times New Roman;-inkscape-font-specification:Times New Roman"
       x="28.710129"
       y="885.8562"
       id="text4438"
       sodipodi:linespacing="125%"><tspan
         sodipodi:role="line"
         id="tspan4440"
         x="28.710129"
         y="885.8562">a:1</tspan></text>
    <text
       xml:space="preserve"
       style="font-size:12px;font-style:normal;font-variant:normal;font-weight:bold;font-stretch:normal;line-height:125%;letter-spacing:0px;word-spacing:0px;fill:#000000;fill-opacity:1;stroke:none;font-family:Times New Roman;-inkscape-font-specification:Times New Roman"
       x="91.83197"
       y="886.1062"
       id="text4442"
       sodipodi:linespacing="125%"><tspan
         sodipodi:role="line"
         id="tspan4444"
         x="91.83197"
         y="886.1062">b:2</tspan></text>
    <text
       xml:space="preserve"
       style="font-size:12px;font-style:normal;font-variant:normal;font-weight:bold;font-stretch:normal;line-height:125%;letter-spacing:0px;word-spacing:0px;fill:#000000;fill-opacity:1;stroke:none;font-family:Times New Roman;-inkscape-font-specification:Times New Roman"
       x="154.45381"
       y="886.10614"
       id="text4446"
       sodipodi:linespacing="125%"><tspan
         sodipodi:role="line"
         id="tspan4448"
         x="154.45381"
         y="886.10614">c:3</tspan></text>
    <text
       xml:space="preserve"
       style="font-size:12px;font-style:normal;font-variant:normal;font-weight:bold;font-stretch:normal;line-height:125%;letter-spacing:0px;word-spacing:0px;fill:#000000;fill-opacity:1;stroke:none;font-family:Times New Roman;-inkscape-font-specification:Times New Roman"
       x="213.47212"
       y="885.8562"
       id="text4450"
       sodipodi:linespacing="125%"><tspan
         sodipodi:role="line"
         id="tspan4452"
         x="213.47212"
         y="885.8562">d:4</tspan></text>
    <text
       xml:space="preserve"
       style="font-size:12px;font-style:normal;font-variant:normal;font-weight:bold;font-stretch:normal;line-height:125%;letter-spacing:0px;word-spacing:0px;fill:#000000;fill-opacity:1;stroke:none;font-family:Times New Roman;-inkscape-font-specification:Times New Roman"
       x="277.34396"
       y="885.04547"
       id="text4454"
       sodipodi:linespacing="125%"><tspan
         sodipodi:role="line"
         id="tspan4456"
         x="277.34396"
         y="885.04547">e:5</tspan></text>
    <g
       id="g4458"
       style="fill:#bf5700;stroke:#bf5700;stroke-width:0.5;stroke-miterlimit:4;stroke-dasharray:none"
       transform="matrix(-1.7301812,0,0,-1.8114331,140.26031,2642.5288)">
      <path
         style="fill:#bf5700;fill-opacity:1;stroke:#bf5700;stroke-width:0.5;stroke-linecap:round;stroke-linejoin:round;stroke-miterlimit:4;stroke-opacity:1;stroke-dasharray:none"
         d="m 25.950964,43.000043 -3.942265,0 2.312842,-0.619724 -0.57608,0.576079"
         id="path4460"
         inkscape:connector-curvature="0"
         transform="translate(-6.78125,887.03125)"
         sodipodi:nodetypes="cccc" />
      <path
         inkscape:connector-curvature="0"
         id="path4462"
         d="m 19.184757,930.03129 -3.972351,0 2.323066,0.62247 -0.578626,-0.57863"
         style="fill:#bf5700;fill-opacity:1;stroke:#bf5700;stroke-width:0.5;stroke-linecap:round;stroke-linejoin:round;stroke-miterlimit:4;stroke-opacity:1;stroke-dasharray:none"
         sodipodi:nodetypes="cccc" />
    </g>
    <path
       inkscape:connector-curvature="0"
       id="path4464"
       d="m 156.55401,909.875 -15.5,-0.5"
       style="fill:none;stroke:#005f86;stroke-width:1.87500000000000000;stroke-linecap:butt;stroke-linejoin:miter;stroke-miterlimit:4;stroke-opacity:1;stroke-dasharray:none" />
    <text
       sodipodi:linespacing="125%"
       id="text4466"
       y="933.13538"
       x="158.25072"
       style="font-size:12px;font-style:normal;font-variant:normal;font-weight:bold;font-stretch:normal;line-height:125%;letter-spacing:0px;word-spacing:0px;fill:#000000;fill-opacity:1;stroke:none;font-family:Times New Roman;-inkscape-font-specification:Times New Roman"
       xml:space="preserve"><tspan
         y="933.13538"
         x="158.25072"
         id="tspan4468"
         sodipodi:role="line">(3)</tspan></text>
    <g
       transform="matrix(-1.7301812,0,0,-1.8114331,194.00043,2606.8198)"
       style="fill:#bf5700;stroke:#bf5700;stroke-width:0.5;stroke-miterlimit:4;stroke-dasharray:none"
       id="g4470">
      <path
         sodipodi:nodetypes="cccc"
         transform="translate(-6.78125,887.03125)"
         inkscape:connector-curvature="0"
         id="path4472"
         d="m 25.950964,43.000043 -3.942265,0 2.312842,-0.619724 -0.57608,0.576079"
         style="fill:#bf5700;fill-opacity:1;stroke:#bf5700;stroke-width:0.5;stroke-linecap:round;stroke-linejoin:round;stroke-miterlimit:4;stroke-opacity:1;stroke-dasharray:none" />
      <path
         sodipodi:nodetypes="cccc"
         style="fill:#bf5700;fill-opacity:1;stroke:#bf5700;stroke-width:0.5;stroke-linecap:round;stroke-linejoin:round;stroke-miterlimit:4;stroke-opacity:1;stroke-dasharray:none"
         d="m 19.184757,930.03129 -3.972351,0 2.323066,0.62247 -0.578626,-0.57863"
         id="path4474"
         inkscape:connector-curvature="0" />
    </g>
    <text
       sodipodi:linespacing="125%"
       id="text4476"
       y="924.65015"
       x="138.90178"
       style="font-size:12px;font-style:normal;font-variant:normal;font-weight:bold;font-stretch:normal;line-height:125%;letter-spacing:0px;word-spacing:0px;fill:#000000;fill-opacity:1;stroke:none;font-family:Times New Roman;-inkscape-font-specification:Times New Roman"
       xml:space="preserve"><tspan
         y="924.65015"
         x="138.90178"
         id="tspan4478"
         sodipodi:role="line">(c)</tspan></text>
    <g
       transform="matrix(1.7301812,0,0,1.8114331,116.01044,-770.20505)"
       style="fill:#005f86;stroke:#005f86;stroke-width:0.5;stroke-miterlimit:4;stroke-dasharray:none"
       id="g4480">
      <path
         sodipodi:nodetypes="cccc"
         transform="translate(-6.78125,887.03125)"
         inkscape:connector-curvature="0"
         id="path4482"
         d="m 25.950964,43.000043 -3.942265,0 2.312842,-0.619724 -0.57608,0.576079"
         style="fill:#005f86;fill-opacity:1;stroke:#005f86;stroke-width:0.5;stroke-linecap:round;stroke-linejoin:round;stroke-miterlimit:4;stroke-opacity:1;stroke-dasharray:none" />
      <path
         sodipodi:nodetypes="cccc"
         style="fill:#005f86;fill-opacity:1;stroke:#005f86;stroke-width:0.5;stroke-linecap:round;stroke-linejoin:round;stroke-miterlimit:4;stroke-opacity:1;stroke-dasharray:none"
         d="m 19.184757,930.03129 -3.972351,0 2.323066,0.62247 -0.578626,-0.57863"
         id="path4484"
         inkscape:connector-curvature="0" />
    </g>
    <text
       xml:space="preserve"
       style="font-size:12px;font-style:normal;font-variant:normal;font-weight:bold;font-stretch:normal;line-height:125%;letter-spacing:0px;word-spacing:0px;fill:#000000;fill-opacity:1;stroke:none;font-family:Times New Roman;-inkscape-font-specification:Times New Roman"
       x="104.46003"
       y="995.96875"
       id="text4486"
       sodipodi:linespacing="125%"><tspan
         sodipodi:role="line"
         id="tspan4488"
         x="104.46003"
         y="995.96875">path completion axis</tspan></text>
    <g
       style="fill:#bf5700;stroke:#bf5700;stroke-width:0.5;stroke-miterlimit:4;stroke-dasharray:none"
       transform="matrix(-4.9009641,0,0,-5.1311207,305.24521,5766.3004)"
       id="g4516">
      <path
         sodipodi:nodetypes="ccccc"
         style="fill:#000000;fill-opacity:1;stroke:#000000;stroke-width:0.02856796;stroke-linecap:round;stroke-linejoin:round;stroke-miterlimit:4;stroke-opacity:1;stroke-dasharray:none"
         d="m 19.149282,930.37535 -3.6e-5,-0.14374 -3.972266,0.003 2.323066,0.62247 -0.553542,-0.46183"
         id="path4494"
         inkscape:connector-curvature="0" />
      <path
         inkscape:connector-curvature="0"
         id="path4514"
         d="m 19.152404,930.0898 -3.6e-5,0.14385 -3.975374,-0.003 2.324883,-0.62296 -0.553975,0.4622"
         style="fill:#000000;fill-opacity:1;stroke:#000000;stroke-width:0.02859031;stroke-linecap:round;stroke-linejoin:round;stroke-miterlimit:4;stroke-opacity:1;stroke-dasharray:none"
         sodipodi:nodetypes="ccccc" />
    </g>
    <g
       style="fill:#bf5700;stroke:#bf5700;stroke-width:0.5;stroke-miterlimit:4;stroke-dasharray:none"
       transform="matrix(0,4.9009639,-5.1311208,0,4752.0689,831.54219)"
       id="g4526">
      <path
         sodipodi:nodetypes="ccccc"
         style="fill:#000000;fill-opacity:1;stroke:#000000;stroke-width:0.02856796;stroke-linecap:round;stroke-linejoin:round;stroke-miterlimit:4;stroke-opacity:1;stroke-dasharray:none"
         d="m 19.149282,930.37535 -3.6e-5,-0.14374 -3.972266,0.003 2.323066,0.62247 -0.553542,-0.46183"
         id="path4528"
         inkscape:connector-curvature="0" />
      <path
         inkscape:connector-curvature="0"
         id="path4530"
         d="m 19.152404,930.0898 -3.6e-5,0.14385 -3.975374,-0.003 2.324883,-0.62296 -0.553975,0.4622"
         style="fill:#000000;fill-opacity:1;stroke:#000000;stroke-width:0.02859031;stroke-linecap:round;stroke-linejoin:round;stroke-miterlimit:4;stroke-opacity:1;stroke-dasharray:none"
         sodipodi:nodetypes="ccccc" />
    </g>
    <text
       sodipodi:linespacing="125%"
       id="text4500"
       y="-18.097769"
       x="-978.34448"
       style="font-size:12px;font-style:normal;font-variant:normal;font-weight:bold;font-stretch:normal;line-height:125%;letter-spacing:0px;word-spacing:0px;fill:#000000;fill-opacity:1;stroke:none;font-family:Times New Roman;-inkscape-font-specification:Times New Roman"
       xml:space="preserve"
       transform="matrix(0,-1,1,0,0,0)"><tspan
         y="-18.097769"
         x="-978.34448"
         id="tspan4502"
         sodipodi:role="line">speed axis</tspan></text>
    <path
       style="fill:none;stroke:#005f86;stroke-width:2;stroke-linecap:round;stroke-linejoin:round;stroke-miterlimit:4;stroke-opacity:1;stroke-dasharray:none"
       d="m 114.5,39.959229 c -2.67826,2.094341 -4.52309,5.022111 -8.38989,5.927911 -1.4117,0.729917 -2.82341,0.725596 -4.23511,0.634589 -6.864834,-1.434309 -11.59393,-4.69925 -17.375,-7.0625"
       id="path3230"
       inkscape:connector-curvature="0"
       transform="translate(-35.230581,869.41089)"
       sodipodi:nodetypes="cccc" />
    <text
       xml:space="preserve"
       style="font-size:12px;font-style:normal;font-variant:normal;font-weight:bold;font-stretch:normal;line-height:125%;letter-spacing:0px;word-spacing:0px;fill:#000000;fill-opacity:1;stroke:none;font-family:Times New Roman;-inkscape-font-specification:Times New Roman"
       x="-30.730581"
       y="1019.8701"
       id="text3232"
       sodipodi:linespacing="125%"><tspan
         sodipodi:role="line"
         id="tspan3234"
         x="-30.730581"
         y="1019.8701"
         style="font-size:10px;font-style:normal;font-variant:normal;font-weight:bold;font-stretch:normal;font-family:TlwgMono;-inkscape-font-specification:TlwgMono Bold">Plan all trajectories and identify the start trajectory -- (0)</tspan><tspan
         sodipodi:role="line"
         x="-30.730581"
         y="1032.3701"
         style="font-size:10px;font-style:normal;font-variant:normal;font-weight:bold;font-stretch:normal;font-family:TlwgMono;-inkscape-font-specification:TlwgMono Bold"
         id="tspan4078">reverse_trajectories &lt;- [(a), (b), (c), (d), (e), (f)]</tspan><tspan
         sodipodi:role="line"
         x="-30.730581"
         y="1044.8701"
         style="font-size:10px;font-style:normal;font-variant:normal;font-weight:bold;font-stretch:normal;font-family:TlwgMono;-inkscape-font-specification:TlwgMono Bold"
         id="tspan4080">reverse_trajectories.assert_sorted()</tspan><tspan
         sodipodi:role="line"
         x="-30.730581"
         y="1057.3701"
         style="font-size:10px;font-style:normal;font-variant:normal;font-weight:bold;font-stretch:normal;font-family:TlwgMono;-inkscape-font-specification:TlwgMono Bold"
         id="tspan4070">current_trajectory &lt;- trajectory(0)</tspan><tspan
         sodipodi:role="line"
         x="-30.730581"
         y="1069.8701"
         style="font-size:10px;font-style:normal;font-variant:normal;font-weight:bold;font-stretch:normal;font-family:TlwgMono;-inkscape-font-specification:TlwgMono Bold"
         id="tspan4072">if Current_Trajectory terminates at max_speed:</tspan><tspan
         sodipodi:role="line"
         x="-30.730581"
         y="1082.3701"
         style="font-size:10px;font-style:normal;font-variant:normal;font-weight:bold;font-stretch:normal;font-family:TlwgMono;-inkscape-font-specification:TlwgMono Bold"
         id="tspan4074">    try: </tspan><tspan
         sodipodi:role="line"
         x="-30.730581"
         y="1094.8701"
         style="font-size:10px;font-style:normal;font-variant:normal;font-weight:bold;font-stretch:normal;font-family:TlwgMono;-inkscape-font-specification:TlwgMono Bold"
         id="tspan4084">       z &lt;- intersection (Current_Trajectory, decel_trajectories.pop())</tspan><tspan
         sodipodi:role="line"
         x="-30.730581"
         y="1107.3701"
         style="font-size:10px;font-style:normal;font-variant:normal;font-weight:bold;font-stretch:normal;font-family:TlwgMono;-inkscape-font-specification:TlwgMono Bold"
         id="tspan4082">    except FailureToIntersect:</tspan><tspan
         sodipodi:role="line"
         x="-30.730581"
         y="1119.8701"
         style="font-size:10px;font-style:normal;font-variant:normal;font-weight:bold;font-stretch:normal;font-family:TlwgMono;-inkscape-font-specification:TlwgMono Bold"
         id="tspan4086">       raise PhysicalImpossibilityException()</tspan><tspan
         sodipodi:role="line"
         x="-30.730581"
         y="1132.3701"
         style="font-size:10px;font-style:normal;font-variant:normal;font-weight:bold;font-stretch:normal;font-family:TlwgMono;-inkscape-font-specification:TlwgMono Bold"
         id="tspan4088">if Current_Trajectory terminates at max_path:</tspan><tspan
         sodipodi:role="line"
         x="-30.730581"
         y="1144.8701"
         style="font-size:10px;font-style:normal;font-variant:normal;font-weight:bold;font-stretch:normal;font-family:TlwgMono;-inkscape-font-specification:TlwgMono Bold"
         id="tspan4090">    for t in decel_trajectories:</tspan><tspan
         sodipodi:role="line"
         x="-30.730581"
         y="1157.3701"
         style="font-size:10px;font-style:normal;font-variant:normal;font-weight:bold;font-stretch:normal;font-family:TlwgMono;-inkscape-font-specification:TlwgMono Bold"
         id="tspan4092">        try: </tspan><tspan
         sodipodi:role="line"
         x="-30.730581"
         y="1169.8701"
         style="font-size:10px;font-style:normal;font-variant:normal;font-weight:bold;font-stretch:normal;font-family:TlwgMono;-inkscape-font-specification:TlwgMono Bold"
         id="tspan4096">            z &lt;- intersection (current_trajectory, t)</tspan><tspan
         sodipodi:role="line"
         x="-30.730581"
         y="1182.3701"
         style="font-size:10px;font-style:normal;font-variant:normal;font-weight:bold;font-stretch:normal;font-family:TlwgMono;-inkscape-font-specification:TlwgMono Bold"
         id="tspan4094">        except FailureToIntersect:</tspan><tspan
         sodipodi:role="line"
         x="-30.730581"
         y="1194.8701"
         style="font-size:10px;font-style:normal;font-variant:normal;font-weight:bold;font-stretch:normal;font-family:TlwgMono;-inkscape-font-specification:TlwgMono Bold"
         id="tspan4098">            continue</tspan><tspan
         sodipodi:role="line"
         x="-30.730581"
         y="1207.3701"
         style="font-size:10px;font-style:normal;font-variant:normal;font-weight:bold;font-stretch:normal;font-family:TlwgMono;-inkscape-font-specification:TlwgMono Bold"
         id="tspan4100" /><tspan
         sodipodi:role="line"
         x="-30.730581"
         y="1219.8701"
         style="font-size:10px;font-style:normal;font-variant:normal;font-weight:bold;font-stretch:normal;font-family:TlwgMono;-inkscape-font-specification:TlwgMono Bold"
         id="tspan4024">Note that (0) terminates at max_speed. </tspan><tspan
         sodipodi:role="line"
         x="-30.730581"
         y="1232.3701"
         style="font-size:10px;font-style:normal;font-variant:normal;font-weight:bold;font-stretch:normal;font-family:TlwgMono;-inkscape-font-specification:TlwgMono Bold"
         id="tspan4036"># If (0) had reached zero speed, this would prove the path to be untraversable</tspan><tspan
         sodipodi:role="line"
         x="-30.730581"
         y="1244.8701"
         style="font-size:10px;font-style:normal;font-variant:normal;font-weight:bold;font-stretch:normal;font-family:TlwgMono;-inkscape-font-specification:TlwgMono Bold"
         id="tspan4034">Sort blue trajectories: lowest lower bound path completion first</tspan><tspan
         sodipodi:role="line"
         x="-30.730581"
         y="1257.3701"
         id="tspan3238"
         style="font-size:10px;font-style:normal;font-variant:normal;font-weight:bold;font-stretch:normal;font-family:TlwgMono;-inkscape-font-specification:TlwgMono Bold">Find the first blue trajectory: -- (a)</tspan><tspan
         sodipodi:role="line"
         x="-30.730581"
         y="1269.8701"
         style="font-size:10px;font-style:normal;font-variant:normal;font-weight:bold;font-stretch:normal;font-family:TlwgMono;-inkscape-font-specification:TlwgMono Bold"
         id="tspan4038">See if (a) intersects our current path (0)</tspan><tspan
         sodipodi:role="line"
         x="-30.730581"
         y="1282.3701"
         style="font-size:10px;font-style:normal;font-variant:normal;font-weight:bold;font-stretch:normal;font-family:TlwgMono;-inkscape-font-specification:TlwgMono Bold"
         id="tspan4042">We only have one path element, so this is the same as just checking for a (0)-(a) intersection.</tspan><tspan
         sodipodi:role="line"
         x="-30.730581"
         y="1294.8701"
         style="font-size:10px;font-style:normal;font-variant:normal;font-weight:bold;font-stretch:normal;font-family:TlwgMono;-inkscape-font-specification:TlwgMono Bold"
         id="tspan4046">We now have a new trajectory originating at the start of (0) and continuing to (1) through (a).</tspan><tspan
         sodipodi:role="line"
         x="-30.730581"
         y="1307.3701"
         id="tspan3244"
         style="font-size:10px;font-style:normal;font-variant:normal;font-weight:bold;font-stretch:normal;font-family:TlwgMono;-inkscape-font-specification:TlwgMono Bold">If they do not intersect than the com path is untraversable.</tspan><tspan
         sodipodi:role="line"
         x="-30.730581"
         y="1319.8701"
         style="font-size:10px;font-style:normal;font-variant:normal;font-weight:bold;font-stretch:normal;font-family:TlwgMono;-inkscape-font-specification:TlwgMono Bold"
         id="tspan4044">If they intersect then we repeat the recurse with a new prior trajectory</tspan><tspan
         sodipodi:role="line"
         x="-30.730581"
         y="1332.3701"
         style="font-size:10px;font-style:normal;font-variant:normal;font-weight:bold;font-stretch:normal;font-family:TlwgMono;-inkscape-font-specification:TlwgMono Bold"
         id="tspan4028">Recursing, with this new spliced trajectory taking the place of (0) previously, we try to</tspan><tspan
         sodipodi:role="line"
         x="-30.730581"
         y="1344.8701"
         style="font-size:10px;font-style:normal;font-variant:normal;font-weight:bold;font-stretch:normal;font-family:TlwgMono;-inkscape-font-specification:TlwgMono Bold"
         id="tspan4050">    find an intersection with the next element in our blue list -- (b).</tspan><tspan
         sodipodi:role="line"
         x="-30.730581"
         y="1357.3701"
         style="font-size:10px;font-style:normal;font-variant:normal;font-weight:bold;font-stretch:normal;font-family:TlwgMono;-inkscape-font-specification:TlwgMono Bold"
         id="tspan4052">(b) turns out to intersect (1). We connect trajectories. We recurse.</tspan><tspan
         sodipodi:role="line"
         x="-30.730581"
         y="1369.8701"
         style="font-size:10px;font-style:normal;font-variant:normal;font-weight:bold;font-stretch:normal;font-family:TlwgMono;-inkscape-font-specification:TlwgMono Bold"
         id="tspan4054">The trajectory (0:a:1:b:2) is intersecatable by (c), and combined they form</tspan><tspan
         sodipodi:role="line"
         x="-30.730581"
         y="1382.3701"
         style="font-size:10px;font-style:normal;font-variant:normal;font-weight:bold;font-stretch:normal;font-family:TlwgMono;-inkscape-font-specification:TlwgMono Bold"
         id="tspan4056">(0:a:1:b:2:c:3), which we can intersect by (d), leading us to (4), which intersects (e) and leads</tspan><tspan
         sodipodi:role="line"
         x="-30.730581"
         y="1394.8701"
         style="font-size:10px;font-style:normal;font-variant:normal;font-weight:bold;font-stretch:normal;font-family:TlwgMono;-inkscape-font-specification:TlwgMono Bold"
         id="tspan4058">us to (5) which intersects (f) which is the final trajectory.</tspan><tspan
         sodipodi:role="line"
         x="-30.730581"
         y="1407.3701"
         style="font-size:10px;font-style:normal;font-variant:normal;font-weight:bold;font-stretch:normal;font-family:TlwgMono;-inkscape-font-specification:TlwgMono Bold"
         id="tspan4048" /><tspan
         sodipodi:role="line"
         x="-30.730581"
         y="1419.8701"
         style="font-size:10px;font-style:normal;font-variant:normal;font-weight:bold;font-stretch:normal;font-family:TlwgMono;-inkscape-font-specification:TlwgMono Bold"
         id="tspan4030" /></text>
    <text
       xml:space="preserve"
       style="font-size:12px;font-style:normal;font-variant:normal;font-weight:bold;font-stretch:normal;line-height:125%;letter-spacing:0px;word-spacing:0px;fill:#000000;fill-opacity:1;stroke:none;font-family:Times New Roman;-inkscape-font-specification:Times New Roman"
       x="52.097107"
       y="927.90381"
       id="text3246"
       sodipodi:linespacing="125%"><tspan
         sodipodi:role="line"
         id="tspan3248"
         x="52.097107"
         y="927.90381">(b)</tspan></text>
    <g
       transform="matrix(1.7301812,0,0,1.8114331,30.096965,-766.40435)"
       style="fill:#005f86;stroke:#005f86;stroke-width:0.5;stroke-miterlimit:4;stroke-dasharray:none"
       id="g3250">
      <path
         sodipodi:nodetypes="cccc"
         transform="translate(-6.78125,887.03125)"
         inkscape:connector-curvature="0"
         id="path3252"
         d="m 25.950964,43.000043 -3.942265,0 2.312842,-0.619724 -0.57608,0.576079"
         style="fill:#005f86;fill-opacity:1;stroke:#005f86;stroke-width:0.5;stroke-linecap:round;stroke-linejoin:round;stroke-miterlimit:4;stroke-opacity:1;stroke-dasharray:none" />
      <path
         sodipodi:nodetypes="cccc"
         style="fill:#005f86;fill-opacity:1;stroke:#005f86;stroke-width:0.5;stroke-linecap:round;stroke-linejoin:round;stroke-miterlimit:4;stroke-opacity:1;stroke-dasharray:none"
         d="m 19.184757,930.03129 -3.972351,0 2.323066,0.62247 -0.578626,-0.57863"
         id="path3254"
         inkscape:connector-curvature="0" />
    </g>
    <path
       sodipodi:type="arc"
       style="fill:#005f86;fill-opacity:1;stroke:#005f86;stroke-width:2;stroke-linecap:round;stroke-linejoin:round;stroke-miterlimit:4;stroke-opacity:1;stroke-dasharray:none;stroke-dashoffset:0"
       id="path4060"
       sodipodi:cx="161"
       sodipodi:cy="-42.540771"
       sodipodi:rx="3.5"
       sodipodi:ry="3.5"
       d="m 164.5,-42.540771 c 0,1.932996 -1.567,3.5 -3.5,3.5 -1.933,0 -3.5,-1.567004 -3.5,-3.5 0,-1.932997 1.567,-3.5 3.5,-3.5 1.933,0 3.5,1.567003 3.5,3.5 z"
       transform="matrix(0.83333333,0,0,0.83333333,-39.897248,945.07076)" />
    <path
       transform="matrix(0.83333333,0,0,0.83333333,-101.64725,944.32076)"
       d="m 164.5,-42.540771 c 0,1.932996 -1.567,3.5 -3.5,3.5 -1.933,0 -3.5,-1.567004 -3.5,-3.5 0,-1.932997 1.567,-3.5 3.5,-3.5 1.933,0 3.5,1.567003 3.5,3.5 z"
       sodipodi:ry="3.5"
       sodipodi:rx="3.5"
       sodipodi:cy="-42.540771"
       sodipodi:cx="161"
       id="path4062"
       style="fill:#005f86;fill-opacity:1;stroke:#005f86;stroke-width:2;stroke-linecap:round;stroke-linejoin:round;stroke-miterlimit:4;stroke-opacity:1;stroke-dasharray:none;stroke-dashoffset:0"
       sodipodi:type="arc" />
    <path
       sodipodi:type="arc"
       style="fill:#005f86;fill-opacity:1;stroke:#005f86;stroke-width:2;stroke-linecap:round;stroke-linejoin:round;stroke-miterlimit:4;stroke-opacity:1;stroke-dasharray:none;stroke-dashoffset:0"
       id="path4064"
       sodipodi:cx="161"
       sodipodi:cy="-42.540771"
       sodipodi:rx="3.5"
       sodipodi:ry="3.5"
       d="m 164.5,-42.540771 c 0,1.932996 -1.567,3.5 -3.5,3.5 -1.933,0 -3.5,-1.567004 -3.5,-3.5 0,-1.932997 1.567,-3.5 3.5,-3.5 1.933,0 3.5,1.567003 3.5,3.5 z"
       transform="matrix(0.83333333,0,0,0.83333333,21.85275,945.07076)" />
    <path
       transform="matrix(0.83333333,0,0,0.83333333,83.35275,945.07076)"
       d="m 164.5,-42.540771 c 0,1.932996 -1.567,3.5 -3.5,3.5 -1.933,0 -3.5,-1.567004 -3.5,-3.5 0,-1.932997 1.567,-3.5 3.5,-3.5 1.933,0 3.5,1.567003 3.5,3.5 z"
       sodipodi:ry="3.5"
       sodipodi:rx="3.5"
       sodipodi:cy="-42.540771"
       sodipodi:cx="161"
       id="path4066"
       style="fill:#005f86;fill-opacity:1;stroke:#005f86;stroke-width:2;stroke-linecap:round;stroke-linejoin:round;stroke-miterlimit:4;stroke-opacity:1;stroke-dasharray:none;stroke-dashoffset:0"
       sodipodi:type="arc" />
    <path
       sodipodi:type="arc"
       style="fill:#005f86;fill-opacity:1;stroke:#005f86;stroke-width:2;stroke-linecap:round;stroke-linejoin:round;stroke-miterlimit:4;stroke-opacity:1;stroke-dasharray:none;stroke-dashoffset:0"
       id="path4068"
       sodipodi:cx="161"
       sodipodi:cy="-42.540771"
       sodipodi:rx="3.5"
       sodipodi:ry="3.5"
       d="m 164.5,-42.540771 c 0,1.932996 -1.567,3.5 -3.5,3.5 -1.933,0 -3.5,-1.567004 -3.5,-3.5 0,-1.932997 1.567,-3.5 3.5,-3.5 1.933,0 3.5,1.567003 3.5,3.5 z"
       transform="matrix(0.83333333,0,0,0.83333333,146.35275,944.82076)" />
    <text
       xml:space="preserve"
       style="font-size:12px;font-style:normal;font-variant:normal;font-weight:bold;font-stretch:normal;line-height:125%;letter-spacing:0px;word-spacing:0px;fill:#000000;fill-opacity:1;stroke:none;font-family:Times New Roman;-inkscape-font-specification:Times New Roman"
       x="389.03348"
       y="906.42548"
       id="text3237"
       sodipodi:linespacing="125%"><tspan
         sodipodi:role="line"
         id="tspan3239"
         x="389.03348"
         y="906.42548">Z--D boundary</tspan></text>
    <text
       xml:space="preserve"
       style="font-size:12px;font-style:normal;font-variant:normal;font-weight:bold;font-stretch:normal;line-height:125%;letter-spacing:0px;word-spacing:0px;fill:#000000;fill-opacity:1;stroke:none;font-family:Times New Roman;-inkscape-font-specification:Times New Roman"
       x="168.76974"
       y="848.7962"
       id="text3249"
       sodipodi:linespacing="125%"><tspan
         sodipodi:role="line"
         id="tspan3251"
         x="168.76974"
         y="848.7962">&quot;Brink of Forced Departure&quot;</tspan></text>
    <text
       xml:space="preserve"
       style="font-size:12px;font-style:normal;font-variant:normal;font-weight:bold;font-stretch:normal;line-height:125%;letter-spacing:0px;word-spacing:0px;fill:#000000;fill-opacity:1;stroke:none;font-family:Times New Roman;-inkscape-font-specification:Times New Roman"
       x="181.85121"
       y="857.63507"
       id="text3253"
       sodipodi:linespacing="125%"><tspan
         sodipodi:role="line"
         id="tspan3255"
         x="181.85121"
         y="857.63507">&quot;Dynamics Propogation Nucleus&quot;</tspan></text>
    <text
       xml:space="preserve"
       style="font-size:12px;font-style:normal;font-variant:normal;font-weight:bold;font-stretch:normal;line-height:125%;letter-spacing:0px;word-spacing:0px;fill:#000000;fill-opacity:1;stroke:none;font-family:Times New Roman;-inkscape-font-specification:Times New Roman"
       x="138.71767"
       y="866.47388"
       id="text3257"
       sodipodi:linespacing="125%"><tspan
         sodipodi:role="line"
         id="tspan3259"
         x="138.71767"
         y="866.47388">&quot;Crystallization Nucleus&quot;</tspan></text>
    <text
       xml:space="preserve"
       style="font-size:12px;font-style:normal;font-variant:normal;font-weight:bold;font-stretch:normal;line-height:125%;letter-spacing:0px;word-spacing:0px;fill:#000000;fill-opacity:1;stroke:none;font-family:Times New Roman;-inkscape-font-specification:Times New Roman"
       x="-84.020943"
       y="795.40967"
       id="text3261"
       sodipodi:linespacing="125%"><tspan
         sodipodi:role="line"
         id="tspan3263"
         x="-84.020943"
         y="795.40967">A point where it becomes impossible to follow the &quot;max_speed&quot; path, specifically when it is due to forced deceleration.</tspan></text>
    <text
       xml:space="preserve"
       style="font-size:12px;font-style:normal;font-variant:normal;font-weight:bold;font-stretch:normal;line-height:125%;letter-spacing:0px;word-spacing:0px;fill:#000000;fill-opacity:1;stroke:none;font-family:Times New Roman;-inkscape-font-specification:Times New Roman"
       x="-8.3605213"
       y="823.34039"
       id="text3319"
       sodipodi:linespacing="125%"><tspan
         sodipodi:role="line"
         id="tspan3321"
         x="-8.3605213"
         y="823.34039">start</tspan></text>
    <text
       xml:space="preserve"
       style="font-size:12px;font-style:normal;font-variant:normal;font-weight:bold;font-stretch:normal;line-height:125%;letter-spacing:0px;word-spacing:0px;fill:#000000;fill-opacity:1;stroke:none;font-family:Times New Roman;-inkscape-font-specification:Times New Roman"
       x="64.471474"
       y="822.6333"
       id="text3323"
       sodipodi:linespacing="125%"><tspan
         sodipodi:role="line"
         id="tspan3325"
         x="64.471474"
         y="822.6333">end</tspan></text>
    <text
       xml:space="preserve"
       style="font-size:12px;font-style:normal;font-variant:normal;font-weight:bold;font-stretch:normal;line-height:125%;letter-spacing:0px;word-spacing:0px;fill:#000000;fill-opacity:1;stroke:none;font-family:Times New Roman;-inkscape-font-specification:Times New Roman"
       x="-30.987944"
       y="865.76678"
       id="text3327"
       sodipodi:linespacing="125%"><tspan
         sodipodi:role="line"
         id="tspan3329"
         x="-30.987944"
         y="865.76678">feasible limiting trajectory</tspan></text>
  </g>
</svg>
