<?xml version="1.0" encoding="UTF-8" standalone="no"?>
<!-- Created with Inkscape (http://www.inkscape.org/) -->

<svg
   xmlns:dc="http://purl.org/dc/elements/1.1/"
   xmlns:cc="http://creativecommons.org/ns#"
   xmlns:rdf="http://www.w3.org/1999/02/22-rdf-syntax-ns#"
   xmlns:svg="http://www.w3.org/2000/svg"
   xmlns="http://www.w3.org/2000/svg"
   xmlns:sodipodi="http://sodipodi.sourceforge.net/DTD/sodipodi-0.dtd"
   xmlns:inkscape="http://www.inkscape.org/namespaces/inkscape"
   width="269.29132"
   height="141.73228"
   id="svg3249"
   version="1.1"
   inkscape:version="0.48.4 r9939"
   sodipodi:docname="max_speed_planner.svg"
   inkscape:export-filename="/home/gray/wk/grayutils/tex/MultiContactTAC2015/figures/many_step_planning.png"
   inkscape:export-xdpi="200.08386"
   inkscape:export-ydpi="200.08386">
  <defs
     id="defs3251" />
  <sodipodi:namedview
     id="base"
     pagecolor="#ffffff"
     bordercolor="#666666"
     borderopacity="1.0"
     inkscape:pageopacity="0.0"
     inkscape:pageshadow="2"
     inkscape:zoom="3.6176879"
     inkscape:cx="87.105393"
     inkscape:cy="48.48327"
     inkscape:document-units="px"
     inkscape:current-layer="layer1"
     showgrid="false"
     inkscape:window-width="1920"
     inkscape:window-height="1030"
     inkscape:window-x="0"
     inkscape:window-y="0"
     inkscape:window-maximized="1"
     units="mm"
     fit-margin-left="0.1"
     fit-margin-top="0.1"
     fit-margin-right="0.1"
     fit-margin-bottom="0.1" />
  <metadata
     id="metadata3254">
    <rdf:RDF>
      <cc:Work
         rdf:about="">
        <dc:format>image/svg+xml</dc:format>
        <dc:type
           rdf:resource="http://purl.org/dc/dcmitype/StillImage" />
        <dc:title />
      </cc:Work>
    </rdf:RDF>
  </metadata>
  <g
     inkscape:label="Layer 1"
     inkscape:groupmode="layer"
     id="layer1"
     transform="translate(18.485315,-872.7132)">
    <path
       sodipodi:nodetypes="cc"
       inkscape:connector-curvature="0"
       id="path3883"
       d="m -3.802442,1005.5963 c 0.353554,-25.27908 41.719301,-89.80258 45.961941,-90.15613 l 0,-17.99464 -46.644814,0 z"
       style="fill:#bf5700;stroke:none" />
    <path
       inkscape:connector-curvature="0"
       id="path3885"
       d="m 41.982722,915.61695 45.431613,-0.53033 0,-18.47317 -45.343224,0.7955 z"
       style="fill:#43695b;stroke:none" />
    <path
       style="fill:#43695b;stroke:none"
       d="m 178.71949,915.61695 12.68374,0 -0.0442,-18.29639 -12.63954,0 z"
       id="path3875"
       inkscape:connector-curvature="0"
       sodipodi:nodetypes="ccccc" />
    <path
       sodipodi:nodetypes="cssc"
       inkscape:connector-curvature="0"
       id="path3887"
       d="m 87.874157,915.43506 c 0,0 3.183096,5.61462 4.074363,10.91729 0.891267,5.30269 7.89407,52.71496 12.35041,52.71496 4.45634,0 27.09296,-57.53422 30.03999,-63.71306 l 0,-18.29886 -47.101364,0 0,18.208 z"
       style="fill:#bf5700;stroke:none" />
    <path
       sodipodi:nodetypes="ccscccc"
       inkscape:connector-curvature="0"
       id="path3889"
       d="m 118.27242,952.49811 c 4.8638,-4.45849 20.96614,-31.68155 33.89681,-10.21974 4.18659,6.94874 6.3332,23.18611 15.03625,23.00536 6.92142,-0.14376 8.25619,-37.79945 11.50619,-49.54945 l 0,-18.53875 -60.57199,0 z"
       style="fill:#005f86;stroke:none" />
    <path
       sodipodi:nodetypes="cccccc"
       inkscape:connector-curvature="0"
       id="path3891"
       d="m 215.94208,914.80387 c 0.26041,12.32106 -7.5444,25.59142 -10.0444,25.59142 -2.5,0 -8.92893,-1.02029 -14.42893,-25.02029 l 0,-18.05444 24.28547,0 z"
       style="fill:#bf5700;stroke:none" />
    <path
       inkscape:connector-curvature="0"
       id="path3893"
       d="m 215.90125,914.66428 25.69534,0 0,-17.07856 -25.75399,0.0884 z"
       style="fill:#43695b;stroke:none"
       sodipodi:nodetypes="ccccc" />
    <path
       style="fill:#005f86;stroke:none"
       d="m 241.61205,1006.0794 c -0.91436,-11.27706 -7.0873,-36.34739 -11.64747,-53.85315 -6.01942,-23.10756 -6.95957,-36.82791 -6.95957,-36.82791 l 0,-17.82134 18.28716,0 z"
       id="path6865"
       inkscape:connector-curvature="0"
       sodipodi:nodetypes="csc" />
    <g
       id="g6610"
       transform="translate(-5.7235804,0.2764196)">
      <rect
         y="888.64276"
         x="-14.643833"
         height="121.75"
         width="268.5"
         id="rect6099"
         style="opacity:0.50000000000000000;fill:#ffffff;fill-opacity:1;stroke:none" />
      <g
         style="stroke-width:1.01765091999999990;stroke-miterlimit:4;stroke-dasharray:none;opacity:0.61290323000000002"
         transform="matrix(1.0432186,0.05281708,-0.05281708,1.0432186,39.624321,-49.348541)"
         id="g5929">
        <g
           style="stroke-width:1.01765091999999990;stroke-miterlimit:4;stroke-dasharray:none"
           transform="translate(56,0)"
           id="g5417">
          <path
             transform="translate(-18.485315,884.7229)"
             inkscape:connector-curvature="0"
             id="path5419"
             d="M 15.556349,7.0395996 46.166257,121.27733"
             style="fill:none;stroke:#ffffff;stroke-width:1.01765091999999990;stroke-linecap:butt;stroke-linejoin:miter;stroke-miterlimit:4;stroke-opacity:1;stroke-dasharray:none" />
          <path
             style="fill:none;stroke:#ffffff;stroke-width:1.01765091999999990;stroke-linecap:butt;stroke-linejoin:miter;stroke-miterlimit:4;stroke-opacity:1;stroke-dasharray:none"
             d="m -0.928966,891.7625 30.609908,114.2377"
             id="path5421"
             inkscape:connector-curvature="0" />
          <path
             inkscape:connector-curvature="0"
             id="path5423"
             d="m 1.071034,891.7625 30.609908,114.2377"
             style="fill:none;stroke:#ffffff;stroke-width:1.01765091999999990;stroke-linecap:butt;stroke-linejoin:miter;stroke-miterlimit:4;stroke-opacity:1;stroke-dasharray:none" />
          <path
             style="fill:none;stroke:#ffffff;stroke-width:1.01765091999999990;stroke-linecap:butt;stroke-linejoin:miter;stroke-miterlimit:4;stroke-opacity:1;stroke-dasharray:none"
             d="m 3.071034,891.7625 30.609908,114.2377"
             id="path5425"
             inkscape:connector-curvature="0" />
          <path
             inkscape:connector-curvature="0"
             id="path5427"
             d="m 5.071034,891.7625 30.609908,114.2377"
             style="fill:none;stroke:#ffffff;stroke-width:1.01765091999999990;stroke-linecap:butt;stroke-linejoin:miter;stroke-miterlimit:4;stroke-opacity:1;stroke-dasharray:none" />
          <path
             style="fill:none;stroke:#ffffff;stroke-width:1.01765091999999990;stroke-linecap:butt;stroke-linejoin:miter;stroke-miterlimit:4;stroke-opacity:1;stroke-dasharray:none"
             d="m 7.071034,891.7625 30.609908,114.2377"
             id="path5429"
             inkscape:connector-curvature="0" />
          <path
             inkscape:connector-curvature="0"
             id="path5431"
             d="m 9.071034,891.7625 30.609908,114.2377"
             style="fill:none;stroke:#ffffff;stroke-width:1.01765091999999990;stroke-linecap:butt;stroke-linejoin:miter;stroke-miterlimit:4;stroke-opacity:1;stroke-dasharray:none" />
          <path
             style="fill:none;stroke:#ffffff;stroke-width:1.01765091999999990;stroke-linecap:butt;stroke-linejoin:miter;stroke-miterlimit:4;stroke-opacity:1;stroke-dasharray:none"
             d="m 11.071034,891.7625 30.609908,114.2377"
             id="path5433"
             inkscape:connector-curvature="0" />
          <path
             inkscape:connector-curvature="0"
             id="path5435"
             d="m 13.071034,891.7625 30.609908,114.2377"
             style="fill:none;stroke:#ffffff;stroke-width:1.01765091999999990;stroke-linecap:butt;stroke-linejoin:miter;stroke-miterlimit:4;stroke-opacity:1;stroke-dasharray:none" />
          <path
             style="fill:none;stroke:#ffffff;stroke-width:1.01765091999999990;stroke-linecap:butt;stroke-linejoin:miter;stroke-miterlimit:4;stroke-opacity:1;stroke-dasharray:none"
             d="m 15.071034,891.7625 30.609908,114.2377"
             id="path5437"
             inkscape:connector-curvature="0" />
          <path
             inkscape:connector-curvature="0"
             id="path5439"
             d="m 17.071034,891.7625 30.609908,114.2377"
             style="fill:none;stroke:#ffffff;stroke-width:1.01765091999999990;stroke-linecap:butt;stroke-linejoin:miter;stroke-miterlimit:4;stroke-opacity:1;stroke-dasharray:none" />
          <path
             style="fill:none;stroke:#ffffff;stroke-width:1.01765091999999990;stroke-linecap:butt;stroke-linejoin:miter;stroke-miterlimit:4;stroke-opacity:1;stroke-dasharray:none"
             d="m 19.071034,891.7625 30.609908,114.2377"
             id="path5441"
             inkscape:connector-curvature="0" />
          <path
             inkscape:connector-curvature="0"
             id="path5443"
             d="m 21.071034,891.7625 30.609908,114.2377"
             style="fill:none;stroke:#ffffff;stroke-width:1.01765091999999990;stroke-linecap:butt;stroke-linejoin:miter;stroke-miterlimit:4;stroke-opacity:1;stroke-dasharray:none" />
          <path
             style="fill:none;stroke:#ffffff;stroke-width:1.01765091999999990;stroke-linecap:butt;stroke-linejoin:miter;stroke-miterlimit:4;stroke-opacity:1;stroke-dasharray:none"
             d="m 23.071034,891.7625 30.609908,114.2377"
             id="path5445"
             inkscape:connector-curvature="0" />
        </g>
        <g
           style="stroke-width:1.01765091999999990;stroke-miterlimit:4;stroke-dasharray:none"
           id="g5371">
          <path
             transform="translate(-18.485315,884.7229)"
             inkscape:connector-curvature="0"
             id="path5343"
             d="M 15.556349,7.0395996 46.166257,121.27733"
             style="fill:none;stroke:#ffffff;stroke-width:1.01765091999999990;stroke-linecap:butt;stroke-linejoin:miter;stroke-miterlimit:4;stroke-opacity:1;stroke-dasharray:none" />
          <path
             style="fill:none;stroke:#ffffff;stroke-width:1.01765091999999990;stroke-linecap:butt;stroke-linejoin:miter;stroke-miterlimit:4;stroke-opacity:1;stroke-dasharray:none"
             d="m -0.928966,891.7625 30.609908,114.2377"
             id="path5345"
             inkscape:connector-curvature="0" />
          <path
             inkscape:connector-curvature="0"
             id="path5347"
             d="m 1.071034,891.7625 30.609908,114.2377"
             style="fill:none;stroke:#ffffff;stroke-width:1.01765091999999990;stroke-linecap:butt;stroke-linejoin:miter;stroke-miterlimit:4;stroke-opacity:1;stroke-dasharray:none" />
          <path
             style="fill:none;stroke:#ffffff;stroke-width:1.01765091999999990;stroke-linecap:butt;stroke-linejoin:miter;stroke-miterlimit:4;stroke-opacity:1;stroke-dasharray:none"
             d="m 3.071034,891.7625 30.609908,114.2377"
             id="path5349"
             inkscape:connector-curvature="0" />
          <path
             inkscape:connector-curvature="0"
             id="path5351"
             d="m 5.071034,891.7625 30.609908,114.2377"
             style="fill:none;stroke:#ffffff;stroke-width:1.01765091999999990;stroke-linecap:butt;stroke-linejoin:miter;stroke-miterlimit:4;stroke-opacity:1;stroke-dasharray:none" />
          <path
             style="fill:none;stroke:#ffffff;stroke-width:1.01765091999999990;stroke-linecap:butt;stroke-linejoin:miter;stroke-miterlimit:4;stroke-opacity:1;stroke-dasharray:none"
             d="m 7.071034,891.7625 30.609908,114.2377"
             id="path5353"
             inkscape:connector-curvature="0" />
          <path
             inkscape:connector-curvature="0"
             id="path5355"
             d="m 9.071034,891.7625 30.609908,114.2377"
             style="fill:none;stroke:#ffffff;stroke-width:1.01765091999999990;stroke-linecap:butt;stroke-linejoin:miter;stroke-miterlimit:4;stroke-opacity:1;stroke-dasharray:none" />
          <path
             style="fill:none;stroke:#ffffff;stroke-width:1.01765091999999990;stroke-linecap:butt;stroke-linejoin:miter;stroke-miterlimit:4;stroke-opacity:1;stroke-dasharray:none"
             d="m 11.071034,891.7625 30.609908,114.2377"
             id="path5357"
             inkscape:connector-curvature="0" />
          <path
             inkscape:connector-curvature="0"
             id="path5359"
             d="m 13.071034,891.7625 30.609908,114.2377"
             style="fill:none;stroke:#ffffff;stroke-width:1.01765091999999990;stroke-linecap:butt;stroke-linejoin:miter;stroke-miterlimit:4;stroke-opacity:1;stroke-dasharray:none" />
          <path
             style="fill:none;stroke:#ffffff;stroke-width:1.01765091999999990;stroke-linecap:butt;stroke-linejoin:miter;stroke-miterlimit:4;stroke-opacity:1;stroke-dasharray:none"
             d="m 15.071034,891.7625 30.609908,114.2377"
             id="path5361"
             inkscape:connector-curvature="0" />
          <path
             inkscape:connector-curvature="0"
             id="path5363"
             d="m 17.071034,891.7625 30.609908,114.2377"
             style="fill:none;stroke:#ffffff;stroke-width:1.01765091999999990;stroke-linecap:butt;stroke-linejoin:miter;stroke-miterlimit:4;stroke-opacity:1;stroke-dasharray:none" />
          <path
             style="fill:none;stroke:#ffffff;stroke-width:1.01765091999999990;stroke-linecap:butt;stroke-linejoin:miter;stroke-miterlimit:4;stroke-opacity:1;stroke-dasharray:none"
             d="m 19.071034,891.7625 30.609908,114.2377"
             id="path5365"
             inkscape:connector-curvature="0" />
          <path
             inkscape:connector-curvature="0"
             id="path5367"
             d="m 21.071034,891.7625 30.609908,114.2377"
             style="fill:none;stroke:#ffffff;stroke-width:1.01765091999999990;stroke-linecap:butt;stroke-linejoin:miter;stroke-miterlimit:4;stroke-opacity:1;stroke-dasharray:none" />
          <path
             style="fill:none;stroke:#ffffff;stroke-width:1.01765091999999990;stroke-linecap:butt;stroke-linejoin:miter;stroke-miterlimit:4;stroke-opacity:1;stroke-dasharray:none"
             d="m 23.071034,891.7625 30.609908,114.2377"
             id="path5369"
             inkscape:connector-curvature="0" />
        </g>
        <g
           style="stroke-width:1.01765091999999990;stroke-miterlimit:4;stroke-dasharray:none"
           id="g5387"
           transform="translate(28,0)">
          <path
             style="fill:none;stroke:#ffffff;stroke-width:1.01765091999999990;stroke-linecap:butt;stroke-linejoin:miter;stroke-miterlimit:4;stroke-opacity:1;stroke-dasharray:none"
             d="M 15.556349,7.0395996 46.166257,121.27733"
             id="path5389"
             inkscape:connector-curvature="0"
             transform="translate(-18.485315,884.7229)" />
          <path
             inkscape:connector-curvature="0"
             id="path5391"
             d="m -0.928966,891.7625 30.609908,114.2377"
             style="fill:none;stroke:#ffffff;stroke-width:1.01765091999999990;stroke-linecap:butt;stroke-linejoin:miter;stroke-miterlimit:4;stroke-opacity:1;stroke-dasharray:none" />
          <path
             style="fill:none;stroke:#ffffff;stroke-width:1.01765091999999990;stroke-linecap:butt;stroke-linejoin:miter;stroke-miterlimit:4;stroke-opacity:1;stroke-dasharray:none"
             d="m 1.071034,891.7625 30.609908,114.2377"
             id="path5393"
             inkscape:connector-curvature="0" />
          <path
             inkscape:connector-curvature="0"
             id="path5395"
             d="m 3.071034,891.7625 30.609908,114.2377"
             style="fill:none;stroke:#ffffff;stroke-width:1.01765091999999990;stroke-linecap:butt;stroke-linejoin:miter;stroke-miterlimit:4;stroke-opacity:1;stroke-dasharray:none" />
          <path
             style="fill:none;stroke:#ffffff;stroke-width:1.01765091999999990;stroke-linecap:butt;stroke-linejoin:miter;stroke-miterlimit:4;stroke-opacity:1;stroke-dasharray:none"
             d="m 5.071034,891.7625 30.609908,114.2377"
             id="path5397"
             inkscape:connector-curvature="0" />
          <path
             inkscape:connector-curvature="0"
             id="path5399"
             d="m 7.071034,891.7625 30.609908,114.2377"
             style="fill:none;stroke:#ffffff;stroke-width:1.01765091999999990;stroke-linecap:butt;stroke-linejoin:miter;stroke-miterlimit:4;stroke-opacity:1;stroke-dasharray:none" />
          <path
             style="fill:none;stroke:#ffffff;stroke-width:1.01765091999999990;stroke-linecap:butt;stroke-linejoin:miter;stroke-miterlimit:4;stroke-opacity:1;stroke-dasharray:none"
             d="m 9.071034,891.7625 30.609908,114.2377"
             id="path5401"
             inkscape:connector-curvature="0" />
          <path
             inkscape:connector-curvature="0"
             id="path5403"
             d="m 11.071034,891.7625 30.609908,114.2377"
             style="fill:none;stroke:#ffffff;stroke-width:1.01765091999999990;stroke-linecap:butt;stroke-linejoin:miter;stroke-miterlimit:4;stroke-opacity:1;stroke-dasharray:none" />
          <path
             style="fill:none;stroke:#ffffff;stroke-width:1.01765091999999990;stroke-linecap:butt;stroke-linejoin:miter;stroke-miterlimit:4;stroke-opacity:1;stroke-dasharray:none"
             d="m 13.071034,891.7625 30.609908,114.2377"
             id="path5405"
             inkscape:connector-curvature="0" />
          <path
             inkscape:connector-curvature="0"
             id="path5407"
             d="m 15.071034,891.7625 30.609908,114.2377"
             style="fill:none;stroke:#ffffff;stroke-width:1.01765091999999990;stroke-linecap:butt;stroke-linejoin:miter;stroke-miterlimit:4;stroke-opacity:1;stroke-dasharray:none" />
          <path
             style="fill:none;stroke:#ffffff;stroke-width:1.01765091999999990;stroke-linecap:butt;stroke-linejoin:miter;stroke-miterlimit:4;stroke-opacity:1;stroke-dasharray:none"
             d="m 17.071034,891.7625 30.609908,114.2377"
             id="path5409"
             inkscape:connector-curvature="0" />
          <path
             inkscape:connector-curvature="0"
             id="path5411"
             d="m 19.071034,891.7625 30.609908,114.2377"
             style="fill:none;stroke:#ffffff;stroke-width:1.01765091999999990;stroke-linecap:butt;stroke-linejoin:miter;stroke-miterlimit:4;stroke-opacity:1;stroke-dasharray:none" />
          <path
             style="fill:none;stroke:#ffffff;stroke-width:1.01765091999999990;stroke-linecap:butt;stroke-linejoin:miter;stroke-miterlimit:4;stroke-opacity:1;stroke-dasharray:none"
             d="m 21.071034,891.7625 30.609908,114.2377"
             id="path5413"
             inkscape:connector-curvature="0" />
          <path
             inkscape:connector-curvature="0"
             id="path5415"
             d="m 23.071034,891.7625 30.609908,114.2377"
             style="fill:none;stroke:#ffffff;stroke-width:1.01765091999999990;stroke-linecap:butt;stroke-linejoin:miter;stroke-miterlimit:4;stroke-opacity:1;stroke-dasharray:none" />
        </g>
        <g
           style="stroke-width:1.01765091999999990;stroke-miterlimit:4;stroke-dasharray:none"
           id="g5447"
           transform="translate(84,0)">
          <path
             style="fill:none;stroke:#ffffff;stroke-width:1.01765091999999990;stroke-linecap:butt;stroke-linejoin:miter;stroke-miterlimit:4;stroke-opacity:1;stroke-dasharray:none"
             d="M 15.556349,7.0395996 46.166257,121.27733"
             id="path5449"
             inkscape:connector-curvature="0"
             transform="translate(-18.485315,884.7229)" />
          <path
             inkscape:connector-curvature="0"
             id="path5451"
             d="m -0.928966,891.7625 30.609908,114.2377"
             style="fill:none;stroke:#ffffff;stroke-width:1.01765091999999990;stroke-linecap:butt;stroke-linejoin:miter;stroke-miterlimit:4;stroke-opacity:1;stroke-dasharray:none" />
          <path
             style="fill:none;stroke:#ffffff;stroke-width:1.01765091999999990;stroke-linecap:butt;stroke-linejoin:miter;stroke-miterlimit:4;stroke-opacity:1;stroke-dasharray:none"
             d="m 1.071034,891.7625 30.609908,114.2377"
             id="path5453"
             inkscape:connector-curvature="0" />
          <path
             inkscape:connector-curvature="0"
             id="path5455"
             d="m 3.071034,891.7625 30.609908,114.2377"
             style="fill:none;stroke:#ffffff;stroke-width:1.01765091999999990;stroke-linecap:butt;stroke-linejoin:miter;stroke-miterlimit:4;stroke-opacity:1;stroke-dasharray:none" />
          <path
             style="fill:none;stroke:#ffffff;stroke-width:1.01765091999999990;stroke-linecap:butt;stroke-linejoin:miter;stroke-miterlimit:4;stroke-opacity:1;stroke-dasharray:none"
             d="m 5.071034,891.7625 30.609908,114.2377"
             id="path5457"
             inkscape:connector-curvature="0" />
          <path
             inkscape:connector-curvature="0"
             id="path5459"
             d="m 7.071034,891.7625 30.609908,114.2377"
             style="fill:none;stroke:#ffffff;stroke-width:1.01765091999999990;stroke-linecap:butt;stroke-linejoin:miter;stroke-miterlimit:4;stroke-opacity:1;stroke-dasharray:none" />
          <path
             style="fill:none;stroke:#ffffff;stroke-width:1.01765091999999990;stroke-linecap:butt;stroke-linejoin:miter;stroke-miterlimit:4;stroke-opacity:1;stroke-dasharray:none"
             d="m 9.071034,891.7625 30.609908,114.2377"
             id="path5461"
             inkscape:connector-curvature="0" />
          <path
             inkscape:connector-curvature="0"
             id="path5463"
             d="m 11.071034,891.7625 30.609908,114.2377"
             style="fill:none;stroke:#ffffff;stroke-width:1.01765091999999990;stroke-linecap:butt;stroke-linejoin:miter;stroke-miterlimit:4;stroke-opacity:1;stroke-dasharray:none" />
          <path
             style="fill:none;stroke:#ffffff;stroke-width:1.01765091999999990;stroke-linecap:butt;stroke-linejoin:miter;stroke-miterlimit:4;stroke-opacity:1;stroke-dasharray:none"
             d="m 13.071034,891.7625 30.609908,114.2377"
             id="path5465"
             inkscape:connector-curvature="0" />
          <path
             inkscape:connector-curvature="0"
             id="path5467"
             d="m 15.071034,891.7625 30.609908,114.2377"
             style="fill:none;stroke:#ffffff;stroke-width:1.01765091999999990;stroke-linecap:butt;stroke-linejoin:miter;stroke-miterlimit:4;stroke-opacity:1;stroke-dasharray:none" />
          <path
             style="fill:none;stroke:#ffffff;stroke-width:1.01765091999999990;stroke-linecap:butt;stroke-linejoin:miter;stroke-miterlimit:4;stroke-opacity:1;stroke-dasharray:none"
             d="m 17.071034,891.7625 30.609908,114.2377"
             id="path5469"
             inkscape:connector-curvature="0" />
          <path
             inkscape:connector-curvature="0"
             id="path5471"
             d="m 19.071034,891.7625 30.609908,114.2377"
             style="fill:none;stroke:#ffffff;stroke-width:1.01765091999999990;stroke-linecap:butt;stroke-linejoin:miter;stroke-miterlimit:4;stroke-opacity:1;stroke-dasharray:none" />
          <path
             style="fill:none;stroke:#ffffff;stroke-width:1.01765091999999990;stroke-linecap:butt;stroke-linejoin:miter;stroke-miterlimit:4;stroke-opacity:1;stroke-dasharray:none"
             d="m 21.071034,891.7625 30.609908,114.2377"
             id="path5473"
             inkscape:connector-curvature="0" />
          <path
             inkscape:connector-curvature="0"
             id="path5475"
             d="m 23.071034,891.7625 30.609908,114.2377"
             style="fill:none;stroke:#ffffff;stroke-width:1.01765091999999990;stroke-linecap:butt;stroke-linejoin:miter;stroke-miterlimit:4;stroke-opacity:1;stroke-dasharray:none" />
        </g>
        <g
           style="stroke-width:1.01765091999999990;stroke-miterlimit:4;stroke-dasharray:none"
           transform="translate(112,0)"
           id="g5477">
          <path
             transform="translate(-18.485315,884.7229)"
             inkscape:connector-curvature="0"
             id="path5479"
             d="M 15.556349,7.0395996 46.166257,121.27733"
             style="fill:none;stroke:#ffffff;stroke-width:1.01765091999999990;stroke-linecap:butt;stroke-linejoin:miter;stroke-miterlimit:4;stroke-opacity:1;stroke-dasharray:none" />
          <path
             style="fill:none;stroke:#ffffff;stroke-width:1.01765091999999990;stroke-linecap:butt;stroke-linejoin:miter;stroke-miterlimit:4;stroke-opacity:1;stroke-dasharray:none"
             d="m -0.928966,891.7625 30.609908,114.2377"
             id="path5481"
             inkscape:connector-curvature="0" />
          <path
             inkscape:connector-curvature="0"
             id="path5483"
             d="m 1.071034,891.7625 30.609908,114.2377"
             style="fill:none;stroke:#ffffff;stroke-width:1.01765091999999990;stroke-linecap:butt;stroke-linejoin:miter;stroke-miterlimit:4;stroke-opacity:1;stroke-dasharray:none" />
          <path
             style="fill:none;stroke:#ffffff;stroke-width:1.01765091999999990;stroke-linecap:butt;stroke-linejoin:miter;stroke-miterlimit:4;stroke-opacity:1;stroke-dasharray:none"
             d="m 3.071034,891.7625 30.609908,114.2377"
             id="path5485"
             inkscape:connector-curvature="0" />
          <path
             inkscape:connector-curvature="0"
             id="path5487"
             d="m 5.071034,891.7625 30.609908,114.2377"
             style="fill:none;stroke:#ffffff;stroke-width:1.01765091999999990;stroke-linecap:butt;stroke-linejoin:miter;stroke-miterlimit:4;stroke-opacity:1;stroke-dasharray:none" />
          <path
             style="fill:none;stroke:#ffffff;stroke-width:1.01765091999999990;stroke-linecap:butt;stroke-linejoin:miter;stroke-miterlimit:4;stroke-opacity:1;stroke-dasharray:none"
             d="m 7.071034,891.7625 30.609908,114.2377"
             id="path5489"
             inkscape:connector-curvature="0" />
          <path
             inkscape:connector-curvature="0"
             id="path5491"
             d="m 9.071034,891.7625 30.609908,114.2377"
             style="fill:none;stroke:#ffffff;stroke-width:1.01765091999999990;stroke-linecap:butt;stroke-linejoin:miter;stroke-miterlimit:4;stroke-opacity:1;stroke-dasharray:none" />
          <path
             style="fill:none;stroke:#ffffff;stroke-width:1.01765091999999990;stroke-linecap:butt;stroke-linejoin:miter;stroke-miterlimit:4;stroke-opacity:1;stroke-dasharray:none"
             d="m 11.071034,891.7625 30.609908,114.2377"
             id="path5493"
             inkscape:connector-curvature="0" />
          <path
             inkscape:connector-curvature="0"
             id="path5495"
             d="m 13.071034,891.7625 30.609908,114.2377"
             style="fill:none;stroke:#ffffff;stroke-width:1.01765091999999990;stroke-linecap:butt;stroke-linejoin:miter;stroke-miterlimit:4;stroke-opacity:1;stroke-dasharray:none" />
          <path
             style="fill:none;stroke:#ffffff;stroke-width:1.01765091999999990;stroke-linecap:butt;stroke-linejoin:miter;stroke-miterlimit:4;stroke-opacity:1;stroke-dasharray:none"
             d="m 15.071034,891.7625 30.609908,114.2377"
             id="path5497"
             inkscape:connector-curvature="0" />
          <path
             inkscape:connector-curvature="0"
             id="path5499"
             d="m 17.071034,891.7625 30.609908,114.2377"
             style="fill:none;stroke:#ffffff;stroke-width:1.01765091999999990;stroke-linecap:butt;stroke-linejoin:miter;stroke-miterlimit:4;stroke-opacity:1;stroke-dasharray:none" />
          <path
             style="fill:none;stroke:#ffffff;stroke-width:1.01765091999999990;stroke-linecap:butt;stroke-linejoin:miter;stroke-miterlimit:4;stroke-opacity:1;stroke-dasharray:none"
             d="m 19.071034,891.7625 30.609908,114.2377"
             id="path5501"
             inkscape:connector-curvature="0" />
          <path
             inkscape:connector-curvature="0"
             id="path5503"
             d="m 21.071034,891.7625 30.609908,114.2377"
             style="fill:none;stroke:#ffffff;stroke-width:1.01765091999999990;stroke-linecap:butt;stroke-linejoin:miter;stroke-miterlimit:4;stroke-opacity:1;stroke-dasharray:none" />
          <path
             style="fill:none;stroke:#ffffff;stroke-width:1.01765091999999990;stroke-linecap:butt;stroke-linejoin:miter;stroke-miterlimit:4;stroke-opacity:1;stroke-dasharray:none"
             d="m 23.071034,891.7625 30.609908,114.2377"
             id="path5505"
             inkscape:connector-curvature="0" />
        </g>
        <g
           style="stroke-width:1.01765091999999990;stroke-miterlimit:4;stroke-dasharray:none"
           id="g5507"
           transform="translate(140,0)">
          <path
             style="fill:none;stroke:#ffffff;stroke-width:1.01765091999999990;stroke-linecap:butt;stroke-linejoin:miter;stroke-miterlimit:4;stroke-opacity:1;stroke-dasharray:none"
             d="M 15.556349,7.0395996 46.166257,121.27733"
             id="path5509"
             inkscape:connector-curvature="0"
             transform="translate(-18.485315,884.7229)" />
          <path
             inkscape:connector-curvature="0"
             id="path5511"
             d="m -0.928966,891.7625 30.609908,114.2377"
             style="fill:none;stroke:#ffffff;stroke-width:1.01765091999999990;stroke-linecap:butt;stroke-linejoin:miter;stroke-miterlimit:4;stroke-opacity:1;stroke-dasharray:none" />
          <path
             style="fill:none;stroke:#ffffff;stroke-width:1.01765091999999990;stroke-linecap:butt;stroke-linejoin:miter;stroke-miterlimit:4;stroke-opacity:1;stroke-dasharray:none"
             d="m 1.071034,891.7625 30.609908,114.2377"
             id="path5513"
             inkscape:connector-curvature="0" />
          <path
             inkscape:connector-curvature="0"
             id="path5515"
             d="m 3.071034,891.7625 30.609908,114.2377"
             style="fill:none;stroke:#ffffff;stroke-width:1.01765091999999990;stroke-linecap:butt;stroke-linejoin:miter;stroke-miterlimit:4;stroke-opacity:1;stroke-dasharray:none" />
          <path
             style="fill:none;stroke:#ffffff;stroke-width:1.01765091999999990;stroke-linecap:butt;stroke-linejoin:miter;stroke-miterlimit:4;stroke-opacity:1;stroke-dasharray:none"
             d="m 5.071034,891.7625 30.609908,114.2377"
             id="path5517"
             inkscape:connector-curvature="0" />
          <path
             inkscape:connector-curvature="0"
             id="path5519"
             d="m 7.071034,891.7625 30.609908,114.2377"
             style="fill:none;stroke:#ffffff;stroke-width:1.01765091999999990;stroke-linecap:butt;stroke-linejoin:miter;stroke-miterlimit:4;stroke-opacity:1;stroke-dasharray:none" />
          <path
             style="fill:none;stroke:#ffffff;stroke-width:1.01765091999999990;stroke-linecap:butt;stroke-linejoin:miter;stroke-miterlimit:4;stroke-opacity:1;stroke-dasharray:none"
             d="m 9.071034,891.7625 30.609908,114.2377"
             id="path5521"
             inkscape:connector-curvature="0" />
          <path
             inkscape:connector-curvature="0"
             id="path5523"
             d="m 11.071034,891.7625 30.609908,114.2377"
             style="fill:none;stroke:#ffffff;stroke-width:1.01765091999999990;stroke-linecap:butt;stroke-linejoin:miter;stroke-miterlimit:4;stroke-opacity:1;stroke-dasharray:none" />
          <path
             style="fill:none;stroke:#ffffff;stroke-width:1.01765091999999990;stroke-linecap:butt;stroke-linejoin:miter;stroke-miterlimit:4;stroke-opacity:1;stroke-dasharray:none"
             d="m 13.071034,891.7625 30.609908,114.2377"
             id="path5525"
             inkscape:connector-curvature="0" />
          <path
             inkscape:connector-curvature="0"
             id="path5527"
             d="m 15.071034,891.7625 30.609908,114.2377"
             style="fill:none;stroke:#ffffff;stroke-width:1.01765091999999990;stroke-linecap:butt;stroke-linejoin:miter;stroke-miterlimit:4;stroke-opacity:1;stroke-dasharray:none" />
          <path
             style="fill:none;stroke:#ffffff;stroke-width:1.01765091999999990;stroke-linecap:butt;stroke-linejoin:miter;stroke-miterlimit:4;stroke-opacity:1;stroke-dasharray:none"
             d="m 17.071034,891.7625 30.609908,114.2377"
             id="path5529"
             inkscape:connector-curvature="0" />
          <path
             inkscape:connector-curvature="0"
             id="path5531"
             d="m 19.071034,891.7625 30.609908,114.2377"
             style="fill:none;stroke:#ffffff;stroke-width:1.01765091999999990;stroke-linecap:butt;stroke-linejoin:miter;stroke-miterlimit:4;stroke-opacity:1;stroke-dasharray:none" />
          <path
             style="fill:none;stroke:#ffffff;stroke-width:1.01765091999999990;stroke-linecap:butt;stroke-linejoin:miter;stroke-miterlimit:4;stroke-opacity:1;stroke-dasharray:none"
             d="m 21.071034,891.7625 30.609908,114.2377"
             id="path5533"
             inkscape:connector-curvature="0" />
          <path
             inkscape:connector-curvature="0"
             id="path5535"
             d="m 23.071034,891.7625 30.609908,114.2377"
             style="fill:none;stroke:#ffffff;stroke-width:1.01765091999999990;stroke-linecap:butt;stroke-linejoin:miter;stroke-miterlimit:4;stroke-opacity:1;stroke-dasharray:none" />
        </g>
        <g
           style="stroke-width:1.01765091999999990;stroke-miterlimit:4;stroke-dasharray:none"
           transform="translate(168,0)"
           id="g5537">
          <path
             transform="translate(-18.485315,884.7229)"
             inkscape:connector-curvature="0"
             id="path5539"
             d="M 15.556349,7.0395996 46.166257,121.27733"
             style="fill:none;stroke:#ffffff;stroke-width:1.01765091999999990;stroke-linecap:butt;stroke-linejoin:miter;stroke-miterlimit:4;stroke-opacity:1;stroke-dasharray:none" />
          <path
             style="fill:none;stroke:#ffffff;stroke-width:1.01765091999999990;stroke-linecap:butt;stroke-linejoin:miter;stroke-miterlimit:4;stroke-opacity:1;stroke-dasharray:none"
             d="m -0.928966,891.7625 30.609908,114.2377"
             id="path5541"
             inkscape:connector-curvature="0" />
          <path
             inkscape:connector-curvature="0"
             id="path5543"
             d="m 1.071034,891.7625 30.609908,114.2377"
             style="fill:none;stroke:#ffffff;stroke-width:1.01765091999999990;stroke-linecap:butt;stroke-linejoin:miter;stroke-miterlimit:4;stroke-opacity:1;stroke-dasharray:none" />
          <path
             style="fill:none;stroke:#ffffff;stroke-width:1.01765091999999990;stroke-linecap:butt;stroke-linejoin:miter;stroke-miterlimit:4;stroke-opacity:1;stroke-dasharray:none"
             d="m 3.071034,891.7625 30.609908,114.2377"
             id="path5545"
             inkscape:connector-curvature="0" />
          <path
             inkscape:connector-curvature="0"
             id="path5547"
             d="m 5.071034,891.7625 30.609908,114.2377"
             style="fill:none;stroke:#ffffff;stroke-width:1.01765091999999990;stroke-linecap:butt;stroke-linejoin:miter;stroke-miterlimit:4;stroke-opacity:1;stroke-dasharray:none" />
          <path
             style="fill:none;stroke:#ffffff;stroke-width:1.01765091999999990;stroke-linecap:butt;stroke-linejoin:miter;stroke-miterlimit:4;stroke-opacity:1;stroke-dasharray:none"
             d="m 7.071034,891.7625 30.609908,114.2377"
             id="path5549"
             inkscape:connector-curvature="0" />
          <path
             inkscape:connector-curvature="0"
             id="path5551"
             d="m 9.071034,891.7625 30.609908,114.2377"
             style="fill:none;stroke:#ffffff;stroke-width:1.01765091999999990;stroke-linecap:butt;stroke-linejoin:miter;stroke-miterlimit:4;stroke-opacity:1;stroke-dasharray:none" />
          <path
             style="fill:none;stroke:#ffffff;stroke-width:1.01765091999999990;stroke-linecap:butt;stroke-linejoin:miter;stroke-miterlimit:4;stroke-opacity:1;stroke-dasharray:none"
             d="m 11.071034,891.7625 30.609908,114.2377"
             id="path5553"
             inkscape:connector-curvature="0" />
          <path
             inkscape:connector-curvature="0"
             id="path5555"
             d="m 13.071034,891.7625 30.609908,114.2377"
             style="fill:none;stroke:#ffffff;stroke-width:1.01765091999999990;stroke-linecap:butt;stroke-linejoin:miter;stroke-miterlimit:4;stroke-opacity:1;stroke-dasharray:none" />
          <path
             style="fill:none;stroke:#ffffff;stroke-width:1.01765091999999990;stroke-linecap:butt;stroke-linejoin:miter;stroke-miterlimit:4;stroke-opacity:1;stroke-dasharray:none"
             d="m 15.071034,891.7625 30.609908,114.2377"
             id="path5557"
             inkscape:connector-curvature="0" />
          <path
             inkscape:connector-curvature="0"
             id="path5559"
             d="m 17.071034,891.7625 30.609908,114.2377"
             style="fill:none;stroke:#ffffff;stroke-width:1.01765091999999990;stroke-linecap:butt;stroke-linejoin:miter;stroke-miterlimit:4;stroke-opacity:1;stroke-dasharray:none" />
          <path
             style="fill:none;stroke:#ffffff;stroke-width:1.01765091999999990;stroke-linecap:butt;stroke-linejoin:miter;stroke-miterlimit:4;stroke-opacity:1;stroke-dasharray:none"
             d="m 19.071034,891.7625 30.609908,114.2377"
             id="path5561"
             inkscape:connector-curvature="0" />
          <path
             inkscape:connector-curvature="0"
             id="path5563"
             d="m 21.071034,891.7625 30.609908,114.2377"
             style="fill:none;stroke:#ffffff;stroke-width:1.01765091999999990;stroke-linecap:butt;stroke-linejoin:miter;stroke-miterlimit:4;stroke-opacity:1;stroke-dasharray:none" />
          <path
             style="fill:none;stroke:#ffffff;stroke-width:1.01765091999999990;stroke-linecap:butt;stroke-linejoin:miter;stroke-miterlimit:4;stroke-opacity:1;stroke-dasharray:none"
             d="m 23.071034,891.7625 30.609908,114.2377"
             id="path5565"
             inkscape:connector-curvature="0" />
        </g>
        <g
           style="stroke-width:1.01765091999999990;stroke-miterlimit:4;stroke-dasharray:none"
           id="g5567"
           transform="translate(196,0)">
          <path
             style="fill:none;stroke:#ffffff;stroke-width:1.01765091999999990;stroke-linecap:butt;stroke-linejoin:miter;stroke-miterlimit:4;stroke-opacity:1;stroke-dasharray:none"
             d="M 15.556349,7.0395996 46.166257,121.27733"
             id="path5569"
             inkscape:connector-curvature="0"
             transform="translate(-18.485315,884.7229)" />
          <path
             inkscape:connector-curvature="0"
             id="path5571"
             d="m -0.928966,891.7625 30.609908,114.2377"
             style="fill:none;stroke:#ffffff;stroke-width:1.01765091999999990;stroke-linecap:butt;stroke-linejoin:miter;stroke-miterlimit:4;stroke-opacity:1;stroke-dasharray:none" />
          <path
             style="fill:none;stroke:#ffffff;stroke-width:1.01765091999999990;stroke-linecap:butt;stroke-linejoin:miter;stroke-miterlimit:4;stroke-opacity:1;stroke-dasharray:none"
             d="m 1.071034,891.7625 30.609908,114.2377"
             id="path5573"
             inkscape:connector-curvature="0" />
          <path
             inkscape:connector-curvature="0"
             id="path5575"
             d="m 3.071034,891.7625 30.609908,114.2377"
             style="fill:none;stroke:#ffffff;stroke-width:1.01765091999999990;stroke-linecap:butt;stroke-linejoin:miter;stroke-miterlimit:4;stroke-opacity:1;stroke-dasharray:none" />
          <path
             style="fill:none;stroke:#ffffff;stroke-width:1.01765091999999990;stroke-linecap:butt;stroke-linejoin:miter;stroke-miterlimit:4;stroke-opacity:1;stroke-dasharray:none"
             d="m 5.071034,891.7625 30.609908,114.2377"
             id="path5577"
             inkscape:connector-curvature="0" />
          <path
             inkscape:connector-curvature="0"
             id="path5579"
             d="m 7.071034,891.7625 30.609908,114.2377"
             style="fill:none;stroke:#ffffff;stroke-width:1.01765091999999990;stroke-linecap:butt;stroke-linejoin:miter;stroke-miterlimit:4;stroke-opacity:1;stroke-dasharray:none" />
          <path
             style="fill:none;stroke:#ffffff;stroke-width:1.01765091999999990;stroke-linecap:butt;stroke-linejoin:miter;stroke-miterlimit:4;stroke-opacity:1;stroke-dasharray:none"
             d="m 9.071034,891.7625 30.609908,114.2377"
             id="path5581"
             inkscape:connector-curvature="0" />
          <path
             inkscape:connector-curvature="0"
             id="path5583"
             d="m 11.071034,891.7625 30.609908,114.2377"
             style="fill:none;stroke:#ffffff;stroke-width:1.01765091999999990;stroke-linecap:butt;stroke-linejoin:miter;stroke-miterlimit:4;stroke-opacity:1;stroke-dasharray:none" />
          <path
             style="fill:none;stroke:#ffffff;stroke-width:1.01765091999999990;stroke-linecap:butt;stroke-linejoin:miter;stroke-miterlimit:4;stroke-opacity:1;stroke-dasharray:none"
             d="m 13.071034,891.7625 30.609908,114.2377"
             id="path5585"
             inkscape:connector-curvature="0" />
          <path
             inkscape:connector-curvature="0"
             id="path5587"
             d="m 15.071034,891.7625 30.609908,114.2377"
             style="fill:none;stroke:#ffffff;stroke-width:1.01765091999999990;stroke-linecap:butt;stroke-linejoin:miter;stroke-miterlimit:4;stroke-opacity:1;stroke-dasharray:none" />
          <path
             style="fill:none;stroke:#ffffff;stroke-width:1.01765091999999990;stroke-linecap:butt;stroke-linejoin:miter;stroke-miterlimit:4;stroke-opacity:1;stroke-dasharray:none"
             d="m 17.071034,891.7625 30.609908,114.2377"
             id="path5589"
             inkscape:connector-curvature="0" />
          <path
             inkscape:connector-curvature="0"
             id="path5591"
             d="m 19.071034,891.7625 30.609908,114.2377"
             style="fill:none;stroke:#ffffff;stroke-width:1.01765091999999990;stroke-linecap:butt;stroke-linejoin:miter;stroke-miterlimit:4;stroke-opacity:1;stroke-dasharray:none" />
          <path
             style="fill:none;stroke:#ffffff;stroke-width:1.01765091999999990;stroke-linecap:butt;stroke-linejoin:miter;stroke-miterlimit:4;stroke-opacity:1;stroke-dasharray:none"
             d="m 21.071034,891.7625 30.609908,114.2377"
             id="path5593"
             inkscape:connector-curvature="0" />
          <path
             inkscape:connector-curvature="0"
             id="path5595"
             d="m 23.071034,891.7625 30.609908,114.2377"
             style="fill:none;stroke:#ffffff;stroke-width:1.01765091999999990;stroke-linecap:butt;stroke-linejoin:miter;stroke-miterlimit:4;stroke-opacity:1;stroke-dasharray:none" />
        </g>
        <g
           style="stroke-width:1.01765091999999990;stroke-miterlimit:4;stroke-dasharray:none"
           transform="translate(224,0)"
           id="g5597">
          <path
             transform="translate(-18.485315,884.7229)"
             inkscape:connector-curvature="0"
             id="path5599"
             d="M 15.556349,7.0395996 46.166257,121.27733"
             style="fill:none;stroke:#ffffff;stroke-width:1.01765091999999990;stroke-linecap:butt;stroke-linejoin:miter;stroke-miterlimit:4;stroke-opacity:1;stroke-dasharray:none" />
          <path
             style="fill:none;stroke:#ffffff;stroke-width:1.01765091999999990;stroke-linecap:butt;stroke-linejoin:miter;stroke-miterlimit:4;stroke-opacity:1;stroke-dasharray:none"
             d="m -0.928966,891.7625 30.609908,114.2377"
             id="path5601"
             inkscape:connector-curvature="0" />
          <path
             inkscape:connector-curvature="0"
             id="path5603"
             d="m 1.071034,891.7625 30.609908,114.2377"
             style="fill:none;stroke:#ffffff;stroke-width:1.01765091999999990;stroke-linecap:butt;stroke-linejoin:miter;stroke-miterlimit:4;stroke-opacity:1;stroke-dasharray:none" />
          <path
             style="fill:none;stroke:#ffffff;stroke-width:1.01765091999999990;stroke-linecap:butt;stroke-linejoin:miter;stroke-miterlimit:4;stroke-opacity:1;stroke-dasharray:none"
             d="m 3.071034,891.7625 30.609908,114.2377"
             id="path5605"
             inkscape:connector-curvature="0" />
          <path
             inkscape:connector-curvature="0"
             id="path5607"
             d="m 5.071034,891.7625 30.609908,114.2377"
             style="fill:none;stroke:#ffffff;stroke-width:1.01765091999999990;stroke-linecap:butt;stroke-linejoin:miter;stroke-miterlimit:4;stroke-opacity:1;stroke-dasharray:none" />
          <path
             style="fill:none;stroke:#ffffff;stroke-width:1.01765091999999990;stroke-linecap:butt;stroke-linejoin:miter;stroke-miterlimit:4;stroke-opacity:1;stroke-dasharray:none"
             d="m 7.071034,891.7625 30.609908,114.2377"
             id="path5609"
             inkscape:connector-curvature="0" />
          <path
             inkscape:connector-curvature="0"
             id="path5611"
             d="m 9.071034,891.7625 30.609908,114.2377"
             style="fill:none;stroke:#ffffff;stroke-width:1.01765091999999990;stroke-linecap:butt;stroke-linejoin:miter;stroke-miterlimit:4;stroke-opacity:1;stroke-dasharray:none" />
          <path
             style="fill:none;stroke:#ffffff;stroke-width:1.01765091999999990;stroke-linecap:butt;stroke-linejoin:miter;stroke-miterlimit:4;stroke-opacity:1;stroke-dasharray:none"
             d="m 11.071034,891.7625 30.609908,114.2377"
             id="path5613"
             inkscape:connector-curvature="0" />
          <path
             inkscape:connector-curvature="0"
             id="path5615"
             d="m 13.071034,891.7625 30.609908,114.2377"
             style="fill:none;stroke:#ffffff;stroke-width:1.01765091999999990;stroke-linecap:butt;stroke-linejoin:miter;stroke-miterlimit:4;stroke-opacity:1;stroke-dasharray:none" />
          <path
             style="fill:none;stroke:#ffffff;stroke-width:1.01765091999999990;stroke-linecap:butt;stroke-linejoin:miter;stroke-miterlimit:4;stroke-opacity:1;stroke-dasharray:none"
             d="m 15.071034,891.7625 30.609908,114.2377"
             id="path5617"
             inkscape:connector-curvature="0" />
          <path
             inkscape:connector-curvature="0"
             id="path5619"
             d="m 17.071034,891.7625 30.609908,114.2377"
             style="fill:none;stroke:#ffffff;stroke-width:1.01765091999999990;stroke-linecap:butt;stroke-linejoin:miter;stroke-miterlimit:4;stroke-opacity:1;stroke-dasharray:none" />
          <path
             style="fill:none;stroke:#ffffff;stroke-width:1.01765091999999990;stroke-linecap:butt;stroke-linejoin:miter;stroke-miterlimit:4;stroke-opacity:1;stroke-dasharray:none"
             d="m 19.071034,891.7625 30.609908,114.2377"
             id="path5621"
             inkscape:connector-curvature="0" />
          <path
             inkscape:connector-curvature="0"
             id="path5623"
             d="m 21.071034,891.7625 30.609908,114.2377"
             style="fill:none;stroke:#ffffff;stroke-width:1.01765091999999990;stroke-linecap:butt;stroke-linejoin:miter;stroke-miterlimit:4;stroke-opacity:1;stroke-dasharray:none" />
          <path
             style="fill:none;stroke:#ffffff;stroke-width:1.01765091999999990;stroke-linecap:butt;stroke-linejoin:miter;stroke-miterlimit:4;stroke-opacity:1;stroke-dasharray:none"
             d="m 23.071034,891.7625 30.609908,114.2377"
             id="path5625"
             inkscape:connector-curvature="0" />
        </g>
        <g
           style="stroke-width:1.01765091999999990;stroke-miterlimit:4;stroke-dasharray:none"
           id="g5627"
           transform="translate(-28,0)">
          <path
             style="fill:none;stroke:#ffffff;stroke-width:1.01765091999999990;stroke-linecap:butt;stroke-linejoin:miter;stroke-miterlimit:4;stroke-opacity:1;stroke-dasharray:none"
             d="M 15.556349,7.0395996 46.166257,121.27733"
             id="path5629"
             inkscape:connector-curvature="0"
             transform="translate(-18.485315,884.7229)" />
          <path
             inkscape:connector-curvature="0"
             id="path5631"
             d="m -0.928966,891.7625 30.609908,114.2377"
             style="fill:none;stroke:#ffffff;stroke-width:1.01765091999999990;stroke-linecap:butt;stroke-linejoin:miter;stroke-miterlimit:4;stroke-opacity:1;stroke-dasharray:none" />
          <path
             style="fill:none;stroke:#ffffff;stroke-width:1.01765091999999990;stroke-linecap:butt;stroke-linejoin:miter;stroke-miterlimit:4;stroke-opacity:1;stroke-dasharray:none"
             d="m 1.071034,891.7625 30.609908,114.2377"
             id="path5633"
             inkscape:connector-curvature="0" />
          <path
             inkscape:connector-curvature="0"
             id="path5635"
             d="m 3.071034,891.7625 30.609908,114.2377"
             style="fill:none;stroke:#ffffff;stroke-width:1.01765091999999990;stroke-linecap:butt;stroke-linejoin:miter;stroke-miterlimit:4;stroke-opacity:1;stroke-dasharray:none" />
          <path
             style="fill:none;stroke:#ffffff;stroke-width:1.01765091999999990;stroke-linecap:butt;stroke-linejoin:miter;stroke-miterlimit:4;stroke-opacity:1;stroke-dasharray:none"
             d="m 5.071034,891.7625 30.609908,114.2377"
             id="path5637"
             inkscape:connector-curvature="0" />
          <path
             inkscape:connector-curvature="0"
             id="path5639"
             d="m 7.071034,891.7625 30.609908,114.2377"
             style="fill:none;stroke:#ffffff;stroke-width:1.01765091999999990;stroke-linecap:butt;stroke-linejoin:miter;stroke-miterlimit:4;stroke-opacity:1;stroke-dasharray:none" />
          <path
             style="fill:none;stroke:#ffffff;stroke-width:1.01765091999999990;stroke-linecap:butt;stroke-linejoin:miter;stroke-miterlimit:4;stroke-opacity:1;stroke-dasharray:none"
             d="m 9.071034,891.7625 30.609908,114.2377"
             id="path5641"
             inkscape:connector-curvature="0" />
          <path
             inkscape:connector-curvature="0"
             id="path5643"
             d="m 11.071034,891.7625 30.609908,114.2377"
             style="fill:none;stroke:#ffffff;stroke-width:1.01765091999999990;stroke-linecap:butt;stroke-linejoin:miter;stroke-miterlimit:4;stroke-opacity:1;stroke-dasharray:none" />
          <path
             style="fill:none;stroke:#ffffff;stroke-width:1.01765091999999990;stroke-linecap:butt;stroke-linejoin:miter;stroke-miterlimit:4;stroke-opacity:1;stroke-dasharray:none"
             d="m 13.071034,891.7625 30.609908,114.2377"
             id="path5645"
             inkscape:connector-curvature="0" />
          <path
             inkscape:connector-curvature="0"
             id="path5647"
             d="m 15.071034,891.7625 30.609908,114.2377"
             style="fill:none;stroke:#ffffff;stroke-width:1.01765091999999990;stroke-linecap:butt;stroke-linejoin:miter;stroke-miterlimit:4;stroke-opacity:1;stroke-dasharray:none" />
          <path
             style="fill:none;stroke:#ffffff;stroke-width:1.01765091999999990;stroke-linecap:butt;stroke-linejoin:miter;stroke-miterlimit:4;stroke-opacity:1;stroke-dasharray:none"
             d="m 17.071034,891.7625 30.609908,114.2377"
             id="path5649"
             inkscape:connector-curvature="0" />
          <path
             inkscape:connector-curvature="0"
             id="path5651"
             d="m 19.071034,891.7625 30.609908,114.2377"
             style="fill:none;stroke:#ffffff;stroke-width:1.01765091999999990;stroke-linecap:butt;stroke-linejoin:miter;stroke-miterlimit:4;stroke-opacity:1;stroke-dasharray:none" />
          <path
             style="fill:none;stroke:#ffffff;stroke-width:1.01765091999999990;stroke-linecap:butt;stroke-linejoin:miter;stroke-miterlimit:4;stroke-opacity:1;stroke-dasharray:none"
             d="m 21.071034,891.7625 30.609908,114.2377"
             id="path5653"
             inkscape:connector-curvature="0" />
          <path
             inkscape:connector-curvature="0"
             id="path5655"
             d="m 23.071034,891.7625 30.609908,114.2377"
             style="fill:none;stroke:#ffffff;stroke-width:1.01765091999999990;stroke-linecap:butt;stroke-linejoin:miter;stroke-miterlimit:4;stroke-opacity:1;stroke-dasharray:none" />
        </g>
      </g>
      <rect
         y="890.34827"
         x="-1.514753"
         height="7.0710683"
         width="254.55844"
         id="rect5341"
         style="fill:#ffffff;fill-opacity:1;stroke:none" />
    </g>
    <path
       inkscape:connector-curvature="0"
       id="path3278"
       d="m -3.7729252,1006.2913 244.5233152,0"
       style="fill:none;stroke:#000000;stroke-width:1.67228519999999992;stroke-linecap:butt;stroke-linejoin:miter;stroke-miterlimit:4;stroke-opacity:1;stroke-dasharray:none" />
    <path
       sodipodi:type="arc"
       style="fill:#005f86;fill-opacity:1;stroke:#d6d2c4;stroke-width:2;stroke-linecap:round;stroke-linejoin:round;stroke-miterlimit:4;stroke-opacity:1;stroke-dasharray:none;stroke-dashoffset:0"
       id="path4186"
       sodipodi:cx="161"
       sodipodi:cy="-42.540771"
       sodipodi:rx="3.5"
       sodipodi:ry="3.5"
       d="m 164.5,-42.540771 c 0,1.932996 -1.567,3.5 -3.5,3.5 -1.933,0 -3.5,-1.567004 -3.5,-3.5 0,-1.932997 1.567,-3.5 3.5,-3.5 1.933,0 3.5,1.567003 3.5,3.5 z"
       transform="matrix(1.25,0,0,1.25,40.31767,1058.7305)" />
    <text
       xml:space="preserve"
       style="font-size:18px;font-style:normal;font-variant:normal;font-weight:bold;font-stretch:normal;line-height:125%;letter-spacing:0px;word-spacing:0px;fill:#000000;fill-opacity:1;stroke:none;font-family:Asana Math;-inkscape-font-specification:Asana Math"
       x="119.91507"
       y="1000.4895"
       id="text4486"
       sodipodi:linespacing="125%"><tspan
         sodipodi:role="line"
         id="tspan4488"
         x="119.91507"
         y="1000.4895"
         style="-inkscape-font-specification:Latin Modern Math;font-family:Latin Modern Math;font-weight:normal;font-style:normal;font-stretch:normal;font-variant:normal">ξ</tspan></text>
    <g
       style="fill:#bf5700;stroke:#bf5700;stroke-width:0.50000000000000000;stroke-miterlimit:4;stroke-dasharray:none"
       transform="matrix(-4.9009641,0,0,-5.1311207,225.35255,5768.4113)"
       id="g4516">
      <path
         sodipodi:nodetypes="ccccc"
         style="fill:#000000;fill-opacity:1;stroke:#000000;stroke-width:0.02856796000000000;stroke-linecap:round;stroke-linejoin:round;stroke-miterlimit:4;stroke-opacity:1;stroke-dasharray:none"
         d="m 19.149282,930.37535 -3.6e-5,-0.14374 -3.972266,0.003 2.323066,0.62247 -0.553542,-0.46183"
         id="path4494"
         inkscape:connector-curvature="0" />
      <path
         inkscape:connector-curvature="0"
         id="path4514"
         d="m 19.152404,930.0898 -3.6e-5,0.14385 -3.975374,-0.003 2.324883,-0.62296 -0.553975,0.4622"
         style="fill:#000000;fill-opacity:1;stroke:#000000;stroke-width:0.02859031000000000;stroke-linecap:round;stroke-linejoin:round;stroke-miterlimit:4;stroke-opacity:1;stroke-dasharray:none"
         sodipodi:nodetypes="ccccc" />
    </g>
    <g
       style="fill:#bf5700;stroke:#bf5700;stroke-width:0.50000000000000000;stroke-miterlimit:4;stroke-dasharray:none"
       transform="matrix(0,4.9009639,-5.1311208,0,4762.1737,857.63114)"
       id="g4526">
      <path
         sodipodi:nodetypes="ccccc"
         style="fill:#000000;fill-opacity:1;stroke:#000000;stroke-width:0.02856796000000000;stroke-linecap:round;stroke-linejoin:round;stroke-miterlimit:4;stroke-opacity:1;stroke-dasharray:none"
         d="m 19.149282,930.37535 -3.6e-5,-0.14374 -3.972266,0.003 2.323066,0.62247 -0.553542,-0.46183"
         id="path4528"
         inkscape:connector-curvature="0" />
      <path
         inkscape:connector-curvature="0"
         id="path4530"
         d="m 19.152404,930.0898 -3.6e-5,0.14385 -3.975374,-0.003 2.324883,-0.62296 -0.553975,0.4622"
         style="fill:#000000;fill-opacity:1;stroke:#000000;stroke-width:0.02859031000000000;stroke-linecap:round;stroke-linejoin:round;stroke-miterlimit:4;stroke-opacity:1;stroke-dasharray:none"
         sodipodi:nodetypes="ccccc" />
    </g>
    <path
       transform="matrix(1.25,0,0,1.25,-204.84256,1058.9846)"
       d="m 164.5,-42.540771 c 0,1.932996 -1.567,3.5 -3.5,3.5 -1.933,0 -3.5,-1.567004 -3.5,-3.5 0,-1.932997 1.567,-3.5 3.5,-3.5 1.933,0 3.5,1.567003 3.5,3.5 z"
       sodipodi:ry="3.5"
       sodipodi:rx="3.5"
       sodipodi:cy="-42.540771"
       sodipodi:cx="161"
       id="path4188"
       style="fill:#bf5700;fill-opacity:1;stroke:#d6d2c4;stroke-width:2;stroke-linecap:round;stroke-linejoin:round;stroke-miterlimit:4;stroke-opacity:1;stroke-dasharray:none;stroke-dashoffset:0"
       sodipodi:type="arc" />
    <path
       style="fill:none;stroke:#000000;stroke-width:1.66189146000000010;stroke-linecap:butt;stroke-linejoin:miter;stroke-miterlimit:4;stroke-opacity:1;stroke-dasharray:none"
       d="m -3.7821664,915.41701 241.4931664,0"
       id="path3276"
       inkscape:connector-curvature="0" />
    <g
       id="g4196"
       transform="matrix(0,1,-1,0,937.8202,985.15553)">
      <text
         transform="matrix(0,-1,1,0,0,0)"
         xml:space="preserve"
         style="font-size:18px;font-style:normal;font-variant:normal;font-weight:bold;font-stretch:normal;line-height:125%;letter-spacing:0px;word-spacing:0px;fill:#000000;fill-opacity:1;stroke:none;font-family:Times New Roman;-inkscape-font-specification:Times New Roman"
         x="-953.4881"
         y="-12.645006"
         id="text4190"
         sodipodi:linespacing="125%"><tspan
           sodipodi:role="line"
           id="tspan4192"
           x="-953.4881"
           y="-12.645006"
           style="-inkscape-font-specification:Latin Modern Math;font-family:Latin Modern Math;font-weight:normal;font-style:normal;font-stretch:normal;font-variant:normal">ξ</tspan></text>
      <path
         transform="matrix(0.20208877,0,0,0.20208877,-59.806943,958.05186)"
         d="m 164.5,-42.540771 c 0,1.932996 -1.567,3.5 -3.5,3.5 -1.933,0 -3.5,-1.567004 -3.5,-3.5 0,-1.932997 1.567,-3.5 3.5,-3.5 1.933,0 3.5,1.567003 3.5,3.5 z"
         sodipodi:ry="3.5"
         sodipodi:rx="3.5"
         sodipodi:cy="-42.540771"
         sodipodi:cx="161"
         id="path4194"
         style="fill:#000000;fill-opacity:1;stroke:#000000;stroke-width:2;stroke-linecap:round;stroke-linejoin:round;stroke-miterlimit:4;stroke-opacity:1;stroke-dasharray:none;stroke-dashoffset:0"
         sodipodi:type="arc" />
    </g>
    <g
       id="g3274">
      <g
         transform="translate(-6,6)"
         id="g6859">
        <path
           style="fill:none;stroke:#bf5700;stroke-width:3.54330707000000000;stroke-linecap:round;stroke-linejoin:round;stroke-miterlimit:4;stroke-opacity:1;stroke-dasharray:7.08661416999999982, 3.54330708999999988, 1.77165353999999997, 3.54330708999999988;stroke-dashoffset:0"
           d="M 2.197558,999.5963 C 2.551112,974.31722 43.916859,909.79372 48.159499,909.44017"
           id="path3871"
           inkscape:connector-curvature="0"
           sodipodi:nodetypes="cc" />
        <path
           transform="matrix(1.232002,0,0,1.232002,-403.84695,901.62051)"
           d="m 342.94678,46.737251 c 0,1.269204 -1.02889,2.298097 -2.2981,2.298097 -1.2692,0 -2.2981,-1.028893 -2.2981,-2.298097 0,-1.269204 1.0289,-2.298097 2.2981,-2.298097 1.26921,0 2.2981,1.028893 2.2981,2.298097 z"
           sodipodi:ry="2.2980971"
           sodipodi:rx="2.2980971"
           sodipodi:cy="46.737251"
           sodipodi:cx="340.64868"
           id="path3085"
           style="fill:#ffffff;fill-opacity:1;stroke:#bf5700;stroke-width:2;stroke-linecap:round;stroke-linejoin:round;stroke-miterlimit:4;stroke-opacity:1;stroke-dasharray:none;stroke-dashoffset:0"
           sodipodi:type="arc" />
        <path
           sodipodi:type="arc"
           style="fill:#ffffff;fill-opacity:1;stroke:#bf5700;stroke-width:2;stroke-linecap:round;stroke-linejoin:round;stroke-miterlimit:4;stroke-opacity:1;stroke-dasharray:none;stroke-dashoffset:0"
           id="path3087"
           sodipodi:cx="340.64868"
           sodipodi:cy="46.737251"
           sodipodi:rx="2.2980971"
           sodipodi:ry="2.2980971"
           d="m 342.94678,46.737251 c 0,1.269204 -1.02889,2.298097 -2.2981,2.298097 -1.2692,0 -2.2981,-1.028893 -2.2981,-2.298097 0,-1.269204 1.0289,-2.298097 2.2981,-2.298097 1.26921,0 2.2981,1.028893 2.2981,2.298097 z"
           transform="matrix(1.232002,0,0,1.232002,-383.83439,867.43243)" />
        <path
           sodipodi:type="arc"
           style="fill:#43695b;fill-opacity:1;stroke:#bf5700;stroke-width:2;stroke-linecap:round;stroke-linejoin:round;stroke-miterlimit:4;stroke-opacity:1;stroke-dasharray:none;stroke-dashoffset:0"
           id="path3881"
           sodipodi:cx="340.64868"
           sodipodi:cy="46.737251"
           sodipodi:rx="2.2980971"
           sodipodi:ry="2.2980971"
           d="m 342.94678,46.737251 c 0,1.269204 -1.02889,2.298097 -2.2981,2.298097 -1.2692,0 -2.2981,-1.028893 -2.2981,-2.298097 0,-1.269204 1.0289,-2.298097 2.2981,-2.298097 1.26921,0 2.2981,1.028893 2.2981,2.298097 z"
           transform="matrix(1.5,0,0,1.5,-463.44215,839.2042)" />
      </g>
      <text
         sodipodi:linespacing="125%"
         id="text6885"
         y="936.13751"
         x="0.66887438"
         style="font-size:14px;font-style:italic;font-variant:normal;font-weight:bold;font-stretch:normal;line-height:125%;letter-spacing:0px;word-spacing:0px;fill:#bf5700;fill-opacity:1;stroke:#000000;stroke-width:0.25000000000000000;stroke-miterlimit:4;stroke-dasharray:none;font-family:Latin Modern Math;-inkscape-font-specification:Latin Modern Math Bold Italic"
         xml:space="preserve"><tspan
           style="font-size:14px;font-style:italic;font-variant:normal;font-weight:normal;font-stretch:normal;font-family:Latin Modern Math;-inkscape-font-specification:Latin Modern Math Italic"
           y="936.13751"
           x="0.66887438"
           id="tspan6887"
           sodipodi:role="line">AF</tspan></text>
    </g>
    <path
       transform="matrix(1.5,0,0,1.5,-423.65699,845.1417)"
       d="m 342.94678,46.737251 c 0,1.269204 -1.02889,2.298097 -2.2981,2.298097 -1.2692,0 -2.2981,-1.028893 -2.2981,-2.298097 0,-1.269204 1.0289,-2.298097 2.2981,-2.298097 1.26921,0 2.2981,1.028893 2.2981,2.298097 z"
       sodipodi:ry="2.2980971"
       sodipodi:rx="2.2980971"
       sodipodi:cy="46.737251"
       sodipodi:cx="340.64868"
       id="path3879"
       style="fill:#bf5700;fill-opacity:1;stroke:#43695b;stroke-width:2;stroke-linecap:round;stroke-linejoin:round;stroke-miterlimit:4;stroke-opacity:1;stroke-dasharray:none;stroke-dashoffset:0"
       sodipodi:type="arc" />
    <g
       id="g3283">
      <g
         transform="matrix(0.99988755,0.01499612,-0.01499612,0.99988755,7.148683,5.1670813)"
         id="g6103">
        <path
           inkscape:connector-curvature="0"
           id="path6083"
           d="m 66.468037,24.894046 45.431613,-0.53033"
           style="fill:none;stroke:#43695b;stroke-width:4.60629940000000015;stroke-linecap:butt;stroke-linejoin:round;stroke-miterlimit:4;stroke-opacity:1;stroke-dasharray:4.60629921000000042, 4.60629921000000042;stroke-dashoffset:0"
           transform="translate(-18.485315,884.7229)" />
        <path
           style="fill:none;stroke:#43695b;stroke-width:1.77165353000000003;stroke-linecap:square;stroke-linejoin:miter;stroke-miterlimit:4;stroke-opacity:1;stroke-dasharray:none;stroke-dashoffset:0"
           d="m 66.468037,24.894046 45.431613,-0.53033"
           id="path3873"
           inkscape:connector-curvature="0"
           transform="translate(-18.485315,884.7229)" />
        <path
           transform="matrix(1.232002,0,0,1.232002,-360.78613,852.03725)"
           d="m 342.94678,46.737251 c 0,1.269204 -1.02889,2.298097 -2.2981,2.298097 -1.2692,0 -2.2981,-1.028893 -2.2981,-2.298097 0,-1.269204 1.0289,-2.298097 2.2981,-2.298097 1.26921,0 2.2981,1.028893 2.2981,2.298097 z"
           sodipodi:ry="2.2980971"
           sodipodi:rx="2.2980971"
           sodipodi:cy="46.737251"
           sodipodi:cx="340.64868"
           id="path6101"
           style="fill:#ffffff;fill-opacity:1;stroke:#43695b;stroke-width:2;stroke-linecap:round;stroke-linejoin:round;stroke-miterlimit:4;stroke-opacity:1;stroke-dasharray:none;stroke-dashoffset:0"
           sodipodi:type="arc" />
      </g>
      <text
         xml:space="preserve"
         style="font-size:14px;font-style:italic;font-variant:normal;font-weight:normal;font-stretch:normal;line-height:125%;letter-spacing:0px;word-spacing:0px;fill:#43695b;fill-opacity:1;stroke:#000000;stroke-width:0.25000000000000000;stroke-miterlimit:4;stroke-dasharray:none;font-family:Latin Modern Math;-inkscape-font-specification:Latin Modern Math Italic"
         x="56.505638"
         y="910.43048"
         id="text3224"
         sodipodi:linespacing="125%"><tspan
           sodipodi:role="line"
           id="tspan3226"
           x="56.505638"
           y="910.43048"
           style="font-size:14px;font-style:italic;font-variant:normal;font-weight:normal;font-stretch:normal;fill:#43695b;font-family:Latin Modern Math;-inkscape-font-specification:Latin Modern Math Italic">FF</tspan></text>
    </g>
    <g
       id="g3291">
      <g
         transform="translate(-6,6)"
         id="g6108">
        <path
           style="fill:none;stroke:#bf5700;stroke-width:3.54330707000000000;stroke-linecap:round;stroke-linejoin:round;stroke-miterlimit:4;stroke-opacity:1;stroke-dasharray:7.08661416999999982, 3.54330708999999988, 1.77165353999999997, 3.54330708999999988;stroke-dashoffset:0"
           d="m 93.874157,909.43506 c 0,0 3.183096,5.61462 4.074363,10.91729 0.891267,5.30269 7.89407,52.71496 12.35041,52.71496 4.45634,0 27.09296,-57.53422 30.03999,-63.71306"
           id="path3344"
           inkscape:connector-curvature="0"
           sodipodi:nodetypes="cssc" />
        <path
           sodipodi:type="arc"
           style="fill:#f2a900;fill-opacity:1;stroke:#bf5700;stroke-width:2;stroke-linecap:round;stroke-linejoin:round;stroke-miterlimit:4;stroke-opacity:1;stroke-dasharray:none;stroke-dashoffset:0"
           id="path3361"
           sodipodi:cx="340.64868"
           sodipodi:cy="46.737251"
           sodipodi:rx="2.2980971"
           sodipodi:ry="2.2980971"
           d="m 342.94678,46.737251 c 0,1.269204 -1.02889,2.298097 -2.2981,2.298097 -1.2692,0 -2.2981,-1.028893 -2.2981,-2.298097 0,-1.269204 1.0289,-2.298097 2.2981,-2.298097 1.26921,0 2.2981,1.028893 2.2981,2.298097 z"
           transform="matrix(1.5,0,0,1.5,-370.81117,839.1417)" />
        <path
           transform="matrix(1.232002,0,0,1.232002,-320.35342,868.81453)"
           d="m 342.94678,46.737251 c 0,1.269204 -1.02889,2.298097 -2.2981,2.298097 -1.2692,0 -2.2981,-1.028893 -2.2981,-2.298097 0,-1.269204 1.0289,-2.298097 2.2981,-2.298097 1.26921,0 2.2981,1.028893 2.2981,2.298097 z"
           sodipodi:ry="2.2980971"
           sodipodi:rx="2.2980971"
           sodipodi:cy="46.737251"
           sodipodi:cx="340.64868"
           id="path3089"
           style="fill:#ffffff;fill-opacity:1;stroke:#bf5700;stroke-width:2;stroke-linecap:round;stroke-linejoin:round;stroke-miterlimit:4;stroke-opacity:1;stroke-dasharray:none;stroke-dashoffset:0"
           sodipodi:type="arc" />
        <path
           sodipodi:type="arc"
           style="fill:#ffffff;fill-opacity:1;stroke:#bf5700;stroke-width:2;stroke-linecap:round;stroke-linejoin:round;stroke-miterlimit:4;stroke-opacity:1;stroke-dasharray:none;stroke-dashoffset:0"
           id="path3091"
           sodipodi:cx="340.64868"
           sodipodi:cy="46.737251"
           sodipodi:rx="2.2980971"
           sodipodi:ry="2.2980971"
           d="m 342.94678,46.737251 c 0,1.269204 -1.02889,2.298097 -2.2981,2.298097 -1.2692,0 -2.2981,-1.028893 -2.2981,-2.298097 0,-1.269204 1.0289,-2.298097 2.2981,-2.298097 1.26921,0 2.2981,1.028893 2.2981,2.298097 z"
           transform="matrix(1.232002,0,0,1.232002,-285.88196,867.75387)" />
      </g>
      <text
         sodipodi:linespacing="125%"
         id="text3220"
         y="941.94232"
         x="99.074272"
         style="font-size:14px;font-style:italic;font-variant:normal;font-weight:normal;font-stretch:normal;line-height:125%;letter-spacing:0px;word-spacing:0px;fill:#bf5700;fill-opacity:1;stroke:#000000;stroke-width:0.25000000000000000;stroke-miterlimit:4;stroke-dasharray:none;font-family:Latin Modern Math;-inkscape-font-specification:Latin Modern Math Italic"
         xml:space="preserve"><tspan
           style="font-size:14px;font-style:italic;font-variant:normal;font-weight:normal;font-stretch:normal;font-family:Asana Math;-inkscape-font-specification:Asana Math Italic"
           y="941.94232"
           x="99.074272"
           id="tspan3222"
           sodipodi:role="line">AF</tspan></text>
    </g>
    <g
       id="g3300">
      <g
         transform="translate(-6,6)"
         id="g6855">
        <path
           style="fill:none;stroke:#f2a900;stroke-width:3.54330707000000000;stroke-linecap:round;stroke-linejoin:miter;stroke-miterlimit:4;stroke-opacity:1;stroke-dasharray:3.54330707000000000, 3.54330707000000000;stroke-dashoffset:0"
           d="m 139.96072,909.43115 44.50437,0.0376"
           id="path3072"
           inkscape:connector-curvature="0" />
        <path
           transform="matrix(1.9015273,0,0,1.9015273,-121.12649,990.51251)"
           d="m 164.5,-42.540771 c 0,1.932996 -1.567,3.5 -3.5,3.5 -1.933,0 -3.5,-1.567004 -3.5,-3.5 0,-1.932997 1.567,-3.5 3.5,-3.5 1.933,0 3.5,1.567003 3.5,3.5 z"
           sodipodi:ry="3.5"
           sodipodi:rx="3.5"
           sodipodi:cy="-42.540771"
           sodipodi:cx="161"
           id="path4066"
           style="fill:#005f86;fill-opacity:1;stroke:#f2a900;stroke-width:2;stroke-linecap:round;stroke-linejoin:round;stroke-miterlimit:4;stroke-opacity:1;stroke-dasharray:none;stroke-dashoffset:0"
           sodipodi:type="arc" />
      </g>
      <text
         xml:space="preserve"
         style="font-size:14px;font-style:italic;font-variant:normal;font-weight:normal;font-stretch:normal;line-height:125%;letter-spacing:0px;word-spacing:0px;fill:#f2a900;fill-opacity:1;stroke:#000000;stroke-width:0.25000000000000000;stroke-miterlimit:4;stroke-dasharray:none;font-family:Latin Modern Math;-inkscape-font-specification:Latin Modern Math Italic"
         x="146.34203"
         y="911.81262"
         id="text3232"
         sodipodi:linespacing="125%"><tspan
           sodipodi:role="line"
           id="tspan3234"
           x="146.34203"
           y="911.81262"
           style="font-size:14px;font-style:italic;font-variant:normal;font-weight:normal;font-stretch:normal;fill:#f2a900;font-family:Latin Modern Math;-inkscape-font-specification:Latin Modern Math Italic">SA</tspan></text>
    </g>
    <g
       id="g3307">
      <g
         transform="translate(-6,6)"
         id="g6839">
        <path
           style="fill:none;stroke:#005f86;stroke-width:4.12500000000000000;stroke-linecap:round;stroke-linejoin:round;stroke-miterlimit:4;stroke-opacity:1;stroke-dasharray:none"
           d="m 124.27242,946.49811 c 4.8638,-4.45849 20.96614,-31.68155 33.89681,-10.21974 4.18659,6.94874 6.3332,23.18611 15.03625,23.00536 6.92142,-0.14376 8.25619,-37.79945 11.50619,-49.54945"
           id="path4334"
           inkscape:connector-curvature="0"
           sodipodi:nodetypes="ccsc" />
        <path
           sodipodi:type="arc"
           style="fill:#43695b;fill-opacity:1;stroke:#005f86;stroke-width:2;stroke-linecap:round;stroke-linejoin:round;stroke-miterlimit:4;stroke-opacity:1;stroke-dasharray:none;stroke-dashoffset:0"
           id="path3353"
           sodipodi:cx="340.64868"
           sodipodi:cy="46.737251"
           sodipodi:rx="2.2980971"
           sodipodi:ry="2.2980971"
           d="m 342.94678,46.737251 c 0,1.269204 -1.02889,2.298097 -2.2981,2.298097 -1.2692,0 -2.2981,-1.028893 -2.2981,-2.298097 0,-1.269204 1.0289,-2.298097 2.2981,-2.298097 1.26921,0 2.2981,1.028893 2.2981,2.298097 z"
           transform="matrix(1.5,0,0,1.5,-386.48795,876.37653)" />
        <path
           transform="matrix(1.232002,0,0,1.232002,-262.19388,877.83014)"
           d="m 342.94678,46.737251 c 0,1.269204 -1.02889,2.298097 -2.2981,2.298097 -1.2692,0 -2.2981,-1.028893 -2.2981,-2.298097 0,-1.269204 1.0289,-2.298097 2.2981,-2.298097 1.26921,0 2.2981,1.028893 2.2981,2.298097 z"
           sodipodi:ry="2.2980971"
           sodipodi:rx="2.2980971"
           sodipodi:cy="46.737251"
           sodipodi:cx="340.64868"
           id="path3093"
           style="fill:#ffffff;fill-opacity:1;stroke:#005f86;stroke-width:2;stroke-linecap:round;stroke-linejoin:round;stroke-miterlimit:4;stroke-opacity:1;stroke-dasharray:none;stroke-dashoffset:0"
           sodipodi:type="arc" />
        <path
           sodipodi:type="arc"
           style="fill:#ffffff;fill-opacity:1;stroke:#005f86;stroke-width:2;stroke-linecap:round;stroke-linejoin:round;stroke-miterlimit:4;stroke-opacity:1;stroke-dasharray:none;stroke-dashoffset:0"
           id="path3095"
           sodipodi:cx="340.64868"
           sodipodi:cy="46.737251"
           sodipodi:rx="2.2980971"
           sodipodi:ry="2.2980971"
           d="m 342.94678,46.737251 c 0,1.269204 -1.02889,2.298097 -2.2981,2.298097 -1.2692,0 -2.2981,-1.028893 -2.2981,-2.298097 0,-1.269204 1.0289,-2.298097 2.2981,-2.298097 1.26921,0 2.2981,1.028893 2.2981,2.298097 z"
           transform="matrix(1.232002,0,0,1.232002,-239.03613,878.53725)" />
      </g>
      <text
         sodipodi:linespacing="125%"
         id="text3228"
         y="931.16199"
         x="145.23633"
         style="font-size:14px;font-style:italic;font-variant:normal;font-weight:normal;font-stretch:normal;line-height:125%;letter-spacing:0px;word-spacing:0px;fill:#005f86;fill-opacity:1;stroke:#000000;stroke-width:0.25000000000000000;stroke-miterlimit:4;stroke-dasharray:none;font-family:Latin Modern Math;-inkscape-font-specification:Latin Modern Math Italic"
         xml:space="preserve"><tspan
           style="font-size:14px;font-style:italic;font-variant:normal;font-weight:normal;font-stretch:normal;fill:#005f86;font-family:Latin Modern Math;-inkscape-font-specification:Latin Modern Math Italic"
           y="931.16199"
           x="145.23633"
           id="tspan3230"
           sodipodi:role="line">DB</tspan></text>
    </g>
    <g
       id="g3316">
      <g
         transform="translate(-6,6)"
         id="g6845">
        <g
           id="g6118">
          <path
             transform="translate(-18.485315,884.7229)"
             style="fill:none;stroke:#43695b;stroke-width:4.60629940000000015;stroke-linecap:butt;stroke-linejoin:round;stroke-miterlimit:4;stroke-opacity:1;stroke-dasharray:4.60629921000000042, 4.60629921000000042;stroke-dashoffset:0"
             d="m 203.1875,24.847626 12.8125,0"
             id="path6087"
             inkscape:connector-curvature="0" />
          <path
             transform="translate(-18.485315,884.7229)"
             inkscape:connector-curvature="0"
             id="path6081"
             d="m 203.1875,24.847626 12.8125,0"
             style="fill:none;stroke:#43695b;stroke-width:1.77165353000000003;stroke-linecap:square;stroke-linejoin:miter;stroke-miterlimit:4;stroke-opacity:1;stroke-dasharray:none;stroke-dashoffset:0" />
        </g>
        <path
           transform="matrix(0.79855758,0,0,0.79855758,-86.88386,872.29525)"
           d="m 342.94678,46.737251 c 0,1.269204 -1.02889,2.298097 -2.2981,2.298097 -1.2692,0 -2.2981,-1.028893 -2.2981,-2.298097 0,-1.269204 1.0289,-2.298097 2.2981,-2.298097 1.26921,0 2.2981,1.028893 2.2981,2.298097 z"
           sodipodi:ry="2.2980971"
           sodipodi:rx="2.2980971"
           sodipodi:cy="46.737251"
           sodipodi:cx="340.64868"
           id="path6122"
           style="fill:#43695b;fill-opacity:1;stroke:#43695b;stroke-width:2;stroke-linecap:round;stroke-linejoin:round;stroke-miterlimit:4;stroke-opacity:1;stroke-dasharray:none;stroke-dashoffset:0"
           sodipodi:type="arc" />
        <path
           sodipodi:type="arc"
           style="fill:none;stroke:#43695b;stroke-width:2.02565980000000012;stroke-linecap:round;stroke-linejoin:round;stroke-miterlimit:4;stroke-opacity:1;stroke-dasharray:2.02565984999999982, 4.05131970999999957;stroke-dashoffset:0"
           id="path6124"
           sodipodi:cx="185.875"
           sodipodi:cy="61.097626"
           sodipodi:rx="40.625"
           sodipodi:ry="40.625"
           d="m 145.25,61.097624 c 0,-22.436568 18.18843,-40.624999 40.625,-40.624998 5.88824,0 11.70609,1.279996 17.05061,3.751331"
           transform="matrix(0.7472904,0.4592684,-0.45685837,0.74283628,44.22912,778.43484)"
           sodipodi:start="3.1415927"
           sodipodi:end="5.1455117"
           sodipodi:open="true" />
        <path
           style="fill:none;stroke:#43695b;stroke-width:1.77165353000000003;stroke-linecap:round;stroke-linejoin:round;stroke-miterlimit:4;stroke-opacity:1;stroke-dasharray:1.77165353000000003, 3.54330707000000000;stroke-dashoffset:0"
           d="m 142.9375,61.691376 0,-57.2187499"
           id="path6126"
           inkscape:connector-curvature="0"
           transform="translate(-18.485315,884.7229)" />
        <path
           style="fill:none;stroke:#43695b;stroke-width:1.77165353000000003;stroke-linecap:round;stroke-linejoin:round;stroke-miterlimit:4;stroke-opacity:1;stroke-dasharray:1.77165353000000003, 3.54330707000000000;stroke-dashoffset:0"
           d="m 203.38159,24.717269 0,-19.4946429"
           id="path6128"
           inkscape:connector-curvature="0"
           transform="translate(-18.485315,884.7229)" />
        <path
           sodipodi:type="arc"
           style="fill:#bf5700;fill-opacity:1;stroke:#43695b;stroke-width:2;stroke-linecap:round;stroke-linejoin:round;stroke-miterlimit:4;stroke-opacity:1;stroke-dasharray:none;stroke-dashoffset:0"
           id="path6132"
           sodipodi:cx="340.64868"
           sodipodi:cy="46.737251"
           sodipodi:rx="2.2980971"
           sodipodi:ry="2.2980971"
           d="m 342.94678,46.737251 c 0,1.269204 -1.02889,2.298097 -2.2981,2.298097 -1.2692,0 -2.2981,-1.028893 -2.2981,-2.298097 0,-1.269204 1.0289,-2.298097 2.2981,-2.298097 1.26921,0 2.2981,1.028893 2.2981,2.298097 z"
           transform="matrix(1.5,0,0,1.5,-313.28231,839.1417)" />
      </g>
      <text
         sodipodi:linespacing="125%"
         id="text3236"
         y="895.78033"
         x="138.87869"
         style="font-size:14px;font-style:italic;font-variant:normal;font-weight:normal;font-stretch:normal;line-height:125%;letter-spacing:0px;word-spacing:0px;fill:#43695b;fill-opacity:1;stroke:#000000;stroke-width:0.25000000000000000;stroke-miterlimit:4;stroke-dasharray:none;font-family:Latin Modern Math;-inkscape-font-specification:Latin Modern Math Italic"
         xml:space="preserve"><tspan
           style="font-size:14px;font-style:italic;font-variant:normal;font-weight:normal;font-stretch:normal;fill:#43695b;font-family:Latin Modern Math;-inkscape-font-specification:Latin Modern Math Italic"
           y="895.78033"
           x="138.87869"
           id="tspan3238"
           sodipodi:role="line">FF</tspan></text>
    </g>
    <g
       id="g3329">
      <g
         transform="translate(-6,6)"
         id="g6834">
        <path
           style="fill:none;stroke:#bf5700;stroke-width:3.54330707000000000;stroke-linecap:round;stroke-linejoin:round;stroke-miterlimit:4;stroke-opacity:1;stroke-dasharray:7.08661416999999982, 3.54330708999999988, 1.77165353999999997, 3.54330708999999988;stroke-dashoffset:0"
           d="m 221.94208,908.80387 c 0.26041,12.32106 -7.5444,25.59142 -10.0444,25.59142 -2.5,0 -8.92893,-1.02029 -14.42893,-25.02029"
           id="path3440"
           inkscape:connector-curvature="0"
           sodipodi:nodetypes="ccc" />
        <path
           transform="matrix(1.232002,0,0,1.232002,-219.06036,861.92024)"
           d="m 342.94678,46.737251 c 0,1.269204 -1.02889,2.298097 -2.2981,2.298097 -1.2692,0 -2.2981,-1.028893 -2.2981,-2.298097 0,-1.269204 1.0289,-2.298097 2.2981,-2.298097 1.26921,0 2.2981,1.028893 2.2981,2.298097 z"
           sodipodi:ry="2.2980971"
           sodipodi:rx="2.2980971"
           sodipodi:cy="46.737251"
           sodipodi:cx="340.64868"
           id="path3097"
           style="fill:#ffffff;fill-opacity:1;stroke:#bf5700;stroke-width:2;stroke-linecap:round;stroke-linejoin:round;stroke-miterlimit:4;stroke-opacity:1;stroke-dasharray:none;stroke-dashoffset:0"
           sodipodi:type="arc" />
        <path
           transform="matrix(1.5,0,0,1.5,-288.3116,839.2042)"
           d="m 342.94678,46.737251 c 0,1.269204 -1.02889,2.298097 -2.2981,2.298097 -1.2692,0 -2.2981,-1.028893 -2.2981,-2.298097 0,-1.269204 1.0289,-2.298097 2.2981,-2.298097 1.26921,0 2.2981,1.028893 2.2981,2.298097 z"
           sodipodi:ry="2.2980971"
           sodipodi:rx="2.2980971"
           sodipodi:cy="46.737251"
           sodipodi:cx="340.64868"
           id="path6134"
           style="fill:#43695b;fill-opacity:1;stroke:#bf5700;stroke-width:2;stroke-linecap:round;stroke-linejoin:round;stroke-miterlimit:4;stroke-opacity:1;stroke-dasharray:none;stroke-dashoffset:0"
           sodipodi:type="arc" />
      </g>
      <text
         xml:space="preserve"
         style="font-size:14px;font-style:italic;font-variant:normal;font-weight:normal;font-stretch:normal;line-height:125%;letter-spacing:0px;word-spacing:0px;fill:#bf5700;fill-opacity:1;stroke:#000000;stroke-width:0.25000000000000000;stroke-miterlimit:4;stroke-dasharray:none;font-family:Latin Modern Math;-inkscape-font-specification:Latin Modern Math Italic"
         x="193.88622"
         y="910.43048"
         id="text3240"
         sodipodi:linespacing="125%"><tspan
           sodipodi:role="line"
           id="tspan3242"
           x="193.88622"
           y="910.43048"
           style="font-size:14px;font-style:italic;font-variant:normal;font-weight:normal;font-stretch:normal;font-family:Latin Modern Math;-inkscape-font-specification:Latin Modern Math Italic">AF</tspan></text>
    </g>
    <g
       id="g3337">
      <g
         transform="translate(-6,6)"
         id="g6828">
        <g
           id="g6136"
           transform="translate(0.48864551,0.68410371)">
          <path
             transform="translate(-18.485315,884.7229)"
             inkscape:connector-curvature="0"
             id="path3877"
             d="m 240.375,23.941376 24.77129,0"
             style="fill:none;stroke:#43695b;stroke-width:1.77165353000000003;stroke-linecap:square;stroke-linejoin:miter;stroke-miterlimit:4;stroke-opacity:1;stroke-dasharray:none;stroke-dashoffset:0"
             sodipodi:nodetypes="cc" />
          <path
             style="fill:none;stroke:#43695b;stroke-width:4.60629940000000015;stroke-linecap:butt;stroke-linejoin:round;stroke-miterlimit:4;stroke-opacity:1;stroke-dasharray:4.60629921000000042, 4.60629921000000042;stroke-dashoffset:0"
             d="m 221.88968,908.66428 24.77129,0"
             id="path6085"
             inkscape:connector-curvature="0"
             sodipodi:nodetypes="cc" />
        </g>
        <path
           transform="matrix(1.5,0,0,1.5,-263.69459,839.21843)"
           d="m 342.94678,46.737251 c 0,1.269204 -1.02889,2.298097 -2.2981,2.298097 -1.2692,0 -2.2981,-1.028893 -2.2981,-2.298097 0,-1.269204 1.0289,-2.298097 2.2981,-2.298097 1.26921,0 2.2981,1.028893 2.2981,2.298097 z"
           sodipodi:ry="2.2980971"
           sodipodi:rx="2.2980971"
           sodipodi:cy="46.737251"
           sodipodi:cx="340.64868"
           id="path3357"
           style="fill:#005f86;fill-opacity:1;stroke:#43695b;stroke-width:2;stroke-linecap:round;stroke-linejoin:round;stroke-miterlimit:4;stroke-opacity:1;stroke-dasharray:none;stroke-dashoffset:0"
           sodipodi:type="arc" />
      </g>
      <text
         sodipodi:linespacing="125%"
         id="text3244"
         y="909.32483"
         x="219.86966"
         style="font-size:14px;font-style:italic;font-variant:normal;font-weight:normal;font-stretch:normal;line-height:125%;letter-spacing:0px;word-spacing:0px;fill:#43695b;fill-opacity:1;stroke:#000000;stroke-width:0.25000000000000000;stroke-miterlimit:4;stroke-dasharray:none;font-family:Latin Modern Math;-inkscape-font-specification:Latin Modern Math Italic"
         xml:space="preserve"><tspan
           style="font-size:14px;font-style:italic;font-variant:normal;font-weight:normal;font-stretch:normal;fill:#43695b;font-family:Latin Modern Math;-inkscape-font-specification:Latin Modern Math Italic"
           y="909.32483"
           x="219.86966"
           id="tspan3246"
           sodipodi:role="line">FF</tspan></text>
    </g>
    <g
       id="g3346">
      <g
         transform="translate(-6,6)"
         id="g6822">
        <path
           style="fill:none;stroke:#005f86;stroke-width:4.12500000000000000;stroke-linecap:round;stroke-linejoin:round;stroke-miterlimit:4;stroke-opacity:1;stroke-dasharray:none"
           d="m 247.63094,1000.1785 c -0.91436,-11.27708 -7.0873,-36.34741 -11.64747,-53.85317 -6.01942,-23.10756 -6.95957,-36.82791 -6.95957,-36.82791"
           id="path3428"
           inkscape:connector-curvature="0"
           sodipodi:nodetypes="csc" />
        <path
           sodipodi:type="arc"
           style="fill:#ffffff;fill-opacity:1;stroke:#005f86;stroke-width:2;stroke-linecap:round;stroke-linejoin:round;stroke-miterlimit:4;stroke-opacity:1;stroke-dasharray:none;stroke-dashoffset:0"
           id="path3099"
           sodipodi:cx="340.64868"
           sodipodi:cy="46.737251"
           sodipodi:rx="2.2980971"
           sodipodi:ry="2.2980971"
           d="m 342.94678,46.737251 c 0,1.269204 -1.02889,2.298097 -2.2981,2.298097 -1.2692,0 -2.2981,-1.028893 -2.2981,-2.298097 0,-1.269204 1.0289,-2.298097 2.2981,-2.298097 1.26921,0 2.2981,1.028893 2.2981,2.298097 z"
           transform="matrix(1.232002,0,0,1.232002,-184.5889,885.78509)" />
        <path
           inkscape:connector-curvature="0"
           id="path6140"
           d="m 247.19993,1000.2674 0,-88.50081"
           style="fill:none;stroke:#005f86;stroke-width:1.77165353000000003;stroke-linecap:round;stroke-linejoin:round;stroke-miterlimit:4;stroke-opacity:1;stroke-dasharray:1.77165353999999997, 3.54330708999999988;stroke-dashoffset:0" />
        <path
           transform="matrix(1.5,0,0,1.5,-281.90404,838.79442)"
           d="m 342.94678,46.737251 c 0,1.269204 -1.02889,2.298097 -2.2981,2.298097 -1.2692,0 -2.2981,-1.028893 -2.2981,-2.298097 0,-1.269204 1.0289,-2.298097 2.2981,-2.298097 1.26921,0 2.2981,1.028893 2.2981,2.298097 z"
           sodipodi:ry="2.2980971"
           sodipodi:rx="2.2980971"
           sodipodi:cy="46.737251"
           sodipodi:cx="340.64868"
           id="path3339"
           style="fill:#d6d2c4;fill-opacity:1;stroke:#005f86;stroke-width:2;stroke-linecap:round;stroke-linejoin:round;stroke-miterlimit:4;stroke-opacity:1;stroke-dasharray:none;stroke-dashoffset:0"
           sodipodi:type="arc" />
      </g>
      <text
         xml:space="preserve"
         style="font-size:14px;font-style:italic;font-variant:normal;font-weight:normal;font-stretch:normal;line-height:125%;letter-spacing:0px;word-spacing:0px;fill:#005f86;fill-opacity:1;stroke:#000000;stroke-width:0.25000000000000000;stroke-miterlimit:4;stroke-dasharray:none;font-family:Latin Modern Math;-inkscape-font-specification:Latin Modern Math Italic"
         x="209.64214"
         y="975.66559"
         id="text3252"
         sodipodi:linespacing="125%"><tspan
           sodipodi:role="line"
           id="tspan3254"
           x="209.64214"
           y="975.66559"
           style="font-size:14px;font-style:italic;font-variant:normal;font-weight:normal;font-stretch:normal;fill:#005f86;font-family:Latin Modern Math;-inkscape-font-specification:Latin Modern Math Italic">DB</tspan></text>
    </g>
  </g>
</svg>
