<?xml version="1.0" encoding="UTF-8" standalone="no"?>
<!-- Created with Inkscape (http://www.inkscape.org/) -->

<svg
   xmlns:dc="http://purl.org/dc/elements/1.1/"
   xmlns:cc="http://creativecommons.org/ns#"
   xmlns:rdf="http://www.w3.org/1999/02/22-rdf-syntax-ns#"
   xmlns:svg="http://www.w3.org/2000/svg"
   xmlns="http://www.w3.org/2000/svg"
   xmlns:sodipodi="http://sodipodi.sourceforge.net/DTD/sodipodi-0.dtd"
   xmlns:inkscape="http://www.inkscape.org/namespaces/inkscape"
   width="102.72575"
   height="36.663448"
   id="svg23282"
   version="1.1"
   inkscape:version="0.48.4 r9939"
   sodipodi:docname="stances.svg"
   inkscape:export-filename="/home/gray/wk/grayutils/tex/MultiContactTAC2015/figures/stances.png"
   inkscape:export-xdpi="400"
   inkscape:export-ydpi="400">
  <defs
     id="defs23284">
    <clipPath
       id="clipPath22453"
       clipPathUnits="userSpaceOnUse">
      <path
         inkscape:connector-curvature="0"
         id="path22455"
         d="m 29.1,21.6 163.2,0 0,172.8 -163.2,0 0,-172.8 z" />
    </clipPath>
    <clipPath
       id="clipPath22463"
       clipPathUnits="userSpaceOnUse">
      <path
         inkscape:connector-curvature="0"
         id="path22465"
         d="m 29.1,21.6 163.2,0 0,172.8 -163.2,0 0,-172.8 z" />
    </clipPath>
    <clipPath
       id="clipPath22473"
       clipPathUnits="userSpaceOnUse">
      <path
         inkscape:connector-curvature="0"
         id="path22475"
         d="m 29.1,21.6 163.2,0 0,172.8 -163.2,0 0,-172.8 z" />
    </clipPath>
    <clipPath
       id="clipPath22483"
       clipPathUnits="userSpaceOnUse">
      <path
         inkscape:connector-curvature="0"
         id="path22485"
         d="m 29.1,21.6 163.2,0 0,172.8 -163.2,0 0,-172.8 z" />
    </clipPath>
    <clipPath
       id="clipPath22493"
       clipPathUnits="userSpaceOnUse">
      <path
         inkscape:connector-curvature="0"
         id="path22495"
         d="m 29.1,21.6 163.2,0 0,172.8 -163.2,0 0,-172.8 z" />
    </clipPath>
    <clipPath
       id="clipPath22503"
       clipPathUnits="userSpaceOnUse">
      <path
         inkscape:connector-curvature="0"
         id="path22505"
         d="m 29.1,21.6 163.2,0 0,172.8 -163.2,0 0,-172.8 z" />
    </clipPath>
    <clipPath
       id="clipPath22513"
       clipPathUnits="userSpaceOnUse">
      <path
         inkscape:connector-curvature="0"
         id="path22515"
         d="m 29.1,21.6 163.2,0 0,172.8 -163.2,0 0,-172.8 z" />
    </clipPath>
    <clipPath
       id="clipPath22523"
       clipPathUnits="userSpaceOnUse">
      <path
         inkscape:connector-curvature="0"
         id="path22525"
         d="m -7.5,-7.5 15,0 0,15 -15,0 0,-15 z" />
    </clipPath>
    <clipPath
       id="clipPath22533"
       clipPathUnits="userSpaceOnUse">
      <path
         inkscape:connector-curvature="0"
         id="path22535"
         d="m 29.1,21.6 163.2,0 0,172.8 -163.2,0 0,-172.8 z" />
    </clipPath>
    <clipPath
       id="clipPath22543"
       clipPathUnits="userSpaceOnUse">
      <path
         inkscape:connector-curvature="0"
         id="path22545"
         d="m -7.5,-7.5 15,0 0,15 -15,0 0,-15 z" />
    </clipPath>
    <clipPath
       id="clipPath22553"
       clipPathUnits="userSpaceOnUse">
      <path
         inkscape:connector-curvature="0"
         id="path22555"
         d="m 29.1,21.6 163.2,0 0,172.8 -163.2,0 0,-172.8 z" />
    </clipPath>
    <clipPath
       id="clipPath22563"
       clipPathUnits="userSpaceOnUse">
      <path
         inkscape:connector-curvature="0"
         id="path22565"
         d="m -7.5,-7.5 15,0 0,15 -15,0 0,-15 z" />
    </clipPath>
    <clipPath
       id="clipPath22573"
       clipPathUnits="userSpaceOnUse">
      <path
         inkscape:connector-curvature="0"
         id="path22575"
         d="m 29.1,21.6 163.2,0 0,172.8 -163.2,0 0,-172.8 z" />
    </clipPath>
    <clipPath
       id="clipPath22583"
       clipPathUnits="userSpaceOnUse">
      <path
         inkscape:connector-curvature="0"
         id="path22585"
         d="m 29.1,21.6 163.2,0 0,172.8 -163.2,0 0,-172.8 z" />
    </clipPath>
    <clipPath
       id="clipPath22593"
       clipPathUnits="userSpaceOnUse">
      <path
         inkscape:connector-curvature="0"
         id="path22595"
         d="m 29.1,21.6 163.2,0 0,172.8 -163.2,0 0,-172.8 z" />
    </clipPath>
    <clipPath
       id="clipPath22603"
       clipPathUnits="userSpaceOnUse">
      <path
         inkscape:connector-curvature="0"
         id="path22605"
         d="m 29.1,21.6 163.2,0 0,172.8 -163.2,0 0,-172.8 z" />
    </clipPath>
    <clipPath
       id="clipPath21964"
       clipPathUnits="userSpaceOnUse">
      <path
         inkscape:connector-curvature="0"
         id="path21966"
         d="m 29.1,21.6 163.2,0 0,172.8 -163.2,0 0,-172.8 z" />
    </clipPath>
    <clipPath
       id="clipPath21974"
       clipPathUnits="userSpaceOnUse">
      <path
         inkscape:connector-curvature="0"
         id="path21976"
         d="m 29.1,21.6 163.2,0 0,172.8 -163.2,0 0,-172.8 z" />
    </clipPath>
    <clipPath
       id="clipPath21984"
       clipPathUnits="userSpaceOnUse">
      <path
         inkscape:connector-curvature="0"
         id="path21986"
         d="m 29.1,21.6 163.2,0 0,172.8 -163.2,0 0,-172.8 z" />
    </clipPath>
    <clipPath
       id="clipPath21994"
       clipPathUnits="userSpaceOnUse">
      <path
         inkscape:connector-curvature="0"
         id="path21996"
         d="m 29.1,21.6 163.2,0 0,172.8 -163.2,0 0,-172.8 z" />
    </clipPath>
    <clipPath
       id="clipPath22004"
       clipPathUnits="userSpaceOnUse">
      <path
         inkscape:connector-curvature="0"
         id="path22006"
         d="m 29.1,21.6 163.2,0 0,172.8 -163.2,0 0,-172.8 z" />
    </clipPath>
    <clipPath
       id="clipPath22014"
       clipPathUnits="userSpaceOnUse">
      <path
         inkscape:connector-curvature="0"
         id="path22016"
         d="m 29.1,21.6 163.2,0 0,172.8 -163.2,0 0,-172.8 z" />
    </clipPath>
    <clipPath
       id="clipPath22024"
       clipPathUnits="userSpaceOnUse">
      <path
         inkscape:connector-curvature="0"
         id="path22026"
         d="m -7.5,-7.5 15,0 0,15 -15,0 0,-15 z" />
    </clipPath>
    <clipPath
       id="clipPath22034"
       clipPathUnits="userSpaceOnUse">
      <path
         inkscape:connector-curvature="0"
         id="path22036"
         d="m 29.1,21.6 163.2,0 0,172.8 -163.2,0 0,-172.8 z" />
    </clipPath>
    <clipPath
       id="clipPath22044"
       clipPathUnits="userSpaceOnUse">
      <path
         inkscape:connector-curvature="0"
         id="path22046"
         d="m -7.5,-7.5 15,0 0,15 -15,0 0,-15 z" />
    </clipPath>
    <clipPath
       id="clipPath22054"
       clipPathUnits="userSpaceOnUse">
      <path
         inkscape:connector-curvature="0"
         id="path22056"
         d="m 29.1,21.6 163.2,0 0,172.8 -163.2,0 0,-172.8 z" />
    </clipPath>
    <clipPath
       id="clipPath22064"
       clipPathUnits="userSpaceOnUse">
      <path
         inkscape:connector-curvature="0"
         id="path22066"
         d="m 29.1,21.6 163.2,0 0,172.8 -163.2,0 0,-172.8 z" />
    </clipPath>
    <clipPath
       id="clipPath22074"
       clipPathUnits="userSpaceOnUse">
      <path
         inkscape:connector-curvature="0"
         id="path22076"
         d="m 29.1,21.6 163.2,0 0,172.8 -163.2,0 0,-172.8 z" />
    </clipPath>
    <clipPath
       id="clipPath22084"
       clipPathUnits="userSpaceOnUse">
      <path
         inkscape:connector-curvature="0"
         id="path22086"
         d="m 29.1,21.6 163.2,0 0,172.8 -163.2,0 0,-172.8 z" />
    </clipPath>
    <clipPath
       id="clipPath21361"
       clipPathUnits="userSpaceOnUse">
      <path
         inkscape:connector-curvature="0"
         id="path21363"
         d="m 29.1,21.6 163.2,0 0,172.8 -163.2,0 0,-172.8 z" />
    </clipPath>
    <clipPath
       id="clipPath21371"
       clipPathUnits="userSpaceOnUse">
      <path
         inkscape:connector-curvature="0"
         id="path21373"
         d="m 29.1,21.6 163.2,0 0,172.8 -163.2,0 0,-172.8 z" />
    </clipPath>
    <clipPath
       id="clipPath21381"
       clipPathUnits="userSpaceOnUse">
      <path
         inkscape:connector-curvature="0"
         id="path21383"
         d="m 29.1,21.6 163.2,0 0,172.8 -163.2,0 0,-172.8 z" />
    </clipPath>
    <clipPath
       id="clipPath21391"
       clipPathUnits="userSpaceOnUse">
      <path
         inkscape:connector-curvature="0"
         id="path21393"
         d="m 29.1,21.6 163.2,0 0,172.8 -163.2,0 0,-172.8 z" />
    </clipPath>
    <clipPath
       id="clipPath21401"
       clipPathUnits="userSpaceOnUse">
      <path
         inkscape:connector-curvature="0"
         id="path21403"
         d="m 29.1,21.6 163.2,0 0,172.8 -163.2,0 0,-172.8 z" />
    </clipPath>
    <clipPath
       id="clipPath21411"
       clipPathUnits="userSpaceOnUse">
      <path
         inkscape:connector-curvature="0"
         id="path21413"
         d="m 29.1,21.6 163.2,0 0,172.8 -163.2,0 0,-172.8 z" />
    </clipPath>
    <clipPath
       id="clipPath21421"
       clipPathUnits="userSpaceOnUse">
      <path
         inkscape:connector-curvature="0"
         id="path21423"
         d="m -7.5,-7.5 15,0 0,15 -15,0 0,-15 z" />
    </clipPath>
    <clipPath
       id="clipPath21431"
       clipPathUnits="userSpaceOnUse">
      <path
         inkscape:connector-curvature="0"
         id="path21433"
         d="m 29.1,21.6 163.2,0 0,172.8 -163.2,0 0,-172.8 z" />
    </clipPath>
    <clipPath
       id="clipPath21441"
       clipPathUnits="userSpaceOnUse">
      <path
         inkscape:connector-curvature="0"
         id="path21443"
         d="m -7.5,-7.5 15,0 0,15 -15,0 0,-15 z" />
    </clipPath>
    <clipPath
       id="clipPath21451"
       clipPathUnits="userSpaceOnUse">
      <path
         inkscape:connector-curvature="0"
         id="path21453"
         d="m 29.1,21.6 163.2,0 0,172.8 -163.2,0 0,-172.8 z" />
    </clipPath>
    <clipPath
       id="clipPath21461"
       clipPathUnits="userSpaceOnUse">
      <path
         inkscape:connector-curvature="0"
         id="path21463"
         d="m 29.1,21.6 163.2,0 0,172.8 -163.2,0 0,-172.8 z" />
    </clipPath>
    <clipPath
       id="clipPath21471"
       clipPathUnits="userSpaceOnUse">
      <path
         inkscape:connector-curvature="0"
         id="path21473"
         d="m 29.1,21.6 163.2,0 0,172.8 -163.2,0 0,-172.8 z" />
    </clipPath>
    <clipPath
       id="clipPath21481"
       clipPathUnits="userSpaceOnUse">
      <path
         inkscape:connector-curvature="0"
         id="path21483"
         d="m 29.1,21.6 163.2,0 0,172.8 -163.2,0 0,-172.8 z" />
    </clipPath>
  </defs>
  <sodipodi:namedview
     id="base"
     pagecolor="#ffffff"
     bordercolor="#666666"
     borderopacity="1.0"
     inkscape:pageopacity="0.0"
     inkscape:pageshadow="2"
     inkscape:zoom="5.6"
     inkscape:cx="44.165263"
     inkscape:cy="16.501306"
     inkscape:document-units="px"
     inkscape:current-layer="layer1"
     showgrid="false"
     fit-margin-top="0.5"
     fit-margin-left="0.5"
     fit-margin-right="0.5"
     fit-margin-bottom="0.5"
     units="mm"
     inkscape:window-width="1351"
     inkscape:window-height="810"
     inkscape:window-x="1920"
     inkscape:window-y="122"
     inkscape:window-maximized="0" />
  <metadata
     id="metadata23287">
    <rdf:RDF>
      <cc:Work
         rdf:about="">
        <dc:format>image/svg+xml</dc:format>
        <dc:type
           rdf:resource="http://purl.org/dc/dcmitype/StillImage" />
        <dc:title></dc:title>
      </cc:Work>
    </rdf:RDF>
  </metadata>
  <g
     inkscape:label="Layer 1"
     inkscape:groupmode="layer"
     id="layer1"
     transform="translate(-325.63712,-513.93643)">
    <g
       transform="matrix(0.17286009,0,0,-0.1889547,226.8682,581.97169)"
       id="g21720">
      <path
         inkscape:connector-curvature="0"
         d="m 582.17633,177.38511 178.39518,0 0,172.8 -178.39518,0 0,-172.8 z"
         style="fill:#ffffff;fill-opacity:1;fill-rule:nonzero;stroke:none"
         id="path21355" />
      <g
         id="g21357"
         transform="matrix(1.0931077,0,0,1,550.3669,155.78511)">
        <g
           id="g21359"
           clip-path="url(#clipPath21361)">
          <path
             inkscape:connector-curvature="0"
             d="m 79.5,36 -48.929664,84.74866 97.859324,0 L 79.5,36 z"
             style="fill:#382f2d;fill-opacity:1;fill-rule:nonzero;stroke:#000000;stroke-width:3;stroke-linecap:butt;stroke-linejoin:round;stroke-miterlimit:10;stroke-opacity:1;stroke-dasharray:none"
             id="path21365" />
        </g>
      </g>
      <g
         id="g21367"
         transform="matrix(1.0931077,0,0,1,550.3669,155.78511)">
        <g
           id="g21369"
           clip-path="url(#clipPath21371)">
          <path
             inkscape:connector-curvature="0"
             d="m 105.9,180 12.23242,-21.18717 -24.464836,0 L 105.9,180 z"
             style="fill:#382f2d;fill-opacity:1;fill-rule:nonzero;stroke:#000000;stroke-width:3;stroke-linecap:butt;stroke-linejoin:round;stroke-miterlimit:10;stroke-opacity:1;stroke-dasharray:none"
             id="path21375" />
        </g>
      </g>
      <g
         id="g21377"
         transform="matrix(1.0931077,0,0,1,550.3669,155.78511)">
        <g
           id="g21379"
           clip-path="url(#clipPath21381)">
          <path
             inkscape:connector-curvature="0"
             d="m 57.9,36 24,0"
             style="fill:none;stroke:#000000;stroke-width:4;stroke-linecap:square;stroke-linejoin:round;stroke-miterlimit:10;stroke-opacity:1;stroke-dasharray:none"
             id="path21385" />
        </g>
      </g>
      <g
         id="g21387"
         transform="matrix(1.0931077,0,0,1,550.3669,155.78511)">
        <g
           id="g21389"
           clip-path="url(#clipPath21391)">
          <path
             inkscape:connector-curvature="0"
             d="m 129.9,36 24,0"
             style="fill:none;stroke:#000000;stroke-width:4;stroke-linecap:square;stroke-linejoin:round;stroke-miterlimit:10;stroke-opacity:1;stroke-dasharray:none"
             id="path21395" />
        </g>
      </g>
      <g
         id="g21397"
         transform="matrix(1.0931077,0,0,1,550.3669,155.78511)">
        <g
           id="g21399"
           clip-path="url(#clipPath21401)">
          <path
             inkscape:connector-curvature="0"
             d="m 129.9,180 -48,0"
             style="fill:none;stroke:#000000;stroke-width:4;stroke-linecap:square;stroke-linejoin:round;stroke-miterlimit:10;stroke-opacity:1;stroke-dasharray:none"
             id="path21405" />
        </g>
      </g>
      <g
         id="g21407"
         transform="matrix(1.0931077,0,0,1,550.3669,155.78511)">
        <g
           id="g21409"
           clip-path="url(#clipPath21411)">
          <g
             id="g21415"
             transform="translate(79.5,36)">
            <g
               id="g21417">
              <g
                 id="g21419"
                 clip-path="url(#clipPath21421)">
                <path
                   inkscape:connector-curvature="0"
                   d="m 0,-6 c 1.5912186,0 3.1174792,0.6321979 4.2426407,1.7573593 C 5.3678021,-3.1174792 6,-1.5912186 6,0 6,1.5912186 5.3678021,3.1174792 4.2426407,4.2426407 3.1174792,5.3678021 1.5912186,6 0,6 -1.5912186,6 -3.1174792,5.3678021 -4.2426407,4.2426407 -5.3678021,3.1174792 -6,1.5912186 -6,0 -6,-1.5912186 -5.3678021,-3.1174792 -4.2426407,-4.2426407 -3.1174792,-5.3678021 -1.5912186,-6 0,-6 z"
                   style="fill:#382f2d;fill-opacity:1;fill-rule:nonzero;stroke:#000000;stroke-width:3;stroke-linecap:butt;stroke-linejoin:round;stroke-miterlimit:10;stroke-opacity:1;stroke-dasharray:none"
                   id="path21425" />
              </g>
            </g>
          </g>
        </g>
      </g>
      <g
         id="g21427"
         transform="matrix(1.0931077,0,0,1,550.3669,155.78511)">
        <g
           id="g21429"
           clip-path="url(#clipPath21431)">
          <g
             id="g21435"
             transform="translate(105.9,180)">
            <g
               id="g21437">
              <g
                 id="g21439"
                 clip-path="url(#clipPath21441)">
                <path
                   inkscape:connector-curvature="0"
                   d="m 0,-6 c 1.5912186,0 3.1174792,0.6321979 4.2426407,1.7573593 C 5.3678021,-3.1174792 6,-1.5912186 6,0 6,1.5912186 5.3678021,3.1174792 4.2426407,4.2426407 3.1174792,5.3678021 1.5912186,6 0,6 -1.5912186,6 -3.1174792,5.3678021 -4.2426407,4.2426407 -5.3678021,3.1174792 -6,1.5912186 -6,0 -6,-1.5912186 -5.3678021,-3.1174792 -4.2426407,-4.2426407 -3.1174792,-5.3678021 -1.5912186,-6 0,-6 z"
                   style="fill:#382f2d;fill-opacity:1;fill-rule:nonzero;stroke:#000000;stroke-width:3;stroke-linecap:butt;stroke-linejoin:round;stroke-miterlimit:10;stroke-opacity:1;stroke-dasharray:none"
                   id="path21445" />
              </g>
            </g>
          </g>
        </g>
      </g>
      <g
         id="g21447"
         transform="matrix(1.0931077,0,0,1,550.3669,155.78511)">
        <g
           id="g21449"
           clip-path="url(#clipPath21451)">
          <path
             inkscape:connector-curvature="0"
             d="m 81.9,141.6 4.778616,1.03269 4.754038,0.80079 4.71863,0.57133 4.740206,0.34976 4.68352,0.1249 4.68424,-0.0945 4.74236,-0.31918 4.72218,-0.54129 4.75893,-0.7711 4.78479,-1.00361 3.92374,-0.8043 2.96577,-0.35781 2.98405,-0.13808 2.98603,0.0847 2.97159,0.30555 3.00811,0.53414 0.9932,0.22604 0,0"
             style="fill:none;stroke:#d6d2c4;stroke-width:9;stroke-linecap:round;stroke-linejoin:round;stroke-miterlimit:10;stroke-opacity:1;stroke-dasharray:none"
             id="path21455" />
        </g>
      </g>
      <g
         id="g21457"
         transform="matrix(1.0931077,0,0,1,550.3669,155.78511)">
        <g
           id="g21459"
           clip-path="url(#clipPath21461)">
          <path
             inkscape:connector-curvature="0"
             d="m 81.9,141.6 0.392331,0.0934 0.392657,0.0919 0.392994,0.0905 0.393345,0.089 0.393658,0.0875 0.393994,0.086 0.394317,0.0846 0.394618,0.0831 0.394951,0.0816 0.395247,0.0801 0.395538,0.0786 0.395857,0.0771 0.396134,0.0755 0.396417,0.074 0.396712,0.0725 0.396974,0.071 0.39725,0.0695 0.39752,0.0679 0.397768,0.0664 0.398032,0.0649 0.39828,0.0633 0.398513,0.0618 0.398764,0.0602 0.398991,0.0587 0.399209,0.0571 0.399443,0.0555 0.399652,0.054 0.399852,0.0524 0.400071,0.0508 0.40026,0.0492 0.400444,0.0477 0.400644,0.0461 0.400815,0.0445 0.400983,0.0429 0.401162,0.0413 0.401316,0.0397 0.401467,0.0381 0.401626,0.0365 0.401761,0.0349 0.401895,0.0333 0.402033,0.0317 0.402151,0.0301 0.402266,0.0285 0.402383,0.0269 0.402485,0.0253 0.40258,0.0237 0.40268,0.022 0.40276,0.0204 0.40283,0.0188 0.40292,0.0172 0.40297,0.0156 0.40304,0.0139 0.40309,0.0123 0.40313,0.0107 0.40318,0.009 0.4032,0.007 0.40324,0.006 0.40325,0.004 0.40327,0.003 0.40328,9.4e-4 0.40328,-6.8e-4 0.40327,-0.002 0.40325,-0.004 0.40324,-0.006 0.40322,-0.007 0.40318,-0.009 0.40314,-0.0104 0.40309,-0.0121 0.40305,-0.0137 0.40299,-0.0153 0.40292,-0.0169 0.40285,-0.0186 0.40277,-0.0202 0.40269,-0.0218 0.40259,-0.0234 0.40251,-0.025 0.40239,-0.0266 0.40229,-0.0282 0.40217,-0.0299 0.40205,-0.0314 0.40192,-0.0331 0.40178,-0.0347 0.40165,-0.0363 0.40149,-0.0379 0.40134,-0.0395 0.40118,-0.0411 0.40102,-0.0427 0.40085,-0.0442 0.40066,-0.0458 0.40048,-0.0474 0.40029,-0.049 0.40009,-0.0506 0.39989,-0.0521 0.3997,-0.0537 0.39946,-0.0553 0.39925,-0.0568 0.39904,-0.0584 0.39878,-0.06 0.39856,-0.0615"
             style="fill:none;stroke:#382f2d;stroke-width:9;stroke-linecap:round;stroke-linejoin:round;stroke-miterlimit:10;stroke-opacity:1;stroke-dasharray:none"
             id="path21465" />
        </g>
      </g>
      <g
         id="g21467"
         transform="matrix(1.0931077,0,0,1,550.3669,155.78511)">
        <g
           id="g21469"
           clip-path="url(#clipPath21471)">
          <path
             inkscape:connector-curvature="0"
             d="m 83.02019,136.93254 0.560095,-2.33373"
             style="fill:none;stroke:#000000;stroke-width:3;stroke-linecap:round;stroke-linejoin:round;stroke-miterlimit:10;stroke-opacity:1;stroke-dasharray:none"
             id="path21475" />
        </g>
      </g>
      <g
         id="g21477"
         transform="matrix(1.0931077,0,0,1,550.3669,155.78511)">
        <g
           id="g21479"
           clip-path="url(#clipPath21481)">
          <path
             inkscape:connector-curvature="0"
             d="m 120.79121,138.51571 -0.37068,-2.3712"
             style="fill:none;stroke:#000000;stroke-width:3;stroke-linecap:round;stroke-linejoin:round;stroke-miterlimit:10;stroke-opacity:1;stroke-dasharray:none"
             id="path21485" />
        </g>
      </g>
      <g
         id="g21487"
         transform="matrix(1.0931077,0,0,1,550.3669,155.78511)">
        <path
           inkscape:connector-curvature="0"
           d="m 38.7,21.6 0,4"
           style="fill:#000000;fill-opacity:1;fill-rule:nonzero;stroke:#000000;stroke-width:0.5;stroke-linecap:butt;stroke-linejoin:round;stroke-miterlimit:10;stroke-opacity:1;stroke-dasharray:none"
           id="path21489" />
        <path
           inkscape:connector-curvature="0"
           d="m 38.7,194.4 0,-4"
           style="fill:#000000;fill-opacity:1;fill-rule:nonzero;stroke:#000000;stroke-width:0.5;stroke-linecap:butt;stroke-linejoin:round;stroke-miterlimit:10;stroke-opacity:1;stroke-dasharray:none"
           id="path21491" />
        <path
           inkscape:connector-curvature="0"
           d="m 57.9,21.6 0,4"
           style="fill:#000000;fill-opacity:1;fill-rule:nonzero;stroke:#000000;stroke-width:0.5;stroke-linecap:butt;stroke-linejoin:round;stroke-miterlimit:10;stroke-opacity:1;stroke-dasharray:none"
           id="path21493" />
        <path
           inkscape:connector-curvature="0"
           d="m 57.9,194.4 0,-4"
           style="fill:#000000;fill-opacity:1;fill-rule:nonzero;stroke:#000000;stroke-width:0.5;stroke-linecap:butt;stroke-linejoin:round;stroke-miterlimit:10;stroke-opacity:1;stroke-dasharray:none"
           id="path21495" />
        <path
           inkscape:connector-curvature="0"
           d="m 77.1,21.6 0,4"
           style="fill:#000000;fill-opacity:1;fill-rule:nonzero;stroke:#000000;stroke-width:0.5;stroke-linecap:butt;stroke-linejoin:round;stroke-miterlimit:10;stroke-opacity:1;stroke-dasharray:none"
           id="path21497" />
        <path
           inkscape:connector-curvature="0"
           d="m 77.1,194.4 0,-4"
           style="fill:#000000;fill-opacity:1;fill-rule:nonzero;stroke:#000000;stroke-width:0.5;stroke-linecap:butt;stroke-linejoin:round;stroke-miterlimit:10;stroke-opacity:1;stroke-dasharray:none"
           id="path21499" />
        <path
           inkscape:connector-curvature="0"
           d="m 96.3,21.6 0,4"
           style="fill:#000000;fill-opacity:1;fill-rule:nonzero;stroke:#000000;stroke-width:0.5;stroke-linecap:butt;stroke-linejoin:round;stroke-miterlimit:10;stroke-opacity:1;stroke-dasharray:none"
           id="path21501" />
        <path
           inkscape:connector-curvature="0"
           d="m 96.3,194.4 0,-4"
           style="fill:#000000;fill-opacity:1;fill-rule:nonzero;stroke:#000000;stroke-width:0.5;stroke-linecap:butt;stroke-linejoin:round;stroke-miterlimit:10;stroke-opacity:1;stroke-dasharray:none"
           id="path21503" />
        <path
           inkscape:connector-curvature="0"
           d="m 115.5,21.6 0,4"
           style="fill:#000000;fill-opacity:1;fill-rule:nonzero;stroke:#000000;stroke-width:0.5;stroke-linecap:butt;stroke-linejoin:round;stroke-miterlimit:10;stroke-opacity:1;stroke-dasharray:none"
           id="path21505" />
        <path
           inkscape:connector-curvature="0"
           d="m 115.5,194.4 0,-4"
           style="fill:#000000;fill-opacity:1;fill-rule:nonzero;stroke:#000000;stroke-width:0.5;stroke-linecap:butt;stroke-linejoin:round;stroke-miterlimit:10;stroke-opacity:1;stroke-dasharray:none"
           id="path21507" />
        <path
           inkscape:connector-curvature="0"
           d="m 134.7,21.6 0,4"
           style="fill:#000000;fill-opacity:1;fill-rule:nonzero;stroke:#000000;stroke-width:0.5;stroke-linecap:butt;stroke-linejoin:round;stroke-miterlimit:10;stroke-opacity:1;stroke-dasharray:none"
           id="path21509" />
        <path
           inkscape:connector-curvature="0"
           d="m 134.7,194.4 0,-4"
           style="fill:#000000;fill-opacity:1;fill-rule:nonzero;stroke:#000000;stroke-width:0.5;stroke-linecap:butt;stroke-linejoin:round;stroke-miterlimit:10;stroke-opacity:1;stroke-dasharray:none"
           id="path21511" />
        <path
           inkscape:connector-curvature="0"
           d="m 153.9,21.6 0,4"
           style="fill:#000000;fill-opacity:1;fill-rule:nonzero;stroke:#000000;stroke-width:0.5;stroke-linecap:butt;stroke-linejoin:round;stroke-miterlimit:10;stroke-opacity:1;stroke-dasharray:none"
           id="path21513" />
        <path
           inkscape:connector-curvature="0"
           d="m 153.9,194.4 0,-4"
           style="fill:#000000;fill-opacity:1;fill-rule:nonzero;stroke:#000000;stroke-width:0.5;stroke-linecap:butt;stroke-linejoin:round;stroke-miterlimit:10;stroke-opacity:1;stroke-dasharray:none"
           id="path21515" />
        <path
           inkscape:connector-curvature="0"
           d="m 173.1,21.6 0,4"
           style="fill:#000000;fill-opacity:1;fill-rule:nonzero;stroke:#000000;stroke-width:0.5;stroke-linecap:butt;stroke-linejoin:round;stroke-miterlimit:10;stroke-opacity:1;stroke-dasharray:none"
           id="path21517" />
        <path
           inkscape:connector-curvature="0"
           d="m 173.1,194.4 0,-4"
           style="fill:#000000;fill-opacity:1;fill-rule:nonzero;stroke:#000000;stroke-width:0.5;stroke-linecap:butt;stroke-linejoin:round;stroke-miterlimit:10;stroke-opacity:1;stroke-dasharray:none"
           id="path21519" />
        <path
           inkscape:connector-curvature="0"
           d="m 192.3,21.6 0,4"
           style="fill:#000000;fill-opacity:1;fill-rule:nonzero;stroke:#000000;stroke-width:0.5;stroke-linecap:butt;stroke-linejoin:round;stroke-miterlimit:10;stroke-opacity:1;stroke-dasharray:none"
           id="path21521" />
        <path
           inkscape:connector-curvature="0"
           d="m 192.3,194.4 0,-4"
           style="fill:#000000;fill-opacity:1;fill-rule:nonzero;stroke:#000000;stroke-width:0.5;stroke-linecap:butt;stroke-linejoin:round;stroke-miterlimit:10;stroke-opacity:1;stroke-dasharray:none"
           id="path21523" />
        <path
           inkscape:connector-curvature="0"
           d="m 29.1,36 4,0"
           style="fill:#000000;fill-opacity:1;fill-rule:nonzero;stroke:#000000;stroke-width:0.5;stroke-linecap:butt;stroke-linejoin:round;stroke-miterlimit:10;stroke-opacity:1;stroke-dasharray:none"
           id="path21525" />
        <path
           inkscape:connector-curvature="0"
           d="m 192.3,36 -4,0"
           style="fill:#000000;fill-opacity:1;fill-rule:nonzero;stroke:#000000;stroke-width:0.5;stroke-linecap:butt;stroke-linejoin:round;stroke-miterlimit:10;stroke-opacity:1;stroke-dasharray:none"
           id="path21527" />
        <path
           inkscape:connector-curvature="0"
           d="m 29.1,84 4,0"
           style="fill:#000000;fill-opacity:1;fill-rule:nonzero;stroke:#000000;stroke-width:0.5;stroke-linecap:butt;stroke-linejoin:round;stroke-miterlimit:10;stroke-opacity:1;stroke-dasharray:none"
           id="path21529" />
        <path
           inkscape:connector-curvature="0"
           d="m 192.3,84 -4,0"
           style="fill:#000000;fill-opacity:1;fill-rule:nonzero;stroke:#000000;stroke-width:0.5;stroke-linecap:butt;stroke-linejoin:round;stroke-miterlimit:10;stroke-opacity:1;stroke-dasharray:none"
           id="path21531" />
        <path
           inkscape:connector-curvature="0"
           d="m 29.1,132 4,0"
           style="fill:#000000;fill-opacity:1;fill-rule:nonzero;stroke:#000000;stroke-width:0.5;stroke-linecap:butt;stroke-linejoin:round;stroke-miterlimit:10;stroke-opacity:1;stroke-dasharray:none"
           id="path21533" />
        <path
           inkscape:connector-curvature="0"
           d="m 192.3,132 -4,0"
           style="fill:#000000;fill-opacity:1;fill-rule:nonzero;stroke:#000000;stroke-width:0.5;stroke-linecap:butt;stroke-linejoin:round;stroke-miterlimit:10;stroke-opacity:1;stroke-dasharray:none"
           id="path21535" />
        <path
           inkscape:connector-curvature="0"
           d="m 29.1,180 4,0"
           style="fill:#000000;fill-opacity:1;fill-rule:nonzero;stroke:#000000;stroke-width:0.5;stroke-linecap:butt;stroke-linejoin:round;stroke-miterlimit:10;stroke-opacity:1;stroke-dasharray:none"
           id="path21537" />
        <path
           inkscape:connector-curvature="0"
           d="m 192.3,180 -4,0"
           style="fill:#000000;fill-opacity:1;fill-rule:nonzero;stroke:#000000;stroke-width:0.5;stroke-linecap:butt;stroke-linejoin:round;stroke-miterlimit:10;stroke-opacity:1;stroke-dasharray:none"
           id="path21539" />
        <path
           inkscape:connector-curvature="0"
           d="m 29.1,194.4 163.2,0"
           style="fill:none;stroke:#000000;stroke-width:1;stroke-linecap:butt;stroke-linejoin:round;stroke-miterlimit:10;stroke-opacity:1;stroke-dasharray:none"
           id="path21541" />
        <path
           inkscape:connector-curvature="0"
           d="m 192.3,21.6 0,172.8"
           style="fill:none;stroke:#000000;stroke-width:1;stroke-linecap:butt;stroke-linejoin:round;stroke-miterlimit:10;stroke-opacity:1;stroke-dasharray:none"
           id="path21543" />
        <path
           inkscape:connector-curvature="0"
           d="m 29.1,21.6 163.2,0"
           style="fill:none;stroke:#000000;stroke-width:1;stroke-linecap:butt;stroke-linejoin:round;stroke-miterlimit:10;stroke-opacity:1;stroke-dasharray:none"
           id="path21545" />
        <path
           inkscape:connector-curvature="0"
           d="m 29.1,21.6 0,172.8"
           style="fill:none;stroke:#000000;stroke-width:1;stroke-linecap:butt;stroke-linejoin:round;stroke-miterlimit:10;stroke-opacity:1;stroke-dasharray:none"
           id="path21547" />
      </g>
    </g>
    <g
       id="g22323"
       transform="matrix(0.19007635,0,0,-0.19007635,252.28082,588.06041)">
      <path
         id="path21958"
         style="fill:#ffffff;fill-opacity:1;fill-rule:nonzero;stroke:none"
         d="m 574.20537,207.34875 163.2,0 0,172.8 -163.2,0 0,-172.8 z"
         inkscape:connector-curvature="0" />
      <g
         transform="translate(545.10537,185.74875)"
         id="g21960">
        <g
           clip-path="url(#clipPath21964)"
           id="g21962">
          <path
             id="path21968"
             style="fill:#7b4316;fill-opacity:1;fill-rule:nonzero;stroke:#000000;stroke-width:3;stroke-linecap:butt;stroke-linejoin:round;stroke-miterlimit:10;stroke-opacity:1;stroke-dasharray:none"
             d="m 132.3,36 -48.929664,84.74866 97.859324,0 L 132.3,36 z"
             inkscape:connector-curvature="0" />
        </g>
      </g>
      <g
         transform="translate(545.10537,185.74875)"
         id="g21970">
        <g
           clip-path="url(#clipPath21974)"
           id="g21972">
          <path
             id="path21978"
             style="fill:#7b4316;fill-opacity:1;fill-rule:nonzero;stroke:#000000;stroke-width:3;stroke-linecap:butt;stroke-linejoin:round;stroke-miterlimit:10;stroke-opacity:1;stroke-dasharray:none"
             d="m 105.9,180 12.23242,-21.18717 -24.464836,0 L 105.9,180 z"
             inkscape:connector-curvature="0" />
        </g>
      </g>
      <g
         transform="translate(545.10537,185.74875)"
         id="g21980">
        <g
           clip-path="url(#clipPath21984)"
           id="g21982">
          <path
             id="path21988"
             style="fill:none;stroke:#000000;stroke-width:4;stroke-linecap:square;stroke-linejoin:round;stroke-miterlimit:10;stroke-opacity:1;stroke-dasharray:none"
             d="m 57.9,36 24,0"
             inkscape:connector-curvature="0" />
        </g>
      </g>
      <g
         transform="translate(545.10537,185.74875)"
         id="g21990">
        <g
           clip-path="url(#clipPath21994)"
           id="g21992">
          <path
             id="path21998"
             style="fill:none;stroke:#000000;stroke-width:4;stroke-linecap:square;stroke-linejoin:round;stroke-miterlimit:10;stroke-opacity:1;stroke-dasharray:none"
             d="m 129.9,36 24,0"
             inkscape:connector-curvature="0" />
        </g>
      </g>
      <g
         transform="translate(545.10537,185.74875)"
         id="g22000">
        <g
           clip-path="url(#clipPath22004)"
           id="g22002">
          <path
             id="path22008"
             style="fill:none;stroke:#000000;stroke-width:4;stroke-linecap:square;stroke-linejoin:round;stroke-miterlimit:10;stroke-opacity:1;stroke-dasharray:none"
             d="m 129.9,180 -48,0"
             inkscape:connector-curvature="0" />
        </g>
      </g>
      <g
         transform="translate(545.10537,185.74875)"
         id="g22010">
        <g
           clip-path="url(#clipPath22014)"
           id="g22012">
          <g
             transform="translate(132.3,36)"
             id="g22018">
            <g
               id="g22020">
              <g
                 clip-path="url(#clipPath22024)"
                 id="g22022">
                <path
                   id="path22028"
                   style="fill:#7b4316;fill-opacity:1;fill-rule:nonzero;stroke:#000000;stroke-width:3;stroke-linecap:butt;stroke-linejoin:round;stroke-miterlimit:10;stroke-opacity:1;stroke-dasharray:none"
                   d="m 0,-6 c 1.5912186,0 3.1174792,0.6321979 4.2426407,1.7573593 C 5.3678021,-3.1174792 6,-1.5912186 6,0 6,1.5912186 5.3678021,3.1174792 4.2426407,4.2426407 3.1174792,5.3678021 1.5912186,6 0,6 -1.5912186,6 -3.1174792,5.3678021 -4.2426407,4.2426407 -5.3678021,3.1174792 -6,1.5912186 -6,0 -6,-1.5912186 -5.3678021,-3.1174792 -4.2426407,-4.2426407 -3.1174792,-5.3678021 -1.5912186,-6 0,-6 z"
                   inkscape:connector-curvature="0" />
              </g>
            </g>
          </g>
        </g>
      </g>
      <g
         transform="translate(545.10537,185.74875)"
         id="g22030">
        <g
           clip-path="url(#clipPath22034)"
           id="g22032">
          <g
             transform="translate(105.9,180)"
             id="g22038">
            <g
               id="g22040">
              <g
                 clip-path="url(#clipPath22044)"
                 id="g22042">
                <path
                   id="path22048"
                   style="fill:#7b4316;fill-opacity:1;fill-rule:nonzero;stroke:#000000;stroke-width:3;stroke-linecap:butt;stroke-linejoin:round;stroke-miterlimit:10;stroke-opacity:1;stroke-dasharray:none"
                   d="m 0,-6 c 1.5912186,0 3.1174792,0.6321979 4.2426407,1.7573593 C 5.3678021,-3.1174792 6,-1.5912186 6,0 6,1.5912186 5.3678021,3.1174792 4.2426407,4.2426407 3.1174792,5.3678021 1.5912186,6 0,6 -1.5912186,6 -3.1174792,5.3678021 -4.2426407,4.2426407 -5.3678021,3.1174792 -6,1.5912186 -6,0 -6,-1.5912186 -5.3678021,-3.1174792 -4.2426407,-4.2426407 -3.1174792,-5.3678021 -1.5912186,-6 0,-6 z"
                   inkscape:connector-curvature="0" />
              </g>
            </g>
          </g>
        </g>
      </g>
      <g
         transform="translate(545.10537,185.74875)"
         id="g22050">
        <g
           clip-path="url(#clipPath22054)"
           id="g22052">
          <path
             id="path22058"
             style="fill:none;stroke:#d6d2c4;stroke-width:9;stroke-linecap:round;stroke-linejoin:round;stroke-miterlimit:10;stroke-opacity:1;stroke-dasharray:none"
             d="m 81.9,141.6 4.778616,1.03269 4.754038,0.80079 4.71863,0.57133 4.740206,0.34976 4.68352,0.1249 4.68424,-0.0945 4.74236,-0.31918 4.72218,-0.54129 4.75893,-0.7711 4.78479,-1.00361 3.92374,-0.8043 2.96577,-0.35781 2.98405,-0.13808 2.98603,0.0847 2.97159,0.30555 3.00811,0.53414 0.9932,0.22604 0,0"
             inkscape:connector-curvature="0" />
        </g>
      </g>
      <g
         transform="translate(545.10537,185.74875)"
         id="g22060">
        <g
           clip-path="url(#clipPath22064)"
           id="g22062">
          <path
             id="path22068"
             style="fill:none;stroke:#7b4316;stroke-width:9;stroke-linecap:round;stroke-linejoin:round;stroke-miterlimit:10;stroke-opacity:1;stroke-dasharray:none"
             d="m 90.267428,143.25811 0.592135,0.0908 0.592659,0.0874 0.593145,0.0839 0.593638,0.0805 0.594082,0.077 0.594539,0.0735 0.594946,0.07 0.595357,0.0666 0.595731,0.0631 0.596099,0.0595 0.596435,0.056 0.596759,0.0525 0.597058,0.0489 0.597338,0.0454 0.597599,0.0419 0.597835,0.0383 0.598057,0.0347 0.59825,0.0312 0.59842,0.0276 0.59858,0.024 0.59872,0.0204 0.59882,0.0169 0.59892,0.0133 0.59898,0.01 0.59903,0.006 0.59905,0.003 0.59907,-0.001 0.59904,-0.005 0.599,-0.008 0.59895,-0.0118 0.59886,-0.0154 0.59876,-0.019 0.59864,-0.0226 0.59849,-0.0262 0.59832,-0.0297 0.59814,-0.0333 0.59792,-0.0369 0.5977,-0.0404 0.59744,-0.044 0.59718,-0.0475 0.59688,-0.0511 0.59657,-0.0546 0.59623,-0.0581 0.59588,-0.0616 0.59552,-0.0652 0.59511,-0.0686 0.59471,-0.0721 0.59426,-0.0756 0.59382,-0.0791 0.59334,-0.0825 0.59286,-0.086 0.59235,-0.0894 0.59182,-0.0929 0.59128,-0.0963 0.59071,-0.0997 0.59013,-0.10306 0.58953,-0.10643 0.58892,-0.10979 0.58827,-0.11313 0.58764,-0.11646 0.58696,-0.11978 0.58629,-0.12308 0.58558,-0.12636 0.58486,-0.12963 0.58416,-0.13289 0.58337,-0.13612 0.58283,-0.13863 0.58413,-0.13291 0.58592,-0.12474 0.58763,-0.11648 0.58922,-0.10814 0.5907,-0.0997 0.59208,-0.0912 0.59334,-0.0826 0.59448,-0.0739 0.5955,-0.0652 0.5964,-0.0564 0.59716,-0.0476 0.59781,-0.0387 0.59832,-0.0298 0.59869,-0.0208 0.59894,-0.0119 0.59905,-0.003 0.59903,0.006 0.59887,0.015 0.59857,0.024 0.59815,0.0329 0.5976,0.0418 0.59691,0.0507 0.59609,0.0595 0.59516,0.0683 0.59408,0.077 0.59291,0.0856 0.5916,0.0942 0.59019,0.1027 0.58867,0.11111 0.58703,0.11943 0.5853,0.12765 L 149.1,141.6"
             inkscape:connector-curvature="0" />
        </g>
      </g>
      <g
         transform="translate(545.10537,185.74875)"
         id="g22070">
        <g
           clip-path="url(#clipPath22074)"
           id="g22072">
          <path
             id="path22078"
             style="fill:none;stroke:#000000;stroke-width:3;stroke-linecap:round;stroke-linejoin:round;stroke-miterlimit:10;stroke-opacity:1;stroke-dasharray:none"
             d="m 91.008788,138.51571 0.37068,-2.3712"
             inkscape:connector-curvature="0" />
        </g>
      </g>
      <g
         transform="translate(545.10537,185.74875)"
         id="g22080">
        <g
           clip-path="url(#clipPath22084)"
           id="g22082">
          <path
             id="path22088"
             style="fill:none;stroke:#000000;stroke-width:3;stroke-linecap:round;stroke-linejoin:round;stroke-miterlimit:10;stroke-opacity:1;stroke-dasharray:none"
             d="m 150.22019,136.93254 0.5601,-2.33373"
             inkscape:connector-curvature="0" />
        </g>
      </g>
      <g
         transform="translate(545.10537,185.74875)"
         id="g22090">
        <path
           id="path22092"
           style="fill:#000000;fill-opacity:1;fill-rule:nonzero;stroke:#000000;stroke-width:0.5;stroke-linecap:butt;stroke-linejoin:round;stroke-miterlimit:10;stroke-opacity:1;stroke-dasharray:none"
           d="m 38.7,21.6 0,4"
           inkscape:connector-curvature="0" />
        <path
           id="path22094"
           style="fill:#000000;fill-opacity:1;fill-rule:nonzero;stroke:#000000;stroke-width:0.5;stroke-linecap:butt;stroke-linejoin:round;stroke-miterlimit:10;stroke-opacity:1;stroke-dasharray:none"
           d="m 38.7,194.4 0,-4"
           inkscape:connector-curvature="0" />
        <path
           id="path22096"
           style="fill:#000000;fill-opacity:1;fill-rule:nonzero;stroke:#000000;stroke-width:0.5;stroke-linecap:butt;stroke-linejoin:round;stroke-miterlimit:10;stroke-opacity:1;stroke-dasharray:none"
           d="m 57.9,21.6 0,4"
           inkscape:connector-curvature="0" />
        <path
           id="path22098"
           style="fill:#000000;fill-opacity:1;fill-rule:nonzero;stroke:#000000;stroke-width:0.5;stroke-linecap:butt;stroke-linejoin:round;stroke-miterlimit:10;stroke-opacity:1;stroke-dasharray:none"
           d="m 57.9,194.4 0,-4"
           inkscape:connector-curvature="0" />
        <path
           id="path22100"
           style="fill:#000000;fill-opacity:1;fill-rule:nonzero;stroke:#000000;stroke-width:0.5;stroke-linecap:butt;stroke-linejoin:round;stroke-miterlimit:10;stroke-opacity:1;stroke-dasharray:none"
           d="m 77.1,21.6 0,4"
           inkscape:connector-curvature="0" />
        <path
           id="path22102"
           style="fill:#000000;fill-opacity:1;fill-rule:nonzero;stroke:#000000;stroke-width:0.5;stroke-linecap:butt;stroke-linejoin:round;stroke-miterlimit:10;stroke-opacity:1;stroke-dasharray:none"
           d="m 77.1,194.4 0,-4"
           inkscape:connector-curvature="0" />
        <path
           id="path22104"
           style="fill:#000000;fill-opacity:1;fill-rule:nonzero;stroke:#000000;stroke-width:0.5;stroke-linecap:butt;stroke-linejoin:round;stroke-miterlimit:10;stroke-opacity:1;stroke-dasharray:none"
           d="m 96.3,21.6 0,4"
           inkscape:connector-curvature="0" />
        <path
           id="path22106"
           style="fill:#000000;fill-opacity:1;fill-rule:nonzero;stroke:#000000;stroke-width:0.5;stroke-linecap:butt;stroke-linejoin:round;stroke-miterlimit:10;stroke-opacity:1;stroke-dasharray:none"
           d="m 96.3,194.4 0,-4"
           inkscape:connector-curvature="0" />
        <path
           id="path22108"
           style="fill:#000000;fill-opacity:1;fill-rule:nonzero;stroke:#000000;stroke-width:0.5;stroke-linecap:butt;stroke-linejoin:round;stroke-miterlimit:10;stroke-opacity:1;stroke-dasharray:none"
           d="m 115.5,21.6 0,4"
           inkscape:connector-curvature="0" />
        <path
           id="path22110"
           style="fill:#000000;fill-opacity:1;fill-rule:nonzero;stroke:#000000;stroke-width:0.5;stroke-linecap:butt;stroke-linejoin:round;stroke-miterlimit:10;stroke-opacity:1;stroke-dasharray:none"
           d="m 115.5,194.4 0,-4"
           inkscape:connector-curvature="0" />
        <path
           id="path22112"
           style="fill:#000000;fill-opacity:1;fill-rule:nonzero;stroke:#000000;stroke-width:0.5;stroke-linecap:butt;stroke-linejoin:round;stroke-miterlimit:10;stroke-opacity:1;stroke-dasharray:none"
           d="m 134.7,21.6 0,4"
           inkscape:connector-curvature="0" />
        <path
           id="path22114"
           style="fill:#000000;fill-opacity:1;fill-rule:nonzero;stroke:#000000;stroke-width:0.5;stroke-linecap:butt;stroke-linejoin:round;stroke-miterlimit:10;stroke-opacity:1;stroke-dasharray:none"
           d="m 134.7,194.4 0,-4"
           inkscape:connector-curvature="0" />
        <path
           id="path22116"
           style="fill:#000000;fill-opacity:1;fill-rule:nonzero;stroke:#000000;stroke-width:0.5;stroke-linecap:butt;stroke-linejoin:round;stroke-miterlimit:10;stroke-opacity:1;stroke-dasharray:none"
           d="m 153.9,21.6 0,4"
           inkscape:connector-curvature="0" />
        <path
           id="path22118"
           style="fill:#000000;fill-opacity:1;fill-rule:nonzero;stroke:#000000;stroke-width:0.5;stroke-linecap:butt;stroke-linejoin:round;stroke-miterlimit:10;stroke-opacity:1;stroke-dasharray:none"
           d="m 153.9,194.4 0,-4"
           inkscape:connector-curvature="0" />
        <path
           id="path22120"
           style="fill:#000000;fill-opacity:1;fill-rule:nonzero;stroke:#000000;stroke-width:0.5;stroke-linecap:butt;stroke-linejoin:round;stroke-miterlimit:10;stroke-opacity:1;stroke-dasharray:none"
           d="m 173.1,21.6 0,4"
           inkscape:connector-curvature="0" />
        <path
           id="path22122"
           style="fill:#000000;fill-opacity:1;fill-rule:nonzero;stroke:#000000;stroke-width:0.5;stroke-linecap:butt;stroke-linejoin:round;stroke-miterlimit:10;stroke-opacity:1;stroke-dasharray:none"
           d="m 173.1,194.4 0,-4"
           inkscape:connector-curvature="0" />
        <path
           id="path22124"
           style="fill:#000000;fill-opacity:1;fill-rule:nonzero;stroke:#000000;stroke-width:0.5;stroke-linecap:butt;stroke-linejoin:round;stroke-miterlimit:10;stroke-opacity:1;stroke-dasharray:none"
           d="m 192.3,21.6 0,4"
           inkscape:connector-curvature="0" />
        <path
           id="path22126"
           style="fill:#000000;fill-opacity:1;fill-rule:nonzero;stroke:#000000;stroke-width:0.5;stroke-linecap:butt;stroke-linejoin:round;stroke-miterlimit:10;stroke-opacity:1;stroke-dasharray:none"
           d="m 192.3,194.4 0,-4"
           inkscape:connector-curvature="0" />
        <path
           id="path22128"
           style="fill:#000000;fill-opacity:1;fill-rule:nonzero;stroke:#000000;stroke-width:0.5;stroke-linecap:butt;stroke-linejoin:round;stroke-miterlimit:10;stroke-opacity:1;stroke-dasharray:none"
           d="m 29.1,36 4,0"
           inkscape:connector-curvature="0" />
        <path
           id="path22130"
           style="fill:#000000;fill-opacity:1;fill-rule:nonzero;stroke:#000000;stroke-width:0.5;stroke-linecap:butt;stroke-linejoin:round;stroke-miterlimit:10;stroke-opacity:1;stroke-dasharray:none"
           d="m 192.3,36 -4,0"
           inkscape:connector-curvature="0" />
        <path
           id="path22132"
           style="fill:#000000;fill-opacity:1;fill-rule:nonzero;stroke:#000000;stroke-width:0.5;stroke-linecap:butt;stroke-linejoin:round;stroke-miterlimit:10;stroke-opacity:1;stroke-dasharray:none"
           d="m 29.1,84 4,0"
           inkscape:connector-curvature="0" />
        <path
           id="path22134"
           style="fill:#000000;fill-opacity:1;fill-rule:nonzero;stroke:#000000;stroke-width:0.5;stroke-linecap:butt;stroke-linejoin:round;stroke-miterlimit:10;stroke-opacity:1;stroke-dasharray:none"
           d="m 192.3,84 -4,0"
           inkscape:connector-curvature="0" />
        <path
           id="path22136"
           style="fill:#000000;fill-opacity:1;fill-rule:nonzero;stroke:#000000;stroke-width:0.5;stroke-linecap:butt;stroke-linejoin:round;stroke-miterlimit:10;stroke-opacity:1;stroke-dasharray:none"
           d="m 29.1,132 4,0"
           inkscape:connector-curvature="0" />
        <path
           id="path22138"
           style="fill:#000000;fill-opacity:1;fill-rule:nonzero;stroke:#000000;stroke-width:0.5;stroke-linecap:butt;stroke-linejoin:round;stroke-miterlimit:10;stroke-opacity:1;stroke-dasharray:none"
           d="m 192.3,132 -4,0"
           inkscape:connector-curvature="0" />
        <path
           id="path22140"
           style="fill:#000000;fill-opacity:1;fill-rule:nonzero;stroke:#000000;stroke-width:0.5;stroke-linecap:butt;stroke-linejoin:round;stroke-miterlimit:10;stroke-opacity:1;stroke-dasharray:none"
           d="m 29.1,180 4,0"
           inkscape:connector-curvature="0" />
        <path
           id="path22142"
           style="fill:#000000;fill-opacity:1;fill-rule:nonzero;stroke:#000000;stroke-width:0.5;stroke-linecap:butt;stroke-linejoin:round;stroke-miterlimit:10;stroke-opacity:1;stroke-dasharray:none"
           d="m 192.3,180 -4,0"
           inkscape:connector-curvature="0" />
        <path
           id="path22144"
           style="fill:none;stroke:#000000;stroke-width:1;stroke-linecap:butt;stroke-linejoin:round;stroke-miterlimit:10;stroke-opacity:1;stroke-dasharray:none"
           d="m 29.1,194.4 163.2,0"
           inkscape:connector-curvature="0" />
        <path
           id="path22146"
           style="fill:none;stroke:#000000;stroke-width:1;stroke-linecap:butt;stroke-linejoin:round;stroke-miterlimit:10;stroke-opacity:1;stroke-dasharray:none"
           d="m 192.3,21.6 0,172.8"
           inkscape:connector-curvature="0" />
        <path
           id="path22148"
           style="fill:none;stroke:#000000;stroke-width:1;stroke-linecap:butt;stroke-linejoin:round;stroke-miterlimit:10;stroke-opacity:1;stroke-dasharray:none"
           d="m 29.1,21.6 163.2,0"
           inkscape:connector-curvature="0" />
        <path
           id="path22150"
           style="fill:none;stroke:#000000;stroke-width:1;stroke-linecap:butt;stroke-linejoin:round;stroke-miterlimit:10;stroke-opacity:1;stroke-dasharray:none"
           d="m 29.1,21.6 0,172.8"
           inkscape:connector-curvature="0" />
      </g>
    </g>
    <g
       id="g22866"
       transform="matrix(0.19056465,0,0,-0.19056465,284.15049,581.98272)">
      <path
         id="path22447"
         style="fill:#ffffff;fill-opacity:1;fill-rule:nonzero;stroke:none"
         d="m 583.76669,174.4803 163.2,0 0,172.8 -163.2,0 0,-172.8 z"
         inkscape:connector-curvature="0" />
      <g
         transform="translate(554.66669,152.8803)"
         id="g22449">
        <g
           clip-path="url(#clipPath22453)"
           id="g22451">
          <path
             id="path22457"
             style="fill:#bf5700;fill-opacity:1;fill-rule:nonzero;stroke:#000000;stroke-width:3;stroke-linecap:butt;stroke-linejoin:round;stroke-miterlimit:10;stroke-opacity:1;stroke-dasharray:none"
             d="m 132.3,36 -48.929664,84.74866 97.859324,0 L 132.3,36 z"
             inkscape:connector-curvature="0" />
        </g>
      </g>
      <g
         transform="translate(554.66669,152.8803)"
         id="g22459">
        <g
           clip-path="url(#clipPath22463)"
           id="g22461">
          <path
             id="path22467"
             style="fill:#bf5700;fill-opacity:1;fill-rule:nonzero;stroke:#000000;stroke-width:3;stroke-linecap:butt;stroke-linejoin:round;stroke-miterlimit:10;stroke-opacity:1;stroke-dasharray:none"
             d="m 105.9,180 12.23242,-21.18717 -24.464836,0 L 105.9,180 z"
             inkscape:connector-curvature="0" />
        </g>
      </g>
      <g
         transform="translate(554.66669,152.8803)"
         id="g22469">
        <g
           clip-path="url(#clipPath22473)"
           id="g22471">
          <path
             id="path22477"
             style="fill:#bf5700;fill-opacity:1;fill-rule:nonzero;stroke:#000000;stroke-width:3;stroke-linecap:butt;stroke-linejoin:round;stroke-miterlimit:10;stroke-opacity:1;stroke-dasharray:none"
             d="m 152.7,36 -48.92966,84.74866 97.85932,0 L 152.7,36 z"
             inkscape:connector-curvature="0" />
        </g>
      </g>
      <g
         transform="translate(554.66669,152.8803)"
         id="g22479">
        <g
           clip-path="url(#clipPath22483)"
           id="g22481">
          <path
             id="path22487"
             style="fill:none;stroke:#000000;stroke-width:4;stroke-linecap:square;stroke-linejoin:round;stroke-miterlimit:10;stroke-opacity:1;stroke-dasharray:none"
             d="m 57.9,36 24,0"
             inkscape:connector-curvature="0" />
        </g>
      </g>
      <g
         transform="translate(554.66669,152.8803)"
         id="g22489">
        <g
           clip-path="url(#clipPath22493)"
           id="g22491">
          <path
             id="path22497"
             style="fill:none;stroke:#000000;stroke-width:4;stroke-linecap:square;stroke-linejoin:round;stroke-miterlimit:10;stroke-opacity:1;stroke-dasharray:none"
             d="m 129.9,36 24,0"
             inkscape:connector-curvature="0" />
        </g>
      </g>
      <g
         transform="translate(554.66669,152.8803)"
         id="g22499">
        <g
           clip-path="url(#clipPath22503)"
           id="g22501">
          <path
             id="path22507"
             style="fill:none;stroke:#000000;stroke-width:4;stroke-linecap:square;stroke-linejoin:round;stroke-miterlimit:10;stroke-opacity:1;stroke-dasharray:none"
             d="m 129.9,180 -48,0"
             inkscape:connector-curvature="0" />
        </g>
      </g>
      <g
         transform="translate(554.66669,152.8803)"
         id="g22509">
        <g
           clip-path="url(#clipPath22513)"
           id="g22511">
          <g
             transform="translate(132.3,36)"
             id="g22517">
            <g
               id="g22519">
              <g
                 clip-path="url(#clipPath22523)"
                 id="g22521">
                <path
                   id="path22527"
                   style="fill:#bf5700;fill-opacity:1;fill-rule:nonzero;stroke:#000000;stroke-width:3;stroke-linecap:butt;stroke-linejoin:round;stroke-miterlimit:10;stroke-opacity:1;stroke-dasharray:none"
                   d="m 0,-6 c 1.5912186,0 3.1174792,0.6321979 4.2426407,1.7573593 C 5.3678021,-3.1174792 6,-1.5912186 6,0 6,1.5912186 5.3678021,3.1174792 4.2426407,4.2426407 3.1174792,5.3678021 1.5912186,6 0,6 -1.5912186,6 -3.1174792,5.3678021 -4.2426407,4.2426407 -5.3678021,3.1174792 -6,1.5912186 -6,0 -6,-1.5912186 -5.3678021,-3.1174792 -4.2426407,-4.2426407 -3.1174792,-5.3678021 -1.5912186,-6 0,-6 z"
                   inkscape:connector-curvature="0" />
              </g>
            </g>
          </g>
        </g>
      </g>
      <g
         transform="translate(554.66669,152.8803)"
         id="g22529">
        <g
           clip-path="url(#clipPath22533)"
           id="g22531">
          <g
             transform="translate(105.9,180)"
             id="g22537">
            <g
               id="g22539">
              <g
                 clip-path="url(#clipPath22543)"
                 id="g22541">
                <path
                   id="path22547"
                   style="fill:#bf5700;fill-opacity:1;fill-rule:nonzero;stroke:#000000;stroke-width:3;stroke-linecap:butt;stroke-linejoin:round;stroke-miterlimit:10;stroke-opacity:1;stroke-dasharray:none"
                   d="m 0,-6 c 1.5912186,0 3.1174792,0.6321979 4.2426407,1.7573593 C 5.3678021,-3.1174792 6,-1.5912186 6,0 6,1.5912186 5.3678021,3.1174792 4.2426407,4.2426407 3.1174792,5.3678021 1.5912186,6 0,6 -1.5912186,6 -3.1174792,5.3678021 -4.2426407,4.2426407 -5.3678021,3.1174792 -6,1.5912186 -6,0 -6,-1.5912186 -5.3678021,-3.1174792 -4.2426407,-4.2426407 -3.1174792,-5.3678021 -1.5912186,-6 0,-6 z"
                   inkscape:connector-curvature="0" />
              </g>
            </g>
          </g>
        </g>
      </g>
      <g
         transform="translate(554.66669,152.8803)"
         id="g22549">
        <g
           clip-path="url(#clipPath22553)"
           id="g22551">
          <g
             transform="translate(152.7,36)"
             id="g22557">
            <g
               id="g22559">
              <g
                 clip-path="url(#clipPath22563)"
                 id="g22561">
                <path
                   id="path22567"
                   style="fill:#bf5700;fill-opacity:1;fill-rule:nonzero;stroke:#000000;stroke-width:3;stroke-linecap:butt;stroke-linejoin:round;stroke-miterlimit:10;stroke-opacity:1;stroke-dasharray:none"
                   d="m 0,-6 c 1.5912186,0 3.1174792,0.6321979 4.2426407,1.7573593 C 5.3678021,-3.1174792 6,-1.5912186 6,0 6,1.5912186 5.3678021,3.1174792 4.2426407,4.2426407 3.1174792,5.3678021 1.5912186,6 0,6 -1.5912186,6 -3.1174792,5.3678021 -4.2426407,4.2426407 -5.3678021,3.1174792 -6,1.5912186 -6,0 -6,-1.5912186 -5.3678021,-3.1174792 -4.2426407,-4.2426407 -3.1174792,-5.3678021 -1.5912186,-6 0,-6 z"
                   inkscape:connector-curvature="0" />
              </g>
            </g>
          </g>
        </g>
      </g>
      <g
         transform="translate(554.66669,152.8803)"
         id="g22569">
        <g
           clip-path="url(#clipPath22573)"
           id="g22571">
          <path
             id="path22577"
             style="fill:none;stroke:#d6d2c4;stroke-width:9;stroke-linecap:round;stroke-linejoin:round;stroke-miterlimit:10;stroke-opacity:1;stroke-dasharray:none"
             d="m 81.9,141.6 4.778616,1.03269 4.754038,0.80079 4.71863,0.57133 4.740206,0.34976 4.68352,0.1249 4.68424,-0.0945 4.74236,-0.31918 4.72218,-0.54129 4.75893,-0.7711 4.78479,-1.00361 3.92374,-0.8043 2.96577,-0.35781 2.98405,-0.13808 2.98603,0.0847 2.97159,0.30555 3.00811,0.53414 0.9932,0.22604 0,0"
             inkscape:connector-curvature="0" />
        </g>
      </g>
      <g
         transform="translate(554.66669,152.8803)"
         id="g22579">
        <g
           clip-path="url(#clipPath22583)"
           id="g22581">
          <path
             id="path22587"
             style="fill:none;stroke:#bf5700;stroke-width:9;stroke-linecap:round;stroke-linejoin:round;stroke-miterlimit:10;stroke-opacity:1;stroke-dasharray:none"
             d="m 113.19348,144.21403 0.36576,-0.0274 0.36566,-0.0287 0.36555,-0.03 0.36544,-0.0313 0.36532,-0.0326 0.36521,-0.034 0.36507,-0.0353 0.36495,-0.0366 0.36481,-0.0379 0.36468,-0.0393 0.36453,-0.0406 0.36438,-0.0419 0.36423,-0.0432 0.36407,-0.0445 0.36391,-0.0458 0.36375,-0.0471 0.36356,-0.0484 0.36341,-0.0497 0.36321,-0.051 0.36304,-0.0523 0.36284,-0.0536 0.36266,-0.0549 0.36245,-0.0561 0.36226,-0.0574 0.36205,-0.0587 0.36185,-0.06 0.36162,-0.0613 0.36142,-0.0625 0.36118,-0.0638 0.36097,-0.065 0.36073,-0.0663 0.36051,-0.0676 0.36025,-0.0688 0.36004,-0.0701 0.35976,-0.0713 0.35954,-0.0726 0.35927,-0.0738 0.35903,-0.075 0.35875,-0.0763 0.35851,-0.0775 0.35822,-0.0787 0.35796,-0.08 0.35768,-0.0812 0.35741,-0.0824 0.35712,-0.0836 0.35685,-0.0848 0.35692,-0.0845 0.35761,-0.0815 0.35829,-0.0785 0.35894,-0.0754 0.35958,-0.0723 0.36019,-0.0692 0.36079,-0.066 0.36134,-0.0629 0.36189,-0.0597 0.3624,-0.0565 0.36288,-0.0533 0.36335,-0.0501 0.36377,-0.0468 0.36419,-0.0436 0.36456,-0.0403 0.3649,-0.037 0.36523,-0.0337 0.36552,-0.0304 0.36578,-0.0271 0.36601,-0.0237 0.36621,-0.0204 0.36638,-0.017 0.36652,-0.0137 0.36664,-0.0103 0.36671,-0.007 0.36676,-0.004 0.36678,-2.6e-4 0.36677,0.003 0.36672,0.006 0.36664,0.01 0.36655,0.0132 0.3664,0.0165 0.36624,0.0199 0.36605,0.0232 0.36581,0.0265 0.36556,0.0299 0.36528,0.0332 0.36496,0.0365 0.36461,0.0398 0.36424,0.0431 0.36385,0.0463 0.36341,0.0496 0.36295,0.0528 0.36248,0.056 0.36197,0.0592 0.36143,0.0624 0.36087,0.0656 0.36028,0.0687 0.35968,0.0718 0.35905,0.0749 0.35838,0.078 0.35771,0.0811 L 149.1,141.6"
             inkscape:connector-curvature="0" />
        </g>
      </g>
      <g
         transform="translate(554.66669,152.8803)"
         id="g22589">
        <g
           clip-path="url(#clipPath22593)"
           id="g22591">
          <path
             id="path22597"
             style="fill:none;stroke:#000000;stroke-width:3;stroke-linecap:round;stroke-linejoin:round;stroke-miterlimit:10;stroke-opacity:1;stroke-dasharray:none"
             d="m 112.84433,139.42674 -0.17458,-2.39364"
             inkscape:connector-curvature="0" />
        </g>
      </g>
      <g
         transform="translate(554.66669,152.8803)"
         id="g22599">
        <g
           clip-path="url(#clipPath22603)"
           id="g22601">
          <path
             id="path22607"
             style="fill:none;stroke:#000000;stroke-width:3;stroke-linecap:round;stroke-linejoin:round;stroke-miterlimit:10;stroke-opacity:1;stroke-dasharray:none"
             d="m 150.22019,136.93254 0.5601,-2.33373"
             inkscape:connector-curvature="0" />
        </g>
      </g>
      <g
         transform="translate(554.66669,152.8803)"
         id="g22609">
        <path
           id="path22611"
           style="fill:#000000;fill-opacity:1;fill-rule:nonzero;stroke:#000000;stroke-width:0.5;stroke-linecap:butt;stroke-linejoin:round;stroke-miterlimit:10;stroke-opacity:1;stroke-dasharray:none"
           d="m 38.7,21.6 0,4"
           inkscape:connector-curvature="0" />
        <path
           id="path22613"
           style="fill:#000000;fill-opacity:1;fill-rule:nonzero;stroke:#000000;stroke-width:0.5;stroke-linecap:butt;stroke-linejoin:round;stroke-miterlimit:10;stroke-opacity:1;stroke-dasharray:none"
           d="m 38.7,194.4 0,-4"
           inkscape:connector-curvature="0" />
        <path
           id="path22615"
           style="fill:#000000;fill-opacity:1;fill-rule:nonzero;stroke:#000000;stroke-width:0.5;stroke-linecap:butt;stroke-linejoin:round;stroke-miterlimit:10;stroke-opacity:1;stroke-dasharray:none"
           d="m 57.9,21.6 0,4"
           inkscape:connector-curvature="0" />
        <path
           id="path22617"
           style="fill:#000000;fill-opacity:1;fill-rule:nonzero;stroke:#000000;stroke-width:0.5;stroke-linecap:butt;stroke-linejoin:round;stroke-miterlimit:10;stroke-opacity:1;stroke-dasharray:none"
           d="m 57.9,194.4 0,-4"
           inkscape:connector-curvature="0" />
        <path
           id="path22619"
           style="fill:#000000;fill-opacity:1;fill-rule:nonzero;stroke:#000000;stroke-width:0.5;stroke-linecap:butt;stroke-linejoin:round;stroke-miterlimit:10;stroke-opacity:1;stroke-dasharray:none"
           d="m 77.1,21.6 0,4"
           inkscape:connector-curvature="0" />
        <path
           id="path22621"
           style="fill:#000000;fill-opacity:1;fill-rule:nonzero;stroke:#000000;stroke-width:0.5;stroke-linecap:butt;stroke-linejoin:round;stroke-miterlimit:10;stroke-opacity:1;stroke-dasharray:none"
           d="m 77.1,194.4 0,-4"
           inkscape:connector-curvature="0" />
        <path
           id="path22623"
           style="fill:#000000;fill-opacity:1;fill-rule:nonzero;stroke:#000000;stroke-width:0.5;stroke-linecap:butt;stroke-linejoin:round;stroke-miterlimit:10;stroke-opacity:1;stroke-dasharray:none"
           d="m 96.3,21.6 0,4"
           inkscape:connector-curvature="0" />
        <path
           id="path22625"
           style="fill:#000000;fill-opacity:1;fill-rule:nonzero;stroke:#000000;stroke-width:0.5;stroke-linecap:butt;stroke-linejoin:round;stroke-miterlimit:10;stroke-opacity:1;stroke-dasharray:none"
           d="m 96.3,194.4 0,-4"
           inkscape:connector-curvature="0" />
        <path
           id="path22627"
           style="fill:#000000;fill-opacity:1;fill-rule:nonzero;stroke:#000000;stroke-width:0.5;stroke-linecap:butt;stroke-linejoin:round;stroke-miterlimit:10;stroke-opacity:1;stroke-dasharray:none"
           d="m 115.5,21.6 0,4"
           inkscape:connector-curvature="0" />
        <path
           id="path22629"
           style="fill:#000000;fill-opacity:1;fill-rule:nonzero;stroke:#000000;stroke-width:0.5;stroke-linecap:butt;stroke-linejoin:round;stroke-miterlimit:10;stroke-opacity:1;stroke-dasharray:none"
           d="m 115.5,194.4 0,-4"
           inkscape:connector-curvature="0" />
        <path
           id="path22631"
           style="fill:#000000;fill-opacity:1;fill-rule:nonzero;stroke:#000000;stroke-width:0.5;stroke-linecap:butt;stroke-linejoin:round;stroke-miterlimit:10;stroke-opacity:1;stroke-dasharray:none"
           d="m 134.7,21.6 0,4"
           inkscape:connector-curvature="0" />
        <path
           id="path22633"
           style="fill:#000000;fill-opacity:1;fill-rule:nonzero;stroke:#000000;stroke-width:0.5;stroke-linecap:butt;stroke-linejoin:round;stroke-miterlimit:10;stroke-opacity:1;stroke-dasharray:none"
           d="m 134.7,194.4 0,-4"
           inkscape:connector-curvature="0" />
        <path
           id="path22635"
           style="fill:#000000;fill-opacity:1;fill-rule:nonzero;stroke:#000000;stroke-width:0.5;stroke-linecap:butt;stroke-linejoin:round;stroke-miterlimit:10;stroke-opacity:1;stroke-dasharray:none"
           d="m 153.9,21.6 0,4"
           inkscape:connector-curvature="0" />
        <path
           id="path22637"
           style="fill:#000000;fill-opacity:1;fill-rule:nonzero;stroke:#000000;stroke-width:0.5;stroke-linecap:butt;stroke-linejoin:round;stroke-miterlimit:10;stroke-opacity:1;stroke-dasharray:none"
           d="m 153.9,194.4 0,-4"
           inkscape:connector-curvature="0" />
        <path
           id="path22639"
           style="fill:#000000;fill-opacity:1;fill-rule:nonzero;stroke:#000000;stroke-width:0.5;stroke-linecap:butt;stroke-linejoin:round;stroke-miterlimit:10;stroke-opacity:1;stroke-dasharray:none"
           d="m 173.1,21.6 0,4"
           inkscape:connector-curvature="0" />
        <path
           id="path22641"
           style="fill:#000000;fill-opacity:1;fill-rule:nonzero;stroke:#000000;stroke-width:0.5;stroke-linecap:butt;stroke-linejoin:round;stroke-miterlimit:10;stroke-opacity:1;stroke-dasharray:none"
           d="m 173.1,194.4 0,-4"
           inkscape:connector-curvature="0" />
        <path
           id="path22643"
           style="fill:#000000;fill-opacity:1;fill-rule:nonzero;stroke:#000000;stroke-width:0.5;stroke-linecap:butt;stroke-linejoin:round;stroke-miterlimit:10;stroke-opacity:1;stroke-dasharray:none"
           d="m 192.3,21.6 0,4"
           inkscape:connector-curvature="0" />
        <path
           id="path22645"
           style="fill:#000000;fill-opacity:1;fill-rule:nonzero;stroke:#000000;stroke-width:0.5;stroke-linecap:butt;stroke-linejoin:round;stroke-miterlimit:10;stroke-opacity:1;stroke-dasharray:none"
           d="m 192.3,194.4 0,-4"
           inkscape:connector-curvature="0" />
        <path
           id="path22647"
           style="fill:#000000;fill-opacity:1;fill-rule:nonzero;stroke:#000000;stroke-width:0.5;stroke-linecap:butt;stroke-linejoin:round;stroke-miterlimit:10;stroke-opacity:1;stroke-dasharray:none"
           d="m 29.1,36 4,0"
           inkscape:connector-curvature="0" />
        <path
           id="path22649"
           style="fill:#000000;fill-opacity:1;fill-rule:nonzero;stroke:#000000;stroke-width:0.5;stroke-linecap:butt;stroke-linejoin:round;stroke-miterlimit:10;stroke-opacity:1;stroke-dasharray:none"
           d="m 192.3,36 -4,0"
           inkscape:connector-curvature="0" />
        <path
           id="path22651"
           style="fill:#000000;fill-opacity:1;fill-rule:nonzero;stroke:#000000;stroke-width:0.5;stroke-linecap:butt;stroke-linejoin:round;stroke-miterlimit:10;stroke-opacity:1;stroke-dasharray:none"
           d="m 29.1,84 4,0"
           inkscape:connector-curvature="0" />
        <path
           id="path22653"
           style="fill:#000000;fill-opacity:1;fill-rule:nonzero;stroke:#000000;stroke-width:0.5;stroke-linecap:butt;stroke-linejoin:round;stroke-miterlimit:10;stroke-opacity:1;stroke-dasharray:none"
           d="m 192.3,84 -4,0"
           inkscape:connector-curvature="0" />
        <path
           id="path22655"
           style="fill:#000000;fill-opacity:1;fill-rule:nonzero;stroke:#000000;stroke-width:0.5;stroke-linecap:butt;stroke-linejoin:round;stroke-miterlimit:10;stroke-opacity:1;stroke-dasharray:none"
           d="m 29.1,132 4,0"
           inkscape:connector-curvature="0" />
        <path
           id="path22657"
           style="fill:#000000;fill-opacity:1;fill-rule:nonzero;stroke:#000000;stroke-width:0.5;stroke-linecap:butt;stroke-linejoin:round;stroke-miterlimit:10;stroke-opacity:1;stroke-dasharray:none"
           d="m 192.3,132 -4,0"
           inkscape:connector-curvature="0" />
        <path
           id="path22659"
           style="fill:#000000;fill-opacity:1;fill-rule:nonzero;stroke:#000000;stroke-width:0.5;stroke-linecap:butt;stroke-linejoin:round;stroke-miterlimit:10;stroke-opacity:1;stroke-dasharray:none"
           d="m 29.1,180 4,0"
           inkscape:connector-curvature="0" />
        <path
           id="path22661"
           style="fill:#000000;fill-opacity:1;fill-rule:nonzero;stroke:#000000;stroke-width:0.5;stroke-linecap:butt;stroke-linejoin:round;stroke-miterlimit:10;stroke-opacity:1;stroke-dasharray:none"
           d="m 192.3,180 -4,0"
           inkscape:connector-curvature="0" />
        <path
           id="path22663"
           style="fill:none;stroke:#000000;stroke-width:1;stroke-linecap:butt;stroke-linejoin:round;stroke-miterlimit:10;stroke-opacity:1;stroke-dasharray:none"
           d="m 29.1,194.4 163.2,0"
           inkscape:connector-curvature="0" />
        <path
           id="path22665"
           style="fill:none;stroke:#000000;stroke-width:1;stroke-linecap:butt;stroke-linejoin:round;stroke-miterlimit:10;stroke-opacity:1;stroke-dasharray:none"
           d="m 192.3,21.6 0,172.8"
           inkscape:connector-curvature="0" />
        <path
           id="path22667"
           style="fill:none;stroke:#000000;stroke-width:1;stroke-linecap:butt;stroke-linejoin:round;stroke-miterlimit:10;stroke-opacity:1;stroke-dasharray:none"
           d="m 29.1,21.6 163.2,0"
           inkscape:connector-curvature="0" />
        <path
           id="path22669"
           style="fill:none;stroke:#000000;stroke-width:1;stroke-linecap:butt;stroke-linejoin:round;stroke-miterlimit:10;stroke-opacity:1;stroke-dasharray:none"
           d="m 29.1,21.6 0,172.8"
           inkscape:connector-curvature="0" />
      </g>
    </g>
    <g
       id="g23946"
       transform="translate(1.2857143,1.1071429)">
      <g
         transform="translate(-0.63134534,-1.9887378)"
         id="g23936">
        <path
           transform="matrix(0.43599718,0,0,0.43048438,142.17819,315.16804)"
           d="m 443.1554,479.52142 c 0,4.53124 -3.6733,8.20453 -8.20453,8.20453 -4.53124,0 -8.20453,-3.67329 -8.20453,-8.20453 0,-4.53123 3.67329,-8.20453 8.20453,-8.20453 4.53123,0 8.20453,3.6733 8.20453,8.20453 z"
           sodipodi:ry="8.2045288"
           sodipodi:rx="8.2045288"
           sodipodi:cy="479.52142"
           sodipodi:cx="434.95087"
           id="path9985"
           style="fill:#382f2d;fill-opacity:1;stroke:#000000;stroke-width:1;stroke-linecap:round;stroke-linejoin:round;stroke-miterlimit:4;stroke-opacity:1;stroke-dasharray:none;stroke-dashoffset:0"
           sodipodi:type="arc" />
        <text
           transform="scale(1.0063826,0.99365788)"
           sodipodi:linespacing="125%"
           id="text9977"
           y="526.46173"
           x="329.78094"
           style="font-size:5.19878387px;font-style:normal;font-variant:normal;font-weight:normal;font-stretch:normal;text-align:center;line-height:125%;letter-spacing:0px;word-spacing:0px;text-anchor:middle;fill:#ffffff;fill-opacity:1;stroke:none;font-family:BKM-cmr8;-inkscape-font-specification:BKM-cmr8"
           xml:space="preserve"><tspan
             y="526.46173"
             x="329.78094"
             id="tspan9979"
             sodipodi:role="line">1</tspan></text>
      </g>
      <g
         transform="translate(1.4412362,-1.6691678)"
         id="g23931">
        <path
           sodipodi:type="arc"
           style="fill:#7b4316;fill-opacity:1;stroke:#000000;stroke-width:1;stroke-linecap:round;stroke-linejoin:round;stroke-miterlimit:4;stroke-opacity:1;stroke-dasharray:none;stroke-dashoffset:0"
           id="path9994"
           sodipodi:cx="434.95087"
           sodipodi:cy="479.52142"
           sodipodi:rx="8.2045288"
           sodipodi:ry="8.2045288"
           d="m 443.1554,479.52142 c 0,4.53124 -3.6733,8.20453 -8.20453,8.20453 -4.53124,0 -8.20453,-3.67329 -8.20453,-8.20453 0,-4.53123 3.67329,-8.20453 8.20453,-8.20453 4.53123,0 8.20453,3.6733 8.20453,8.20453 z"
           transform="matrix(0.43599718,0,0,0.43048438,174.09688,314.84847)" />
        <text
           xml:space="preserve"
           style="font-size:5.19878387px;font-style:normal;font-variant:normal;font-weight:normal;font-stretch:normal;text-align:center;line-height:125%;letter-spacing:0px;word-spacing:0px;text-anchor:middle;fill:#ffffff;fill-opacity:1;stroke:none;font-family:BKM-cmr8;-inkscape-font-specification:BKM-cmr8"
           x="361.49719"
           y="526.14014"
           id="text9996"
           sodipodi:linespacing="125%"
           transform="scale(1.0063826,0.99365788)"><tspan
             sodipodi:role="line"
             id="tspan9998"
             x="361.49719"
             y="526.14014">2</tspan></text>
      </g>
      <g
         transform="translate(3.5267857,-1.4957678)"
         id="g23941">
        <path
           transform="matrix(0.43599718,0,0,0.43048438,206.0026,314.67507)"
           d="m 443.1554,479.52142 c 0,4.53124 -3.6733,8.20453 -8.20453,8.20453 -4.53124,0 -8.20453,-3.67329 -8.20453,-8.20453 0,-4.53123 3.67329,-8.20453 8.20453,-8.20453 4.53123,0 8.20453,3.6733 8.20453,8.20453 z"
           sodipodi:ry="8.2045288"
           sodipodi:rx="8.2045288"
           sodipodi:cy="479.52142"
           sodipodi:cx="434.95087"
           id="path22948"
           style="fill:#bf5700;fill-opacity:1;stroke:#000000;stroke-width:1;stroke-linecap:round;stroke-linejoin:round;stroke-miterlimit:4;stroke-opacity:1;stroke-dasharray:none;stroke-dashoffset:0"
           sodipodi:type="arc" />
        <text
           transform="scale(1.0063826,0.99365788)"
           sodipodi:linespacing="125%"
           id="text22950"
           y="525.96564"
           x="393.20059"
           style="font-size:5.19878387px;font-style:normal;font-variant:normal;font-weight:normal;font-stretch:normal;text-align:center;line-height:125%;letter-spacing:0px;word-spacing:0px;text-anchor:middle;fill:#ffffff;fill-opacity:1;stroke:none;font-family:BKM-cmr8;-inkscape-font-specification:BKM-cmr8"
           xml:space="preserve"><tspan
             y="525.96564"
             x="393.20059"
             id="tspan22952"
             sodipodi:role="line">3</tspan></text>
      </g>
    </g>
  </g>
</svg>
