<?xml version="1.0" encoding="UTF-8" standalone="no"?>
<!-- Created with Inkscape (http://www.inkscape.org/) -->

<svg
   xmlns:dc="http://purl.org/dc/elements/1.1/"
   xmlns:cc="http://creativecommons.org/ns#"
   xmlns:rdf="http://www.w3.org/1999/02/22-rdf-syntax-ns#"
   xmlns:svg="http://www.w3.org/2000/svg"
   xmlns="http://www.w3.org/2000/svg"
   xmlns:sodipodi="http://sodipodi.sourceforge.net/DTD/sodipodi-0.dtd"
   xmlns:inkscape="http://www.inkscape.org/namespaces/inkscape"
   width="744.09448819"
   height="1052.3622047"
   id="svg2"
   version="1.1"
   inkscape:version="0.48.4 r9939"
   sodipodi:docname="unorganized ideas.svg">
  <defs
     id="defs4">
    <marker
       inkscape:stockid="Arrow1Mend"
       orient="auto"
       refY="0.0"
       refX="0.0"
       id="Arrow1Mend"
       style="overflow:visible;">
      <path
         id="path4309"
         d="M 0.0,0.0 L 5.0,-5.0 L -12.5,0.0 L 5.0,5.0 L 0.0,0.0 z "
         style="fill-rule:evenodd;stroke:#000000;stroke-width:1.0pt;"
         transform="scale(0.4) rotate(180) translate(10,0)" />
    </marker>
  </defs>
  <sodipodi:namedview
     id="base"
     pagecolor="#ffffff"
     bordercolor="#666666"
     borderopacity="1.0"
     inkscape:pageopacity="0.0"
     inkscape:pageshadow="2"
     inkscape:zoom="1.979899"
     inkscape:cx="94.076706"
     inkscape:cy="276.35428"
     inkscape:document-units="px"
     inkscape:current-layer="layer1"
     showgrid="false"
     inkscape:window-width="1920"
     inkscape:window-height="1030"
     inkscape:window-x="0"
     inkscape:window-y="0"
     inkscape:window-maximized="1" />
  <metadata
     id="metadata7">
    <rdf:RDF>
      <cc:Work
         rdf:about="">
        <dc:format>image/svg+xml</dc:format>
        <dc:type
           rdf:resource="http://purl.org/dc/dcmitype/StillImage" />
        <dc:title></dc:title>
      </cc:Work>
    </rdf:RDF>
  </metadata>
  <g
     inkscape:label="Layer 1"
     inkscape:groupmode="layer"
     id="layer1">
    <text
       xml:space="preserve"
       style="font-size:10px;font-style:normal;font-variant:normal;font-weight:normal;font-stretch:normal;text-align:center;line-height:125%;letter-spacing:0px;word-spacing:0px;text-anchor:middle;fill:#000000;fill-opacity:1;stroke:none;font-family:Latin Modern Math;-inkscape-font-specification:Latin Modern Math"
       x="99.650826"
       y="267.70752"
       id="text3004"
       sodipodi:linespacing="125%"><tspan
         sodipodi:role="line"
         id="tspan3006"
         x="99.650826"
         y="267.70752">State Ellipsoid</tspan></text>
    <text
       xml:space="preserve"
       style="font-size:10px;font-style:normal;font-variant:normal;font-weight:normal;font-stretch:normal;text-align:center;line-height:125%;letter-spacing:0px;word-spacing:0px;text-anchor:middle;fill:#000000;fill-opacity:1;stroke:none;font-family:Latin Modern Math;-inkscape-font-specification:Latin Modern Math"
       x="93.691643"
       y="334.6488"
       id="text3008"
       sodipodi:linespacing="125%"><tspan
         sodipodi:role="line"
         id="tspan3010"
         x="93.691643"
         y="334.6488">Path</tspan></text>
    <text
       xml:space="preserve"
       style="font-size:10px;font-style:normal;font-variant:normal;font-weight:normal;font-stretch:normal;text-align:center;line-height:125%;letter-spacing:0px;word-spacing:0px;text-anchor:middle;fill:#000000;fill-opacity:1;stroke:none;font-family:Latin Modern Math;-inkscape-font-specification:Latin Modern Math"
       x="107.07617"
       y="345.00287"
       id="text3012"
       sodipodi:linespacing="125%"><tspan
         sodipodi:role="line"
         id="tspan3014"
         x="107.07617"
         y="345.00287">Angle Path</tspan></text>
    <text
       xml:space="preserve"
       style="font-size:10px;font-style:normal;font-variant:normal;font-weight:normal;font-stretch:normal;text-align:center;line-height:125%;letter-spacing:0px;word-spacing:0px;text-anchor:middle;fill:#000000;fill-opacity:1;stroke:none;font-family:Latin Modern Math;-inkscape-font-specification:Latin Modern Math"
       x="112.37946"
       y="277.57516"
       id="text3016"
       sodipodi:linespacing="125%"><tspan
         sodipodi:role="line"
         id="tspan3018"
         x="112.37946"
         y="277.57516">State Ellipsoid Path</tspan></text>
    <text
       xml:space="preserve"
       style="font-size:10px;font-style:normal;font-variant:normal;font-weight:normal;font-stretch:normal;text-align:center;line-height:125%;letter-spacing:0px;word-spacing:0px;text-anchor:middle;fill:#000000;fill-opacity:1;stroke:none;font-family:Latin Modern Math;-inkscape-font-specification:Latin Modern Math"
       x="104.04572"
       y="302.32391"
       id="text3020"
       sodipodi:linespacing="125%"><tspan
         sodipodi:role="line"
         id="tspan3022"
         x="104.04572"
         y="302.32391">Estimation Ellipsoid: x'Ex&lt;1</tspan></text>
    <text
       xml:space="preserve"
       style="font-size:10px;font-style:normal;font-variant:normal;font-weight:normal;font-stretch:normal;text-align:center;line-height:125%;letter-spacing:0px;word-spacing:0px;text-anchor:middle;fill:#000000;fill-opacity:1;stroke:none;font-family:Latin Modern Math;-inkscape-font-specification:Latin Modern Math"
       x="96.217033"
       y="314.19321"
       id="text3024"
       sodipodi:linespacing="125%"><tspan
         sodipodi:role="line"
         id="tspan3026"
         x="96.217033"
         y="314.19321">Estimation Ellipsoid Path</tspan></text>
    <text
       xml:space="preserve"
       style="font-size:10px;font-style:normal;font-variant:normal;font-weight:normal;font-stretch:normal;text-align:center;line-height:125%;letter-spacing:0px;word-spacing:0px;text-anchor:middle;fill:#000000;fill-opacity:1;stroke:none;font-family:Latin Modern Math;-inkscape-font-specification:Latin Modern Math"
       x="297.74246"
       y="291.71732"
       id="text3028"
       sodipodi:linespacing="125%"><tspan
         sodipodi:role="line"
         id="tspan3030"
         x="297.74246"
         y="291.71732">Ellipsoid Derivative (x'A'+d')Ex+x'E(Ax+d)+x'Dx</tspan></text>
    <text
       sodipodi:linespacing="125%"
       id="text3032"
       y="303.58661"
       x="297.74246"
       style="font-size:10px;font-style:normal;font-variant:normal;font-weight:normal;font-stretch:normal;text-align:center;line-height:125%;letter-spacing:0px;word-spacing:0px;text-anchor:middle;fill:#000000;fill-opacity:1;stroke:none;font-family:Latin Modern Math;-inkscape-font-specification:Latin Modern Math"
       xml:space="preserve"><tspan
         y="303.58661"
         x="297.74246"
         id="tspan3034"
         sodipodi:role="line">(x'A'+d')Ex+x'E(Ax+d)+x'Dx\leq0 \all x: x'Ex=1</tspan></text>
    <text
       xml:space="preserve"
       style="font-size:10px;font-style:normal;font-variant:normal;font-weight:normal;font-stretch:normal;text-align:center;line-height:125%;letter-spacing:0px;word-spacing:0px;text-anchor:middle;fill:#000000;fill-opacity:1;stroke:none;font-family:Latin Modern Math;-inkscape-font-specification:Latin Modern Math"
       x="185.11044"
       y="366.4686"
       id="text3036"
       sodipodi:linespacing="125%"><tspan
         sodipodi:role="line"
         id="tspan3038"
         x="185.11044"
         y="366.4686">ballistic trajectory, uncertainty should increase.</tspan></text>
    <text
       xml:space="preserve"
       style="font-size:10px;font-style:normal;font-variant:normal;font-weight:normal;font-stretch:normal;text-align:center;line-height:125%;letter-spacing:0px;word-spacing:0px;text-anchor:middle;fill:#000000;fill-opacity:1;stroke:none;font-family:Latin Modern Math;-inkscape-font-specification:Latin Modern Math"
       x="190.16122"
       y="382.12598"
       id="text3040"
       sodipodi:linespacing="125%"><tspan
         sodipodi:role="line"
         id="tspan3042"
         x="190.16122"
         y="382.12598">lexicographic optimization: first get the robot back under control</tspan></text>
    <text
       xml:space="preserve"
       style="font-size:10px;font-style:normal;font-variant:normal;font-weight:normal;font-stretch:normal;text-align:center;line-height:125%;letter-spacing:0px;word-spacing:0px;text-anchor:middle;fill:#000000;fill-opacity:1;stroke:none;font-family:Latin Modern Math;-inkscape-font-specification:Latin Modern Math"
       x="67.932762"
       y="393.99527"
       id="text3044"
       sodipodi:linespacing="125%"><tspan
         sodipodi:role="line"
         id="tspan3046"
         x="67.932762"
         y="393.99527">this means that after a ballistic trajectory</tspan></text>
    <path
       style="fill:none;stroke:#000000;stroke-width:1px;stroke-linecap:butt;stroke-linejoin:miter;stroke-opacity:1"
       d="m 52.780471,407.63232 0,62.37692 179.049539,0"
       id="path3048"
       inkscape:connector-curvature="0" />
    <text
       xml:space="preserve"
       style="font-size:10px;font-style:normal;font-variant:normal;font-weight:normal;font-stretch:normal;text-align:center;line-height:125%;letter-spacing:0px;word-spacing:0px;text-anchor:middle;fill:#000000;fill-opacity:1;stroke:none;font-family:Latin Modern Math;-inkscape-font-specification:Latin Modern Math"
       x="120.71323"
       y="482.63614"
       id="text3050"
       sodipodi:linespacing="125%"><tspan
         sodipodi:role="line"
         id="tspan3052"
         x="120.71323"
         y="482.63614">\xi</tspan></text>
    <text
       xml:space="preserve"
       style="font-size:10px;font-style:normal;font-variant:normal;font-weight:normal;font-stretch:normal;text-align:center;line-height:125%;letter-spacing:0px;word-spacing:0px;text-anchor:middle;fill:#000000;fill-opacity:1;stroke:none;font-family:Latin Modern Math;-inkscape-font-specification:Latin Modern Math"
       x="-441.04349"
       y="46.264915"
       id="text3054"
       sodipodi:linespacing="125%"
       transform="matrix(0,-1,1,0,0,0)"><tspan
         sodipodi:role="line"
         id="tspan3056"
         x="-441.04349"
         y="46.264915">uncertainty</tspan></text>
    <path
       style="fill:none;stroke:#000000;stroke-width:1px;stroke-linecap:butt;stroke-linejoin:miter;stroke-opacity:1"
       d="m 52.780471,460.66533 178.291919,0"
       id="path3058"
       inkscape:connector-curvature="0" />
    <path
       style="fill:none;stroke:#000000;stroke-width:1px;stroke-linecap:butt;stroke-linejoin:miter;stroke-opacity:1"
       d="m 53.538085,418.49146 175.766545,0"
       id="path3060"
       inkscape:connector-curvature="0" />
    <text
       xml:space="preserve"
       style="font-size:10px;font-style:normal;font-variant:normal;font-weight:normal;font-stretch:normal;text-align:center;line-height:125%;letter-spacing:0px;word-spacing:0px;text-anchor:middle;fill:#000000;fill-opacity:1;stroke:none;font-family:Latin Modern Math;-inkscape-font-specification:Latin Modern Math"
       x="232.3351"
       y="416.21863"
       id="text3062"
       sodipodi:linespacing="125%"><tspan
         sodipodi:role="line"
         id="tspan3064"
         x="232.3351"
         y="416.21863">linearity problems</tspan></text>
    <text
       xml:space="preserve"
       style="font-size:10px;font-style:normal;font-variant:normal;font-weight:normal;font-stretch:normal;text-align:center;line-height:125%;letter-spacing:0px;word-spacing:0px;text-anchor:middle;fill:#000000;fill-opacity:1;stroke:none;font-family:Latin Modern Math;-inkscape-font-specification:Latin Modern Math"
       x="287.3884"
       y="457.63489"
       id="text3066"
       sodipodi:linespacing="125%"><tspan
         sodipodi:role="line"
         id="tspan3068"
         x="287.3884"
         y="457.63489">good enough to worry about something else</tspan></text>
    <path
       style="fill:none;stroke:#bf5700;stroke-width:1px;stroke-linecap:butt;stroke-linejoin:miter;stroke-opacity:1"
       d="m 52.780471,436.92674 14.394673,23.73859"
       id="path3070"
       inkscape:connector-curvature="0" />
    <text
       xml:space="preserve"
       style="font-size:10px;font-style:normal;font-variant:normal;font-weight:normal;font-stretch:normal;text-align:center;line-height:125%;letter-spacing:0px;word-spacing:0px;text-anchor:middle;fill:#000000;fill-opacity:1;stroke:none;font-family:Latin Modern Math;-inkscape-font-specification:Latin Modern Math"
       x="145.20941"
       y="497.03082"
       id="text3072"
       sodipodi:linespacing="125%"><tspan
         sodipodi:role="line"
         id="tspan3074"
         x="145.20941"
         y="497.03082">1) pick stance which reduces error</tspan></text>
    <text
       xml:space="preserve"
       style="font-size:10px;font-style:normal;font-variant:normal;font-weight:normal;font-stretch:normal;text-align:center;line-height:125%;letter-spacing:0px;word-spacing:0px;text-anchor:middle;fill:#000000;fill-opacity:1;stroke:none;font-family:Latin Modern Math;-inkscape-font-specification:Latin Modern Math"
       x="59.346462"
       y="431.62344"
       id="text3076"
       sodipodi:linespacing="125%"><tspan
         sodipodi:role="line"
         id="tspan3078"
         x="59.346462"
         y="431.62344">1)</tspan></text>
    <path
       style="fill:none;stroke:#333f48;stroke-width:1px;stroke-linecap:butt;stroke-linejoin:miter;stroke-opacity:1"
       d="m 67.175144,460.41279 23.233509,-0.25254"
       id="path3080"
       inkscape:connector-curvature="0" />
    <text
       xml:space="preserve"
       style="font-size:10px;font-style:normal;font-variant:normal;font-weight:normal;font-stretch:normal;text-align:center;line-height:125%;letter-spacing:0px;word-spacing:0px;text-anchor:middle;fill:#000000;fill-opacity:1;stroke:none;font-family:Latin Modern Math;-inkscape-font-specification:Latin Modern Math"
       x="74.751289"
       y="452.58411"
       id="text3082"
       sodipodi:linespacing="125%"><tspan
         sodipodi:role="line"
         id="tspan3084"
         x="74.751289"
         y="452.58411">2)</tspan></text>
    <text
       sodipodi:linespacing="125%"
       id="text3086"
       y="509.91028"
       x="148.74495"
       style="font-size:10px;font-style:normal;font-variant:normal;font-weight:normal;font-stretch:normal;text-align:center;line-height:125%;letter-spacing:0px;word-spacing:0px;text-anchor:middle;fill:#000000;fill-opacity:1;stroke:none;font-family:Latin Modern Math;-inkscape-font-specification:Latin Modern Math"
       xml:space="preserve"><tspan
         y="509.91028"
         x="148.74495"
         id="tspan3088"
         sodipodi:role="line">2) can avoid increase in uncertainty</tspan></text>
    <path
       style="fill:none;stroke:#bf5700;stroke-width:1px;stroke-linecap:butt;stroke-linejoin:miter;stroke-opacity:1"
       d="m 90.408653,459.65518 9.596447,5.55584 9.34391,-0.50508 6.06092,-4.04061"
       id="path3090"
       inkscape:connector-curvature="0" />
    <text
       xml:space="preserve"
       style="font-size:10px;font-style:normal;font-variant:normal;font-weight:normal;font-stretch:normal;text-align:center;line-height:125%;letter-spacing:0px;word-spacing:0px;text-anchor:middle;fill:#000000;fill-opacity:1;stroke:none;font-family:Latin Modern Math;-inkscape-font-specification:Latin Modern Math"
       x="101.01525"
       y="453.8468"
       id="text3092"
       sodipodi:linespacing="125%"><tspan
         sodipodi:role="line"
         id="tspan3094"
         x="101.01525"
         y="453.8468">3)</tspan></text>
    <text
       xml:space="preserve"
       style="font-size:10px;font-style:normal;font-variant:normal;font-weight:normal;font-stretch:normal;text-align:center;line-height:125%;letter-spacing:0px;word-spacing:0px;text-anchor:middle;fill:#000000;fill-opacity:1;stroke:none;font-family:Latin Modern Math;-inkscape-font-specification:Latin Modern Math"
       x="200.51527"
       y="521.27448"
       id="text3096"
       sodipodi:linespacing="125%"><tspan
         sodipodi:role="line"
         id="tspan3098"
         x="200.51527"
         y="521.27448">3) uncertainty naturally decreases---extra control authority</tspan></text>
    <text
       sodipodi:linespacing="125%"
       id="text3100"
       y="533.64886"
       x="200.51527"
       style="font-size:10px;font-style:normal;font-variant:normal;font-weight:normal;font-stretch:normal;text-align:center;line-height:125%;letter-spacing:0px;word-spacing:0px;text-anchor:middle;fill:#000000;fill-opacity:1;stroke:none;font-family:Latin Modern Math;-inkscape-font-specification:Latin Modern Math"
       xml:space="preserve"><tspan
         y="533.64886"
         x="200.51527"
         id="tspan3102"
         sodipodi:role="line">reach speed limit, go backwards in time</tspan></text>
    <text
       xml:space="preserve"
       style="font-size:10px;font-style:normal;font-variant:normal;font-weight:normal;font-stretch:normal;text-align:center;line-height:125%;letter-spacing:0px;word-spacing:0px;text-anchor:middle;fill:#000000;fill-opacity:1;stroke:none;font-family:Latin Modern Math;-inkscape-font-specification:Latin Modern Math"
       x="200.51527"
       y="546.27576"
       id="text3104"
       sodipodi:linespacing="125%"><tspan
         sodipodi:role="line"
         id="tspan3106"
         x="200.51527"
         y="546.27576">3) uncertainty naturally decreases---extra control authority</tspan></text>
    <text
       xml:space="preserve"
       style="font-size:10px;font-style:normal;font-variant:normal;font-weight:normal;font-stretch:normal;text-align:center;line-height:125%;letter-spacing:0px;word-spacing:0px;text-anchor:middle;fill:#000000;fill-opacity:1;stroke:none;font-family:Latin Modern Math;-inkscape-font-specification:Latin Modern Math"
       x="141.67389"
       y="434.14883"
       id="text3108"
       sodipodi:linespacing="125%"><tspan
         sodipodi:role="line"
         id="tspan3110"
         x="141.67389"
         y="434.14883">over/under type problem</tspan></text>
    <path
       inkscape:connector-curvature="0"
       id="path3112"
       d="m 52.780471,561.17551 0,62.37692 179.049539,0"
       style="fill:none;stroke:#000000;stroke-width:1px;stroke-linecap:butt;stroke-linejoin:miter;stroke-opacity:1" />
    <text
       sodipodi:linespacing="125%"
       id="text3114"
       y="632.39124"
       x="105.3084"
       style="font-size:10px;font-style:normal;font-variant:normal;font-weight:normal;font-stretch:normal;text-align:center;line-height:125%;letter-spacing:0px;word-spacing:0px;text-anchor:middle;fill:#000000;fill-opacity:1;stroke:none;font-family:Latin Modern Math;-inkscape-font-specification:Latin Modern Math"
       xml:space="preserve"><tspan
         y="632.39124"
         x="105.3084"
         id="tspan3116"
         sodipodi:role="line">\xi</tspan></text>
    <text
       transform="matrix(0,-1,1,0,0,0)"
       sodipodi:linespacing="125%"
       id="text3118"
       y="46.264915"
       x="-588.52576"
       style="font-size:10px;font-style:normal;font-variant:normal;font-weight:normal;font-stretch:normal;text-align:center;line-height:125%;letter-spacing:0px;word-spacing:0px;text-anchor:middle;fill:#000000;fill-opacity:1;stroke:none;font-family:Latin Modern Math;-inkscape-font-specification:Latin Modern Math"
       xml:space="preserve"><tspan
         y="46.264915"
         x="-588.52576"
         id="tspan3120"
         sodipodi:role="line">uncertainty</tspan></text>
    <path
       inkscape:connector-curvature="0"
       id="path3122"
       d="m 52.780471,596.1476 178.291919,0"
       style="fill:none;stroke:#000000;stroke-width:1px;stroke-linecap:butt;stroke-linejoin:miter;stroke-opacity:1" />
    <path
       inkscape:connector-curvature="0"
       id="path3124"
       d="m 53.538085,565.97373 175.766545,0"
       style="fill:none;stroke:#000000;stroke-width:1px;stroke-linecap:butt;stroke-linejoin:miter;stroke-opacity:1" />
    <text
       sodipodi:linespacing="125%"
       id="text3126"
       y="563.70093"
       x="232.3351"
       style="font-size:10px;font-style:normal;font-variant:normal;font-weight:normal;font-stretch:normal;text-align:center;line-height:125%;letter-spacing:0px;word-spacing:0px;text-anchor:middle;fill:#000000;fill-opacity:1;stroke:none;font-family:Latin Modern Math;-inkscape-font-specification:Latin Modern Math"
       xml:space="preserve"><tspan
         y="563.70093"
         x="232.3351"
         id="tspan3128"
         sodipodi:role="line">linearity problems</tspan></text>
    <text
       sodipodi:linespacing="125%"
       id="text3130"
       y="593.11719"
       x="192.68068"
       style="font-size:10px;font-style:normal;font-variant:normal;font-weight:normal;font-stretch:normal;text-align:start;line-height:125%;letter-spacing:0px;word-spacing:0px;text-anchor:start;fill:#000000;fill-opacity:1;stroke:none;font-family:Latin Modern Math;-inkscape-font-specification:Latin Modern Math"
       xml:space="preserve"><tspan
         y="593.11719"
         x="192.68068"
         id="tspan3132"
         sodipodi:role="line">max uncertainty</tspan></text>
    <path
       inkscape:connector-curvature="0"
       id="path3140"
       d="m 69.953064,595.89506 23.233509,-0.25254"
       style="fill:none;stroke:#333f48;stroke-width:1px;stroke-linecap:butt;stroke-linejoin:miter;stroke-opacity:1" />
    <path
       style="fill:none;stroke:#bf5700;stroke-width:0.82531226px;stroke-linecap:butt;stroke-linejoin:miter;stroke-opacity:1"
       d="m 52.440588,611.14484 c 0,0 12.898241,-13.39753 17.703468,-13.74105"
       id="path3156"
       inkscape:connector-curvature="0" />
    <path
       style="fill:none;stroke:#bf5700;stroke-width:0.82531226px;stroke-linecap:butt;stroke-linejoin:miter;stroke-opacity:1"
       d="m 92.399843,596.56539 c 7.1349,5.48982 25.250717,6.42758 33.130777,-0.17176"
       id="path3158"
       inkscape:connector-curvature="0"
       sodipodi:nodetypes="cc" />
    <path
       style="fill:none;stroke:#005f86;stroke-width:0.82531226px;stroke-linecap:butt;stroke-linejoin:miter;stroke-opacity:1"
       d="m 171.3082,596.80772 c -15.4273,10.47756 -51.34005,3.09174 -51.34005,3.09174"
       id="path3160"
       inkscape:connector-curvature="0"
       sodipodi:nodetypes="cc" />
    <text
       xml:space="preserve"
       style="font-size:10px;font-style:normal;font-variant:normal;font-weight:normal;font-stretch:normal;text-align:center;line-height:125%;letter-spacing:0px;word-spacing:0px;text-anchor:middle;fill:#000000;fill-opacity:1;stroke:none;font-family:Latin Modern Math;-inkscape-font-specification:Latin Modern Math"
       x="198.74751"
       y="632.3913"
       id="text3162"
       sodipodi:linespacing="125%"><tspan
         sodipodi:role="line"
         id="tspan3164"
         x="198.74751"
         y="632.3913">when you are forced</tspan><tspan
         sodipodi:role="line"
         x="198.74751"
         y="644.8913"
         id="tspan4740">to do better than is</tspan><tspan
         sodipodi:role="line"
         x="198.74751"
         y="657.3913"
         id="tspan4742">good enough because</tspan><tspan
         sodipodi:role="line"
         x="198.74751"
         y="669.8913"
         id="tspan4744">all your stances have</tspan><tspan
         sodipodi:role="line"
         x="198.74751"
         y="682.3913"
         id="tspan4746">bonus authority</tspan></text>
    <path
       style="fill:none;stroke:#000000;stroke-width:1px;stroke-linecap:butt;stroke-linejoin:miter;stroke-opacity:1;marker-start:none;marker-mid:none;marker-end:url(#Arrow1Mend)"
       d="M 153.54319,644.76563 C 140.91628,633.14887 130.30968,610.16791 130.30968,610.16791"
       id="path3166"
       inkscape:connector-curvature="0"
       sodipodi:nodetypes="cc" />
    <path
       style="fill:none;stroke:#000000;stroke-width:1px;stroke-linecap:butt;stroke-linejoin:miter;stroke-opacity:1"
       d="m 53.033009,616.98644 178.291921,0"
       id="path4748"
       inkscape:connector-curvature="0" />
    <text
       xml:space="preserve"
       style="font-size:10px;font-style:normal;font-variant:normal;font-weight:normal;font-stretch:normal;text-align:center;line-height:125%;letter-spacing:0px;word-spacing:0px;text-anchor:middle;fill:#000000;fill-opacity:1;stroke:none;font-family:Latin Modern Math;-inkscape-font-specification:Latin Modern Math"
       x="192.18192"
       y="613.82532"
       id="text4750"
       sodipodi:linespacing="125%"><tspan
         sodipodi:role="line"
         id="tspan4752"
         x="192.18192"
         y="613.82532"
         style="text-align:start;text-anchor:start">sensor precision/maximum knowledge</tspan></text>
    <text
       xml:space="preserve"
       style="font-size:10px;font-style:normal;font-variant:normal;font-weight:normal;font-stretch:normal;text-align:center;line-height:125%;letter-spacing:0px;word-spacing:0px;text-anchor:middle;fill:#000000;fill-opacity:1;stroke:none;font-family:Latin Modern Math;-inkscape-font-specification:Latin Modern Math"
       x="319.46072"
       y="638.45215"
       id="text4754"
       sodipodi:linespacing="125%"><tspan
         sodipodi:role="line"
         id="tspan4756"
         x="321.12088"
         y="638.45215">If you can tolerate </tspan><tspan
         sodipodi:role="line"
         x="321.12088"
         y="650.95215"
         id="tspan4760">uncertainty in one place, </tspan><tspan
         sodipodi:role="line"
         x="319.46072"
         y="663.45215"
         id="tspan4758">why not tolerate</tspan><tspan
         sodipodi:role="line"
         x="319.46072"
         y="675.95215"
         id="tspan4762"> it everywhere?</tspan></text>
    <text
       xml:space="preserve"
       style="font-size:10px;font-style:normal;font-variant:normal;font-weight:normal;font-stretch:normal;text-align:center;line-height:125%;letter-spacing:0px;word-spacing:0px;text-anchor:middle;fill:#000000;fill-opacity:1;stroke:none;font-family:Latin Modern Math;-inkscape-font-specification:Latin Modern Math"
       x="81.317284"
       y="660.92804"
       id="text4764"
       sodipodi:linespacing="125%"><tspan
         sodipodi:role="line"
         id="tspan4766"
         x="81.317284"
         y="660.92804">What do I</tspan><tspan
         sodipodi:role="line"
         x="82.97744"
         y="673.42804"
         id="tspan4768">want to </tspan><tspan
         sodipodi:role="line"
         x="81.317284"
         y="685.92804"
         id="tspan4770">optimize?</tspan></text>
    <text
       xml:space="preserve"
       style="font-size:10px;font-style:normal;font-variant:normal;font-weight:normal;font-stretch:normal;text-align:center;line-height:125%;letter-spacing:0px;word-spacing:0px;text-anchor:middle;fill:#000000;fill-opacity:1;stroke:none;font-family:Latin Modern Math;-inkscape-font-specification:Latin Modern Math"
       x="209.60666"
       y="730.8811"
       id="text4772"
       sodipodi:linespacing="125%"><tspan
         sodipodi:role="line"
         id="tspan4774"
         x="209.60666"
         y="730.8811">Valkyrie is on the stairs. Why would she ever not hold the rails?</tspan></text>
    <text
       xml:space="preserve"
       style="font-size:10px;font-style:normal;font-variant:normal;font-weight:normal;font-stretch:normal;text-align:center;line-height:125%;letter-spacing:0px;word-spacing:0px;text-anchor:middle;fill:#000000;fill-opacity:1;stroke:none;font-family:Latin Modern Math;-inkscape-font-specification:Latin Modern Math"
       x="322.74374"
       y="754.61969"
       id="text4776"
       sodipodi:linespacing="125%"><tspan
         sodipodi:role="line"
         x="322.74374"
         y="754.61969"
         id="tspan4780">Valkyrie slows down in order</tspan><tspan
         sodipodi:role="line"
         x="322.74374"
         y="767.11969"
         id="tspan4782">to guarantee that she</tspan><tspan
         sodipodi:role="line"
         x="322.74374"
         y="779.61969"
         id="tspan4784">does not misstep.</tspan></text>
    <text
       xml:space="preserve"
       style="font-size:10px;font-style:normal;font-variant:normal;font-weight:normal;font-stretch:normal;text-align:center;line-height:125%;letter-spacing:0px;word-spacing:0px;text-anchor:middle;fill:#000000;fill-opacity:1;stroke:none;font-family:Latin Modern Math;-inkscape-font-specification:Latin Modern Math"
       x="133.59267"
       y="755.37732"
       id="text4788"
       sodipodi:linespacing="125%"><tspan
         sodipodi:role="line"
         id="tspan4790"
         x="133.59267"
         y="755.37732">Valkyrie goes fast, but not so fast</tspan><tspan
         sodipodi:role="line"
         x="133.59267"
         y="767.87732"
         id="tspan4792">that she can't maintain a small</tspan><tspan
         sodipodi:role="line"
         x="133.59267"
         y="780.37732"
         id="tspan4794">robustly invariant ellipsoid</tspan></text>
    <text
       sodipodi:linespacing="125%"
       id="text4796"
       y="820.2796"
       x="133.59267"
       style="font-size:10px;font-style:normal;font-variant:normal;font-weight:normal;font-stretch:normal;text-align:center;line-height:125%;letter-spacing:0px;word-spacing:0px;text-anchor:middle;fill:#000000;fill-opacity:1;stroke:none;font-family:Latin Modern Math;-inkscape-font-specification:Latin Modern Math"
       xml:space="preserve"><tspan
         y="820.2796"
         x="135.25282"
         sodipodi:role="line"
         id="tspan4806">Valkyrie goes as slowly as possible, and </tspan><tspan
         y="832.7796"
         x="133.59267"
         sodipodi:role="line"
         id="tspan4808">she makes sure to maintain a small</tspan><tspan
         id="tspan4802"
         y="845.2796"
         x="133.59267"
         sodipodi:role="line">robustly invariant ellipsoid. In some</tspan><tspan
         y="857.7796"
         x="133.59267"
         sodipodi:role="line"
         id="tspan4812">cases it is preferable to move faster</tspan><tspan
         y="870.2796"
         x="133.59267"
         sodipodi:role="line"
         id="tspan4814">if this allows keeping the invariant</tspan><tspan
         y="882.7796"
         x="133.59267"
         sodipodi:role="line"
         id="tspan4816">ellipsoid within the range.</tspan></text>
  </g>
</svg>
