\relax 
\@writefile{toc}{\contentsline {section}{\numberline {1}Design of a Neural Network which Estimates the ODE of a Pendulum}{1}}
\@writefile{lof}{\contentsline {figure}{\numberline {1}{\ignorespaces Off-white box neural network which predicts acceleration of a pendulum.\relax }}{1}}
\providecommand*\caption@xref[2]{\@setref\relax\@undefined{#1}}
\newlabel{fig:pendulumNet}{{1}{1}}
\@writefile{lof}{\contentsline {figure}{\numberline {2}{\ignorespaces State space DyNet model based on euler integration and acceleration model.\relax }}{2}}
\newlabel{fig:pendulumRecurrantNetwork}{{2}{2}}
\@writefile{toc}{\contentsline {section}{\numberline {2}Design of a Neural Network with State which estimates the dynamics of a pendulum}{2}}
\@writefile{toc}{\contentsline {section}{\numberline {3}Training with simulation data}{2}}
\@writefile{toc}{\contentsline {subsection}{\numberline {3.1}Training of feedforward network}{2}}
\@writefile{toc}{\contentsline {section}{\numberline {4}Training with real data}{2}}
\@writefile{toc}{\contentsline {subsection}{\numberline {4.1}Training of feedforward network}{2}}
\@writefile{lof}{\contentsline {figure}{\numberline {3}{\ignorespaces Raw and filtered data used in training the network, unforced case. Data courtesy of Jack Hall.\relax }}{3}}
\newlabel{fig:jackSet}{{3}{3}}
\@writefile{lof}{\contentsline {figure}{\numberline {4}{\ignorespaces Convergence using simulation data of the LS algorithm using feedforward pendulum network\relax }}{3}}
\newlabel{fig:simDLSAccel}{{4}{3}}
\@writefile{lof}{\contentsline {figure}{\numberline {5}{\ignorespaces Convergence of the LS algorithm using filtered data and the feedforward pendulum network. Note that the input is not filtered, and produces noticeable impulses. Data filtered using gaussian convolution with standard deviation of 0.1 second. \relax }}{4}}
\newlabel{fig:stepDLS100ms}{{5}{4}}
\@writefile{lof}{\contentsline {figure}{\numberline {6}{\ignorespaces Filtering with a standard deviation of only 0.01 second, we see better fitting, but a less presentable acceleration goal. Lowest error fit from the feedforward system had error on the order of $3.9\times 10^7$.\relax }}{4}}
\newlabel{fig:stepDLS10ms}{{6}{4}}
\@writefile{lof}{\contentsline {figure}{\numberline {7}{\ignorespaces Floating state model predictions over 16 epochs. Data is from Benito's Step Dataset. Note that the error is a combination of the prediciton error and the state update error, so to some extent this plot shows the solver cheating on the update equations to make the prediction error lower. However, I think this is ultimately beneficial, since after moving closer to the observed data the linearization of the model and the jacobian of parameters will be more meaningful. \relax }}{5}}
\newlabel{fig:sim}{{7}{5}}
\@writefile{toc}{\contentsline {subsection}{\numberline {4.2}Training of recurrant network}{5}}
\@writefile{toc}{\contentsline {section}{\numberline {5}Analysis of trained model}{5}}
\newlabel{subfig:perfectSimError}{{8b}{6}}
\newlabel{sub@subfig:perfectSimError}{{b}{6}}
\newlabel{subfig:rcexp1}{{8e}{6}}
\newlabel{sub@subfig:rcexp1}{{e}{6}}
\@writefile{lof}{\contentsline {figure}{\numberline {8}{\ignorespaces Training performance. Note that in the case of the floating state trainer for recurrant networks it is somewhat unreasonable to compare to a shooting method validation error. A shooting method error method basically assumes that the data can be represented perfectly by the model, but these models all represent stochastic differential equations, and as such they only attempt to predict the expected value of the next state rather than the expected value of a state in the more distant future. This is the simplification around which this algorithm is built, and it is what allows it to deal with data literally impossible using the model in question (for example, the sudden changes in theta in Benito's datasets\relax }}{6}}
\newlabel{fig:trainingError}{{8}{6}}
\@writefile{lof}{\contentsline {figure}{\numberline {9}{\ignorespaces DyNet Training Measurement Shooting Method Validations. Note that these are only as good as my initial state estimates. I have a shooting method trainer which tunes the initial state, but I don't feel like using it since it uses gradient descent.\relax }}{7}}
\newlabel{fig:stepSine}{{9}{7}}
\@writefile{toc}{\contentsline {subsection}{\numberline {5.1}Step response of trained models}{7}}
\@writefile{toc}{\contentsline {subsection}{\numberline {5.2}Sine response of trained models}{7}}
\@writefile{toc}{\contentsline {subsection}{\numberline {5.3}Prediction error variance in lieu of disturbance estimation}{7}}
\@writefile{lof}{\contentsline {figure}{\numberline {10}{\ignorespaces Step and sine response of trained dynamic models\relax }}{8}}
\newlabel{fig:stepSine}{{10}{8}}
\@writefile{toc}{\contentsline {subsection}{\numberline {5.4}Accuracy of the gravity model}{8}}
\@writefile{toc}{\contentsline {subsection}{\numberline {5.5}Accuracy of the friction model}{8}}
\@writefile{toc}{\contentsline {section}{\numberline {6}Automated differentiation through operator overloading framework}{8}}
\newlabel{sec:diff}{{6}{8}}
\@writefile{toc}{\contentsline {section}{\numberline {7}Plan to fix convergence issues}{8}}
\newlabel{fig:friction}{{11a}{9}}
\newlabel{sub@fig:friction}{{a}{9}}
\newlabel{fig:gravity}{{11b}{9}}
\newlabel{sub@fig:gravity}{{b}{9}}
\newlabel{fig:friction}{{11e}{9}}
\newlabel{sub@fig:friction}{{e}{9}}
\newlabel{fig:gravity}{{11f}{9}}
\newlabel{sub@fig:gravity}{{f}{9}}
\@writefile{lof}{\contentsline {figure}{\numberline {11}{\ignorespaces Accuracy of gravity and friction models and the relationship between this and the actual trainability of the model\relax }}{9}}
\newlabel{fig:gravFric}{{11}{9}}
\@writefile{toc}{\contentsline {section}{\numberline {8}Additional Mathematics of some potential interest}{10}}
\@writefile{toc}{\contentsline {subsection}{\numberline {8.1}Notation}{10}}
\newlabel{eq:linReg}{{1}{10}}
\newlabel{eq:linearPredictionModel}{{2}{10}}
\newlabel{eq:predictionModel}{{3}{10}}
\newlabel{eq:minimizationProblem}{{4}{10}}
\newlabel{eq:newtonMinimization}{{5}{10}}
\@writefile{lof}{\contentsline {figure}{\numberline {12}{\ignorespaces Record of the first time my algorithm truly achieved its goal. Network predicts acceleration using only a constant (which is guessed zero to begin with) multiple of theta, which is guessed at -44.1892. A reasonable value! And for the first time I have a good way of validating the contributions of different network elements. Do they improve the final total error when compared with less powerful estimators? Do they improve the final error by enough to justify their added complexity? This network improved over the default bidirectional lowpass network's error. It's final error: updateError=740.81 and measurementError=999.24. The bidirectional lowpass network: updateError=1312.53 and measurementError=1032.22. These errors are comparable since the two were trained using the same covariances on the state update error and measurement error. The full network: updateError=503.519 and measurementError=921.028 at 20 epochs, and updateError=306.627 and measurementError=844.658 after 40. Without colomb friction, updateError=307.465 and measurementError=843.551 after 40. Demonstrating that colomb friction is not meaningfully identified from the step data, at least with this loose tolerance on accurate acceleration measurement and correspondingly short effective viewing window and filter decay constant.\relax }}{11}}
\newlabel{fig:impulse}{{12}{11}}
\@writefile{lof}{\contentsline {figure}{\numberline {13}{\ignorespaces Close up on the final training result compared with the step dataset and the 38ms gaussian filtered approximation. Note that the data has shifted to show the values of the prediction and actuatl data which are being compared. Note as well that the step inputs are not of long enough duration to be observed by human eyes in the position data, but show up clearly for the trained network. Due to strange artifacts in the data negative coulomb friction seems to be more helpful then positive. It seems as though the data discontinuously changes from time to time, and I suspect that there exists mechanical slop between the pendulum and the pendulum's encoder. Perhaps the encoder is actually on the motor and there is mechanical backlash. Consider for example T=3.3 seconds, where we penalize the model for not predicting the strange deviation from normal pendulum behavior. Note that the pendulum swings on as if nothing had happened afterwords. Things like this seem like they are probably due to software or hardware implementation problems, and do not reflect the actual angle of the rigid metal arm. Note that this approach can identify such anomalies by focusing the user's attention at the points of disagreement between acceleration and predicted acceleration.\relax }}{12}}
\newlabel{fig:V3Net11}{{13}{12}}
\@writefile{lof}{\contentsline {figure}{\numberline {14}{\ignorespaces When the measurement covariance is multiplied by a hundred, the effective filter changes time constant by a factor of ten. Thus as the measurement rule covariance magnitude increases we will see the method approach the behavior of the shooting method, and more subtle effects like friction might again become observable. As you can see the filter no longer cares what the data says. It is also converges more slowly when initiated with mostly zero parameters.\relax }}{12}}
\newlabel{fig:V3Net11}{{14}{12}}
\@writefile{lof}{\contentsline {figure}{\numberline {15}{\ignorespaces When a euler integration network with an expectation of zero acceleration is trained on a dataset containing only an impulse, we can see the similarity of the resulting state prediction to a gaussian convolution of the impulse. The noise standard deviation in the acceleration update varies approximately with the square of the most similar gaussian convolution filter's sigma parameter.\relax }}{13}}
\newlabel{fig:impulse}{{15}{13}}
\@writefile{lof}{\contentsline {figure}{\numberline {16}{\ignorespaces When we extend the euler integrator to have an additional state representing the jerk we get a different final impulse resonse. If we convolve the measurements with the impulse response it would effectively reproduce the effect of training since the euler integrator model is linear.\relax }}{14}}
\newlabel{fig:impulse}{{16}{14}}
\@writefile{lof}{\contentsline {figure}{\numberline {17}{\ignorespaces Constructor for the second generation pendulum network\relax }}{14}}
\newlabel{lst:newVersion}{{17}{14}}
\@writefile{lof}{\contentsline {figure}{\numberline {18}{\ignorespaces Constructor of the first generation pendulum network\relax }}{15}}
\newlabel{lst:oldVersion}{{18}{15}}
\newlabel{eq:leastSquaresGradient}{{6}{16}}
\newlabel{eq:leastSquaresHessian}{{17}{16}}
\newlabel{eq:statePositModel}{{19}{16}}
\newlabel{eq:stateBasedModel}{{20}{17}}
\newlabel{eq:stateBasedError}{{21}{17}}
\newlabel{eq:sparseBlockRegressor}{{24}{17}}
\newlabel{eq:sparseErrors}{{25}{17}}
\newlabel{eq:sparseWeights}{{26}{18}}
\newlabel{eq:minimizationProblemWithStatePosits}{{32}{18}}
\newlabel{eq:optimalControlProblem}{{40}{18}}
\newlabel{eq:stateBasedRegressor}{{41}{18}}
\newlabel{eq:sparsityInHessianApproximate}{{42}{19}}
