<?xml version="1.0" encoding="UTF-8" standalone="no"?>
<!-- Created with Inkscape (http://www.inkscape.org/) -->

<svg
   xmlns:dc="http://purl.org/dc/elements/1.1/"
   xmlns:cc="http://creativecommons.org/ns#"
   xmlns:rdf="http://www.w3.org/1999/02/22-rdf-syntax-ns#"
   xmlns:svg="http://www.w3.org/2000/svg"
   xmlns="http://www.w3.org/2000/svg"
   xmlns:sodipodi="http://sodipodi.sourceforge.net/DTD/sodipodi-0.dtd"
   xmlns:inkscape="http://www.inkscape.org/namespaces/inkscape"
   width="744.09448819"
   height="1052.3622047"
   id="svg2"
   version="1.1"
   inkscape:version="0.48.4 r9939"
   sodipodi:docname="PendulumNetwork.pdf">
  <defs
     id="defs4">
    <marker
       inkscape:stockid="Arrow1Mend"
       orient="auto"
       refY="0.0"
       refX="0.0"
       id="Arrow1Mend"
       style="overflow:visible;">
      <path
         id="path4158"
         d="M 0.0,0.0 L 5.0,-5.0 L -12.5,0.0 L 5.0,5.0 L 0.0,0.0 z "
         style="fill-rule:evenodd;stroke:#000000;stroke-width:1.0pt;"
         transform="scale(0.4) rotate(180) translate(10,0)" />
    </marker>
    <marker
       inkscape:stockid="Arrow1Send"
       orient="auto"
       refY="0.0"
       refX="0.0"
       id="Arrow1Send"
       style="overflow:visible;">
      <path
         id="path4164"
         d="M 0.0,0.0 L 5.0,-5.0 L -12.5,0.0 L 5.0,5.0 L 0.0,0.0 z "
         style="fill-rule:evenodd;stroke:#000000;stroke-width:1.0pt;"
         transform="scale(0.2) rotate(180) translate(6,0)" />
    </marker>
    <marker
       inkscape:stockid="Arrow1Mend"
       orient="auto"
       refY="0"
       refX="0"
       id="Arrow1Mend-8"
       style="overflow:visible">
      <path
         inkscape:connector-curvature="0"
         id="path4158-6"
         d="M 0,0 5,-5 -12.5,0 5,5 0,0 z"
         style="fill-rule:evenodd;stroke:#000000;stroke-width:1pt"
         transform="matrix(-0.4,0,0,-0.4,-4,0)" />
    </marker>
    <marker
       inkscape:stockid="Arrow1Mend"
       orient="auto"
       refY="0"
       refX="0"
       id="Arrow1Mend-0"
       style="overflow:visible">
      <path
         inkscape:connector-curvature="0"
         id="path4158-61"
         d="M 0,0 5,-5 -12.5,0 5,5 0,0 z"
         style="fill-rule:evenodd;stroke:#000000;stroke-width:1pt"
         transform="matrix(-0.4,0,0,-0.4,-4,0)" />
    </marker>
    <marker
       inkscape:stockid="Arrow1Mend"
       orient="auto"
       refY="0"
       refX="0"
       id="Arrow1Mend-6"
       style="overflow:visible">
      <path
         inkscape:connector-curvature="0"
         id="path4158-1"
         d="M 0,0 5,-5 -12.5,0 5,5 0,0 z"
         style="fill-rule:evenodd;stroke:#000000;stroke-width:1pt"
         transform="matrix(-0.4,0,0,-0.4,-4,0)" />
    </marker>
    <marker
       inkscape:stockid="Arrow1Mend"
       orient="auto"
       refY="0"
       refX="0"
       id="Arrow1Mend-3"
       style="overflow:visible">
      <path
         inkscape:connector-curvature="0"
         id="path4158-5"
         d="M 0,0 5,-5 -12.5,0 5,5 0,0 z"
         style="fill-rule:evenodd;stroke:#000000;stroke-width:1pt"
         transform="matrix(-0.4,0,0,-0.4,-4,0)" />
    </marker>
    <marker
       inkscape:stockid="Arrow1Mend"
       orient="auto"
       refY="0"
       refX="0"
       id="Arrow1Mend-7"
       style="overflow:visible">
      <path
         inkscape:connector-curvature="0"
         id="path4158-3"
         d="M 0,0 5,-5 -12.5,0 5,5 0,0 z"
         style="fill-rule:evenodd;stroke:#000000;stroke-width:1pt"
         transform="matrix(-0.4,0,0,-0.4,-4,0)" />
    </marker>
    <marker
       inkscape:stockid="Arrow1Mend"
       orient="auto"
       refY="0"
       refX="0"
       id="Arrow1Mend-7-1"
       style="overflow:visible">
      <path
         inkscape:connector-curvature="0"
         id="path4158-3-7"
         d="M 0,0 5,-5 -12.5,0 5,5 0,0 z"
         style="fill-rule:evenodd;stroke:#000000;stroke-width:1pt"
         transform="matrix(-0.4,0,0,-0.4,-4,0)" />
    </marker>
    <marker
       inkscape:stockid="Arrow1Mend"
       orient="auto"
       refY="0"
       refX="0"
       id="Arrow1Mend-09"
       style="overflow:visible">
      <path
         inkscape:connector-curvature="0"
         id="path4158-4"
         d="M 0,0 5,-5 -12.5,0 5,5 0,0 z"
         style="fill-rule:evenodd;stroke:#000000;stroke-width:1pt"
         transform="matrix(-0.4,0,0,-0.4,-4,0)" />
    </marker>
  </defs>
  <sodipodi:namedview
     id="base"
     pagecolor="#ffffff"
     bordercolor="#666666"
     borderopacity="1.0"
     inkscape:pageopacity="0.0"
     inkscape:pageshadow="2"
     inkscape:zoom="1.979899"
     inkscape:cx="438.66151"
     inkscape:cy="618.70579"
     inkscape:document-units="px"
     inkscape:current-layer="layer1"
     showgrid="false"
     inkscape:window-width="1920"
     inkscape:window-height="1005"
     inkscape:window-x="-9"
     inkscape:window-y="-9"
     inkscape:window-maximized="1" />
  <metadata
     id="metadata7">
    <rdf:RDF>
      <cc:Work
         rdf:about="">
        <dc:format>image/svg+xml</dc:format>
        <dc:type
           rdf:resource="http://purl.org/dc/dcmitype/StillImage" />
        <dc:title></dc:title>
      </cc:Work>
    </rdf:RDF>
  </metadata>
  <g
     inkscape:label="Layer 1"
     inkscape:groupmode="layer"
     id="layer1">
    <rect
       id="rect3001"
       width="549.41132"
       height="207.8067"
       x="117.61164"
       y="300.21722"
       style="fill:none;stroke:#000000;stroke-width:1.76767397;stroke-miterlimit:4;stroke-opacity:1;stroke-dasharray:none" />
    <g
       id="g3775"
       transform="matrix(0.65145639,0,0,0.65145639,208.74602,264.58524)">
      <text
         sodipodi:linespacing="125%"
         id="text2997"
         y="338.18433"
         x="276.7818"
         style="font-size:12px;font-style:normal;font-weight:normal;line-height:125%;letter-spacing:0px;word-spacing:0px;fill:#000000;fill-opacity:1;stroke:none;font-family:Sans"
         xml:space="preserve"><tspan
           y="338.18433"
           x="276.7818"
           id="tspan2999"
           sodipodi:role="line">ScalarMultiplicationElement</tspan></text>
      <rect
         y="323.79074"
         x="275"
         height="20.714285"
         width="154.28572"
         id="rect3771"
         style="fill:none;stroke:#000000;stroke-width:2.5;stroke-miterlimit:4;stroke-opacity:1;stroke-dasharray:none" />
    </g>
    <g
       id="g3780"
       transform="matrix(0.65145639,0,0,0.65145639,414.88543,301.34599)">
      <text
         sodipodi:linespacing="125%"
         id="text2993"
         y="255.35182"
         x="156.57364"
         style="font-size:12px;font-style:normal;font-weight:normal;line-height:125%;letter-spacing:0px;word-spacing:0px;fill:#000000;fill-opacity:1;stroke:none;font-family:Sans"
         xml:space="preserve"><tspan
           y="255.35182"
           x="156.57364"
           id="tspan2995"
           sodipodi:role="line">ScalarAdditionElement </tspan></text>
      <rect
         y="238.07646"
         x="149.28572"
         height="50.714279"
         width="135.00002"
         id="rect3773"
         style="fill:none;stroke:#000000;stroke-width:2.5;stroke-miterlimit:4;stroke-opacity:1;stroke-dasharray:none" />
    </g>
    <g
       transform="matrix(0.65145639,0,0,0.65145639,85.899938,451.87896)"
       id="g3780-1">
      <g
         id="g4898"
         transform="translate(230,-332.14286)">
        <text
           xml:space="preserve"
           style="font-size:12px;font-style:normal;font-weight:normal;line-height:125%;letter-spacing:0px;word-spacing:0px;fill:#000000;fill-opacity:1;stroke:none;font-family:Sans"
           x="156.57364"
           y="255.35182"
           id="text2993-7"
           sodipodi:linespacing="125%"><tspan
             sodipodi:role="line"
             id="tspan2995-4"
             x="156.57364"
             y="255.35182">ScalarSignumElement </tspan></text>
        <rect
           style="fill:none;stroke:#000000;stroke-width:2.5;stroke-miterlimit:4;stroke-opacity:1;stroke-dasharray:none"
           id="rect3773-0"
           width="134.28572"
           height="25"
           x="149.28572"
           y="238.07646" />
      </g>
    </g>
    <g
       transform="matrix(0.65145639,0,0,0.65145639,170.23548,213.49312)"
       id="g3780-2">
      <text
         sodipodi:linespacing="125%"
         id="text2993-45"
         y="255.35182"
         x="156.57364"
         style="font-size:12px;font-style:normal;font-weight:normal;line-height:125%;letter-spacing:0px;word-spacing:0px;fill:#000000;fill-opacity:1;stroke:none;font-family:Sans"
         xml:space="preserve"><tspan
           y="255.35182"
           x="156.57364"
           id="tspan2995-5"
           sodipodi:role="line">ScalarSineElement </tspan></text>
      <rect
         y="238.07646"
         x="149.28572"
         height="25"
         width="134.28572"
         id="rect3773-1"
         style="fill:none;stroke:#000000;stroke-width:2.5;stroke-miterlimit:4;stroke-opacity:1;stroke-dasharray:none" />
    </g>
    <g
       transform="matrix(0.65145639,0,0,0.65145639,236.66558,189.90042)"
       id="g3780-7">
      <text
         sodipodi:linespacing="125%"
         id="text2993-1"
         y="255.35182"
         x="156.57364"
         style="font-size:12px;font-style:normal;font-weight:normal;line-height:125%;letter-spacing:0px;word-spacing:0px;fill:#000000;fill-opacity:1;stroke:none;font-family:Sans"
         xml:space="preserve"><tspan
           y="255.35182"
           x="156.57364"
           sodipodi:role="line"
           id="tspan3865">trainable: A </tspan></text>
      <rect
         y="238.07646"
         x="149.28572"
         height="25"
         width="134.28572"
         id="rect3773-5"
         style="fill:none;stroke:#000000;stroke-width:2.5;stroke-miterlimit:4;stroke-opacity:1;stroke-dasharray:none" />
    </g>
    <g
       transform="matrix(0.65145639,0,0,0.65145639,250.62535,295.0641)"
       id="g3780-7-21">
      <text
         sodipodi:linespacing="125%"
         id="text2993-1-6"
         y="255.35182"
         x="156.57364"
         style="font-size:12px;font-style:normal;font-weight:normal;line-height:125%;letter-spacing:0px;word-spacing:0px;fill:#000000;fill-opacity:1;stroke:none;font-family:Sans"
         xml:space="preserve"><tspan
           y="255.35182"
           x="156.57364"
           sodipodi:role="line"
           id="tspan3865-8">trainable: D</tspan></text>
      <rect
         y="238.07646"
         x="149.28572"
         height="25"
         width="134.28572"
         id="rect3773-5-5"
         style="fill:none;stroke:#000000;stroke-width:2.5;stroke-miterlimit:4;stroke-opacity:1;stroke-dasharray:none" />
    </g>
    <g
       transform="matrix(0.65145639,0,0,0.65145639,-45.933283,151.83155)"
       id="g3974">
      <text
         sodipodi:linespacing="125%"
         id="text2993-1-6-6"
         y="255.35182"
         x="156.57364"
         style="font-size:12px;font-style:normal;font-weight:normal;line-height:125%;letter-spacing:0px;word-spacing:0px;fill:#000000;fill-opacity:1;stroke:none;font-family:Sans"
         xml:space="preserve"><tspan
           y="255.35182"
           x="156.57364"
           sodipodi:role="line"
           id="tspan3865-8-1">input: Theta</tspan></text>
      <rect
         y="238.07646"
         x="149.28572"
         height="25"
         width="134.28572"
         id="rect3773-5-5-8"
         style="fill:none;stroke:#000000;stroke-width:2.5;stroke-miterlimit:4;stroke-opacity:1;stroke-dasharray:none" />
    </g>
    <g
       transform="matrix(0.65145639,0,0,0.65145639,-45.467961,237.92019)"
       id="g3974-7">
      <text
         sodipodi:linespacing="125%"
         id="text2993-1-6-6-9"
         y="255.35182"
         x="156.57364"
         style="font-size:12px;font-style:normal;font-weight:normal;line-height:125%;letter-spacing:0px;word-spacing:0px;fill:#000000;fill-opacity:1;stroke:none;font-family:Sans"
         xml:space="preserve"><tspan
           y="255.35182"
           x="156.57364"
           sodipodi:role="line"
           id="tspan3865-8-1-5">input: Omega</tspan></text>
      <rect
         y="238.07646"
         x="149.28572"
         height="25"
         width="134.28572"
         id="rect3773-5-5-8-4"
         style="fill:none;stroke:#000000;stroke-width:2.5;stroke-miterlimit:4;stroke-opacity:1;stroke-dasharray:none" />
    </g>
    <g
       transform="matrix(0.65145639,0,0,0.65145639,-40.861467,318.08618)"
       id="g3974-3">
      <text
         sodipodi:linespacing="125%"
         id="text2993-1-6-6-1"
         y="255.35182"
         x="156.57364"
         style="font-size:12px;font-style:normal;font-weight:normal;line-height:125%;letter-spacing:0px;word-spacing:0px;fill:#000000;fill-opacity:1;stroke:none;font-family:Sans"
         xml:space="preserve"><tspan
           y="255.35182"
           x="156.57364"
           sodipodi:role="line"
           id="tspan3865-8-1-2">input: Current</tspan></text>
      <rect
         y="238.07646"
         x="149.28572"
         height="25"
         width="134.28572"
         id="rect3773-5-5-8-3"
         style="fill:none;stroke:#000000;stroke-width:2.5;stroke-miterlimit:4;stroke-opacity:1;stroke-dasharray:none" />
    </g>
    <text
       xml:space="preserve"
       style="font-size:7.81747675px;font-style:normal;font-weight:normal;line-height:125%;letter-spacing:0px;word-spacing:0px;fill:#000000;fill-opacity:1;stroke:none;font-family:Sans"
       x="669.36487"
       y="343.52753"
       id="text2993-1-4"
       sodipodi:linespacing="125%"><tspan
         id="tspan3865-1"
         sodipodi:role="line"
         x="669.36487"
         y="343.52753">output: Alpha </tspan></text>
    <rect
       style="fill:none;stroke:#000000;stroke-width:1.62864101;stroke-miterlimit:4;stroke-opacity:1;stroke-dasharray:none"
       id="rect3773-5-13"
       width="87.481293"
       height="16.286409"
       x="633.02979"
       y="333.58954" />
    <g
       id="g3780-8"
       transform="matrix(0.64802287,0,0,0.65145639,413.07138,262.9566)">
      <text
         sodipodi:linespacing="125%"
         id="text2993-74"
         y="255.35182"
         x="156.57364"
         style="font-size:12px;font-style:normal;font-weight:normal;line-height:125%;letter-spacing:0px;word-spacing:0px;fill:#000000;fill-opacity:1;stroke:none;font-family:Sans"
         xml:space="preserve"><tspan
           y="255.35182"
           x="156.57364"
           id="tspan2995-2"
           sodipodi:role="line">ScalarNegationElement </tspan></text>
      <rect
         y="238.07646"
         x="149.28572"
         height="23.571428"
         width="139.31221"
         id="rect3773-7"
         style="fill:none;stroke:#000000;stroke-width:2.5;stroke-miterlimit:4;stroke-opacity:1;stroke-dasharray:none" />
    </g>
    <text
       xml:space="preserve"
       style="font-size:7.81747675px;font-style:normal;font-variant:normal;font-weight:normal;font-stretch:normal;line-height:125%;letter-spacing:0px;word-spacing:0px;fill:#000000;fill-opacity:1;stroke:none;font-family:Lucida Console;-inkscape-font-specification:Lucida Console"
       x="270.15533"
       y="314.80801"
       id="text4075"
       sodipodi:linespacing="125%"><tspan
         sodipodi:role="line"
         id="tspan4077"
         x="270.15533"
         y="314.80801"> alpha = -(sin(theta) * a + sign(omega) *  b + c * omega)</tspan><tspan
         sodipodi:role="line"
         x="270.15533"
         y="324.57986"
         id="tspan4079">   + d * input;</tspan></text>
    <path
       style="fill:none;stroke:#000000;stroke-width:1.05861664;stroke-linecap:butt;stroke-linejoin:miter;stroke-miterlimit:4;stroke-opacity:1;stroke-dasharray:none;marker-end:url(#Arrow1Mend)"
       d="m 602.41181,472.72884 c 45.60195,-26.98891 -9.2073,-74.57877 28.01877,-128.55658"
       id="path4081"
       inkscape:connector-curvature="0"
       sodipodi:nodetypes="cc" />
    <g
       id="g3780-98"
       transform="matrix(0.65145639,0,0,0.65145639,407.67287,205.25618)">
      <text
         sodipodi:linespacing="125%"
         id="text2993-6"
         y="255.35182"
         x="156.57364"
         style="font-size:12px;font-style:normal;font-weight:normal;line-height:125%;letter-spacing:0px;word-spacing:0px;fill:#000000;fill-opacity:1;stroke:none;font-family:Sans"
         xml:space="preserve"><tspan
           y="255.35182"
           x="156.57364"
           id="tspan2995-50"
           sodipodi:role="line">ScalarAdditionElement </tspan></text>
      <rect
         y="238.07646"
         x="149.28572"
         height="66.428566"
         width="137.85715"
         id="rect3773-2"
         style="fill:none;stroke:#000000;stroke-width:2.5;stroke-miterlimit:4;stroke-opacity:1;stroke-dasharray:none" />
    </g>
    <path
       style="fill:none;stroke:#000000;stroke-width:1.05861664;stroke-linecap:butt;stroke-linejoin:miter;stroke-miterlimit:4;stroke-opacity:1;stroke-dasharray:none;marker-end:url(#Arrow1Mend)"
       d="m 600.55051,425.26559 c 13.02912,7.44522 16.28641,17.68239 -0.46533,18.14771 -17.68169,0.49116 -66.07629,0.46533 -87.01596,0.46533 -20.93967,0 -17.68239,19.07837 -0.93065,30.24619"
       id="path4137"
       inkscape:connector-curvature="0"
       sodipodi:nodetypes="cssc" />
    <path
       style="fill:none;stroke:#000000;stroke-width:1.05861664;stroke-linecap:butt;stroke-linejoin:miter;stroke-miterlimit:4;stroke-opacity:1;stroke-dasharray:none;marker-end:url(#Arrow1Mend)"
       d="m 595.89724,384.78223 c 11.16783,9.77184 14.89044,25.1276 -1.39597,25.59293 -16.28641,0.46533 -66.54161,0.46532 -82.82802,0 -16.28641,-0.46533 -15.35577,7.91054 -4.18794,14.4251"
       id="path4139"
       inkscape:connector-curvature="0"
       sodipodi:nodetypes="cssc" />
    <path
       style="fill:none;stroke:#000000;stroke-width:1.05861664;stroke-linecap:butt;stroke-linejoin:miter;stroke-miterlimit:4;stroke-opacity:1;stroke-dasharray:none;marker-end:url(#Arrow1Mend)"
       d="m 437.22109,457.37308 c 4.85969,0.19274 13.02912,18.14772 13.02912,18.14772"
       id="path4141"
       inkscape:connector-curvature="0"
       sodipodi:nodetypes="cc" />
    <path
       style="fill:none;stroke:#000000;stroke-width:1.05861664;stroke-linecap:butt;stroke-linejoin:miter;stroke-miterlimit:4;stroke-opacity:1;stroke-dasharray:none;marker-end:url(#Arrow1Mend)"
       d="m 489.80292,483.89667 c 22.33565,-0.46533 22.33565,-0.46533 22.33565,-0.46533"
       id="path4143"
       inkscape:connector-curvature="0" />
    <g
       id="g3775-0"
       transform="matrix(0.65145639,0,0,0.65145639,192.92494,158.83991)">
      <text
         sodipodi:linespacing="125%"
         id="text2997-2"
         y="338.18433"
         x="276.7818"
         style="font-size:12px;font-style:normal;font-weight:normal;line-height:125%;letter-spacing:0px;word-spacing:0px;fill:#000000;fill-opacity:1;stroke:none;font-family:Sans"
         xml:space="preserve"><tspan
           y="338.18433"
           x="276.7818"
           id="tspan2999-4"
           sodipodi:role="line">ScalarMultiplicationElement</tspan></text>
      <rect
         y="323.79074"
         x="275"
         height="20.714285"
         width="154.28572"
         id="rect3771-8"
         style="fill:none;stroke:#000000;stroke-width:2.5;stroke-miterlimit:4;stroke-opacity:1;stroke-dasharray:none" />
    </g>
    <path
       style="fill:none;stroke:#000000;stroke-width:1.05861664;stroke-linecap:butt;stroke-linejoin:miter;stroke-miterlimit:4;stroke-opacity:1;stroke-dasharray:none;marker-end:url(#Arrow1Mend)"
       d="m 421.39999,351.62776 c 3.54356,-0.46533 13.02913,18.14771 13.02913,18.14771"
       id="path4141-0"
       inkscape:connector-curvature="0"
       sodipodi:nodetypes="cc" />
    <g
       id="g3775-0-3"
       transform="matrix(0.65145639,0,0,0.65145639,193.39026,203.04588)">
      <text
         sodipodi:linespacing="125%"
         id="text2997-2-8"
         y="338.18433"
         x="276.7818"
         style="font-size:12px;font-style:normal;font-weight:normal;line-height:125%;letter-spacing:0px;word-spacing:0px;fill:#000000;fill-opacity:1;stroke:none;font-family:Sans"
         xml:space="preserve"><tspan
           y="338.18433"
           x="276.7818"
           id="tspan2999-4-9"
           sodipodi:role="line">ScalarMultiplicationElement</tspan></text>
      <rect
         y="323.79074"
         x="275"
         height="20.714285"
         width="154.28572"
         id="rect3771-8-3"
         style="fill:none;stroke:#000000;stroke-width:2.5;stroke-miterlimit:4;stroke-opacity:1;stroke-dasharray:none" />
    </g>
    <path
       style="fill:none;stroke:#000000;stroke-width:1.05861664;stroke-linecap:butt;stroke-linejoin:miter;stroke-miterlimit:4;stroke-opacity:1;stroke-dasharray:none;marker-end:url(#Arrow1Mend)"
       d="m 421.86531,395.83372 c 6.83391,-0.46533 13.02913,18.14772 13.02913,18.14772"
       id="path4141-0-6"
       inkscape:connector-curvature="0"
       sodipodi:nodetypes="cc" />
    <g
       transform="matrix(0.65145639,0,0,0.65145639,59.456471,305.15692)"
       id="g3780-7-4">
      <text
         sodipodi:linespacing="125%"
         id="text2993-1-2"
         y="255.35182"
         x="156.57364"
         style="font-size:12px;font-style:normal;font-weight:normal;line-height:125%;letter-spacing:0px;word-spacing:0px;fill:#000000;fill-opacity:1;stroke:none;font-family:Sans"
         xml:space="preserve"><tspan
           y="255.35182"
           x="156.57364"
           sodipodi:role="line"
           id="tspan3865-3">trainable: C </tspan></text>
      <rect
         y="238.07646"
         x="149.28572"
         height="25"
         width="134.28572"
         id="rect3773-5-2"
         style="fill:none;stroke:#000000;stroke-width:2.5;stroke-miterlimit:4;stroke-opacity:1;stroke-dasharray:none" />
    </g>
    <g
       id="g3775-0-8"
       transform="matrix(0.65145639,0,0,0.65145639,45.247074,227.91825)">
      <text
         sodipodi:linespacing="125%"
         id="text2997-2-4"
         y="338.18433"
         x="276.7818"
         style="font-size:12px;font-style:normal;font-weight:normal;line-height:125%;letter-spacing:0px;word-spacing:0px;fill:#000000;fill-opacity:1;stroke:none;font-family:Sans"
         xml:space="preserve"><tspan
           y="338.18433"
           x="276.7818"
           id="tspan2999-4-96"
           sodipodi:role="line">ScalarMultiplicationElement</tspan></text>
      <rect
         y="323.79074"
         x="275"
         height="20.714285"
         width="154.28572"
         id="rect3771-8-37"
         style="fill:none;stroke:#000000;stroke-width:2.5;stroke-miterlimit:4;stroke-opacity:1;stroke-dasharray:none" />
    </g>
    <path
       inkscape:connector-curvature="0"
       id="path5068"
       d="m 141.51561,314.77202 c 139.51092,-1.31614 131.61407,11.18719 157.93688,52.64563"
       style="fill:none;stroke:#000000;stroke-width:1.30291283;stroke-linecap:butt;stroke-linejoin:miter;stroke-miterlimit:4;stroke-opacity:1;stroke-dasharray:none;marker-end:url(#Arrow1Mend-7)"
       sodipodi:nodetypes="cc" />
    <path
       style="fill:none;stroke:#000000;stroke-width:1.30291283;stroke-linecap:butt;stroke-linejoin:miter;stroke-miterlimit:4;stroke-opacity:1;stroke-dasharray:none;marker-end:url(#Arrow1Mend-7)"
       d="m 472.58586,378.26766 31.17684,-0.46532"
       id="path4975"
       inkscape:connector-curvature="0" />
    <path
       style="fill:none;stroke:#000000;stroke-width:0.65145642px;stroke-linecap:butt;stroke-linejoin:miter;stroke-opacity:1"
       d="m 473.51651,422.00831 c 13.02913,0 24.66228,-30.71152 30.24619,-31.64217"
       id="path4977"
       inkscape:connector-curvature="0" />
    <path
       style="fill:none;stroke:#000000;stroke-width:1.30291283;stroke-linecap:butt;stroke-linejoin:miter;stroke-miterlimit:4;stroke-opacity:1;stroke-dasharray:none;marker-end:url(#Arrow1Mend-7)"
       d="m 140.85754,400.97923 192.15654,-1.31614"
       id="path5048"
       inkscape:connector-curvature="0" />
    <path
       style="fill:none;stroke:#000000;stroke-width:1.30291283;stroke-linecap:butt;stroke-linejoin:miter;stroke-miterlimit:4;stroke-opacity:1;stroke-dasharray:none;marker-end:url(#Arrow1Mend-7)"
       d="m 243.61066,469.38912 c 5.92263,-0.65806 20.40018,-15.13561 20.40018,-15.13561"
       id="path5056"
       inkscape:connector-curvature="0"
       sodipodi:nodetypes="cc" />
    <path
       style="fill:none;stroke:#000000;stroke-width:1.30291283;stroke-linecap:butt;stroke-linejoin:miter;stroke-miterlimit:4;stroke-opacity:1;stroke-dasharray:none;marker-end:url(#Arrow1Mend-7)"
       d="m 354.7304,375.97256 15.79369,0.65807"
       id="path5062"
       inkscape:connector-curvature="0" />
    <path
       style="fill:none;stroke:#000000;stroke-width:1.30291283;stroke-linecap:butt;stroke-linejoin:miter;stroke-miterlimit:4;stroke-opacity:1;stroke-dasharray:none;marker-end:url(#Arrow1Mend-7)"
       d="m 145.46403,483.23803 240.85374,-1.31614"
       id="path5064"
       inkscape:connector-curvature="0" />
    <g
       style="stroke-width:2;stroke-miterlimit:4;stroke-dasharray:none"
       transform="matrix(0.65145639,0,0,0.65145639,156.58397,256.85083)"
       id="g3780-7-2">
      <text
         sodipodi:linespacing="125%"
         id="text2993-1-7"
         y="255.35182"
         x="156.57364"
         style="font-size:12px;font-style:normal;font-weight:normal;line-height:125%;letter-spacing:0px;word-spacing:0px;fill:#000000;fill-opacity:1;stroke:none;font-family:Sans"
         xml:space="preserve"><tspan
           y="255.35182"
           x="156.57364"
           sodipodi:role="line"
           id="tspan3865-6">trainable: B </tspan></text>
      <rect
         y="238.07646"
         x="149.28572"
         height="25"
         width="134.28572"
         id="rect3773-5-1"
         style="fill:none;stroke:#000000;stroke-width:2;stroke-miterlimit:4;stroke-opacity:1;stroke-dasharray:none" />
    </g>
    <path
       style="fill:none;stroke:#000000;stroke-width:1.30291283;stroke-linecap:butt;stroke-linejoin:miter;stroke-miterlimit:4;stroke-opacity:1;stroke-dasharray:none;marker-end:url(#Arrow1Mend-7)"
       d="m 343.07241,420.6479 c 7.23877,0 27.16526,1.6388 27.16526,1.6388"
       id="path5153"
       inkscape:connector-curvature="0"
       sodipodi:nodetypes="cc" />
    <path
       style="fill:none;stroke:#000000;stroke-width:1.30291283;stroke-linecap:butt;stroke-linejoin:miter;stroke-miterlimit:4;stroke-opacity:1;stroke-dasharray:none;marker-end:url(#Arrow1Mend-7)"
       d="m 325.8473,444.76755 c 14.9836,-0.50508 101.65111,0.88766 143.00818,-8.90332 12.13679,-2.8733 36.69012,-35.9249 36.69012,-35.9249"
       id="path5153-4"
       inkscape:connector-curvature="0"
       sodipodi:nodetypes="csc" />
    <path
       style="fill:none;stroke:#000000;stroke-width:1.05861664;stroke-linecap:butt;stroke-linejoin:miter;stroke-miterlimit:4;stroke-opacity:1;stroke-dasharray:none;marker-end:url(#Arrow1Mend)"
       d="m 139.36561,404.01738 c 4.85969,0.19274 83.73979,33.30001 83.73979,33.30001"
       id="path4141-8"
       inkscape:connector-curvature="0"
       sodipodi:nodetypes="cc" />
  </g>
</svg>
