<?xml version="1.0" encoding="UTF-8" standalone="no"?>
<!-- Created with Inkscape (http://www.inkscape.org/) -->

<svg
   xmlns:dc="http://purl.org/dc/elements/1.1/"
   xmlns:cc="http://creativecommons.org/ns#"
   xmlns:rdf="http://www.w3.org/1999/02/22-rdf-syntax-ns#"
   xmlns:svg="http://www.w3.org/2000/svg"
   xmlns="http://www.w3.org/2000/svg"
   xmlns:sodipodi="http://sodipodi.sourceforge.net/DTD/sodipodi-0.dtd"
   xmlns:inkscape="http://www.inkscape.org/namespaces/inkscape"
   id="svg3885"
   version="1.1"
   inkscape:version="0.48.4 r9939"
   width="414.423"
   height="621.6345"
   xml:space="preserve"
   sodipodi:docname="Demo8Frame2Mod.svg"><metadata
     id="metadata3891"><rdf:RDF><cc:Work
         rdf:about=""><dc:format>image/svg+xml</dc:format><dc:type
           rdf:resource="http://purl.org/dc/dcmitype/StillImage" /><dc:title></dc:title></cc:Work></rdf:RDF></metadata><defs
     id="defs3889"><clipPath
       clipPathUnits="userSpaceOnUse"
       id="clipPath3903"><path
         d="m 0,0 331.5384,0 0,497.3076 L 0,497.3076 0,0 z"
         id="path3905" /></clipPath><clipPath
       clipPathUnits="userSpaceOnUse"
       id="clipPath3913"><path
         d="m 0,0 331.5384,0 0,497.3076 L 0,497.3076 0,0 z"
         id="path3915" /></clipPath><clipPath
       clipPathUnits="userSpaceOnUse"
       id="clipPath3923"><path
         d="m 0,0 331.5384,0 0,497.3076 L 0,497.3076 0,0 z"
         id="path3925" /></clipPath><clipPath
       clipPathUnits="userSpaceOnUse"
       id="clipPath3933"><path
         d="m 0,0 331.5384,0 0,497.3076 L 0,497.3076 0,0 z"
         id="path3935" /></clipPath><clipPath
       clipPathUnits="userSpaceOnUse"
       id="clipPath3943"><path
         d="m 0,0 331.5384,0 0,497.3076 L 0,497.3076 0,0 z"
         id="path3945" /></clipPath><clipPath
       clipPathUnits="userSpaceOnUse"
       id="clipPath3953"><path
         d="m 0,0 331.5384,0 0,497.3076 L 0,497.3076 0,0 z"
         id="path3955" /></clipPath><clipPath
       clipPathUnits="userSpaceOnUse"
       id="clipPath3963"><path
         d="m 0,0 331.5384,0 0,497.3076 L 0,497.3076 0,0 z"
         id="path3965" /></clipPath><clipPath
       clipPathUnits="userSpaceOnUse"
       id="clipPath3973"><path
         d="m 0,0 331.5384,0 0,497.3076 L 0,497.3076 0,0 z"
         id="path3975" /></clipPath><clipPath
       clipPathUnits="userSpaceOnUse"
       id="clipPath3983"><path
         d="m 0,0 331.5384,0 0,497.3076 L 0,497.3076 0,0 z"
         id="path3985" /></clipPath><clipPath
       clipPathUnits="userSpaceOnUse"
       id="clipPath3993"><path
         d="m 0,0 331.5384,0 0,497.3076 L 0,497.3076 0,0 z"
         id="path3995" /></clipPath><clipPath
       clipPathUnits="userSpaceOnUse"
       id="clipPath4003"><path
         d="m 0,0 331.5384,0 0,497.3076 L 0,497.3076 0,0 z"
         id="path4005" /></clipPath><clipPath
       clipPathUnits="userSpaceOnUse"
       id="clipPath4013"><path
         d="m 0,0 331.5384,0 0,497.3076 L 0,497.3076 0,0 z"
         id="path4015" /></clipPath><clipPath
       clipPathUnits="userSpaceOnUse"
       id="clipPath4023"><path
         d="m 0,0 331.5384,0 0,497.3076 L 0,497.3076 0,0 z"
         id="path4025" /></clipPath><clipPath
       clipPathUnits="userSpaceOnUse"
       id="clipPath4033"><path
         d="m 0,0 331.5384,0 0,497.3076 L 0,497.3076 0,0 z"
         id="path4035" /></clipPath><clipPath
       clipPathUnits="userSpaceOnUse"
       id="clipPath4043"><path
         d="m 0,0 331.5384,0 0,497.3076 L 0,497.3076 0,0 z"
         id="path4045" /></clipPath><clipPath
       clipPathUnits="userSpaceOnUse"
       id="clipPath4053"><path
         d="m 0,0 331.5384,0 0,497.3076 L 0,497.3076 0,0 z"
         id="path4055" /></clipPath><clipPath
       clipPathUnits="userSpaceOnUse"
       id="clipPath4063"><path
         d="m 0,0 331.5384,0 0,497.3076 L 0,497.3076 0,0 z"
         id="path4065" /></clipPath><clipPath
       clipPathUnits="userSpaceOnUse"
       id="clipPath4073"><path
         d="m 0,0 331.5384,0 0,497.3076 L 0,497.3076 0,0 z"
         id="path4075" /></clipPath><clipPath
       clipPathUnits="userSpaceOnUse"
       id="clipPath4083"><path
         d="m 0,0 331.5384,0 0,497.3076 L 0,497.3076 0,0 z"
         id="path4085" /></clipPath><clipPath
       clipPathUnits="userSpaceOnUse"
       id="clipPath4093"><path
         d="m 0,0 331.5384,0 0,497.3076 L 0,497.3076 0,0 z"
         id="path4095" /></clipPath><clipPath
       clipPathUnits="userSpaceOnUse"
       id="clipPath4103"><path
         d="m 0,0 331.5384,0 0,497.3076 L 0,497.3076 0,0 z"
         id="path4105" /></clipPath><clipPath
       clipPathUnits="userSpaceOnUse"
       id="clipPath4113"><path
         d="m 0,0 331.5384,0 0,497.3076 L 0,497.3076 0,0 z"
         id="path4115" /></clipPath><clipPath
       clipPathUnits="userSpaceOnUse"
       id="clipPath4123"><path
         d="m 0,0 331.5384,0 0,497.3076 L 0,497.3076 0,0 z"
         id="path4125" /></clipPath><clipPath
       clipPathUnits="userSpaceOnUse"
       id="clipPath4133"><path
         d="m 0,0 331.5384,0 0,497.3076 L 0,497.3076 0,0 z"
         id="path4135" /></clipPath><clipPath
       clipPathUnits="userSpaceOnUse"
       id="clipPath4143"><path
         d="m 0,0 331.5384,0 0,497.3076 L 0,497.3076 0,0 z"
         id="path4145" /></clipPath><clipPath
       clipPathUnits="userSpaceOnUse"
       id="clipPath4153"><path
         d="m 0,0 331.5384,0 0,497.3076 L 0,497.3076 0,0 z"
         id="path4155" /></clipPath><clipPath
       clipPathUnits="userSpaceOnUse"
       id="clipPath4163"><path
         d="m 0,0 331.5384,0 0,497.3076 L 0,497.3076 0,0 z"
         id="path4165" /></clipPath><clipPath
       clipPathUnits="userSpaceOnUse"
       id="clipPath4173"><path
         d="m 0,0 331.5384,0 0,497.3076 L 0,497.3076 0,0 z"
         id="path4175" /></clipPath><clipPath
       clipPathUnits="userSpaceOnUse"
       id="clipPath4183"><path
         d="m 0,0 331.5384,0 0,497.3076 L 0,497.3076 0,0 z"
         id="path4185" /></clipPath><clipPath
       clipPathUnits="userSpaceOnUse"
       id="clipPath4193"><path
         d="m 0,0 331.5384,0 0,497.3076 L 0,497.3076 0,0 z"
         id="path4195" /></clipPath><clipPath
       clipPathUnits="userSpaceOnUse"
       id="clipPath4203"><path
         d="m 0,0 331.5384,0 0,497.3076 L 0,497.3076 0,0 z"
         id="path4205" /></clipPath><clipPath
       clipPathUnits="userSpaceOnUse"
       id="clipPath4213"><path
         d="m 0,0 331.5384,0 0,497.3076 L 0,497.3076 0,0 z"
         id="path4215" /></clipPath><clipPath
       clipPathUnits="userSpaceOnUse"
       id="clipPath4223"><path
         d="m 0,0 331.5384,0 0,497.3076 L 0,497.3076 0,0 z"
         id="path4225" /></clipPath><clipPath
       clipPathUnits="userSpaceOnUse"
       id="clipPath4233"><path
         d="m -7.5,-7.5 15,0 0,15 -15,0 0,-15 z"
         id="path4235" /></clipPath><clipPath
       clipPathUnits="userSpaceOnUse"
       id="clipPath4243"><path
         d="m 0,0 331.5384,0 0,497.3076 L 0,497.3076 0,0 z"
         id="path4245" /></clipPath><clipPath
       clipPathUnits="userSpaceOnUse"
       id="clipPath4253"><path
         d="m -7.5,-7.5 15,0 0,15 -15,0 0,-15 z"
         id="path4255" /></clipPath><clipPath
       clipPathUnits="userSpaceOnUse"
       id="clipPath4263"><path
         d="m 0,0 331.5384,0 0,497.3076 L 0,497.3076 0,0 z"
         id="path4265" /></clipPath><clipPath
       clipPathUnits="userSpaceOnUse"
       id="clipPath4273"><path
         d="m 0,0 331.5384,0 0,497.3076 L 0,497.3076 0,0 z"
         id="path4275" /></clipPath><clipPath
       clipPathUnits="userSpaceOnUse"
       id="clipPath4283"><path
         d="m 0,0 331.5384,0 0,497.3076 L 0,497.3076 0,0 z"
         id="path4285" /></clipPath><clipPath
       clipPathUnits="userSpaceOnUse"
       id="clipPath4303"><path
         d="m 0,0 331.5384,0 0,497.3076 L 0,497.3076 0,0 z"
         id="path4305" /></clipPath><clipPath
       clipPathUnits="userSpaceOnUse"
       id="clipPath4323"><path
         d="m 0,0 331.5384,0 0,497.3076 L 0,497.3076 0,0 z"
         id="path4325" /></clipPath><clipPath
       clipPathUnits="userSpaceOnUse"
       id="clipPath4343"><path
         d="m 0,0 331.5384,0 0,497.3076 L 0,497.3076 0,0 z"
         id="path4345" /></clipPath><clipPath
       clipPathUnits="userSpaceOnUse"
       id="clipPath4363"><path
         d="m 0,0 331.5384,0 0,497.3076 L 0,497.3076 0,0 z"
         id="path4365" /></clipPath><clipPath
       clipPathUnits="userSpaceOnUse"
       id="clipPath4383"><path
         d="m 0,0 331.5384,0 0,497.3076 L 0,497.3076 0,0 z"
         id="path4385" /></clipPath><clipPath
       clipPathUnits="userSpaceOnUse"
       id="clipPath4403"><path
         d="m 0,0 331.5384,0 0,497.3076 L 0,497.3076 0,0 z"
         id="path4405" /></clipPath><clipPath
       clipPathUnits="userSpaceOnUse"
       id="clipPath4423"><path
         d="m 0,0 331.5384,0 0,497.3076 L 0,497.3076 0,0 z"
         id="path4425" /></clipPath><clipPath
       clipPathUnits="userSpaceOnUse"
       id="clipPath4443"><path
         d="m 0,0 331.5384,0 0,497.3076 L 0,497.3076 0,0 z"
         id="path4445" /></clipPath><clipPath
       clipPathUnits="userSpaceOnUse"
       id="clipPath4463"><path
         d="m 0,0 331.5384,0 0,497.3076 L 0,497.3076 0,0 z"
         id="path4465" /></clipPath></defs><sodipodi:namedview
     pagecolor="#ffffff"
     bordercolor="#666666"
     borderopacity="1"
     objecttolerance="10"
     gridtolerance="10"
     guidetolerance="10"
     inkscape:pageopacity="0"
     inkscape:pageshadow="2"
     inkscape:window-width="1920"
     inkscape:window-height="1030"
     id="namedview3887"
     showgrid="false"
     inkscape:zoom="0.53689811"
     inkscape:cx="41.214372"
     inkscape:cy="56.463218"
     inkscape:window-x="0"
     inkscape:window-y="0"
     inkscape:window-maximized="1"
     inkscape:current-layer="g3893" /><g
     id="g3893"
     inkscape:groupmode="layer"
     inkscape:label="Demo8Frame81"
     transform="matrix(1.25,0,0,-1.25,0,621.6345)"><path
       d="m 0,0 331.5384,0 0,497.3076 L 0,497.3076 0,0 z"
       style="fill:#ffffff;fill-opacity:1;fill-rule:nonzero;stroke:none"
       id="path3895" /><path
       d="m 0,0 331.5384,0 0,497.3076 L 0,497.3076 0,0 z"
       style="fill:#ffffff;fill-opacity:1;fill-rule:nonzero;stroke:none"
       id="path3897" /><g
       id="g3899"><g
         id="g3901"
         clip-path="url(#clipPath3903)"><path
           d="m 96.6987,317.7243 8.19712,1.85057 8.0524,1.59057 8.09253,1.37151 8.12724,1.14836 7.96155,0.90242 7.9833,0.68373 7.99913,0.46297 8.0089,0.24079 8.0125,0.0179 8.0099,-0.2051 8.00111,-0.42744 7.98625,-0.64847 7.96541,-0.86752 7.93888,-1.084 8.09921,-1.33157 8.06004,-1.55141 8.01556,-1.76671 7.44362,-1.63506 5.0109,-0.84049 5.04222,-0.62559 5.06463,-0.40603 5.07755,-0.1834 5.0807,0.0407 5.07398,0.26439 5.05756,0.48609 5.03186,0.70413 4.99746,0.91702 4.00589,0.89171 0,0"
           style="fill:none;stroke:#d6d2c4;stroke-opacity:1;stroke-width:9;stroke-linecap:round;stroke-linejoin:round;stroke-miterlimit:10;stroke-dasharray:none"
           id="path3907" /></g></g><g
       id="g3909"><g
         id="g3911"
         clip-path="url(#clipPath3913)"><path
           d="m 120.77894,322.49614 1.70414,0.26136 1.70564,0.25148 1.70704,0.24157 1.70846,0.23164 1.70974,0.22165 1.71105,0.21166 1.71222,0.20161 1.71341,0.19156 1.71448,0.18147 1.71554,0.17136 1.71651,0.16122 1.71745,0.15106 1.7183,0.14088 1.71911,0.13067 1.71986,0.12046 1.72053,0.11023 1.72118,0.1 1.72173,0.0897 1.72224,0.0794 1.72268,0.0691 1.72307,0.0588 1.72338,0.0485 1.72365,0.0382 1.72384,0.0279 1.72398,0.0176 1.72405,0.007 1.72407,-0.003 1.72402,-0.0134 1.7239,-0.0237 1.72374,-0.0341 1.72349,-0.0444 1.72321,-0.0547 1.72284,-0.065 1.72243,-0.0753 1.72194,-0.0856 1.7214,-0.0958 1.7208,-0.1061 1.72014,-0.11634 1.71942,-0.12657 1.71863,-0.13677 1.7178,-0.14697 1.71689,-0.15713 1.71594,-0.16728 1.71491,-0.1774 1.71386,-0.1875 1.71269,-0.19757 1.71155,-0.20762 1.71025,-0.21763 1.709,-0.22762 1.7076,-0.23758 1.70623,-0.2475 1.70474,-0.25738 1.70323,-0.26725 1.70166,-0.27706 1.70004,-0.28685 1.69838,-0.2966 1.69662,-0.30629 1.69491,-0.31597 1.69301,-0.32559 1.69119,-0.33518 1.68924,-0.34471 1.6873,-0.35421 1.68528,-0.36367 1.68321,-0.37307 1.68116,-0.38244 1.67893,-0.39173 1.67733,-0.39899 1.6811,-0.38249 1.68626,-0.35901 1.69116,-0.33523 1.69574,-0.31121 1.70001,-0.28691 1.70397,-0.26238 1.7076,-0.23765 1.71088,-0.21269 1.71383,-0.18757 1.7164,-0.16228 1.71862,-0.13685 1.72046,-0.1113 1.72192,-0.0856 1.72302,-0.0599 1.72372,-0.0341 1.72403,-0.008 1.72397,0.0175 1.72351,0.0433 1.72267,0.0691 1.72145,0.0948 1.71985,0.12038 1.71787,0.14589 1.71554,0.17128 1.71281,0.1965 1.70976,0.22158 1.70635,0.24645 1.7026,0.27112 1.69854,0.29556 1.69415,0.31977 1.68945,0.3437 1.68447,0.36738 1.67919,0.39076"
           style="fill:none;stroke:#bda18b;stroke-opacity:1;stroke-width:9;stroke-linecap:round;stroke-linejoin:round;stroke-miterlimit:10;stroke-dasharray:none"
           id="path3917" /></g></g><g
       id="g3919"><g
         id="g3921"
         clip-path="url(#clipPath3923)"><path
           d="m 96.6987,317.7243 c 46.047,11.05128 92.094,11.05128 138.141,0 18.4188,-4.42051 36.8376,-4.42051 55.2564,0"
           style="fill:none;stroke:#bf5700;stroke-opacity:1;stroke-width:4;stroke-linecap:butt;stroke-linejoin:round;stroke-miterlimit:10;stroke-dasharray:none"
           id="path3927" /></g></g><g
       id="g3929"><g
         id="g3931"
         clip-path="url(#clipPath3933)"><path
           d="m 241.74675,13.8141 -140.81651,243.90136 281.63303,0 L 241.74675,13.8141 z"
           style="fill:#bda18b;fill-opacity:1;fill-rule:nonzero;stroke:#7b4316;stroke-opacity:1;stroke-width:3;stroke-linecap:butt;stroke-linejoin:round;stroke-miterlimit:10;stroke-dasharray:none"
           id="path3937" /></g></g><g
       id="g3939"><g
         id="g3941"
         clip-path="url(#clipPath3943)"><path
           d="m 165.7692,428.2371 35.20413,-60.97534 -70.40826,0 35.20413,60.97534 z"
           style="fill:#bda18b;fill-opacity:1;fill-rule:nonzero;stroke:#7b4316;stroke-opacity:1;stroke-width:3;stroke-linecap:butt;stroke-linejoin:round;stroke-miterlimit:10;stroke-dasharray:none"
           id="path3947" /></g></g><g
       id="g3949"><g
         id="g3951"
         clip-path="url(#clipPath3953)"><path
           d="M 179.96645,325.66259 C 128.47521,359.79819 123.7428,393.9897 165.7692,428.2371"
           style="fill:none;stroke:#000000;stroke-opacity:1;stroke-width:3;stroke-linecap:butt;stroke-linejoin:round;stroke-miterlimit:10;stroke-dasharray:none"
           id="path3957" /></g></g><g
       id="g3959"><g
         id="g3961"
         clip-path="url(#clipPath3963)"><path
           d="m 179.96645,325.66259 c 61.66053,-3.81669 87.46974,13.1548 77.42765,50.91445"
           style="fill:none;stroke:#000000;stroke-opacity:1;stroke-width:3;stroke-linecap:butt;stroke-linejoin:round;stroke-miterlimit:10;stroke-dasharray:none"
           id="path3967" /></g></g><g
       id="g3969"><g
         id="g3971"
         clip-path="url(#clipPath3973)"><path
           d="M 179.96645,325.66259 C 168.38556,223.35172 188.97899,119.40222 241.74675,13.8141"
           style="fill:none;stroke:#000000;stroke-opacity:1;stroke-width:3;stroke-linecap:butt;stroke-linejoin:round;stroke-miterlimit:10;stroke-dasharray:none"
           id="path3977" /></g></g><g
       id="g3979"><g
         id="g3981"
         clip-path="url(#clipPath3983)"><path
           d="M 179.96645,325.66259 C 236.85913,239.84386 233.87058,188.44856 171.00081,171.4767"
           style="fill:none;stroke:#000000;stroke-opacity:1;stroke-width:3;stroke-linecap:butt;stroke-linejoin:round;stroke-miterlimit:10;stroke-dasharray:none"
           id="path3987" /></g></g><g
       id="g3989"><g
         id="g3991"
         clip-path="url(#clipPath3993)"><path
           d="m 243.45202,14.08567 -25.55306,160.45555 5.65896,-2.59583 -8.99366,12.5559 -4.64853,-14.72847 4.57268,4.22526 25.55307,-160.45555 3.41054,0.54314 z"
           style="fill:#43695b;fill-opacity:0.9;fill-rule:nonzero;stroke:none"
           id="path3997" /></g></g><g
       id="g3999"><g
         id="g4001"
         clip-path="url(#clipPath4003)"><path
           d="m 164.27378,427.37372 21.3416,-36.96474 -6.21302,0.40069 12.88873,-8.50983 -0.92537,15.41688 -2.7595,-5.58098 -21.3416,36.96474 -2.99084,-1.72676 z"
           style="fill:#43695b;fill-opacity:0.9;fill-rule:nonzero;stroke:none"
           id="path4007" /></g></g><g
       id="g4009"><g
         id="g4011"
         clip-path="url(#clipPath4013)"><path
           d="m -13786.472,-13938.427 0,0 0,0 0,0 0,0 0,0 0,0 z"
           style="fill:#43695b;fill-opacity:0.9;fill-rule:nonzero;stroke:none"
           id="path4017" /></g></g><g
       id="g4019"><g
         id="g4021"
         clip-path="url(#clipPath4023)"><path
           d="m -13786.472,-13938.427 0,0 0,0 0,0 0,0 0,0 0,0 z"
           style="fill:#43695b;fill-opacity:0.9;fill-rule:nonzero;stroke:none"
           id="path4027" /></g></g><g
       id="g4029"><g
         id="g4031"
         clip-path="url(#clipPath4033)"><path
           d="m 179.96645,308.39496 c 4.57943,0 8.97191,1.81943 12.21006,5.05757 3.23814,3.23815 5.05757,7.63063 5.05757,12.21006 0,4.57943 -1.81943,8.97191 -5.05757,12.21005 -3.23815,3.23815 -7.63063,5.05757 -12.21006,5.05757 -4.57943,0 -8.97191,-1.81942 -12.21005,-5.05757 -3.23815,-3.23814 -5.05757,-7.63062 -5.05757,-12.21005 0,-4.57943 1.81942,-8.97191 5.05757,-12.21006 3.23814,-3.23814 7.63062,-5.05757 12.21005,-5.05757 z"
           style="fill:#ffffff;fill-opacity:1;fill-rule:nonzero;stroke:#000000;stroke-opacity:1;stroke-width:2;stroke-linecap:butt;stroke-linejoin:round;stroke-miterlimit:10;stroke-dasharray:none"
           id="path4037" /></g></g><g
       id="g4039"><g
         id="g4041"
         clip-path="url(#clipPath4043)"><path
           d="m 179.96645,342.93021 c -4.5779,0 -8.97299,-1.8205 -12.21005,-5.05757 -3.23707,-3.23706 -5.05757,-7.63215 -5.05757,-12.21005 l 17.26762,0 0,17.26762 z"
           style="fill:#000000;fill-opacity:1;fill-rule:nonzero;stroke:#000000;stroke-opacity:1;stroke-width:1;stroke-linecap:butt;stroke-linejoin:round;stroke-miterlimit:10;stroke-dasharray:none"
           id="path4047" /></g></g><g
       id="g4049"><g
         id="g4051"
         clip-path="url(#clipPath4053)"><path
           d="m 179.96645,308.39496 c 4.5779,0 8.97299,1.82051 12.21006,5.05757 3.23706,3.23707 5.05757,7.63216 5.05757,12.21006 l -17.26763,0 0,-17.26763 z"
           style="fill:#000000;fill-opacity:1;fill-rule:nonzero;stroke:#000000;stroke-opacity:1;stroke-width:1;stroke-linecap:butt;stroke-linejoin:round;stroke-miterlimit:10;stroke-dasharray:none"
           id="path4057" /></g></g><g
       id="g4059"><g
         id="g4061"
         clip-path="url(#clipPath4063)"><path
           d="m 179.12951,325.70388 -0.41287,-8.36942 -2.42826,1.79774 3.01747,-6.86068 3.67807,6.53038 -2.5934,-1.55002 0.41287,8.36942 -1.67388,0.0826 z"
           style="fill:#005f86;fill-opacity:0.9;fill-rule:nonzero;stroke:none"
           id="path4067" /></g></g><g
       id="g4069"><g
         id="g4071"
         clip-path="url(#clipPath4073)"><path
           d="m 179.88157,323.94189 17.20702,-0.84885 -3.69606,-4.99233 14.10515,6.20373 -13.42608,7.56188 3.18676,-5.33187 -17.20702,0.84884 -0.16977,-3.4414 z"
           style="fill:#f2a900;fill-opacity:0.9;fill-rule:nonzero;stroke:none"
           id="path4077" /></g></g><g
       id="g4079"><g
         id="g4081"
         clip-path="url(#clipPath4083)"><path
           d="m 179.96645,325.66259 0,-1e-5 0,0 0,0 0,0 0,0 0,1e-5 0,0 z"
           style="fill:#ffc0cb;fill-opacity:0.8;fill-rule:nonzero;stroke:none"
           id="path4087" /></g></g><g
       id="g4089"><g
         id="g4091"
         clip-path="url(#clipPath4093)"><path
           d="m 27.6282,13.8141 69.0705,0"
           style="fill:none;stroke:#000000;stroke-opacity:1;stroke-width:4;stroke-linecap:square;stroke-linejoin:round;stroke-miterlimit:10;stroke-dasharray:none"
           id="path4097" /></g></g><g
       id="g4099"><g
         id="g4101"
         clip-path="url(#clipPath4103)"><path
           d="m 234.8397,13.8141 69.0705,0"
           style="fill:none;stroke:#000000;stroke-opacity:1;stroke-width:4;stroke-linecap:square;stroke-linejoin:round;stroke-miterlimit:10;stroke-dasharray:none"
           id="path4107" /></g></g><g
       id="g4109"><g
         id="g4111"
         clip-path="url(#clipPath4113)"><path
           d="m 234.8397,428.2371 -138.141,0"
           style="fill:none;stroke:#000000;stroke-opacity:1;stroke-width:4;stroke-linecap:square;stroke-linejoin:round;stroke-miterlimit:10;stroke-dasharray:none"
           id="path4117" /></g></g><g
       id="g4119"><g
         id="g4121"
         clip-path="url(#clipPath4123)"><path
           d="m 96.6987,317.7243 -6.447674,26.86531"
           style="fill:none;stroke:#bf5700;stroke-opacity:1;stroke-width:1;stroke-linecap:square;stroke-linejoin:round;stroke-miterlimit:10;stroke-dasharray:none"
           id="path4127" /></g></g><g
       id="g4129"><g
         id="g4131"
         clip-path="url(#clipPath4133)"><path
           d="m 117.9535,322.04057 -4.52823,27.25459"
           style="fill:none;stroke:#bf5700;stroke-opacity:1;stroke-width:1;stroke-linecap:square;stroke-linejoin:round;stroke-miterlimit:10;stroke-dasharray:none"
           id="path4137" /></g></g><g
       id="g4139"><g
         id="g4141"
         clip-path="url(#clipPath4143)"><path
           d="m 139.46412,324.81059 -2.5148,27.51351"
           style="fill:none;stroke:#bf5700;stroke-opacity:1;stroke-width:1;stroke-linecap:square;stroke-linejoin:round;stroke-miterlimit:10;stroke-dasharray:none"
           id="path4147" /></g></g><g
       id="g4149"><g
         id="g4151"
         clip-path="url(#clipPath4153)"><path
           d="m 161.12087,325.97522 -0.44618,27.6246"
           style="fill:none;stroke:#bf5700;stroke-opacity:1;stroke-width:1;stroke-linecap:square;stroke-linejoin:round;stroke-miterlimit:10;stroke-dasharray:none"
           id="path4157" /></g></g><g
       id="g4159"><g
         id="g4161"
         clip-path="url(#clipPath4163)"><path
           d="m 182.80387,325.50862 1.63247,27.57992"
           style="fill:none;stroke:#bf5700;stroke-opacity:1;stroke-width:1;stroke-linecap:square;stroke-linejoin:round;stroke-miterlimit:10;stroke-dasharray:none"
           id="path4167" /></g></g><g
       id="g4169"><g
         id="g4171"
         clip-path="url(#clipPath4173)"><path
           d="m 204.39132,323.4212 3.67478,27.38272"
           style="fill:none;stroke:#bf5700;stroke-opacity:1;stroke-width:1;stroke-linecap:square;stroke-linejoin:round;stroke-miterlimit:10;stroke-dasharray:none"
           id="path4177" /></g></g><g
       id="g4179"><g
         id="g4181"
         clip-path="url(#clipPath4183)"><path
           d="m 225.76825,319.75848 5.63867,27.04668"
           style="fill:none;stroke:#bf5700;stroke-opacity:1;stroke-width:1;stroke-linecap:square;stroke-linejoin:round;stroke-miterlimit:10;stroke-dasharray:none"
           id="path4187" /></g></g><g
       id="g4189"><g
         id="g4191"
         clip-path="url(#clipPath4193)"><path
           d="m 247.01905,315.44554 3.67478,27.38272"
           style="fill:none;stroke:#bf5700;stroke-opacity:1;stroke-width:1;stroke-linecap:square;stroke-linejoin:round;stroke-miterlimit:10;stroke-dasharray:none"
           id="path4197" /></g></g><g
       id="g4199"><g
         id="g4201"
         clip-path="url(#clipPath4203)"><path
           d="m 268.66295,314.57561 -1.48466,27.58828"
           style="fill:none;stroke:#bf5700;stroke-opacity:1;stroke-width:1;stroke-linecap:square;stroke-linejoin:round;stroke-miterlimit:10;stroke-dasharray:none"
           id="path4207" /></g></g><g
       id="g4209"><g
         id="g4211"
         clip-path="url(#clipPath4213)"><path
           d="m 290.0961,317.7243 -6.44767,26.86531"
           style="fill:none;stroke:#bf5700;stroke-opacity:1;stroke-width:1;stroke-linecap:square;stroke-linejoin:round;stroke-miterlimit:10;stroke-dasharray:none"
           id="path4217" /></g></g><g
       id="g4219"><g
         id="g4221"
         clip-path="url(#clipPath4223)"><g
           id="g4227"
           transform="translate(241.74675,13.8141)"><g
             id="g4229"><g
               id="g4231"
               clip-path="url(#clipPath4233)"><path
                 d="m 0,-6 c 1.5912186,0 3.1174792,0.6321979 4.2426407,1.7573593 C 5.3678021,-3.1174792 6,-1.5912186 6,0 6,1.5912186 5.3678021,3.1174792 4.2426407,4.2426407 3.1174792,5.3678021 1.5912186,6 0,6 -1.5912186,6 -3.1174792,5.3678021 -4.2426407,4.2426407 -5.3678021,3.1174792 -6,1.5912186 -6,0 -6,-1.5912186 -5.3678021,-3.1174792 -4.2426407,-4.2426407 -3.1174792,-5.3678021 -1.5912186,-6 0,-6 z"
                 style="fill:#bda18b;fill-opacity:1;fill-rule:nonzero;stroke:#7b4316;stroke-opacity:1;stroke-width:3;stroke-linecap:butt;stroke-linejoin:round;stroke-miterlimit:10;stroke-dasharray:none"
                 id="path4237" /></g></g></g></g></g><g
       id="g4239"><g
         id="g4241"
         clip-path="url(#clipPath4243)"><g
           id="g4247"
           transform="translate(165.7692,428.2371)"><g
             id="g4249"><g
               id="g4251"
               clip-path="url(#clipPath4253)"><path
                 d="m 0,-6 c 1.5912186,0 3.1174792,0.6321979 4.2426407,1.7573593 C 5.3678021,-3.1174792 6,-1.5912186 6,0 6,1.5912186 5.3678021,3.1174792 4.2426407,4.2426407 3.1174792,5.3678021 1.5912186,6 0,6 -1.5912186,6 -3.1174792,5.3678021 -4.2426407,4.2426407 -5.3678021,3.1174792 -6,1.5912186 -6,0 -6,-1.5912186 -5.3678021,-3.1174792 -4.2426407,-4.2426407 -3.1174792,-5.3678021 -1.5912186,-6 0,-6 z"
                 style="fill:#bda18b;fill-opacity:1;fill-rule:nonzero;stroke:#7b4316;stroke-opacity:1;stroke-width:3;stroke-linecap:butt;stroke-linejoin:round;stroke-miterlimit:10;stroke-dasharray:none"
                 id="path4257" /></g></g></g></g></g><g
       id="g4259"><g
         id="g4261"
         clip-path="url(#clipPath4263)"><path
           d="m 122.91256,308.84781 1.06681,-6.82417"
           style="fill:none;stroke:#7b4316;stroke-opacity:1;stroke-width:3;stroke-linecap:round;stroke-linejoin:round;stroke-miterlimit:10;stroke-dasharray:none"
           id="path4267" /></g></g><g
       id="g4269"><g
         id="g4271"
         clip-path="url(#clipPath4273)"><path
           d="m 293.31994,304.29165 1.61192,-6.71633"
           style="fill:none;stroke:#7b4316;stroke-opacity:1;stroke-width:3;stroke-linecap:round;stroke-linejoin:round;stroke-miterlimit:10;stroke-dasharray:none"
           id="path4277" /></g></g><g
       id="g4279"><g
         id="g4281"
         clip-path="url(#clipPath4283)"><path
           d="m 27.6282,0 0,497.3076"
           style="fill:none;stroke:#000000;stroke-opacity:1;stroke-width:0.5;stroke-linecap:butt;stroke-linejoin:round;stroke-miterlimit:10;stroke-dasharray:1,3;stroke-dashoffset:0"
           id="path4287" /></g></g><g
       id="g4289"><path
         d="m 27.6282,0 0,4"
         style="fill:#000000;fill-opacity:1;fill-rule:nonzero;stroke:#000000;stroke-opacity:1;stroke-width:0.5;stroke-linecap:butt;stroke-linejoin:round;stroke-miterlimit:10;stroke-dasharray:none"
         id="path4291" /><path
         d="m 27.6282,497.3076 0,-4"
         style="fill:#000000;fill-opacity:1;fill-rule:nonzero;stroke:#000000;stroke-opacity:1;stroke-width:0.5;stroke-linecap:butt;stroke-linejoin:round;stroke-miterlimit:10;stroke-dasharray:none"
         id="path4293" /><text
         transform="matrix(1,0,0,-1,18.8782,-13.125)"
         id="text4295"><tspan
           style="fill:#000000;fill-opacity:1;fill-rule:nonzero;stroke:none;font-family:DejaVu Sans;font-variant:normal;font-weight:normal;font-size:12;writing-mode:lr;-inkscape-font-specification:DejaVuSans"
           x="0 7.632 11.448"
           y="0"
           sodipodi:role="line"
           id="tspan4297">0.0</tspan></text>
</g><g
       id="g4299"><g
         id="g4301"
         clip-path="url(#clipPath4303)"><path
           d="m 82.8846,0 0,497.3076"
           style="fill:none;stroke:#000000;stroke-opacity:1;stroke-width:0.5;stroke-linecap:butt;stroke-linejoin:round;stroke-miterlimit:10;stroke-dasharray:1,3;stroke-dashoffset:0"
           id="path4307" /></g></g><g
       id="g4309"><path
         d="m 82.8846,0 0,4"
         style="fill:#000000;fill-opacity:1;fill-rule:nonzero;stroke:#000000;stroke-opacity:1;stroke-width:0.5;stroke-linecap:butt;stroke-linejoin:round;stroke-miterlimit:10;stroke-dasharray:none"
         id="path4311" /><path
         d="m 82.8846,497.3076 0,-4"
         style="fill:#000000;fill-opacity:1;fill-rule:nonzero;stroke:#000000;stroke-opacity:1;stroke-width:0.5;stroke-linecap:butt;stroke-linejoin:round;stroke-miterlimit:10;stroke-dasharray:none"
         id="path4313" /><text
         transform="matrix(1,0,0,-1,74.337725,-13.125)"
         id="text4315"><tspan
           style="fill:#000000;fill-opacity:1;fill-rule:nonzero;stroke:none;font-family:DejaVu Sans;font-variant:normal;font-weight:normal;font-size:12;writing-mode:lr;-inkscape-font-specification:DejaVuSans"
           x="0 7.632 11.448"
           y="0"
           sodipodi:role="line"
           id="tspan4317">0.2</tspan></text>
</g><g
       id="g4319"><g
         id="g4321"
         clip-path="url(#clipPath4323)"><path
           d="m 138.141,0 0,497.3076"
           style="fill:none;stroke:#000000;stroke-opacity:1;stroke-width:0.5;stroke-linecap:butt;stroke-linejoin:round;stroke-miterlimit:10;stroke-dasharray:1,3;stroke-dashoffset:0"
           id="path4327" /></g></g><g
       id="g4329"><path
         d="m 138.141,0 0,4"
         style="fill:#000000;fill-opacity:1;fill-rule:nonzero;stroke:#000000;stroke-opacity:1;stroke-width:0.5;stroke-linecap:butt;stroke-linejoin:round;stroke-miterlimit:10;stroke-dasharray:none"
         id="path4331" /><path
         d="m 138.141,497.3076 0,-4"
         style="fill:#000000;fill-opacity:1;fill-rule:nonzero;stroke:#000000;stroke-opacity:1;stroke-width:0.5;stroke-linecap:butt;stroke-linejoin:round;stroke-miterlimit:10;stroke-dasharray:none"
         id="path4333" /><text
         transform="matrix(1,0,0,-1,129.3285,-13.125)"
         id="text4335"><tspan
           style="fill:#000000;fill-opacity:1;fill-rule:nonzero;stroke:none;font-family:DejaVu Sans;font-variant:normal;font-weight:normal;font-size:12;writing-mode:lr;-inkscape-font-specification:DejaVuSans"
           x="0 7.632 11.448"
           y="0"
           sodipodi:role="line"
           id="tspan4337">0.4</tspan></text>
</g><g
       id="g4339"><g
         id="g4341"
         clip-path="url(#clipPath4343)"><path
           d="m 193.3974,0 0,497.3076"
           style="fill:none;stroke:#000000;stroke-opacity:1;stroke-width:0.5;stroke-linecap:butt;stroke-linejoin:round;stroke-miterlimit:10;stroke-dasharray:1,3;stroke-dashoffset:0"
           id="path4347" /></g></g><g
       id="g4349"><path
         d="m 193.3974,0 0,4"
         style="fill:#000000;fill-opacity:1;fill-rule:nonzero;stroke:#000000;stroke-opacity:1;stroke-width:0.5;stroke-linecap:butt;stroke-linejoin:round;stroke-miterlimit:10;stroke-dasharray:none"
         id="path4351" /><path
         d="m 193.3974,497.3076 0,-4"
         style="fill:#000000;fill-opacity:1;fill-rule:nonzero;stroke:#000000;stroke-opacity:1;stroke-width:0.5;stroke-linecap:butt;stroke-linejoin:round;stroke-miterlimit:10;stroke-dasharray:none"
         id="path4353" /><text
         transform="matrix(1,0,0,-1,184.63178,-13.125)"
         id="text4355"><tspan
           style="fill:#000000;fill-opacity:1;fill-rule:nonzero;stroke:none;font-family:DejaVu Sans;font-variant:normal;font-weight:normal;font-size:12;writing-mode:lr;-inkscape-font-specification:DejaVuSans"
           x="0 7.632 11.448"
           y="0"
           sodipodi:role="line"
           id="tspan4357">0.6</tspan></text>
</g><g
       id="g4359"><g
         id="g4361"
         clip-path="url(#clipPath4363)"><path
           d="m 248.6538,0 0,497.3076"
           style="fill:none;stroke:#000000;stroke-opacity:1;stroke-width:0.5;stroke-linecap:butt;stroke-linejoin:round;stroke-miterlimit:10;stroke-dasharray:1,3;stroke-dashoffset:0"
           id="path4367" /></g></g><g
       id="g4369"><path
         d="m 248.6538,0 0,4"
         style="fill:#000000;fill-opacity:1;fill-rule:nonzero;stroke:#000000;stroke-opacity:1;stroke-width:0.5;stroke-linecap:butt;stroke-linejoin:round;stroke-miterlimit:10;stroke-dasharray:none"
         id="path4371" /><path
         d="m 248.6538,497.3076 0,-4"
         style="fill:#000000;fill-opacity:1;fill-rule:nonzero;stroke:#000000;stroke-opacity:1;stroke-width:0.5;stroke-linecap:butt;stroke-linejoin:round;stroke-miterlimit:10;stroke-dasharray:none"
         id="path4373" /><text
         transform="matrix(1,0,0,-1,239.91943,-13.125)"
         id="text4375"><tspan
           style="fill:#000000;fill-opacity:1;fill-rule:nonzero;stroke:none;font-family:DejaVu Sans;font-variant:normal;font-weight:normal;font-size:12;writing-mode:lr;-inkscape-font-specification:DejaVuSans"
           x="0 7.632 11.448"
           y="0"
           sodipodi:role="line"
           id="tspan4377">0.8</tspan></text>
</g><g
       id="g4379"><g
         id="g4381"
         clip-path="url(#clipPath4383)"><path
           d="m 303.9102,0 0,497.3076"
           style="fill:none;stroke:#000000;stroke-opacity:1;stroke-width:0.5;stroke-linecap:butt;stroke-linejoin:round;stroke-miterlimit:10;stroke-dasharray:1,3;stroke-dashoffset:0"
           id="path4387" /></g></g><g
       id="g4389"><path
         d="m 303.9102,0 0,4"
         style="fill:#000000;fill-opacity:1;fill-rule:nonzero;stroke:#000000;stroke-opacity:1;stroke-width:0.5;stroke-linecap:butt;stroke-linejoin:round;stroke-miterlimit:10;stroke-dasharray:none"
         id="path4391" /><path
         d="m 303.9102,497.3076 0,-4"
         style="fill:#000000;fill-opacity:1;fill-rule:nonzero;stroke:#000000;stroke-opacity:1;stroke-width:0.5;stroke-linecap:butt;stroke-linejoin:round;stroke-miterlimit:10;stroke-dasharray:none"
         id="path4393" /><text
         transform="matrix(1,0,0,-1,295.41801,-13.125)"
         id="text4395"><tspan
           style="fill:#000000;fill-opacity:1;fill-rule:nonzero;stroke:none;font-family:DejaVu Sans;font-variant:normal;font-weight:normal;font-size:12;writing-mode:lr;-inkscape-font-specification:DejaVuSans"
           x="0 7.632 11.448"
           y="0"
           sodipodi:role="line"
           id="tspan4397">1.0</tspan></text>
</g><g
       id="g4399"><g
         id="g4401"
         clip-path="url(#clipPath4403)"><path
           d="m 0,13.8141 331.5384,0"
           style="fill:none;stroke:#000000;stroke-opacity:1;stroke-width:0.5;stroke-linecap:butt;stroke-linejoin:round;stroke-miterlimit:10;stroke-dasharray:1,3;stroke-dashoffset:0"
           id="path4407" /></g></g><g
       id="g4409"><path
         d="m 0,13.8141 4,0"
         style="fill:#000000;fill-opacity:1;fill-rule:nonzero;stroke:#000000;stroke-opacity:1;stroke-width:0.5;stroke-linecap:butt;stroke-linejoin:round;stroke-miterlimit:10;stroke-dasharray:none"
         id="path4411" /><path
         d="m 331.5384,13.8141 -4,0"
         style="fill:#000000;fill-opacity:1;fill-rule:nonzero;stroke:#000000;stroke-opacity:1;stroke-width:0.5;stroke-linecap:butt;stroke-linejoin:round;stroke-miterlimit:10;stroke-dasharray:none"
         id="path4413" /><text
         transform="matrix(1,0,0,-1,-21.25,10.5016)"
         id="text4415"><tspan
           style="fill:#000000;fill-opacity:1;fill-rule:nonzero;stroke:none;font-family:DejaVu Sans;font-variant:normal;font-weight:normal;font-size:12;writing-mode:lr;-inkscape-font-specification:DejaVuSans"
           x="0 7.632 11.448"
           y="0"
           sodipodi:role="line"
           id="tspan4417">0.5</tspan></text>
</g><g
       id="g4419"><g
         id="g4421"
         clip-path="url(#clipPath4423)"><path
           d="m 0,151.9551 331.5384,0"
           style="fill:none;stroke:#000000;stroke-opacity:1;stroke-width:0.5;stroke-linecap:butt;stroke-linejoin:round;stroke-miterlimit:10;stroke-dasharray:1,3;stroke-dashoffset:0"
           id="path4427" /></g></g><g
       id="g4429"><path
         d="m 0,151.9551 4,0"
         style="fill:#000000;fill-opacity:1;fill-rule:nonzero;stroke:#000000;stroke-opacity:1;stroke-width:0.5;stroke-linecap:butt;stroke-linejoin:round;stroke-miterlimit:10;stroke-dasharray:none"
         id="path4431" /><path
         d="m 331.5384,151.9551 -4,0"
         style="fill:#000000;fill-opacity:1;fill-rule:nonzero;stroke:#000000;stroke-opacity:1;stroke-width:0.5;stroke-linecap:butt;stroke-linejoin:round;stroke-miterlimit:10;stroke-dasharray:none"
         id="path4433" /><text
         transform="matrix(1,0,0,-1,-20.984375,148.6426)"
         id="text4435"><tspan
           style="fill:#000000;fill-opacity:1;fill-rule:nonzero;stroke:none;font-family:DejaVu Sans;font-variant:normal;font-weight:normal;font-size:12;writing-mode:lr;-inkscape-font-specification:DejaVuSans"
           x="0 7.632 11.448"
           y="0"
           sodipodi:role="line"
           id="tspan4437">1.0</tspan></text>
</g><g
       id="g4439"><g
         id="g4441"
         clip-path="url(#clipPath4443)"><path
           d="m 0,290.0961 331.5384,0"
           style="fill:none;stroke:#000000;stroke-opacity:1;stroke-width:0.5;stroke-linecap:butt;stroke-linejoin:round;stroke-miterlimit:10;stroke-dasharray:1,3;stroke-dashoffset:0"
           id="path4447" /></g></g><g
       id="g4449"><path
         d="m 0,290.0961 4,0"
         style="fill:#000000;fill-opacity:1;fill-rule:nonzero;stroke:#000000;stroke-opacity:1;stroke-width:0.5;stroke-linecap:butt;stroke-linejoin:round;stroke-miterlimit:10;stroke-dasharray:none"
         id="path4451" /><path
         d="m 331.5384,290.0961 -4,0"
         style="fill:#000000;fill-opacity:1;fill-rule:nonzero;stroke:#000000;stroke-opacity:1;stroke-width:0.5;stroke-linecap:butt;stroke-linejoin:round;stroke-miterlimit:10;stroke-dasharray:none"
         id="path4453" /><text
         transform="matrix(1,0,0,-1,-20.734375,286.7836)"
         id="text4455"><tspan
           style="fill:#000000;fill-opacity:1;fill-rule:nonzero;stroke:none;font-family:DejaVu Sans;font-variant:normal;font-weight:normal;font-size:12;writing-mode:lr;-inkscape-font-specification:DejaVuSans"
           x="0 7.632 11.448"
           y="0"
           sodipodi:role="line"
           id="tspan4457">1.5</tspan></text>
</g><g
       id="g4459"><g
         id="g4461"
         clip-path="url(#clipPath4463)"><path
           d="m 0,428.2371 331.5384,0"
           style="fill:none;stroke:#000000;stroke-opacity:1;stroke-width:0.5;stroke-linecap:butt;stroke-linejoin:round;stroke-miterlimit:10;stroke-dasharray:1,3;stroke-dashoffset:0"
           id="path4467" /></g></g><path
       inkscape:connector-curvature="0"
       id="path4471"
       style="fill:#000000;fill-opacity:1;fill-rule:nonzero;stroke:#000000;stroke-width:0.5;stroke-linecap:butt;stroke-linejoin:round;stroke-miterlimit:10;stroke-opacity:1;stroke-dasharray:none"
       d="m 0,428.2371 4,0" /><path
       inkscape:connector-curvature="0"
       id="path4473"
       style="fill:#000000;fill-opacity:1;fill-rule:nonzero;stroke:#000000;stroke-width:0.5;stroke-linecap:butt;stroke-linejoin:round;stroke-miterlimit:10;stroke-opacity:1;stroke-dasharray:none"
       d="m 331.5384,428.2371 -4,0" /><text
       id="text4475"
       transform="scale(1,-1)"
       x="-21.421875"
       y="-424.92459"><tspan
         id="tspan4477"
         sodipodi:role="line"
         y="-424.92459"
         x="-21.421875 -13.789875 -9.973875"
         style="font-size:12px;font-variant:normal;font-weight:normal;writing-mode:lr-tb;fill:#000000;fill-opacity:1;fill-rule:nonzero;stroke:none;font-family:DejaVu Sans;-inkscape-font-specification:DejaVuSans">2.0</tspan></text>
<path
       inkscape:connector-curvature="0"
       id="path4479"
       style="fill:none;stroke:#000000;stroke-width:1;stroke-linecap:butt;stroke-linejoin:round;stroke-miterlimit:10;stroke-opacity:1;stroke-dasharray:none"
       d="m 0,497.3076 331.5384,0" /><path
       inkscape:connector-curvature="0"
       id="path4481"
       style="fill:none;stroke:#000000;stroke-width:1;stroke-linecap:butt;stroke-linejoin:round;stroke-miterlimit:10;stroke-opacity:1;stroke-dasharray:none"
       d="m 331.5384,0 0,497.3076" /><path
       inkscape:connector-curvature="0"
       id="path4483"
       style="fill:none;stroke:#000000;stroke-width:1;stroke-linecap:butt;stroke-linejoin:round;stroke-miterlimit:10;stroke-opacity:1;stroke-dasharray:none"
       d="M 0,0 331.5384,0" /><path
       inkscape:connector-curvature="0"
       id="path4485"
       style="fill:none;stroke:#000000;stroke-width:1;stroke-linecap:butt;stroke-linejoin:round;stroke-miterlimit:10;stroke-opacity:1;stroke-dasharray:none"
       d="M 0,0 0,497.3076" /><text
       id="text4487"
       transform="scale(1,-1)"
       x="16.57692"
       y="-472.44223"><tspan
         id="tspan4489"
         sodipodi:role="line"
         y="-472.44223"
         x="16.57692 21.28092 24.61692 36.30492 43.684921 47.500919 57.556919 61.372921 69.004921 72.820923 80.452919 88.084923 95.716919"
         style="font-size:12px;font-variant:normal;font-weight:normal;writing-mode:lr-tb;fill:#000000;fill-opacity:1;fill-rule:nonzero;stroke:none;font-family:DejaVu Sans;-inkscape-font-specification:DejaVuSans">time = 0.405s</tspan></text>
<text
       id="text4491"
       transform="scale(1,-1)"
       x="16.57692"
       y="-447.57684"><tspan
         id="tspan4493"
         sodipodi:role="line"
         y="-447.57684"
         x="16.57692 28.264919 35.608921 47.296921 54.676918 62.28492 66.988922 70.804924 78.184921 83.11692 88.04892 95.392921 100.32492 104.14092 114.19692 118.01292 125.64492 129.46092 137.09293 144.72491 152.35692 159.98892 167.62093 171.43692 180.41292"
         style="font-size:12px;font-variant:normal;font-weight:normal;writing-mode:lr-tb;fill:#000000;fill-opacity:1;fill-rule:nonzero;stroke:none;font-family:DejaVu Sans;-inkscape-font-specification:DejaVuSans">moment error = 0.00000 Nm</tspan></text>
<text
       id="text4495"
       transform="scale(1,-1)"
       x="36.660019"
       y="-464.11395"><tspan
         id="tspan4497"
         sodipodi:role="line"
         y="-464.11395"
         x="36.660019 45.818413 56.906418 61.485619 73.912819 83.042412 87.045616 92.690422 96.693611 101.89202 111.94321 120.75602 129.8856 135.53041 144.3576 152.2776 157.92241 162.5016 176.74321 185.556 191.47441 195.4776"
         style="font-size:14.39999962px;font-variant:normal;font-weight:normal;writing-mode:lr-tb;fill:#000000;fill-opacity:1;fill-rule:nonzero;stroke:none;font-family:DejaVu Sans;-inkscape-font-specification:DejaVuSans">2D Multi-Contact World</tspan></text>
<rect
       style="fill:#ffffff;fill-opacity:1;stroke:none"
       id="rect4537"
       width="270.97733"
       height="53.997913"
       x="7.9021339"
       y="11.8532"
       transform="matrix(0.8,0,0,-0.8,0,497.3076)" /></g></svg>