<?xml version="1.0" encoding="UTF-8" standalone="no"?>
<!-- Created with Inkscape (http://www.inkscape.org/) -->

<svg
   xmlns:dc="http://purl.org/dc/elements/1.1/"
   xmlns:cc="http://creativecommons.org/ns#"
   xmlns:rdf="http://www.w3.org/1999/02/22-rdf-syntax-ns#"
   xmlns:svg="http://www.w3.org/2000/svg"
   xmlns="http://www.w3.org/2000/svg"
   xmlns:sodipodi="http://sodipodi.sourceforge.net/DTD/sodipodi-0.dtd"
   xmlns:inkscape="http://www.inkscape.org/namespaces/inkscape"
   width="240.94487"
   height="145.27559"
   id="svg4839"
   version="1.1"
   inkscape:version="0.48.4 r9939"
   sodipodi:docname="max_speed_automata.svg"
   inkscape:export-filename="/home/gray/wk/grayutils/tex/MultiContactTAC2015/figures/max_speed_automata.png"
   inkscape:export-xdpi="400"
   inkscape:export-ydpi="400">
  <defs
     id="defs4841" />
  <sodipodi:namedview
     id="base"
     pagecolor="#ffffff"
     bordercolor="#666666"
     borderopacity="1.0"
     inkscape:pageopacity="0.0"
     inkscape:pageshadow="2"
     inkscape:zoom="4"
     inkscape:cx="96.579655"
     inkscape:cy="60.288467"
     inkscape:document-units="mm"
     inkscape:current-layer="layer1"
     showgrid="false"
     inkscape:window-width="1920"
     inkscape:window-height="1030"
     inkscape:window-x="0"
     inkscape:window-y="0"
     inkscape:window-maximized="1"
     units="mm">
    <inkscape:grid
       type="xygrid"
       id="grid6178"
       empspacing="4"
       visible="true"
       enabled="true"
       snapvisiblegridlinesonly="true"
       units="mm"
       spacingx="0.25mm"
       spacingy="0.25mm" />
  </sodipodi:namedview>
  <metadata
     id="metadata4844">
    <rdf:RDF>
      <cc:Work
         rdf:about="">
        <dc:format>image/svg+xml</dc:format>
        <dc:type
           rdf:resource="http://purl.org/dc/dcmitype/StillImage" />
        <dc:title />
      </cc:Work>
    </rdf:RDF>
  </metadata>
  <g
     inkscape:label="Layer 1"
     inkscape:groupmode="layer"
     id="layer1"
     transform="translate(0,-907.08413)">
    <path
       transform="translate(-39.64481,902.52967)"
       d="m 100.51017,99.789299 c 0,7.531541 -6.105515,13.637061 -13.637054,13.637061 -7.53154,0 -13.63706,-6.10552 -13.63706,-13.637061 0,-7.53154 6.10552,-13.637059 13.63706,-13.637059 7.531539,0 13.637054,6.105519 13.637054,13.637059 z"
       sodipodi:ry="13.637059"
       sodipodi:rx="13.637059"
       sodipodi:cy="99.789299"
       sodipodi:cx="86.873116"
       id="path6050"
       style="fill:#bf5700;stroke:#bf5700"
       sodipodi:type="arc" />
    <path
       sodipodi:type="arc"
       style="fill:#005f86;stroke:none"
       id="path6048"
       sodipodi:cx="86.873116"
       sodipodi:cy="99.789299"
       sodipodi:rx="13.637059"
       sodipodi:ry="13.637059"
       d="m 100.51017,99.789299 c 0,7.531541 -6.105515,13.637061 -13.637054,13.637061 -7.53154,0 -13.63706,-6.10552 -13.63706,-13.637061 0,-7.53154 6.10552,-13.637059 13.63706,-13.637059 7.531539,0 13.637054,6.105519 13.637054,13.637059 z"
       transform="translate(116.0438,902.52528)" />
    <path
       transform="translate(38.042801,824.58138)"
       d="m 100.51017,99.789299 c 0,7.531541 -6.105515,13.637061 -13.637054,13.637061 -7.53154,0 -13.63706,-6.10552 -13.63706,-13.637061 0,-7.53154 6.10552,-13.637059 13.63706,-13.637059 7.531539,0 13.637054,6.105519 13.637054,13.637059 z"
       sodipodi:ry="13.637059"
       sodipodi:rx="13.637059"
       sodipodi:cy="99.789299"
       sodipodi:cx="86.873116"
       id="path6046"
       style="fill:#43695b;stroke:none"
       sodipodi:type="arc" />
    <path
       sodipodi:type="arc"
       style="fill:#f2a900;fill-opacity:1;stroke:none"
       id="path6032"
       sodipodi:cx="86.873116"
       sodipodi:cy="99.789299"
       sodipodi:rx="13.637059"
       sodipodi:ry="13.637059"
       d="m 100.51017,99.789299 c 0,7.531541 -6.105515,13.637061 -13.637054,13.637061 -7.53154,0 -13.63706,-6.10552 -13.63706,-13.637061 0,-7.53154 6.10552,-13.637059 13.63706,-13.637059 7.531539,0 13.637054,6.105519 13.637054,13.637059 z"
       transform="translate(38.275394,902.3033)" />
    <g
       id="g6610"
       transform="matrix(1.057363,0,0,2.1097507,8.2879691,-1053.0312)">
      <rect
         y="888.64276"
         x="-14.643833"
         height="121.75"
         width="268.5"
         id="rect6099"
         style="opacity:0.5;fill:#ffffff;fill-opacity:1;stroke:none" />
      <g
         style="opacity:0.61290325;stroke-width:0.3521513;stroke-miterlimit:4;stroke-dasharray:none"
         transform="matrix(1.2944073,0.07082393,-0.06553451,1.3988816,2.9251615,-380.3387)"
         id="g5929">
        <g
           style="stroke-width:0.3521513;stroke-miterlimit:4;stroke-dasharray:none"
           transform="translate(56,0)"
           id="g5417">
          <path
             transform="translate(-18.485315,884.7229)"
             inkscape:connector-curvature="0"
             id="path5419"
             d="M 15.556349,7.0395996 46.166257,121.27733"
             style="fill:none;stroke:#ffffff;stroke-width:0.3521513;stroke-linecap:butt;stroke-linejoin:miter;stroke-miterlimit:4;stroke-opacity:1;stroke-dasharray:none" />
          <path
             style="fill:none;stroke:#ffffff;stroke-width:0.3521513;stroke-linecap:butt;stroke-linejoin:miter;stroke-miterlimit:4;stroke-opacity:1;stroke-dasharray:none"
             d="m -0.928966,891.7625 30.609908,114.2377"
             id="path5421"
             inkscape:connector-curvature="0" />
          <path
             inkscape:connector-curvature="0"
             id="path5423"
             d="m 1.071034,891.7625 30.609908,114.2377"
             style="fill:none;stroke:#ffffff;stroke-width:0.3521513;stroke-linecap:butt;stroke-linejoin:miter;stroke-miterlimit:4;stroke-opacity:1;stroke-dasharray:none" />
          <path
             style="fill:none;stroke:#ffffff;stroke-width:0.3521513;stroke-linecap:butt;stroke-linejoin:miter;stroke-miterlimit:4;stroke-opacity:1;stroke-dasharray:none"
             d="m 3.071034,891.7625 30.609908,114.2377"
             id="path5425"
             inkscape:connector-curvature="0" />
          <path
             inkscape:connector-curvature="0"
             id="path5427"
             d="m 5.071034,891.7625 30.609908,114.2377"
             style="fill:none;stroke:#ffffff;stroke-width:0.3521513;stroke-linecap:butt;stroke-linejoin:miter;stroke-miterlimit:4;stroke-opacity:1;stroke-dasharray:none" />
          <path
             style="fill:none;stroke:#ffffff;stroke-width:0.3521513;stroke-linecap:butt;stroke-linejoin:miter;stroke-miterlimit:4;stroke-opacity:1;stroke-dasharray:none"
             d="m 7.071034,891.7625 30.609908,114.2377"
             id="path5429"
             inkscape:connector-curvature="0" />
          <path
             inkscape:connector-curvature="0"
             id="path5431"
             d="m 9.071034,891.7625 30.609908,114.2377"
             style="fill:none;stroke:#ffffff;stroke-width:0.3521513;stroke-linecap:butt;stroke-linejoin:miter;stroke-miterlimit:4;stroke-opacity:1;stroke-dasharray:none" />
          <path
             style="fill:none;stroke:#ffffff;stroke-width:0.3521513;stroke-linecap:butt;stroke-linejoin:miter;stroke-miterlimit:4;stroke-opacity:1;stroke-dasharray:none"
             d="m 11.071034,891.7625 30.609908,114.2377"
             id="path5433"
             inkscape:connector-curvature="0" />
          <path
             inkscape:connector-curvature="0"
             id="path5435"
             d="m 13.071034,891.7625 30.609908,114.2377"
             style="fill:none;stroke:#ffffff;stroke-width:0.3521513;stroke-linecap:butt;stroke-linejoin:miter;stroke-miterlimit:4;stroke-opacity:1;stroke-dasharray:none" />
          <path
             style="fill:none;stroke:#ffffff;stroke-width:0.3521513;stroke-linecap:butt;stroke-linejoin:miter;stroke-miterlimit:4;stroke-opacity:1;stroke-dasharray:none"
             d="m 15.071034,891.7625 30.609908,114.2377"
             id="path5437"
             inkscape:connector-curvature="0" />
          <path
             inkscape:connector-curvature="0"
             id="path5439"
             d="m 17.071034,891.7625 30.609908,114.2377"
             style="fill:none;stroke:#ffffff;stroke-width:0.3521513;stroke-linecap:butt;stroke-linejoin:miter;stroke-miterlimit:4;stroke-opacity:1;stroke-dasharray:none" />
          <path
             style="fill:none;stroke:#ffffff;stroke-width:0.3521513;stroke-linecap:butt;stroke-linejoin:miter;stroke-miterlimit:4;stroke-opacity:1;stroke-dasharray:none"
             d="m 19.071034,891.7625 30.609908,114.2377"
             id="path5441"
             inkscape:connector-curvature="0" />
          <path
             inkscape:connector-curvature="0"
             id="path5443"
             d="m 21.071034,891.7625 30.609908,114.2377"
             style="fill:none;stroke:#ffffff;stroke-width:0.3521513;stroke-linecap:butt;stroke-linejoin:miter;stroke-miterlimit:4;stroke-opacity:1;stroke-dasharray:none" />
          <path
             style="fill:none;stroke:#ffffff;stroke-width:0.3521513;stroke-linecap:butt;stroke-linejoin:miter;stroke-miterlimit:4;stroke-opacity:1;stroke-dasharray:none"
             d="m 23.071034,891.7625 30.609908,114.2377"
             id="path5445"
             inkscape:connector-curvature="0" />
        </g>
        <g
           style="stroke-width:0.3521513;stroke-miterlimit:4;stroke-dasharray:none"
           id="g5371">
          <path
             transform="translate(-18.485315,884.7229)"
             inkscape:connector-curvature="0"
             id="path5343"
             d="M 15.556349,7.0395996 46.166257,121.27733"
             style="fill:none;stroke:#ffffff;stroke-width:0.3521513;stroke-linecap:butt;stroke-linejoin:miter;stroke-miterlimit:4;stroke-opacity:1;stroke-dasharray:none" />
          <path
             style="fill:none;stroke:#ffffff;stroke-width:0.3521513;stroke-linecap:butt;stroke-linejoin:miter;stroke-miterlimit:4;stroke-opacity:1;stroke-dasharray:none"
             d="m -0.928966,891.7625 30.609908,114.2377"
             id="path5345"
             inkscape:connector-curvature="0" />
          <path
             inkscape:connector-curvature="0"
             id="path5347"
             d="m 1.071034,891.7625 30.609908,114.2377"
             style="fill:none;stroke:#ffffff;stroke-width:0.3521513;stroke-linecap:butt;stroke-linejoin:miter;stroke-miterlimit:4;stroke-opacity:1;stroke-dasharray:none" />
          <path
             style="fill:none;stroke:#ffffff;stroke-width:0.3521513;stroke-linecap:butt;stroke-linejoin:miter;stroke-miterlimit:4;stroke-opacity:1;stroke-dasharray:none"
             d="m 3.071034,891.7625 30.609908,114.2377"
             id="path5349"
             inkscape:connector-curvature="0" />
          <path
             inkscape:connector-curvature="0"
             id="path5351"
             d="m 5.071034,891.7625 30.609908,114.2377"
             style="fill:none;stroke:#ffffff;stroke-width:0.3521513;stroke-linecap:butt;stroke-linejoin:miter;stroke-miterlimit:4;stroke-opacity:1;stroke-dasharray:none" />
          <path
             style="fill:none;stroke:#ffffff;stroke-width:0.3521513;stroke-linecap:butt;stroke-linejoin:miter;stroke-miterlimit:4;stroke-opacity:1;stroke-dasharray:none"
             d="m 7.071034,891.7625 30.609908,114.2377"
             id="path5353"
             inkscape:connector-curvature="0" />
          <path
             inkscape:connector-curvature="0"
             id="path5355"
             d="m 9.071034,891.7625 30.609908,114.2377"
             style="fill:none;stroke:#ffffff;stroke-width:0.3521513;stroke-linecap:butt;stroke-linejoin:miter;stroke-miterlimit:4;stroke-opacity:1;stroke-dasharray:none" />
          <path
             style="fill:none;stroke:#ffffff;stroke-width:0.3521513;stroke-linecap:butt;stroke-linejoin:miter;stroke-miterlimit:4;stroke-opacity:1;stroke-dasharray:none"
             d="m 11.071034,891.7625 30.609908,114.2377"
             id="path5357"
             inkscape:connector-curvature="0" />
          <path
             inkscape:connector-curvature="0"
             id="path5359"
             d="m 13.071034,891.7625 30.609908,114.2377"
             style="fill:none;stroke:#ffffff;stroke-width:0.3521513;stroke-linecap:butt;stroke-linejoin:miter;stroke-miterlimit:4;stroke-opacity:1;stroke-dasharray:none" />
          <path
             style="fill:none;stroke:#ffffff;stroke-width:0.3521513;stroke-linecap:butt;stroke-linejoin:miter;stroke-miterlimit:4;stroke-opacity:1;stroke-dasharray:none"
             d="m 15.071034,891.7625 30.609908,114.2377"
             id="path5361"
             inkscape:connector-curvature="0" />
          <path
             inkscape:connector-curvature="0"
             id="path5363"
             d="m 17.071034,891.7625 30.609908,114.2377"
             style="fill:none;stroke:#ffffff;stroke-width:0.3521513;stroke-linecap:butt;stroke-linejoin:miter;stroke-miterlimit:4;stroke-opacity:1;stroke-dasharray:none" />
          <path
             style="fill:none;stroke:#ffffff;stroke-width:0.3521513;stroke-linecap:butt;stroke-linejoin:miter;stroke-miterlimit:4;stroke-opacity:1;stroke-dasharray:none"
             d="m 19.071034,891.7625 30.609908,114.2377"
             id="path5365"
             inkscape:connector-curvature="0" />
          <path
             inkscape:connector-curvature="0"
             id="path5367"
             d="m 21.071034,891.7625 30.609908,114.2377"
             style="fill:none;stroke:#ffffff;stroke-width:0.3521513;stroke-linecap:butt;stroke-linejoin:miter;stroke-miterlimit:4;stroke-opacity:1;stroke-dasharray:none" />
          <path
             style="fill:none;stroke:#ffffff;stroke-width:0.3521513;stroke-linecap:butt;stroke-linejoin:miter;stroke-miterlimit:4;stroke-opacity:1;stroke-dasharray:none"
             d="m 23.071034,891.7625 30.609908,114.2377"
             id="path5369"
             inkscape:connector-curvature="0" />
        </g>
        <g
           style="stroke-width:0.3521513;stroke-miterlimit:4;stroke-dasharray:none"
           id="g5387"
           transform="translate(28,0)">
          <path
             style="fill:none;stroke:#ffffff;stroke-width:0.3521513;stroke-linecap:butt;stroke-linejoin:miter;stroke-miterlimit:4;stroke-opacity:1;stroke-dasharray:none"
             d="M 15.556349,7.0395996 46.166257,121.27733"
             id="path5389"
             inkscape:connector-curvature="0"
             transform="translate(-18.485315,884.7229)" />
          <path
             inkscape:connector-curvature="0"
             id="path5391"
             d="m -0.928966,891.7625 30.609908,114.2377"
             style="fill:none;stroke:#ffffff;stroke-width:0.3521513;stroke-linecap:butt;stroke-linejoin:miter;stroke-miterlimit:4;stroke-opacity:1;stroke-dasharray:none" />
          <path
             style="fill:none;stroke:#ffffff;stroke-width:0.3521513;stroke-linecap:butt;stroke-linejoin:miter;stroke-miterlimit:4;stroke-opacity:1;stroke-dasharray:none"
             d="m 1.071034,891.7625 30.609908,114.2377"
             id="path5393"
             inkscape:connector-curvature="0" />
          <path
             inkscape:connector-curvature="0"
             id="path5395"
             d="m 3.071034,891.7625 30.609908,114.2377"
             style="fill:none;stroke:#ffffff;stroke-width:0.3521513;stroke-linecap:butt;stroke-linejoin:miter;stroke-miterlimit:4;stroke-opacity:1;stroke-dasharray:none" />
          <path
             style="fill:none;stroke:#ffffff;stroke-width:0.3521513;stroke-linecap:butt;stroke-linejoin:miter;stroke-miterlimit:4;stroke-opacity:1;stroke-dasharray:none"
             d="m 5.071034,891.7625 30.609908,114.2377"
             id="path5397"
             inkscape:connector-curvature="0" />
          <path
             inkscape:connector-curvature="0"
             id="path5399"
             d="m 7.071034,891.7625 30.609908,114.2377"
             style="fill:none;stroke:#ffffff;stroke-width:0.3521513;stroke-linecap:butt;stroke-linejoin:miter;stroke-miterlimit:4;stroke-opacity:1;stroke-dasharray:none" />
          <path
             style="fill:none;stroke:#ffffff;stroke-width:0.3521513;stroke-linecap:butt;stroke-linejoin:miter;stroke-miterlimit:4;stroke-opacity:1;stroke-dasharray:none"
             d="m 9.071034,891.7625 30.609908,114.2377"
             id="path5401"
             inkscape:connector-curvature="0" />
          <path
             inkscape:connector-curvature="0"
             id="path5403"
             d="m 11.071034,891.7625 30.609908,114.2377"
             style="fill:none;stroke:#ffffff;stroke-width:0.3521513;stroke-linecap:butt;stroke-linejoin:miter;stroke-miterlimit:4;stroke-opacity:1;stroke-dasharray:none" />
          <path
             style="fill:none;stroke:#ffffff;stroke-width:0.3521513;stroke-linecap:butt;stroke-linejoin:miter;stroke-miterlimit:4;stroke-opacity:1;stroke-dasharray:none"
             d="m 13.071034,891.7625 30.609908,114.2377"
             id="path5405"
             inkscape:connector-curvature="0" />
          <path
             inkscape:connector-curvature="0"
             id="path5407"
             d="m 15.071034,891.7625 30.609908,114.2377"
             style="fill:none;stroke:#ffffff;stroke-width:0.3521513;stroke-linecap:butt;stroke-linejoin:miter;stroke-miterlimit:4;stroke-opacity:1;stroke-dasharray:none" />
          <path
             style="fill:none;stroke:#ffffff;stroke-width:0.3521513;stroke-linecap:butt;stroke-linejoin:miter;stroke-miterlimit:4;stroke-opacity:1;stroke-dasharray:none"
             d="m 17.071034,891.7625 30.609908,114.2377"
             id="path5409"
             inkscape:connector-curvature="0" />
          <path
             inkscape:connector-curvature="0"
             id="path5411"
             d="m 19.071034,891.7625 30.609908,114.2377"
             style="fill:none;stroke:#ffffff;stroke-width:0.3521513;stroke-linecap:butt;stroke-linejoin:miter;stroke-miterlimit:4;stroke-opacity:1;stroke-dasharray:none" />
          <path
             style="fill:none;stroke:#ffffff;stroke-width:0.3521513;stroke-linecap:butt;stroke-linejoin:miter;stroke-miterlimit:4;stroke-opacity:1;stroke-dasharray:none"
             d="m 21.071034,891.7625 30.609908,114.2377"
             id="path5413"
             inkscape:connector-curvature="0" />
          <path
             inkscape:connector-curvature="0"
             id="path5415"
             d="m 23.071034,891.7625 30.609908,114.2377"
             style="fill:none;stroke:#ffffff;stroke-width:0.3521513;stroke-linecap:butt;stroke-linejoin:miter;stroke-miterlimit:4;stroke-opacity:1;stroke-dasharray:none" />
        </g>
        <g
           style="stroke-width:0.3521513;stroke-miterlimit:4;stroke-dasharray:none"
           id="g5447"
           transform="translate(84,0)">
          <path
             style="fill:none;stroke:#ffffff;stroke-width:0.3521513;stroke-linecap:butt;stroke-linejoin:miter;stroke-miterlimit:4;stroke-opacity:1;stroke-dasharray:none"
             d="M 15.556349,7.0395996 46.166257,121.27733"
             id="path5449"
             inkscape:connector-curvature="0"
             transform="translate(-18.485315,884.7229)" />
          <path
             inkscape:connector-curvature="0"
             id="path5451"
             d="m -0.928966,891.7625 30.609908,114.2377"
             style="fill:none;stroke:#ffffff;stroke-width:0.3521513;stroke-linecap:butt;stroke-linejoin:miter;stroke-miterlimit:4;stroke-opacity:1;stroke-dasharray:none" />
          <path
             style="fill:none;stroke:#ffffff;stroke-width:0.3521513;stroke-linecap:butt;stroke-linejoin:miter;stroke-miterlimit:4;stroke-opacity:1;stroke-dasharray:none"
             d="m 1.071034,891.7625 30.609908,114.2377"
             id="path5453"
             inkscape:connector-curvature="0" />
          <path
             inkscape:connector-curvature="0"
             id="path5455"
             d="m 3.071034,891.7625 30.609908,114.2377"
             style="fill:none;stroke:#ffffff;stroke-width:0.3521513;stroke-linecap:butt;stroke-linejoin:miter;stroke-miterlimit:4;stroke-opacity:1;stroke-dasharray:none" />
          <path
             style="fill:none;stroke:#ffffff;stroke-width:0.3521513;stroke-linecap:butt;stroke-linejoin:miter;stroke-miterlimit:4;stroke-opacity:1;stroke-dasharray:none"
             d="m 5.071034,891.7625 30.609908,114.2377"
             id="path5457"
             inkscape:connector-curvature="0" />
          <path
             inkscape:connector-curvature="0"
             id="path5459"
             d="m 7.071034,891.7625 30.609908,114.2377"
             style="fill:none;stroke:#ffffff;stroke-width:0.3521513;stroke-linecap:butt;stroke-linejoin:miter;stroke-miterlimit:4;stroke-opacity:1;stroke-dasharray:none" />
          <path
             style="fill:none;stroke:#ffffff;stroke-width:0.3521513;stroke-linecap:butt;stroke-linejoin:miter;stroke-miterlimit:4;stroke-opacity:1;stroke-dasharray:none"
             d="m 9.071034,891.7625 30.609908,114.2377"
             id="path5461"
             inkscape:connector-curvature="0" />
          <path
             inkscape:connector-curvature="0"
             id="path5463"
             d="m 11.071034,891.7625 30.609908,114.2377"
             style="fill:none;stroke:#ffffff;stroke-width:0.3521513;stroke-linecap:butt;stroke-linejoin:miter;stroke-miterlimit:4;stroke-opacity:1;stroke-dasharray:none" />
          <path
             style="fill:none;stroke:#ffffff;stroke-width:0.3521513;stroke-linecap:butt;stroke-linejoin:miter;stroke-miterlimit:4;stroke-opacity:1;stroke-dasharray:none"
             d="m 13.071034,891.7625 30.609908,114.2377"
             id="path5465"
             inkscape:connector-curvature="0" />
          <path
             inkscape:connector-curvature="0"
             id="path5467"
             d="m 15.071034,891.7625 30.609908,114.2377"
             style="fill:none;stroke:#ffffff;stroke-width:0.3521513;stroke-linecap:butt;stroke-linejoin:miter;stroke-miterlimit:4;stroke-opacity:1;stroke-dasharray:none" />
          <path
             style="fill:none;stroke:#ffffff;stroke-width:0.3521513;stroke-linecap:butt;stroke-linejoin:miter;stroke-miterlimit:4;stroke-opacity:1;stroke-dasharray:none"
             d="m 17.071034,891.7625 30.609908,114.2377"
             id="path5469"
             inkscape:connector-curvature="0" />
          <path
             inkscape:connector-curvature="0"
             id="path5471"
             d="m 19.071034,891.7625 30.609908,114.2377"
             style="fill:none;stroke:#ffffff;stroke-width:0.3521513;stroke-linecap:butt;stroke-linejoin:miter;stroke-miterlimit:4;stroke-opacity:1;stroke-dasharray:none" />
          <path
             style="fill:none;stroke:#ffffff;stroke-width:0.3521513;stroke-linecap:butt;stroke-linejoin:miter;stroke-miterlimit:4;stroke-opacity:1;stroke-dasharray:none"
             d="m 21.071034,891.7625 30.609908,114.2377"
             id="path5473"
             inkscape:connector-curvature="0" />
          <path
             inkscape:connector-curvature="0"
             id="path5475"
             d="m 23.071034,891.7625 30.609908,114.2377"
             style="fill:none;stroke:#ffffff;stroke-width:0.3521513;stroke-linecap:butt;stroke-linejoin:miter;stroke-miterlimit:4;stroke-opacity:1;stroke-dasharray:none" />
        </g>
        <g
           style="stroke-width:0.3521513;stroke-miterlimit:4;stroke-dasharray:none"
           transform="translate(112,0)"
           id="g5477">
          <path
             transform="translate(-18.485315,884.7229)"
             inkscape:connector-curvature="0"
             id="path5479"
             d="M 15.556349,7.0395996 46.166257,121.27733"
             style="fill:none;stroke:#ffffff;stroke-width:0.3521513;stroke-linecap:butt;stroke-linejoin:miter;stroke-miterlimit:4;stroke-opacity:1;stroke-dasharray:none" />
          <path
             style="fill:none;stroke:#ffffff;stroke-width:0.3521513;stroke-linecap:butt;stroke-linejoin:miter;stroke-miterlimit:4;stroke-opacity:1;stroke-dasharray:none"
             d="m -0.928966,891.7625 30.609908,114.2377"
             id="path5481"
             inkscape:connector-curvature="0" />
          <path
             inkscape:connector-curvature="0"
             id="path5483"
             d="m 1.071034,891.7625 30.609908,114.2377"
             style="fill:none;stroke:#ffffff;stroke-width:0.3521513;stroke-linecap:butt;stroke-linejoin:miter;stroke-miterlimit:4;stroke-opacity:1;stroke-dasharray:none" />
          <path
             style="fill:none;stroke:#ffffff;stroke-width:0.3521513;stroke-linecap:butt;stroke-linejoin:miter;stroke-miterlimit:4;stroke-opacity:1;stroke-dasharray:none"
             d="m 3.071034,891.7625 30.609908,114.2377"
             id="path5485"
             inkscape:connector-curvature="0" />
          <path
             inkscape:connector-curvature="0"
             id="path5487"
             d="m 5.071034,891.7625 30.609908,114.2377"
             style="fill:none;stroke:#ffffff;stroke-width:0.3521513;stroke-linecap:butt;stroke-linejoin:miter;stroke-miterlimit:4;stroke-opacity:1;stroke-dasharray:none" />
          <path
             style="fill:none;stroke:#ffffff;stroke-width:0.3521513;stroke-linecap:butt;stroke-linejoin:miter;stroke-miterlimit:4;stroke-opacity:1;stroke-dasharray:none"
             d="m 7.071034,891.7625 30.609908,114.2377"
             id="path5489"
             inkscape:connector-curvature="0" />
          <path
             inkscape:connector-curvature="0"
             id="path5491"
             d="m 9.071034,891.7625 30.609908,114.2377"
             style="fill:none;stroke:#ffffff;stroke-width:0.3521513;stroke-linecap:butt;stroke-linejoin:miter;stroke-miterlimit:4;stroke-opacity:1;stroke-dasharray:none" />
          <path
             style="fill:none;stroke:#ffffff;stroke-width:0.3521513;stroke-linecap:butt;stroke-linejoin:miter;stroke-miterlimit:4;stroke-opacity:1;stroke-dasharray:none"
             d="m 11.071034,891.7625 30.609908,114.2377"
             id="path5493"
             inkscape:connector-curvature="0" />
          <path
             inkscape:connector-curvature="0"
             id="path5495"
             d="m 13.071034,891.7625 30.609908,114.2377"
             style="fill:none;stroke:#ffffff;stroke-width:0.3521513;stroke-linecap:butt;stroke-linejoin:miter;stroke-miterlimit:4;stroke-opacity:1;stroke-dasharray:none" />
          <path
             style="fill:none;stroke:#ffffff;stroke-width:0.3521513;stroke-linecap:butt;stroke-linejoin:miter;stroke-miterlimit:4;stroke-opacity:1;stroke-dasharray:none"
             d="m 15.071034,891.7625 30.609908,114.2377"
             id="path5497"
             inkscape:connector-curvature="0" />
          <path
             inkscape:connector-curvature="0"
             id="path5499"
             d="m 17.071034,891.7625 30.609908,114.2377"
             style="fill:none;stroke:#ffffff;stroke-width:0.3521513;stroke-linecap:butt;stroke-linejoin:miter;stroke-miterlimit:4;stroke-opacity:1;stroke-dasharray:none" />
          <path
             style="fill:none;stroke:#ffffff;stroke-width:0.3521513;stroke-linecap:butt;stroke-linejoin:miter;stroke-miterlimit:4;stroke-opacity:1;stroke-dasharray:none"
             d="m 19.071034,891.7625 30.609908,114.2377"
             id="path5501"
             inkscape:connector-curvature="0" />
          <path
             inkscape:connector-curvature="0"
             id="path5503"
             d="m 21.071034,891.7625 30.609908,114.2377"
             style="fill:none;stroke:#ffffff;stroke-width:0.3521513;stroke-linecap:butt;stroke-linejoin:miter;stroke-miterlimit:4;stroke-opacity:1;stroke-dasharray:none" />
          <path
             style="fill:none;stroke:#ffffff;stroke-width:0.3521513;stroke-linecap:butt;stroke-linejoin:miter;stroke-miterlimit:4;stroke-opacity:1;stroke-dasharray:none"
             d="m 23.071034,891.7625 30.609908,114.2377"
             id="path5505"
             inkscape:connector-curvature="0" />
        </g>
        <g
           style="stroke-width:0.3521513;stroke-miterlimit:4;stroke-dasharray:none"
           id="g5507"
           transform="translate(140,0)">
          <path
             style="fill:none;stroke:#ffffff;stroke-width:0.3521513;stroke-linecap:butt;stroke-linejoin:miter;stroke-miterlimit:4;stroke-opacity:1;stroke-dasharray:none"
             d="M 15.556349,7.0395996 46.166257,121.27733"
             id="path5509"
             inkscape:connector-curvature="0"
             transform="translate(-18.485315,884.7229)" />
          <path
             inkscape:connector-curvature="0"
             id="path5511"
             d="m -0.928966,891.7625 30.609908,114.2377"
             style="fill:none;stroke:#ffffff;stroke-width:0.3521513;stroke-linecap:butt;stroke-linejoin:miter;stroke-miterlimit:4;stroke-opacity:1;stroke-dasharray:none" />
          <path
             style="fill:none;stroke:#ffffff;stroke-width:0.3521513;stroke-linecap:butt;stroke-linejoin:miter;stroke-miterlimit:4;stroke-opacity:1;stroke-dasharray:none"
             d="m 1.071034,891.7625 30.609908,114.2377"
             id="path5513"
             inkscape:connector-curvature="0" />
          <path
             inkscape:connector-curvature="0"
             id="path5515"
             d="m 3.071034,891.7625 30.609908,114.2377"
             style="fill:none;stroke:#ffffff;stroke-width:0.3521513;stroke-linecap:butt;stroke-linejoin:miter;stroke-miterlimit:4;stroke-opacity:1;stroke-dasharray:none" />
          <path
             style="fill:none;stroke:#ffffff;stroke-width:0.3521513;stroke-linecap:butt;stroke-linejoin:miter;stroke-miterlimit:4;stroke-opacity:1;stroke-dasharray:none"
             d="m 5.071034,891.7625 30.609908,114.2377"
             id="path5517"
             inkscape:connector-curvature="0" />
          <path
             inkscape:connector-curvature="0"
             id="path5519"
             d="m 7.071034,891.7625 30.609908,114.2377"
             style="fill:none;stroke:#ffffff;stroke-width:0.3521513;stroke-linecap:butt;stroke-linejoin:miter;stroke-miterlimit:4;stroke-opacity:1;stroke-dasharray:none" />
          <path
             style="fill:none;stroke:#ffffff;stroke-width:0.3521513;stroke-linecap:butt;stroke-linejoin:miter;stroke-miterlimit:4;stroke-opacity:1;stroke-dasharray:none"
             d="m 9.071034,891.7625 30.609908,114.2377"
             id="path5521"
             inkscape:connector-curvature="0" />
          <path
             inkscape:connector-curvature="0"
             id="path5523"
             d="m 11.071034,891.7625 30.609908,114.2377"
             style="fill:none;stroke:#ffffff;stroke-width:0.3521513;stroke-linecap:butt;stroke-linejoin:miter;stroke-miterlimit:4;stroke-opacity:1;stroke-dasharray:none" />
          <path
             style="fill:none;stroke:#ffffff;stroke-width:0.3521513;stroke-linecap:butt;stroke-linejoin:miter;stroke-miterlimit:4;stroke-opacity:1;stroke-dasharray:none"
             d="m 13.071034,891.7625 30.609908,114.2377"
             id="path5525"
             inkscape:connector-curvature="0" />
          <path
             inkscape:connector-curvature="0"
             id="path5527"
             d="m 15.071034,891.7625 30.609908,114.2377"
             style="fill:none;stroke:#ffffff;stroke-width:0.3521513;stroke-linecap:butt;stroke-linejoin:miter;stroke-miterlimit:4;stroke-opacity:1;stroke-dasharray:none" />
          <path
             style="fill:none;stroke:#ffffff;stroke-width:0.3521513;stroke-linecap:butt;stroke-linejoin:miter;stroke-miterlimit:4;stroke-opacity:1;stroke-dasharray:none"
             d="m 17.071034,891.7625 30.609908,114.2377"
             id="path5529"
             inkscape:connector-curvature="0" />
          <path
             inkscape:connector-curvature="0"
             id="path5531"
             d="m 19.071034,891.7625 30.609908,114.2377"
             style="fill:none;stroke:#ffffff;stroke-width:0.3521513;stroke-linecap:butt;stroke-linejoin:miter;stroke-miterlimit:4;stroke-opacity:1;stroke-dasharray:none" />
          <path
             style="fill:none;stroke:#ffffff;stroke-width:0.3521513;stroke-linecap:butt;stroke-linejoin:miter;stroke-miterlimit:4;stroke-opacity:1;stroke-dasharray:none"
             d="m 21.071034,891.7625 30.609908,114.2377"
             id="path5533"
             inkscape:connector-curvature="0" />
          <path
             inkscape:connector-curvature="0"
             id="path5535"
             d="m 23.071034,891.7625 30.609908,114.2377"
             style="fill:none;stroke:#ffffff;stroke-width:0.3521513;stroke-linecap:butt;stroke-linejoin:miter;stroke-miterlimit:4;stroke-opacity:1;stroke-dasharray:none" />
        </g>
        <g
           style="stroke-width:0.3521513;stroke-miterlimit:4;stroke-dasharray:none"
           transform="translate(168,0)"
           id="g5537">
          <path
             transform="translate(-18.485315,884.7229)"
             inkscape:connector-curvature="0"
             id="path5539"
             d="M 15.556349,7.0395996 46.166257,121.27733"
             style="fill:none;stroke:#ffffff;stroke-width:0.3521513;stroke-linecap:butt;stroke-linejoin:miter;stroke-miterlimit:4;stroke-opacity:1;stroke-dasharray:none" />
          <path
             style="fill:none;stroke:#ffffff;stroke-width:0.3521513;stroke-linecap:butt;stroke-linejoin:miter;stroke-miterlimit:4;stroke-opacity:1;stroke-dasharray:none"
             d="m -0.928966,891.7625 30.609908,114.2377"
             id="path5541"
             inkscape:connector-curvature="0" />
          <path
             inkscape:connector-curvature="0"
             id="path5543"
             d="m 1.071034,891.7625 30.609908,114.2377"
             style="fill:none;stroke:#ffffff;stroke-width:0.3521513;stroke-linecap:butt;stroke-linejoin:miter;stroke-miterlimit:4;stroke-opacity:1;stroke-dasharray:none" />
          <path
             style="fill:none;stroke:#ffffff;stroke-width:0.3521513;stroke-linecap:butt;stroke-linejoin:miter;stroke-miterlimit:4;stroke-opacity:1;stroke-dasharray:none"
             d="m 3.071034,891.7625 30.609908,114.2377"
             id="path5545"
             inkscape:connector-curvature="0" />
          <path
             inkscape:connector-curvature="0"
             id="path5547"
             d="m 5.071034,891.7625 30.609908,114.2377"
             style="fill:none;stroke:#ffffff;stroke-width:0.3521513;stroke-linecap:butt;stroke-linejoin:miter;stroke-miterlimit:4;stroke-opacity:1;stroke-dasharray:none" />
          <path
             style="fill:none;stroke:#ffffff;stroke-width:0.3521513;stroke-linecap:butt;stroke-linejoin:miter;stroke-miterlimit:4;stroke-opacity:1;stroke-dasharray:none"
             d="m 7.071034,891.7625 30.609908,114.2377"
             id="path5549"
             inkscape:connector-curvature="0" />
          <path
             inkscape:connector-curvature="0"
             id="path5551"
             d="m 9.071034,891.7625 30.609908,114.2377"
             style="fill:none;stroke:#ffffff;stroke-width:0.3521513;stroke-linecap:butt;stroke-linejoin:miter;stroke-miterlimit:4;stroke-opacity:1;stroke-dasharray:none" />
          <path
             style="fill:none;stroke:#ffffff;stroke-width:0.3521513;stroke-linecap:butt;stroke-linejoin:miter;stroke-miterlimit:4;stroke-opacity:1;stroke-dasharray:none"
             d="m 11.071034,891.7625 30.609908,114.2377"
             id="path5553"
             inkscape:connector-curvature="0" />
          <path
             inkscape:connector-curvature="0"
             id="path5555"
             d="m 13.071034,891.7625 30.609908,114.2377"
             style="fill:none;stroke:#ffffff;stroke-width:0.3521513;stroke-linecap:butt;stroke-linejoin:miter;stroke-miterlimit:4;stroke-opacity:1;stroke-dasharray:none" />
          <path
             style="fill:none;stroke:#ffffff;stroke-width:0.3521513;stroke-linecap:butt;stroke-linejoin:miter;stroke-miterlimit:4;stroke-opacity:1;stroke-dasharray:none"
             d="m 15.071034,891.7625 30.609908,114.2377"
             id="path5557"
             inkscape:connector-curvature="0" />
          <path
             inkscape:connector-curvature="0"
             id="path5559"
             d="m 17.071034,891.7625 30.609908,114.2377"
             style="fill:none;stroke:#ffffff;stroke-width:0.3521513;stroke-linecap:butt;stroke-linejoin:miter;stroke-miterlimit:4;stroke-opacity:1;stroke-dasharray:none" />
          <path
             style="fill:none;stroke:#ffffff;stroke-width:0.3521513;stroke-linecap:butt;stroke-linejoin:miter;stroke-miterlimit:4;stroke-opacity:1;stroke-dasharray:none"
             d="m 19.071034,891.7625 30.609908,114.2377"
             id="path5561"
             inkscape:connector-curvature="0" />
          <path
             inkscape:connector-curvature="0"
             id="path5563"
             d="m 21.071034,891.7625 30.609908,114.2377"
             style="fill:none;stroke:#ffffff;stroke-width:0.3521513;stroke-linecap:butt;stroke-linejoin:miter;stroke-miterlimit:4;stroke-opacity:1;stroke-dasharray:none" />
          <path
             style="fill:none;stroke:#ffffff;stroke-width:0.3521513;stroke-linecap:butt;stroke-linejoin:miter;stroke-miterlimit:4;stroke-opacity:1;stroke-dasharray:none"
             d="m 23.071034,891.7625 30.609908,114.2377"
             id="path5565"
             inkscape:connector-curvature="0" />
        </g>
        <g
           style="stroke-width:0.3521513;stroke-miterlimit:4;stroke-dasharray:none"
           id="g5567"
           transform="translate(196,0)">
          <path
             style="fill:none;stroke:#ffffff;stroke-width:0.3521513;stroke-linecap:butt;stroke-linejoin:miter;stroke-miterlimit:4;stroke-opacity:1;stroke-dasharray:none"
             d="M 15.556349,7.0395996 46.166257,121.27733"
             id="path5569"
             inkscape:connector-curvature="0"
             transform="translate(-18.485315,884.7229)" />
          <path
             inkscape:connector-curvature="0"
             id="path5571"
             d="m -0.928966,891.7625 30.609908,114.2377"
             style="fill:none;stroke:#ffffff;stroke-width:0.3521513;stroke-linecap:butt;stroke-linejoin:miter;stroke-miterlimit:4;stroke-opacity:1;stroke-dasharray:none" />
          <path
             style="fill:none;stroke:#ffffff;stroke-width:0.3521513;stroke-linecap:butt;stroke-linejoin:miter;stroke-miterlimit:4;stroke-opacity:1;stroke-dasharray:none"
             d="m 1.071034,891.7625 30.609908,114.2377"
             id="path5573"
             inkscape:connector-curvature="0" />
          <path
             inkscape:connector-curvature="0"
             id="path5575"
             d="m 3.071034,891.7625 30.609908,114.2377"
             style="fill:none;stroke:#ffffff;stroke-width:0.3521513;stroke-linecap:butt;stroke-linejoin:miter;stroke-miterlimit:4;stroke-opacity:1;stroke-dasharray:none" />
          <path
             style="fill:none;stroke:#ffffff;stroke-width:0.3521513;stroke-linecap:butt;stroke-linejoin:miter;stroke-miterlimit:4;stroke-opacity:1;stroke-dasharray:none"
             d="m 5.071034,891.7625 30.609908,114.2377"
             id="path5577"
             inkscape:connector-curvature="0" />
          <path
             inkscape:connector-curvature="0"
             id="path5579"
             d="m 7.071034,891.7625 30.609908,114.2377"
             style="fill:none;stroke:#ffffff;stroke-width:0.3521513;stroke-linecap:butt;stroke-linejoin:miter;stroke-miterlimit:4;stroke-opacity:1;stroke-dasharray:none" />
          <path
             style="fill:none;stroke:#ffffff;stroke-width:0.3521513;stroke-linecap:butt;stroke-linejoin:miter;stroke-miterlimit:4;stroke-opacity:1;stroke-dasharray:none"
             d="m 9.071034,891.7625 30.609908,114.2377"
             id="path5581"
             inkscape:connector-curvature="0" />
          <path
             inkscape:connector-curvature="0"
             id="path5583"
             d="m 11.071034,891.7625 30.609908,114.2377"
             style="fill:none;stroke:#ffffff;stroke-width:0.3521513;stroke-linecap:butt;stroke-linejoin:miter;stroke-miterlimit:4;stroke-opacity:1;stroke-dasharray:none" />
          <path
             style="fill:none;stroke:#ffffff;stroke-width:0.3521513;stroke-linecap:butt;stroke-linejoin:miter;stroke-miterlimit:4;stroke-opacity:1;stroke-dasharray:none"
             d="m 13.071034,891.7625 30.609908,114.2377"
             id="path5585"
             inkscape:connector-curvature="0" />
          <path
             inkscape:connector-curvature="0"
             id="path5587"
             d="m 15.071034,891.7625 30.609908,114.2377"
             style="fill:none;stroke:#ffffff;stroke-width:0.3521513;stroke-linecap:butt;stroke-linejoin:miter;stroke-miterlimit:4;stroke-opacity:1;stroke-dasharray:none" />
          <path
             style="fill:none;stroke:#ffffff;stroke-width:0.3521513;stroke-linecap:butt;stroke-linejoin:miter;stroke-miterlimit:4;stroke-opacity:1;stroke-dasharray:none"
             d="m 17.071034,891.7625 30.609908,114.2377"
             id="path5589"
             inkscape:connector-curvature="0" />
          <path
             inkscape:connector-curvature="0"
             id="path5591"
             d="m 19.071034,891.7625 30.609908,114.2377"
             style="fill:none;stroke:#ffffff;stroke-width:0.3521513;stroke-linecap:butt;stroke-linejoin:miter;stroke-miterlimit:4;stroke-opacity:1;stroke-dasharray:none" />
          <path
             style="fill:none;stroke:#ffffff;stroke-width:0.3521513;stroke-linecap:butt;stroke-linejoin:miter;stroke-miterlimit:4;stroke-opacity:1;stroke-dasharray:none"
             d="m 21.071034,891.7625 30.609908,114.2377"
             id="path5593"
             inkscape:connector-curvature="0" />
          <path
             inkscape:connector-curvature="0"
             id="path5595"
             d="m 23.071034,891.7625 30.609908,114.2377"
             style="fill:none;stroke:#ffffff;stroke-width:0.3521513;stroke-linecap:butt;stroke-linejoin:miter;stroke-miterlimit:4;stroke-opacity:1;stroke-dasharray:none" />
        </g>
        <g
           style="stroke-width:0.3521513;stroke-miterlimit:4;stroke-dasharray:none"
           transform="translate(224,0)"
           id="g5597">
          <path
             transform="translate(-18.485315,884.7229)"
             inkscape:connector-curvature="0"
             id="path5599"
             d="M 15.556349,7.0395996 46.166257,121.27733"
             style="fill:none;stroke:#ffffff;stroke-width:0.3521513;stroke-linecap:butt;stroke-linejoin:miter;stroke-miterlimit:4;stroke-opacity:1;stroke-dasharray:none" />
          <path
             style="fill:none;stroke:#ffffff;stroke-width:0.3521513;stroke-linecap:butt;stroke-linejoin:miter;stroke-miterlimit:4;stroke-opacity:1;stroke-dasharray:none"
             d="m -0.928966,891.7625 30.609908,114.2377"
             id="path5601"
             inkscape:connector-curvature="0" />
          <path
             inkscape:connector-curvature="0"
             id="path5603"
             d="m 1.071034,891.7625 30.609908,114.2377"
             style="fill:none;stroke:#ffffff;stroke-width:0.3521513;stroke-linecap:butt;stroke-linejoin:miter;stroke-miterlimit:4;stroke-opacity:1;stroke-dasharray:none" />
          <path
             style="fill:none;stroke:#ffffff;stroke-width:0.3521513;stroke-linecap:butt;stroke-linejoin:miter;stroke-miterlimit:4;stroke-opacity:1;stroke-dasharray:none"
             d="m 3.071034,891.7625 30.609908,114.2377"
             id="path5605"
             inkscape:connector-curvature="0" />
          <path
             inkscape:connector-curvature="0"
             id="path5607"
             d="m 5.071034,891.7625 30.609908,114.2377"
             style="fill:none;stroke:#ffffff;stroke-width:0.3521513;stroke-linecap:butt;stroke-linejoin:miter;stroke-miterlimit:4;stroke-opacity:1;stroke-dasharray:none" />
          <path
             style="fill:none;stroke:#ffffff;stroke-width:0.3521513;stroke-linecap:butt;stroke-linejoin:miter;stroke-miterlimit:4;stroke-opacity:1;stroke-dasharray:none"
             d="m 7.071034,891.7625 30.609908,114.2377"
             id="path5609"
             inkscape:connector-curvature="0" />
          <path
             inkscape:connector-curvature="0"
             id="path5611"
             d="m 9.071034,891.7625 30.609908,114.2377"
             style="fill:none;stroke:#ffffff;stroke-width:0.3521513;stroke-linecap:butt;stroke-linejoin:miter;stroke-miterlimit:4;stroke-opacity:1;stroke-dasharray:none" />
          <path
             style="fill:none;stroke:#ffffff;stroke-width:0.3521513;stroke-linecap:butt;stroke-linejoin:miter;stroke-miterlimit:4;stroke-opacity:1;stroke-dasharray:none"
             d="m 11.071034,891.7625 30.609908,114.2377"
             id="path5613"
             inkscape:connector-curvature="0" />
          <path
             inkscape:connector-curvature="0"
             id="path5615"
             d="m 13.071034,891.7625 30.609908,114.2377"
             style="fill:none;stroke:#ffffff;stroke-width:0.3521513;stroke-linecap:butt;stroke-linejoin:miter;stroke-miterlimit:4;stroke-opacity:1;stroke-dasharray:none" />
          <path
             style="fill:none;stroke:#ffffff;stroke-width:0.3521513;stroke-linecap:butt;stroke-linejoin:miter;stroke-miterlimit:4;stroke-opacity:1;stroke-dasharray:none"
             d="m 15.071034,891.7625 30.609908,114.2377"
             id="path5617"
             inkscape:connector-curvature="0" />
          <path
             inkscape:connector-curvature="0"
             id="path5619"
             d="m 17.071034,891.7625 30.609908,114.2377"
             style="fill:none;stroke:#ffffff;stroke-width:0.3521513;stroke-linecap:butt;stroke-linejoin:miter;stroke-miterlimit:4;stroke-opacity:1;stroke-dasharray:none" />
          <path
             style="fill:none;stroke:#ffffff;stroke-width:0.3521513;stroke-linecap:butt;stroke-linejoin:miter;stroke-miterlimit:4;stroke-opacity:1;stroke-dasharray:none"
             d="m 19.071034,891.7625 30.609908,114.2377"
             id="path5621"
             inkscape:connector-curvature="0" />
          <path
             inkscape:connector-curvature="0"
             id="path5623"
             d="m 21.071034,891.7625 30.609908,114.2377"
             style="fill:none;stroke:#ffffff;stroke-width:0.3521513;stroke-linecap:butt;stroke-linejoin:miter;stroke-miterlimit:4;stroke-opacity:1;stroke-dasharray:none" />
          <path
             style="fill:none;stroke:#ffffff;stroke-width:0.3521513;stroke-linecap:butt;stroke-linejoin:miter;stroke-miterlimit:4;stroke-opacity:1;stroke-dasharray:none"
             d="m 23.071034,891.7625 30.609908,114.2377"
             id="path5625"
             inkscape:connector-curvature="0" />
        </g>
        <g
           style="stroke-width:0.3521513;stroke-miterlimit:4;stroke-dasharray:none"
           id="g5627"
           transform="translate(-28,0)">
          <path
             style="fill:none;stroke:#ffffff;stroke-width:0.3521513;stroke-linecap:butt;stroke-linejoin:miter;stroke-miterlimit:4;stroke-opacity:1;stroke-dasharray:none"
             d="M 15.556349,7.0395996 46.166257,121.27733"
             id="path5629"
             inkscape:connector-curvature="0"
             transform="translate(-18.485315,884.7229)" />
          <path
             inkscape:connector-curvature="0"
             id="path5631"
             d="m -0.928966,891.7625 30.609908,114.2377"
             style="fill:none;stroke:#ffffff;stroke-width:0.3521513;stroke-linecap:butt;stroke-linejoin:miter;stroke-miterlimit:4;stroke-opacity:1;stroke-dasharray:none" />
          <path
             style="fill:none;stroke:#ffffff;stroke-width:0.3521513;stroke-linecap:butt;stroke-linejoin:miter;stroke-miterlimit:4;stroke-opacity:1;stroke-dasharray:none"
             d="m 1.071034,891.7625 30.609908,114.2377"
             id="path5633"
             inkscape:connector-curvature="0" />
          <path
             inkscape:connector-curvature="0"
             id="path5635"
             d="m 3.071034,891.7625 30.609908,114.2377"
             style="fill:none;stroke:#ffffff;stroke-width:0.3521513;stroke-linecap:butt;stroke-linejoin:miter;stroke-miterlimit:4;stroke-opacity:1;stroke-dasharray:none" />
          <path
             style="fill:none;stroke:#ffffff;stroke-width:0.3521513;stroke-linecap:butt;stroke-linejoin:miter;stroke-miterlimit:4;stroke-opacity:1;stroke-dasharray:none"
             d="m 5.071034,891.7625 30.609908,114.2377"
             id="path5637"
             inkscape:connector-curvature="0" />
          <path
             inkscape:connector-curvature="0"
             id="path5639"
             d="m 7.071034,891.7625 30.609908,114.2377"
             style="fill:none;stroke:#ffffff;stroke-width:0.3521513;stroke-linecap:butt;stroke-linejoin:miter;stroke-miterlimit:4;stroke-opacity:1;stroke-dasharray:none" />
          <path
             style="fill:none;stroke:#ffffff;stroke-width:0.3521513;stroke-linecap:butt;stroke-linejoin:miter;stroke-miterlimit:4;stroke-opacity:1;stroke-dasharray:none"
             d="m 9.071034,891.7625 30.609908,114.2377"
             id="path5641"
             inkscape:connector-curvature="0" />
          <path
             inkscape:connector-curvature="0"
             id="path5643"
             d="m 11.071034,891.7625 30.609908,114.2377"
             style="fill:none;stroke:#ffffff;stroke-width:0.3521513;stroke-linecap:butt;stroke-linejoin:miter;stroke-miterlimit:4;stroke-opacity:1;stroke-dasharray:none" />
          <path
             style="fill:none;stroke:#ffffff;stroke-width:0.3521513;stroke-linecap:butt;stroke-linejoin:miter;stroke-miterlimit:4;stroke-opacity:1;stroke-dasharray:none"
             d="m 13.071034,891.7625 30.609908,114.2377"
             id="path5645"
             inkscape:connector-curvature="0" />
          <path
             inkscape:connector-curvature="0"
             id="path5647"
             d="m 15.071034,891.7625 30.609908,114.2377"
             style="fill:none;stroke:#ffffff;stroke-width:0.3521513;stroke-linecap:butt;stroke-linejoin:miter;stroke-miterlimit:4;stroke-opacity:1;stroke-dasharray:none" />
          <path
             style="fill:none;stroke:#ffffff;stroke-width:0.3521513;stroke-linecap:butt;stroke-linejoin:miter;stroke-miterlimit:4;stroke-opacity:1;stroke-dasharray:none"
             d="m 17.071034,891.7625 30.609908,114.2377"
             id="path5649"
             inkscape:connector-curvature="0" />
          <path
             inkscape:connector-curvature="0"
             id="path5651"
             d="m 19.071034,891.7625 30.609908,114.2377"
             style="fill:none;stroke:#ffffff;stroke-width:0.3521513;stroke-linecap:butt;stroke-linejoin:miter;stroke-miterlimit:4;stroke-opacity:1;stroke-dasharray:none" />
          <path
             style="fill:none;stroke:#ffffff;stroke-width:0.3521513;stroke-linecap:butt;stroke-linejoin:miter;stroke-miterlimit:4;stroke-opacity:1;stroke-dasharray:none"
             d="m 21.071034,891.7625 30.609908,114.2377"
             id="path5653"
             inkscape:connector-curvature="0" />
          <path
             inkscape:connector-curvature="0"
             id="path5655"
             d="m 23.071034,891.7625 30.609908,114.2377"
             style="fill:none;stroke:#ffffff;stroke-width:0.3521513;stroke-linecap:butt;stroke-linejoin:miter;stroke-miterlimit:4;stroke-opacity:1;stroke-dasharray:none" />
        </g>
      </g>
    </g>
    <text
       xml:space="preserve"
       style="font-size:14px;font-style:italic;font-variant:normal;font-weight:normal;font-stretch:normal;line-height:125%;letter-spacing:0px;word-spacing:0px;fill:#bf5700;fill-opacity:1;stroke:#000000;stroke-width:0.25;stroke-miterlimit:4;stroke-dasharray:none;font-family:Latin Modern Math;-inkscape-font-specification:Latin Modern Math Italic"
       x="36.126278"
       y="1006.4649"
       id="text3573"
       sodipodi:linespacing="125%"><tspan
         sodipodi:role="line"
         id="tspan3575"
         x="36.126278"
         y="1006.4649"
         style="font-size:14px;font-style:italic;font-variant:normal;font-weight:normal;font-stretch:normal;fill:#bf5700;font-family:Latin Modern Math;-inkscape-font-specification:Latin Modern Math Italic">AF</tspan></text>
    <text
       xml:space="preserve"
       style="font-size:14px;font-style:italic;font-variant:normal;font-weight:normal;font-stretch:normal;line-height:125%;letter-spacing:0px;word-spacing:0px;fill:#f2a900;fill-opacity:1;stroke:#000000;stroke-width:0.25;stroke-miterlimit:4;stroke-dasharray:none;font-family:Latin Modern Math;-inkscape-font-specification:Latin Modern Math Italic"
       x="115.79901"
       y="1006.4202"
       id="text3232"
       sodipodi:linespacing="125%"><tspan
         sodipodi:role="line"
         id="tspan3234"
         x="115.79901"
         y="1006.4202"
         style="font-size:14px;font-style:italic;font-variant:normal;font-weight:normal;font-stretch:normal;fill:#f2a900;font-family:Latin Modern Math;-inkscape-font-specification:Latin Modern Math Italic">SA</tspan></text>
    <text
       xml:space="preserve"
       style="font-size:14px;font-style:italic;font-variant:normal;font-weight:normal;font-stretch:normal;line-height:125%;letter-spacing:0px;word-spacing:0px;fill:#43695b;fill-opacity:1;stroke:#000000;stroke-width:0.25;stroke-miterlimit:4;stroke-dasharray:none;font-family:Latin Modern Math;-inkscape-font-specification:Latin Modern Math Italic"
       x="114.98792"
       y="929.255"
       id="text3236-3"
       sodipodi:linespacing="125%"><tspan
         sodipodi:role="line"
         id="tspan3238-2"
         x="114.98792"
         y="929.255"
         style="font-size:14px;font-style:italic;font-variant:normal;font-weight:normal;font-stretch:normal;fill:#43695b;font-family:Latin Modern Math;-inkscape-font-specification:Latin Modern Math Italic">FF</tspan></text>
    <text
       inkscape:transform-center-y="50.623675"
       inkscape:transform-center-x="-21.109486"
       sodipodi:linespacing="125%"
       id="text3240-6"
       y="1005.9592"
       x="191.80064"
       style="font-size:14px;font-style:italic;font-variant:normal;font-weight:normal;font-stretch:normal;line-height:125%;letter-spacing:0px;word-spacing:0px;fill:#005f86;fill-opacity:1;stroke:#000000;stroke-width:0.25;stroke-miterlimit:4;stroke-dasharray:none;font-family:Latin Modern Math;-inkscape-font-specification:Latin Modern Math Italic"
       xml:space="preserve"><tspan
         style="font-size:14px;font-style:italic;font-variant:normal;font-weight:normal;font-stretch:normal;fill:#005f86;font-family:Latin Modern Math;-inkscape-font-specification:Latin Modern Math Italic"
         y="1005.9592"
         x="191.80064"
         id="tspan3242-3"
         sodipodi:role="line">DB</tspan></text>
    <path
       transform="translate(38.275394,902.3033)"
       d="m 100.51017,99.789299 c 0,7.531541 -6.105515,13.637061 -13.637054,13.637061 -7.53154,0 -13.63706,-6.10552 -13.63706,-13.637061 0,-7.53154 6.10552,-13.637059 13.63706,-13.637059 7.531539,0 13.637054,6.105519 13.637054,13.637059 z"
       sodipodi:ry="13.637059"
       sodipodi:rx="13.637059"
       sodipodi:cy="99.789299"
       sodipodi:cx="86.873116"
       id="path6034"
       style="fill:none;stroke:#f2a900;stroke-width:1.77165353;stroke-linecap:round;stroke-linejoin:round;stroke-miterlimit:4;stroke-opacity:1;stroke-dasharray:none;stroke-dashoffset:0"
       sodipodi:type="arc" />
    <path
       sodipodi:type="arc"
       style="fill:none;stroke:#bf5700;stroke-width:1.77165353;stroke-linecap:round;stroke-linejoin:round;stroke-miterlimit:4;stroke-opacity:1;stroke-dasharray:none;stroke-dashoffset:0"
       id="path6036"
       sodipodi:cx="86.873116"
       sodipodi:cy="99.789299"
       sodipodi:rx="13.637059"
       sodipodi:ry="13.637059"
       d="m 100.51017,99.789299 c 0,7.531541 -6.105515,13.637061 -13.637054,13.637061 -7.53154,0 -13.63706,-6.10552 -13.63706,-13.637061 0,-7.53154 6.10552,-13.637059 13.63706,-13.637059 7.531539,0 13.637054,6.105519 13.637054,13.637059 z"
       transform="translate(-39.64481,902.52967)" />
    <path
       transform="translate(116.0438,902.52528)"
       d="m 100.51017,99.789299 c 0,7.531541 -6.105515,13.637061 -13.637054,13.637061 -7.53154,0 -13.63706,-6.10552 -13.63706,-13.637061 0,-7.53154 6.10552,-13.637059 13.63706,-13.637059 7.531539,0 13.637054,6.105519 13.637054,13.637059 z"
       sodipodi:ry="13.637059"
       sodipodi:rx="13.637059"
       sodipodi:cy="99.789299"
       sodipodi:cx="86.873116"
       id="path6038"
       style="fill:none;stroke:#005f86;stroke-width:1.77165353;stroke-linecap:round;stroke-linejoin:round;stroke-miterlimit:4;stroke-opacity:1;stroke-dasharray:none;stroke-dashoffset:0"
       sodipodi:type="arc" />
    <path
       sodipodi:type="arc"
       style="fill:none;stroke:#43695b;stroke-width:1.77165353;stroke-linecap:round;stroke-linejoin:round;stroke-miterlimit:4;stroke-opacity:1;stroke-dasharray:none;stroke-dashoffset:0"
       id="path6040"
       sodipodi:cx="86.873116"
       sodipodi:cy="99.789299"
       sodipodi:rx="13.637059"
       sodipodi:ry="13.637059"
       d="m 100.51017,99.789299 c 0,7.531541 -6.105515,13.637061 -13.637054,13.637061 -7.53154,0 -13.63706,-6.10552 -13.63706,-13.637061 0,-7.53154 6.10552,-13.637059 13.63706,-13.637059 7.531539,0 13.637054,6.105519 13.637054,13.637059 z"
       transform="translate(38.042801,824.58138)" />
    <text
       xml:space="preserve"
       style="font-size:14px;font-style:italic;font-variant:normal;font-weight:normal;font-stretch:normal;line-height:125%;letter-spacing:0px;word-spacing:0px;fill:#000000;fill-opacity:1;stroke:none;font-family:Latin Modern Math;-inkscape-font-specification:Latin Modern Math Italic"
       x="40.903194"
       y="1044.0913"
       id="text6056"
       sodipodi:linespacing="125%"
       inkscape:transform-center-x="-21.109486"
       inkscape:transform-center-y="50.623675"><tspan
         sodipodi:role="line"
         id="tspan6058"
         x="40.903194"
         y="1044.0913"
         style="font-size:14px;font-style:italic;font-variant:normal;font-weight:normal;font-stretch:normal;fill:#000000;stroke:none;font-family:Latin Modern Math;-inkscape-font-specification:Latin Modern Math Italic">F</tspan></text>
    <path
       style="fill:none;stroke:#000000;stroke-width:1;stroke-linecap:butt;stroke-linejoin:miter;stroke-miterlimit:4;stroke-opacity:1;stroke-dasharray:none"
       d="m 46.835786,1017.1596 0,8.5715"
       id="path6090"
       inkscape:connector-curvature="0" />
    <path
       style="fill:none;stroke:#000000;stroke-width:0.94508111;stroke-linecap:butt;stroke-linejoin:miter;stroke-miterlimit:4;stroke-opacity:1;stroke-dasharray:none"
       d="m 61.747105,1002.3399 41.811075,0"
       id="path6096"
       inkscape:connector-curvature="0"
       sodipodi:nodetypes="cc" />
    <g
       id="g6612"
       transform="translate(136.8125,83.75)">
      <text
         inkscape:transform-center-x="1.5152288"
         sodipodi:linespacing="125%"
         id="text6060"
         y="885.40796"
         x="61.625469"
         style="font-size:14px;font-style:italic;font-variant:normal;font-weight:normal;font-stretch:normal;line-height:125%;letter-spacing:0px;word-spacing:0px;fill:#000000;fill-opacity:1;stroke:none;font-family:Latin Modern Math;-inkscape-font-specification:Latin Modern Math Italic"
         xml:space="preserve"><tspan
           style="font-size:14px;font-style:italic;font-variant:normal;font-weight:normal;font-stretch:normal;fill:#000000;stroke:none;font-family:Latin Modern Math;-inkscape-font-specification:Latin Modern Math Italic"
           y="885.40796"
           x="61.625469"
           id="tspan6062"
           sodipodi:role="line">S</tspan></text>
      <path
         transform="translate(-1.5909903,848.73843)"
         d="m 75.824575,32.235344 c 0,4.463135 -3.618085,8.081221 -8.08122,8.081221 -4.463135,0 -8.081221,-3.618086 -8.081221,-8.081221 0,-4.463135 3.618086,-8.081221 8.081221,-8.081221 4.463135,0 8.08122,3.618086 8.08122,8.081221 z"
         sodipodi:ry="8.0812206"
         sodipodi:rx="8.0812206"
         sodipodi:cy="32.235344"
         sodipodi:cx="67.743355"
         id="path6134"
         style="fill:none;stroke:#000000;stroke-width:0.88582677;stroke-linecap:round;stroke-linejoin:round;stroke-miterlimit:4;stroke-opacity:1;stroke-dasharray:none;stroke-dashoffset:0"
         sodipodi:type="arc" />
      <path
         sodipodi:type="arc"
         style="fill:none;stroke:#000000;stroke-width:0.74742961;stroke-linecap:round;stroke-linejoin:round;stroke-miterlimit:4;stroke-opacity:1;stroke-dasharray:none;stroke-dashoffset:0"
         id="path6136"
         sodipodi:cx="67.743355"
         sodipodi:cy="32.235344"
         sodipodi:rx="8.0812206"
         sodipodi:ry="8.0812206"
         d="m 75.824575,32.235344 c 0,4.463135 -3.618085,8.081221 -8.08122,8.081221 -4.463135,0 -8.081221,-3.618086 -8.081221,-8.081221 0,-4.463135 3.618086,-8.081221 8.081221,-8.081221 4.463135,0 8.08122,3.618086 8.08122,8.081221 z"
         transform="matrix(1.1851641,0,0,1.1851641,-14.134625,842.7696)" />
    </g>
    <path
       sodipodi:type="arc"
       style="fill:none;stroke:#000000;stroke-width:0.88582677;stroke-linecap:round;stroke-linejoin:round;stroke-miterlimit:4;stroke-opacity:1;stroke-dasharray:none;stroke-dashoffset:0"
       id="path6134-8"
       sodipodi:cx="67.743355"
       sodipodi:cy="32.235344"
       sodipodi:rx="8.0812206"
       sodipodi:ry="8.0812206"
       d="m 75.824575,32.235344 c 0,4.463135 -3.618085,8.081221 -8.08122,8.081221 -4.463135,0 -8.081221,-3.618086 -8.081221,-8.081221 0,-4.463135 3.618086,-8.081221 8.081221,-8.081221 4.463135,0 8.08122,3.618086 8.08122,8.081221 z"
       transform="translate(-21.39664,1007.3279)" />
    <path
       transform="matrix(1.1851641,0,0,1.1851641,-33.940275,1001.3591)"
       d="m 75.824575,32.235344 c 0,4.463135 -3.618085,8.081221 -8.08122,8.081221 -4.463135,0 -8.081221,-3.618086 -8.081221,-8.081221 0,-4.463135 3.618086,-8.081221 8.081221,-8.081221 4.463135,0 8.08122,3.618086 8.08122,8.081221 z"
       sodipodi:ry="8.0812206"
       sodipodi:rx="8.0812206"
       sodipodi:cy="32.235344"
       sodipodi:cx="67.743355"
       id="path6136-3"
       style="fill:none;stroke:#000000;stroke-width:0.74742961;stroke-linecap:round;stroke-linejoin:round;stroke-miterlimit:4;stroke-opacity:1;stroke-dasharray:none;stroke-dashoffset:0"
       sodipodi:type="arc" />
    <path
       sodipodi:type="arc"
       style="fill:none;stroke:#f2a900;stroke-width:1.77165353;stroke-linecap:round;stroke-linejoin:round;stroke-miterlimit:4;stroke-opacity:1;stroke-dasharray:none;stroke-dashoffset:0"
       id="path6172"
       sodipodi:cx="86.873116"
       sodipodi:cy="99.789299"
       sodipodi:rx="13.637059"
       sodipodi:ry="13.637059"
       d="m 100.51017,99.789299 c 0,7.531541 -6.105515,13.637061 -13.637054,13.637061 -7.53154,0 -13.63706,-6.10552 -13.63706,-13.637061 0,-7.53154 6.10552,-13.637059 13.63706,-13.637059 7.531539,0 13.637054,6.105519 13.637054,13.637059 z"
       transform="translate(38.275394,902.3033)" />
    <path
       inkscape:transform-center-x="3.89721"
       style="fill:#000000;stroke:none"
       d="m 188.89767,998.65417 c -5.81506,-5.40302 -5.81506,-5.40302 -5.81506,-5.40302 l -1.97936,6.90455 z"
       id="path6184"
       inkscape:connector-curvature="0"
       inkscape:transform-center-y="-1.950735" />
    <path
       inkscape:transform-center-y="1.746735"
       inkscape:connector-curvature="0"
       id="path6186"
       d="m 139.08831,1005.9434 c 5.97376,5.227 5.97376,5.227 5.97376,5.227 l 1.77236,-6.9606 z"
       style="fill:#000000;stroke:none"
       inkscape:transform-center-x="-3.87306" />
    <g
       id="g6364"
       transform="translate(-18,52.5)">
      <path
         inkscape:transform-center-y="22.830315"
         inkscape:transform-center-x="-12.968162"
         sodipodi:type="arc"
         style="fill:#ffffff;fill-opacity:1;stroke:#43695b;stroke-width:2;stroke-linecap:round;stroke-linejoin:round;stroke-miterlimit:4;stroke-opacity:1;stroke-dasharray:none;stroke-dashoffset:0"
         id="path3601-5"
         sodipodi:cx="340.64868"
         sodipodi:cy="46.737251"
         sodipodi:rx="2.2980971"
         sodipodi:ry="2.2980971"
         d="m 342.94678,46.737251 c 0,1.269204 -1.02889,2.298097 -2.2981,2.298097 -1.2692,0 -2.2981,-1.028893 -2.2981,-2.298097 0,-1.269204 1.0289,-2.298097 2.2981,-2.298097 1.26921,0 2.2981,1.028893 2.2981,2.298097 z"
         transform="matrix(-1.0605098,0.627015,-0.627015,-1.0605098,555.92443,730.49714)" />
      <path
         inkscape:connector-curvature="0"
         id="path6212"
         d="m 146.55647,885.66536 c 5.07425,18.93737 19.23688,9.20154 11.32679,1.29145"
         style="fill:none;stroke:#000000;stroke-width:1;stroke-linecap:butt;stroke-linejoin:miter;stroke-miterlimit:4;stroke-opacity:1;stroke-dasharray:none"
         inkscape:transform-center-y="-2.0078556"
         inkscape:transform-center-x="-19.07866"
         sodipodi:nodetypes="cc" />
      <path
         inkscape:connector-curvature="0"
         id="path6214"
         d="m 152.92828,882.02063 c 2.44173,7.55285 2.44173,7.55285 2.44173,7.55285 l 5.09554,-5.06226 z"
         style="fill:#000000;stroke:none"
         inkscape:transform-center-x="-3.9625268"
         inkscape:transform-center-y="3.3317636" />
    </g>
    <path
       inkscape:connector-curvature="0"
       id="path6216"
       d="m 46.939577,1030.1115 c 3.59134,-7.0788 3.59134,-7.0788 3.59134,-7.0788 l -7.182682,0 z"
       style="fill:#000000;stroke:none" />
    <text
       inkscape:transform-center-y="50.623675"
       inkscape:transform-center-x="-21.109486"
       sodipodi:linespacing="125%"
       id="text6228"
       y="1043.72"
       x="197.62991"
       style="font-size:14px;font-style:italic;font-variant:normal;font-weight:normal;font-stretch:normal;line-height:125%;letter-spacing:0px;word-spacing:0px;fill:#000000;fill-opacity:1;stroke:#000000;stroke-width:0.25;stroke-miterlimit:4;stroke-dasharray:none;font-family:Latin Modern Math;-inkscape-font-specification:Latin Modern Math Italic"
       xml:space="preserve"><tspan
         style="font-size:14px;font-style:italic;font-variant:normal;font-weight:normal;font-stretch:normal;fill:#000000;font-family:Latin Modern Math;-inkscape-font-specification:Latin Modern Math Italic"
         y="1043.72"
         x="197.62991"
         id="tspan6230"
         sodipodi:role="line">F</tspan></text>
    <path
       transform="translate(135.33007,1006.9566)"
       d="m 75.824575,32.235344 c 0,4.463135 -3.618085,8.081221 -8.08122,8.081221 -4.463135,0 -8.081221,-3.618086 -8.081221,-8.081221 0,-4.463135 3.618086,-8.081221 8.081221,-8.081221 4.463135,0 8.08122,3.618086 8.08122,8.081221 z"
       sodipodi:ry="8.0812206"
       sodipodi:rx="8.0812206"
       sodipodi:cy="32.235344"
       sodipodi:cx="67.743355"
       id="path6234"
       style="fill:none;stroke:#000000;stroke-width:0.88582677;stroke-linecap:round;stroke-linejoin:round;stroke-miterlimit:4;stroke-opacity:1;stroke-dasharray:none;stroke-dashoffset:0"
       sodipodi:type="arc" />
    <path
       sodipodi:type="arc"
       style="fill:none;stroke:#000000;stroke-width:0.74742961;stroke-linecap:round;stroke-linejoin:round;stroke-miterlimit:4;stroke-opacity:1;stroke-dasharray:none;stroke-dashoffset:0"
       id="path6236"
       sodipodi:cx="67.743355"
       sodipodi:cy="32.235344"
       sodipodi:rx="8.0812206"
       sodipodi:ry="8.0812206"
       d="m 75.824575,32.235344 c 0,4.463135 -3.618085,8.081221 -8.08122,8.081221 -4.463135,0 -8.081221,-3.618086 -8.081221,-8.081221 0,-4.463135 3.618086,-8.081221 8.081221,-8.081221 4.463135,0 8.08122,3.618086 8.08122,8.081221 z"
       transform="matrix(1.1851641,0,0,1.1851641,122.78644,1000.9878)" />
    <path
       style="fill:#000000;stroke:none"
       d="m 203.66629,1029.7402 c 3.59134,-7.0789 3.59134,-7.0789 3.59134,-7.0789 l -7.18268,0 z"
       id="path6238"
       inkscape:connector-curvature="0" />
    <text
       xml:space="preserve"
       style="font-size:14px;font-style:italic;font-variant:normal;font-weight:normal;font-stretch:normal;line-height:125%;letter-spacing:0px;word-spacing:0px;fill:#000000;fill-opacity:1;stroke:none;font-family:Latin Modern Math;-inkscape-font-specification:Latin Modern Math Italic"
       x="197.62991"
       y="1043.72"
       id="text6240"
       sodipodi:linespacing="125%"
       inkscape:transform-center-x="-21.109486"
       inkscape:transform-center-y="50.623675"><tspan
         sodipodi:role="line"
         id="tspan6242"
         x="197.62991"
         y="1043.72"
         style="font-size:14px;font-style:italic;font-variant:normal;font-weight:normal;font-stretch:normal;fill:#000000;stroke:none;font-family:Latin Modern Math;-inkscape-font-specification:Latin Modern Math Italic">F</tspan></text>
    <path
       sodipodi:type="arc"
       style="fill:none;stroke:#000000;stroke-width:0.88582677;stroke-linecap:round;stroke-linejoin:round;stroke-miterlimit:4;stroke-opacity:1;stroke-dasharray:none;stroke-dashoffset:0"
       id="path6244"
       sodipodi:cx="67.743355"
       sodipodi:cy="32.235344"
       sodipodi:rx="8.0812206"
       sodipodi:ry="8.0812206"
       d="m 75.824575,32.235344 c 0,4.463135 -3.618085,8.081221 -8.08122,8.081221 -4.463135,0 -8.081221,-3.618086 -8.081221,-8.081221 0,-4.463135 3.618086,-8.081221 8.081221,-8.081221 4.463135,0 8.08122,3.618086 8.08122,8.081221 z"
       transform="translate(135.33007,1006.9566)" />
    <path
       transform="matrix(1.1851641,0,0,1.1851641,122.78644,1000.9878)"
       d="m 75.824575,32.235344 c 0,4.463135 -3.618085,8.081221 -8.08122,8.081221 -4.463135,0 -8.081221,-3.618086 -8.081221,-8.081221 0,-4.463135 3.618086,-8.081221 8.081221,-8.081221 4.463135,0 8.08122,3.618086 8.08122,8.081221 z"
       sodipodi:ry="8.0812206"
       sodipodi:rx="8.0812206"
       sodipodi:cy="32.235344"
       sodipodi:cx="67.743355"
       id="path6246"
       style="fill:none;stroke:#000000;stroke-width:0.74742961;stroke-linecap:round;stroke-linejoin:round;stroke-miterlimit:4;stroke-opacity:1;stroke-dasharray:none;stroke-dashoffset:0"
       sodipodi:type="arc" />
    <g
       id="g6618"
       transform="translate(-18,0)">
      <path
         style="fill:none;stroke:#000000;stroke-width:1;stroke-linecap:butt;stroke-linejoin:miter;stroke-miterlimit:4;stroke-opacity:1;stroke-dasharray:none"
         d="m 221.5625,1016.7883 0,8.5714"
         id="path6232"
         inkscape:connector-curvature="0" />
      <path
         style="fill:#000000;stroke:none"
         d="m 221.66629,1029.7402 c 3.59134,-7.0789 3.59134,-7.0789 3.59134,-7.0789 l -7.18268,0 z"
         id="path6248"
         inkscape:connector-curvature="0" />
    </g>
    <g
       id="g6395"
       transform="translate(-18,52.5)">
      <path
         inkscape:transform-center-x="-3.3883075"
         inkscape:transform-center-y="-3.95484"
         inkscape:connector-curvature="0"
         id="path6282"
         d="m 72.479555,937.52978 c 6.776615,-4.1334 6.776615,-4.1334 6.776615,-4.1334 l -6.109879,-3.77628 z"
         style="fill:#000000;stroke:none" />
      <path
         sodipodi:nodetypes="cc"
         transform="translate(0,782.35975)"
         inkscape:connector-curvature="0"
         id="path6292"
         d="m 75.40625,150.1875 c 14.14447,-24.23082 31.0885,-39.24624 55.20009,-53.113384"
         style="fill:none;stroke:#000000;stroke-width:1px;stroke-linecap:butt;stroke-linejoin:miter;stroke-opacity:1" />
    </g>
    <path
       style="fill:none;stroke:#000000;stroke-width:1px;stroke-linecap:butt;stroke-linejoin:miter;stroke-opacity:1"
       d="m 188.87293,1006.0637 c -16.26931,4.3262 -30.24765,4.7968 -45.69678,0.9722"
       id="path6350"
       inkscape:connector-curvature="0"
       sodipodi:nodetypes="cc" />
    <path
       style="fill:none;stroke:#000000;stroke-width:1px;stroke-linecap:butt;stroke-linejoin:miter;stroke-opacity:1"
       d="m 139.18763,998.47332 c 17.86294,-4.80846 30.80276,-4.99972 45.8625,-0.90598"
       id="path6352"
       inkscape:connector-curvature="0"
       sodipodi:nodetypes="cc" />
    <path
       inkscape:connector-curvature="0"
       id="path6182"
       d="m 110.6325,1002.334 c -7.07883,-3.59133 -7.07883,-3.59133 -7.07883,-3.59133 l 0,7.18263 z"
       style="fill:#000000;stroke:none"
       inkscape:transform-center-x="3.539415" />
    <g
       id="g6369"
       transform="matrix(0.70710678,-0.70710678,0.70710678,0.70710678,-514.39073,486.67746)">
      <path
         transform="matrix(-1.0605098,0.627015,-0.627015,-1.0605098,555.92443,730.49714)"
         d="m 342.94678,46.737251 c 0,1.269204 -1.02889,2.298097 -2.2981,2.298097 -1.2692,0 -2.2981,-1.028893 -2.2981,-2.298097 0,-1.269204 1.0289,-2.298097 2.2981,-2.298097 1.26921,0 2.2981,1.028893 2.2981,2.298097 z"
         sodipodi:ry="2.2980971"
         sodipodi:rx="2.2980971"
         sodipodi:cy="46.737251"
         sodipodi:cx="340.64868"
         id="path6371"
         style="fill:none;stroke:#005f86;stroke-width:2;stroke-linecap:round;stroke-linejoin:round;stroke-miterlimit:4;stroke-opacity:1;stroke-dasharray:none;stroke-dashoffset:0"
         sodipodi:type="arc"
         inkscape:transform-center-x="-12.968162"
         inkscape:transform-center-y="22.830315" />
      <path
         sodipodi:nodetypes="cc"
         inkscape:transform-center-x="-19.07866"
         inkscape:transform-center-y="-2.0078556"
         style="fill:none;stroke:#000000;stroke-width:1;stroke-linecap:butt;stroke-linejoin:miter;stroke-miterlimit:4;stroke-opacity:1;stroke-dasharray:none"
         d="m 146.55647,885.66536 c 5.07425,18.93737 19.23688,9.20154 11.32679,1.29145"
         id="path6373"
         inkscape:connector-curvature="0" />
      <path
         inkscape:transform-center-y="3.3317636"
         inkscape:transform-center-x="-3.9625268"
         style="fill:#000000;stroke:none"
         d="m 152.92828,882.02063 c 2.44173,7.55285 2.44173,7.55285 2.44173,7.55285 l 5.09554,-5.06226 z"
         id="path6375"
         inkscape:connector-curvature="0" />
    </g>
    <g
       transform="matrix(-0.70710678,0.70710678,-0.70710678,-0.70710678,764.546,1517.8751)"
       id="g6377">
      <path
         inkscape:transform-center-y="22.830315"
         inkscape:transform-center-x="-12.968162"
         sodipodi:type="arc"
         style="fill:#ffffff;fill-opacity:1;stroke:#bf5700;stroke-width:2;stroke-linecap:round;stroke-linejoin:round;stroke-miterlimit:4;stroke-opacity:1;stroke-dasharray:none;stroke-dashoffset:0"
         id="path6379"
         sodipodi:cx="340.64868"
         sodipodi:cy="46.737251"
         sodipodi:rx="2.2980971"
         sodipodi:ry="2.2980971"
         d="m 342.94678,46.737251 c 0,1.269204 -1.02889,2.298097 -2.2981,2.298097 -1.2692,0 -2.2981,-1.028893 -2.2981,-2.298097 0,-1.269204 1.0289,-2.298097 2.2981,-2.298097 1.26921,0 2.2981,1.028893 2.2981,2.298097 z"
         transform="matrix(-1.0605098,0.627015,-0.627015,-1.0605098,555.92443,730.49714)" />
      <path
         inkscape:connector-curvature="0"
         id="path6381"
         d="m 146.55647,885.66536 c 5.07425,18.93737 19.23688,9.20154 11.32679,1.29145"
         style="fill:none;stroke:#000000;stroke-width:1;stroke-linecap:butt;stroke-linejoin:miter;stroke-miterlimit:4;stroke-opacity:1;stroke-dasharray:none"
         inkscape:transform-center-y="-2.0078556"
         inkscape:transform-center-x="-19.07866"
         sodipodi:nodetypes="cc" />
      <path
         inkscape:connector-curvature="0"
         id="path6383"
         d="m 152.92828,882.02063 c 2.44173,7.55285 2.44173,7.55285 2.44173,7.55285 l 5.09554,-5.06226 z"
         style="fill:#000000;stroke:none"
         inkscape:transform-center-x="-3.9625268"
         inkscape:transform-center-y="3.3317636" />
    </g>
    <g
       id="g6399"
       transform="matrix(-1,0,0,-1,190.18437,1874.2427)">
      <path
         style="fill:#000000;stroke:none"
         d="m 72.479555,937.52978 c 6.776615,-4.1334 6.776615,-4.1334 6.776615,-4.1334 l -6.109879,-3.77628 z"
         id="path6401"
         inkscape:connector-curvature="0"
         inkscape:transform-center-y="-3.95484"
         inkscape:transform-center-x="-3.3883075" />
      <path
         style="fill:none;stroke:#000000;stroke-width:1px;stroke-linecap:butt;stroke-linejoin:miter;stroke-opacity:1"
         d="m 75.40625,150.1875 c 14.14447,-24.23082 31.0885,-39.24624 55.20009,-53.113384"
         id="path6403"
         inkscape:connector-curvature="0"
         transform="translate(0,782.35975)"
         sodipodi:nodetypes="cc" />
    </g>
    <path
       inkscape:transform-center-x="-3.89541"
       style="fill:#000000;stroke:none"
       d="m 138.81018,928.1085 c 5.82793,5.38913 5.82793,5.38913 5.82793,5.38913 l 1.96289,-6.90928 z"
       id="path6409"
       inkscape:connector-curvature="0"
       inkscape:transform-center-y="1.93449" />
    <path
       style="fill:none;stroke:#000000;stroke-width:1px;stroke-linecap:butt;stroke-linejoin:miter;stroke-opacity:1"
       d="M 199.4375,988.25038 C 187.60022,951.42522 167.05528,935.67475 145.40625,929.9535"
       id="path6413"
       inkscape:connector-curvature="0"
       sodipodi:nodetypes="cc" />
    <text
       xml:space="preserve"
       style="font-size:10px;font-style:normal;font-variant:normal;font-weight:normal;font-stretch:normal;line-height:125%;letter-spacing:0px;word-spacing:0px;fill:#000000;fill-opacity:1;stroke:none;font-family:Latin Modern Math;-inkscape-font-specification:Latin Modern Math"
       x="79.050407"
       y="928.25983"
       id="text6526"
       sodipodi:linespacing="125%"><tspan
         sodipodi:role="line"
         id="tspan6528"
         x="79.050407"
         y="928.25983" /></text>
    <g
       id="g6606"
       transform="translate(-3.8578639,53.033008)">
      <path
         sodipodi:nodetypes="cc"
         style="fill:none;stroke:#000000;stroke-width:0.88582677;stroke-linecap:butt;stroke-linejoin:miter;stroke-miterlimit:4;stroke-opacity:1;stroke-dasharray:none"
         d="m 27.733363,926.40341 c 3.641182,3.64119 9.385018,9.38502 9.385018,9.38502"
         id="path6132"
         inkscape:connector-curvature="0" />
      <path
         inkscape:transform-center-y="-37.519738"
         inkscape:transform-center-x="53.01973"
         style="fill:#000000;stroke:none"
         d="m 40.50737,939.23967 c -2.466028,-7.54495 -2.466028,-7.54495 -2.466028,-7.54495 l -5.078929,5.07893 z"
         id="path6216-0"
         inkscape:connector-curvature="0" />
      <text
         transform="matrix(0.70710678,0.70710678,-0.70710678,0.70710678,0,0)"
         sodipodi:linespacing="125%"
         id="text6583"
         y="637.8291"
         x="649.14117"
         style="font-size:12px;font-style:normal;font-variant:normal;font-weight:normal;font-stretch:normal;line-height:125%;letter-spacing:0px;word-spacing:0px;fill:#000000;fill-opacity:1;stroke:none;font-family:Latin Modern Math;-inkscape-font-specification:Latin Modern Math"
         xml:space="preserve"><tspan
           y="637.8291"
           x="649.14117"
           id="tspan6585"
           sodipodi:role="line">start</tspan></text>
    </g>
    <g
       id="g6622"
       transform="matrix(-1,0,0,-1,424.52008,2004.591)"
       inkscape:transform-center-y="-6.0625">
      <path
         inkscape:connector-curvature="0"
         id="path6624"
         d="m 221.5625,1016.7883 0,8.5714"
         style="fill:none;stroke:#000000;stroke-width:1;stroke-linecap:butt;stroke-linejoin:miter;stroke-miterlimit:4;stroke-opacity:1;stroke-dasharray:none" />
      <path
         inkscape:connector-curvature="0"
         id="path6626"
         d="m 221.66629,1029.7402 c 3.59134,-7.0789 3.59134,-7.0789 3.59134,-7.0789 l -7.18268,0 z"
         style="fill:#000000;stroke:none" />
    </g>
    <path
       sodipodi:nodetypes="cc"
       inkscape:connector-curvature="0"
       id="path5997"
       d="m 125.12658,939.19859 0,41.81108"
       style="fill:none;stroke:#000000;stroke-width:0.94508111;stroke-linecap:butt;stroke-linejoin:miter;stroke-miterlimit:4;stroke-opacity:1;stroke-dasharray:none" />
    <path
       style="fill:#000000;stroke:none"
       d="m 125.13248,988.08398 c 3.59133,-7.07883 3.59133,-7.07883 3.59133,-7.07883 l -7.18263,0 z"
       id="path5999"
       inkscape:connector-curvature="0"
       inkscape:transform-center-y="-3.53942" />
  </g>
</svg>
