<?xml version="1.0" encoding="UTF-8" standalone="no"?>
<!-- Created with Inkscape (http://www.inkscape.org/) -->

<svg
   xmlns:dc="http://purl.org/dc/elements/1.1/"
   xmlns:cc="http://creativecommons.org/ns#"
   xmlns:rdf="http://www.w3.org/1999/02/22-rdf-syntax-ns#"
   xmlns:svg="http://www.w3.org/2000/svg"
   xmlns="http://www.w3.org/2000/svg"
   xmlns:sodipodi="http://sodipodi.sourceforge.net/DTD/sodipodi-0.dtd"
   xmlns:inkscape="http://www.inkscape.org/namespaces/inkscape"
   width="744.09448819"
   height="1052.3622047"
   id="svg2"
   version="1.1"
   inkscape:version="0.48.4 r9939"
   sodipodi:docname="model of sea.svg">
  <defs
     id="defs4">
    <marker
       inkscape:stockid="Arrow1Mend"
       orient="auto"
       refY="0.0"
       refX="0.0"
       id="Arrow1Mend"
       style="overflow:visible;">
      <path
         id="path4493"
         d="M 0.0,0.0 L 5.0,-5.0 L -12.5,0.0 L 5.0,5.0 L 0.0,0.0 z "
         style="fill-rule:evenodd;stroke:#000000;stroke-width:1.0pt;"
         transform="scale(0.4) rotate(180) translate(10,0)" />
    </marker>
    <clipPath
       clipPathUnits="userSpaceOnUse"
       id="clipPath3049">
      <rect
         style="opacity:0.86635946;fill:#f2a900;fill-opacity:1;fill-rule:evenodd;stroke:#f2a900;stroke-width:2.14477992;stroke-linecap:round;stroke-linejoin:round;stroke-miterlimit:4;stroke-opacity:0.68617021;stroke-dasharray:none;stroke-dashoffset:0"
         id="rect3051"
         width="62.487892"
         height="82.818939"
         x="299.99899"
         y="261.71341"
         ry="2.2987463"
         transform="matrix(0.99888446,-0.04722113,0.05602933,0.99842912,0,0)" />
    </clipPath>
  </defs>
  <sodipodi:namedview
     id="base"
     pagecolor="#ffffff"
     bordercolor="#666666"
     borderopacity="1.0"
     inkscape:pageopacity="0.0"
     inkscape:pageshadow="2"
     inkscape:zoom="0.98994949"
     inkscape:cx="261.32305"
     inkscape:cy="543.41116"
     inkscape:document-units="px"
     inkscape:current-layer="layer1"
     showgrid="false"
     inkscape:window-width="1920"
     inkscape:window-height="1030"
     inkscape:window-x="1920"
     inkscape:window-y="0"
     inkscape:window-maximized="1" />
  <metadata
     id="metadata7">
    <rdf:RDF>
      <cc:Work
         rdf:about="">
        <dc:format>image/svg+xml</dc:format>
        <dc:type
           rdf:resource="http://purl.org/dc/dcmitype/StillImage" />
        <dc:title></dc:title>
      </cc:Work>
    </rdf:RDF>
  </metadata>
  <g
     inkscape:label="Layer 1"
     inkscape:groupmode="layer"
     id="layer1">
    <rect
       transform="matrix(0.99289931,-0.11895779,-0.1035313,0.9946262,0,0)"
       ry="2.1154432"
       y="293.2916"
       x="374.80469"
       height="79.53418"
       width="9.3098106"
       id="rect3009"
       style="opacity:0.86635946;fill:#333f48;fill-opacity:1;fill-rule:evenodd;stroke:#f2a900;stroke-width:1.57247913;stroke-linecap:round;stroke-linejoin:round;stroke-miterlimit:4;stroke-opacity:0.68617021;stroke-dasharray:none;stroke-dashoffset:0" />
    <rect
       style="opacity:0.86635946;fill:#333f48;fill-opacity:1;fill-rule:evenodd;stroke:#f2a900;stroke-width:1.57247913;stroke-linecap:round;stroke-linejoin:round;stroke-miterlimit:4;stroke-opacity:0.68617021;stroke-dasharray:none;stroke-dashoffset:0"
       id="rect3030"
       width="9.3098106"
       height="79.53418"
       x="394.05249"
       y="295.05502"
       ry="2.1154432"
       transform="matrix(0.99289931,-0.11895779,-0.1035313,0.9946262,0,0)" />
    <rect
       transform="matrix(0.99289931,-0.11895779,-0.1035313,0.9946262,0,0)"
       ry="2.1154432"
       y="296.91315"
       x="412.59079"
       height="79.53418"
       width="9.3098106"
       id="rect3034"
       style="opacity:0.86635946;fill:#333f48;fill-opacity:1;fill-rule:evenodd;stroke:#f2a900;stroke-width:1.57247913;stroke-linecap:round;stroke-linejoin:round;stroke-miterlimit:4;stroke-opacity:0.68617021;stroke-dasharray:none;stroke-dashoffset:0" />
    <rect
       transform="matrix(0.99965741,-0.02617387,0.04354813,0.99905133,0,0)"
       ry="1.4083858"
       y="266.46301"
       x="257.70383"
       height="61.776154"
       width="28.60659"
       id="rect3108"
       style="opacity:0.86635946;fill:#f2a900;fill-opacity:1;fill-rule:evenodd;stroke:#f2a900;stroke-width:1.70015538;stroke-linecap:round;stroke-linejoin:round;stroke-miterlimit:4;stroke-opacity:0.68617021;stroke-dasharray:none;stroke-dashoffset:0" />
    <rect
       style="opacity:0.86635946;fill:#f2a900;fill-opacity:1;fill-rule:evenodd;stroke:#f2a900;stroke-width:2.06220484;stroke-linecap:round;stroke-linejoin:round;stroke-miterlimit:4;stroke-opacity:0.68617021;stroke-dasharray:none;stroke-dashoffset:0"
       id="rect2985"
       width="384.54297"
       height="19.148203"
       x="104.94669"
       y="295.98572"
       ry="2.0957"
       transform="matrix(0.99851935,-0.05439769,0.05439769,0.99851935,0,0)" />
    <rect
       style="opacity:0.86635946;fill:#f2a900;fill-opacity:1;fill-rule:evenodd;stroke:#f2a900;stroke-width:2.06220484;stroke-linecap:round;stroke-linejoin:round;stroke-miterlimit:4;stroke-opacity:0.68617021;stroke-dasharray:none;stroke-dashoffset:0"
       id="rect2987"
       width="308.09653"
       height="27.274118"
       x="-322.08014"
       y="261.33575"
       ry="2.0957"
       transform="matrix(0.88649399,-0.46274011,0.46274011,0.88649399,0,0)" />
    <rect
       style="opacity:0.86635946;fill:#f2a900;fill-opacity:1;fill-rule:evenodd;stroke:#f2a900;stroke-width:2.06220484;stroke-linecap:round;stroke-linejoin:round;stroke-miterlimit:4;stroke-opacity:0.68617021;stroke-dasharray:none;stroke-dashoffset:0"
       id="rect2989"
       width="29.294424"
       height="67.680222"
       x="-40.658512"
       y="265.43665"
       ry="2.0957"
       transform="matrix(0.88945213,-0.45702835,0.45702835,0.88945213,0,0)" />
    <rect
       style="opacity:0.86635946;fill:#333f48;fill-opacity:1;fill-rule:evenodd;stroke:#f2a900;stroke-width:1.55290627;stroke-linecap:round;stroke-linejoin:round;stroke-miterlimit:4;stroke-opacity:0.68617021;stroke-dasharray:none;stroke-dashoffset:0"
       id="rect2999"
       width="9.0541677"
       height="79.756622"
       x="289.72702"
       y="284.93774"
       ry="2.1213598"
       transform="matrix(0.99249114,-0.12231653,0.12739424,0.99185216,0,0)" />
    <rect
       transform="matrix(0.99249114,-0.12231653,0.12739424,0.99185216,0,0)"
       ry="2.1213598"
       y="286.83533"
       x="307.58551"
       height="79.756622"
       width="9.0541677"
       id="rect3011"
       style="opacity:0.86635946;fill:#333f48;fill-opacity:1;fill-rule:evenodd;stroke:#f2a900;stroke-width:1.55290627;stroke-linecap:round;stroke-linejoin:round;stroke-miterlimit:4;stroke-opacity:0.68617021;stroke-dasharray:none;stroke-dashoffset:0" />
    <rect
       style="opacity:0.86635946;fill:#333f48;fill-opacity:1;fill-rule:evenodd;stroke:#f2a900;stroke-width:1.55290627;stroke-linecap:round;stroke-linejoin:round;stroke-miterlimit:4;stroke-opacity:0.68617021;stroke-dasharray:none;stroke-dashoffset:0"
       id="rect3032"
       width="9.0541677"
       height="79.756622"
       x="326.42834"
       y="288.61893"
       ry="2.1213598"
       transform="matrix(0.99249114,-0.12231653,0.12739424,0.99185216,0,0)" />
    <rect
       transform="matrix(0.99249114,-0.12231653,0.12739424,0.99185216,0,0)"
       ry="2.1213598"
       y="290.4924"
       x="344.53995"
       height="79.756622"
       width="9.0541677"
       id="rect3036"
       style="opacity:0.86635946;fill:#333f48;fill-opacity:1;fill-rule:evenodd;stroke:#f2a900;stroke-width:1.55290627;stroke-linecap:round;stroke-linejoin:round;stroke-miterlimit:4;stroke-opacity:0.68617021;stroke-dasharray:none;stroke-dashoffset:0" />
    <rect
       style="opacity:0.86635946;fill:#f2a900;fill-opacity:1;fill-rule:evenodd;stroke:#f2a900;stroke-width:2.06220484;stroke-linecap:round;stroke-linejoin:round;stroke-miterlimit:4;stroke-opacity:0.68617021;stroke-dasharray:none;stroke-dashoffset:0"
       id="rect2991"
       width="28.284271"
       height="91.923882"
       x="272.228"
       y="254.74579"
       ry="2.0957"
       transform="matrix(0.99922361,-0.03939775,0.03939775,0.99922361,0,0)" />
    <rect
       style="opacity:0.86635946;fill:#f2a900;fill-opacity:1;fill-rule:evenodd;stroke:#f2a900;stroke-width:2.06220484;stroke-linecap:round;stroke-linejoin:round;stroke-miterlimit:4;stroke-opacity:0.68617021;stroke-dasharray:none;stroke-dashoffset:0"
       id="rect2993"
       width="28.284271"
       height="41.416256"
       x="268.40097"
       y="207.03677"
       ry="2.0957"
       transform="matrix(0.99840121,-0.05652451,0.05652451,0.99840121,0,0)" />
    <rect
       style="opacity:0.86635946;fill:#f2a900;fill-opacity:1;fill-rule:evenodd;stroke:#f2a900;stroke-width:2.06220484;stroke-linecap:round;stroke-linejoin:round;stroke-miterlimit:4;stroke-opacity:0.68617021;stroke-dasharray:none;stroke-dashoffset:0"
       id="rect3112"
       width="26.011429"
       height="96.217033"
       x="286.08929"
       y="261.51682"
       ry="2.1266568"
       transform="matrix(0.99787602,-0.06514175,0.06514175,0.99787602,0,0)" />
    <rect
       style="opacity:0.86635945999999997;fill:#000000;fill-opacity:1;fill-rule:evenodd;stroke:#f2a900;stroke-width:2.06220484000000015;stroke-linecap:round;stroke-linejoin:round;stroke-miterlimit:4;stroke-opacity:0.68617021000000000;stroke-dasharray:none;stroke-dashoffset:0"
       id="rect2995"
       width="16.162441"
       height="160.61426"
       x="278.22089"
       y="195.18233"
       ry="2.0957"
       transform="matrix(0.99921592,-0.03959219,0.03959219,0.99921592,0,0)" />
    <rect
       style="opacity:0.86635946;fill:#f2a900;fill-opacity:1;fill-rule:evenodd;stroke:#f2a900;stroke-width:2.06220484;stroke-linecap:round;stroke-linejoin:round;stroke-miterlimit:4;stroke-opacity:0.68617021;stroke-dasharray:none;stroke-dashoffset:0"
       id="rect2997"
       width="158.59395"
       height="44.446712"
       x="302.59518"
       y="199.05756"
       ry="2.0957"
       transform="matrix(0.99920236,-0.0399329,0.0399329,0.99920236,0,0)" />
    <g
       id="g3085"
       transform="translate(103.44962,-3.0610957)">
      <rect
         transform="matrix(0.99289931,-0.11895779,-0.1035313,0.9946262,0,0)"
         ry="2.1154432"
         y="291.87665"
         x="358.47079"
         height="79.53418"
         width="9.3098106"
         id="rect3087"
         style="opacity:0.86635946;fill:#333f48;fill-opacity:1;fill-rule:evenodd;stroke:#f2a900;stroke-width:1.57247913;stroke-linecap:round;stroke-linejoin:round;stroke-miterlimit:4;stroke-opacity:0.68617021;stroke-dasharray:none;stroke-dashoffset:0" />
      <rect
         style="opacity:0.86635946;fill:#333f48;fill-opacity:1;fill-rule:evenodd;stroke:#f2a900;stroke-width:1.55290627;stroke-linecap:round;stroke-linejoin:round;stroke-miterlimit:4;stroke-opacity:0.68617021;stroke-dasharray:none;stroke-dashoffset:0"
         id="rect3089"
         width="9.0541677"
         height="79.756622"
         x="273.8042"
         y="284.23438"
         ry="2.1213598"
         transform="matrix(0.99249114,-0.12231653,0.12739424,0.99185216,0,0)" />
      <rect
         style="opacity:0.86635946;fill:#333f48;fill-opacity:1;fill-rule:evenodd;stroke:#f2a900;stroke-width:1.57247913;stroke-linecap:round;stroke-linejoin:round;stroke-miterlimit:4;stroke-opacity:0.68617021;stroke-dasharray:none;stroke-dashoffset:0"
         id="rect3091"
         width="9.3098106"
         height="79.53418"
         x="377.7186"
         y="293.64008"
         ry="2.1154432"
         transform="matrix(0.99289931,-0.11895779,-0.1035313,0.9946262,0,0)" />
      <rect
         transform="matrix(0.99249114,-0.12231653,0.12739424,0.99185216,0,0)"
         ry="2.1213598"
         y="285.40118"
         x="291.57657"
         height="79.756622"
         width="9.0541677"
         id="rect3093"
         style="opacity:0.86635946;fill:#333f48;fill-opacity:1;fill-rule:evenodd;stroke:#f2a900;stroke-width:1.55290627;stroke-linecap:round;stroke-linejoin:round;stroke-miterlimit:4;stroke-opacity:0.68617021;stroke-dasharray:none;stroke-dashoffset:0" />
      <rect
         transform="matrix(0.99289931,-0.11895779,-0.1035313,0.9946262,0,0)"
         ry="2.1154432"
         y="295.4982"
         x="396.2569"
         height="79.53418"
         width="9.3098106"
         id="rect3095"
         style="opacity:0.86635946;fill:#333f48;fill-opacity:1;fill-rule:evenodd;stroke:#f2a900;stroke-width:1.57247913;stroke-linecap:round;stroke-linejoin:round;stroke-miterlimit:4;stroke-opacity:0.68617021;stroke-dasharray:none;stroke-dashoffset:0" />
      <rect
         style="opacity:0.86635946;fill:#333f48;fill-opacity:1;fill-rule:evenodd;stroke:#f2a900;stroke-width:1.55290627;stroke-linecap:round;stroke-linejoin:round;stroke-miterlimit:4;stroke-opacity:0.68617021;stroke-dasharray:none;stroke-dashoffset:0"
         id="rect3097"
         width="9.0541677"
         height="79.756622"
         x="310.4194"
         y="287.18478"
         ry="2.1213598"
         transform="matrix(0.99249114,-0.12231653,0.12739424,0.99185216,0,0)" />
      <rect
         transform="matrix(0.99249114,-0.12231653,0.12739424,0.99185216,0,0)"
         ry="2.1213598"
         y="289.05826"
         x="328.53101"
         height="79.756622"
         width="9.0541677"
         id="rect3099"
         style="opacity:0.86635946;fill:#333f48;fill-opacity:1;fill-rule:evenodd;stroke:#f2a900;stroke-width:1.55290627;stroke-linecap:round;stroke-linejoin:round;stroke-miterlimit:4;stroke-opacity:0.68617021;stroke-dasharray:none;stroke-dashoffset:0" />
    </g>
    <rect
       transform="matrix(0.99787602,-0.06514175,0.06514175,0.99787602,0,0)"
       ry="2.1266568"
       y="266.64499"
       x="460.59015"
       height="96.217033"
       width="26.011429"
       id="rect3026"
       style="opacity:0.86635946;fill:#f2a900;fill-opacity:1;fill-rule:evenodd;stroke:#f2a900;stroke-width:2.06220484;stroke-linecap:round;stroke-linejoin:round;stroke-miterlimit:4;stroke-opacity:0.68617021;stroke-dasharray:none;stroke-dashoffset:0" />
    <rect
       style="opacity:0.86635946;fill:#f2a900;fill-opacity:1;fill-rule:evenodd;stroke:#f2a900;stroke-width:2.06220484;stroke-linecap:round;stroke-linejoin:round;stroke-miterlimit:4;stroke-opacity:0.68617021;stroke-dasharray:none;stroke-dashoffset:0"
       id="rect3019"
       width="26.011429"
       height="96.217033"
       x="372.05609"
       y="264.40103"
       ry="2.1266568"
       transform="matrix(0.99787602,-0.06514175,0.06514175,0.99787602,0,0)" />
    <path
       sodipodi:type="arc"
       style="opacity:0.86635946;fill:#000000;fill-opacity:1;fill-rule:evenodd;stroke:#f2a900;stroke-width:2.06220484;stroke-linecap:round;stroke-linejoin:round;stroke-miterlimit:4;stroke-opacity:0.68617021;stroke-dasharray:none;stroke-dashoffset:0"
       id="path3110"
       sodipodi:cx="388.39285"
       sodipodi:cy="287.54074"
       sodipodi:rx="6.6071429"
       sodipodi:ry="6.6071429"
       d="m 395,287.54074 a 6.6071429,6.6071429 0 1 1 -13.21429,0 6.6071429,6.6071429 0 1 1 13.21429,0 z"
       transform="translate(15.178571,-3.5714286)" />
    <rect
       style="opacity:0.86635945999999997;fill:#f2a900;fill-opacity:1;fill-rule:evenodd;stroke:#f2a900;stroke-width:2.06220484000000015;stroke-linecap:round;stroke-linejoin:round;stroke-miterlimit:4;stroke-opacity:0.68617021000000000;stroke-dasharray:none;stroke-dashoffset:0"
       id="rect3114"
       width="16.071428"
       height="65.535713"
       x="302.55359"
       y="195.98563"
       ry="2.1266568"
       transform="matrix(0.99899387,-0.044847,0.044847,0.99899387,0,0)" />
    <path
       style="fill:none;stroke:#d6d2c4;stroke-width:4.40000000000000036;stroke-linecap:butt;stroke-linejoin:miter;stroke-opacity:1;stroke-miterlimit:4;stroke-dasharray:none"
       d="M 456.58895,411.42039 C 403.55594,283.13102 403.55594,284.14117 403.55594,284.14117 c 0,0 -4.04061,0.50508 -8.08122,0.50508 -4.04061,0 -9.09137,-44.44671 -12.12183,-36.36549 -3.03046,8.08122 -2.52538,84.34773 -7.57614,70.2056 -5.05077,-14.14214 -7.57615,-76.26652 -10.6066,-67.68022 -3.03046,8.58629 -4.04061,83.33758 -8.08123,68.69037 -4.04061,-14.64721 -7.07106,-77.78175 -10.10152,-71.72083 -3.03046,6.06092 -6.06092,83.33758 -8.5863,72.22591 -2.52538,-11.11168 -12.12183,-59.09393 -12.6269,-70.20561 -0.50508,-11.11167 6.06091,-41.92133 -3.03046,-41.92133 -9.09137,0 -23.73859,-7.57614 -24.24366,1.51523 -0.50508,9.09138 9.59645,132.83506 0,131.31983 -9.59645,-1.51522 -14.64721,-89.3985 -18.68782,-74.24621 -4.04061,15.15229 -16.66752,28.78935 -16.66752,28.78935 l -132.83506,5.55584"
       id="path3116"
       inkscape:connector-curvature="0" />
    <rect
       style="opacity:0.86635946;fill:#f2a900;fill-opacity:1;fill-rule:evenodd;stroke:#bf5700;stroke-width:2.06220484;stroke-linecap:round;stroke-linejoin:round;stroke-miterlimit:4;stroke-opacity:0.68617021;stroke-dasharray:none;stroke-dashoffset:0"
       id="rect3118"
       width="48.992397"
       height="52.527931"
       x="162.07362"
       y="420.33844"
       ry="2.1266568" />
    <rect
       style="opacity:0.86635946;fill:#f2a900;fill-opacity:1;fill-rule:evenodd;stroke:#bf5700;stroke-width:2.40129662;stroke-linecap:round;stroke-linejoin:round;stroke-miterlimit:4;stroke-opacity:0.68617021;stroke-dasharray:none;stroke-dashoffset:0"
       id="rect3120"
       width="76.229454"
       height="60.984348"
       x="147.61082"
       y="500.81516"
       ry="2.1398215" />
    <rect
       style="opacity:0.86635946;fill:#f2a900;fill-opacity:1;fill-rule:evenodd;stroke:#bf5700;stroke-width:2.06220484;stroke-linecap:round;stroke-linejoin:round;stroke-miterlimit:4;stroke-opacity:0.68617021;stroke-dasharray:none;stroke-dashoffset:0"
       id="rect3122"
       width="57.07362"
       height="59.598999"
       x="256.36444"
       y="499.80615"
       ry="2.1266568" />
    <text
       xml:space="preserve"
       style="font-size:12px;font-style:normal;font-variant:normal;font-weight:normal;font-stretch:normal;text-align:center;line-height:125%;letter-spacing:0px;word-spacing:0px;text-anchor:middle;fill:#000000;fill-opacity:1;stroke:none;font-family:BKM-cmr10;-inkscape-font-specification:Sans"
       x="135.86552"
       y="326.06253"
       id="text3124"
       sodipodi:linespacing="125%"><tspan
         sodipodi:role="line"
         id="tspan3126"
         x="135.86552"
         y="326.06253">a=m+d</tspan></text>
    <text
       xml:space="preserve"
       style="font-size:12px;font-style:normal;font-variant:normal;font-weight:normal;font-stretch:normal;text-align:center;line-height:125%;letter-spacing:0px;word-spacing:0px;text-anchor:middle;fill:#000000;fill-opacity:1;stroke:none;font-family:BKM-cmr10;-inkscape-font-specification:Sans"
       x="307.59146"
       y="360.40768"
       id="text3128"
       sodipodi:linespacing="125%"><tspan
         sodipodi:role="line"
         id="tspan3130"
         x="307.59146"
         y="360.40768">m</tspan></text>
    <text
       xml:space="preserve"
       style="font-size:12px;font-style:normal;font-variant:normal;font-weight:normal;font-stretch:normal;text-align:center;line-height:125%;letter-spacing:0px;word-spacing:0px;text-anchor:middle;fill:#000000;fill-opacity:1;stroke:none;font-family:BKM-cmr10;-inkscape-font-specification:Sans"
       x="404.06104"
       y="349.29602"
       id="text3132"
       sodipodi:linespacing="125%"><tspan
         sodipodi:role="line"
         id="tspan3134"
         x="404.06104"
         y="349.29602">d</tspan></text>
    <text
       xml:space="preserve"
       style="font-size:12px;font-style:normal;font-variant:normal;font-weight:normal;font-stretch:normal;text-align:center;line-height:125%;letter-spacing:0px;word-spacing:0px;text-anchor:middle;fill:#000000;fill-opacity:1;stroke:none;font-family:BKM-cmr10;-inkscape-font-specification:Sans"
       x="403.55594"
       y="357.88232"
       id="text3136"
       sodipodi:linespacing="125%"><tspan
         sodipodi:role="line"
         id="tspan3138"
         x="403.55594"
         y="357.88232">s</tspan></text>
    <text
       xml:space="preserve"
       style="font-size:12px;font-style:normal;font-variant:normal;font-weight:normal;font-stretch:normal;text-align:center;line-height:125%;letter-spacing:0px;word-spacing:0px;text-anchor:middle;fill:#000000;fill-opacity:1;stroke:none;font-family:BKM-cmr10;-inkscape-font-specification:Sans"
       x="303.55084"
       y="373.03461"
       id="text3140"
       sodipodi:linespacing="125%"><tspan
         sodipodi:role="line"
         id="tspan3142"
         x="303.55084"
         y="373.03461">t</tspan></text>
    <text
       xml:space="preserve"
       style="font-size:12px;font-style:normal;font-variant:normal;font-weight:normal;font-stretch:normal;text-align:center;line-height:125%;letter-spacing:0px;word-spacing:0px;text-anchor:middle;fill:#000000;fill-opacity:1;stroke:none;font-family:BKM-cmr10;-inkscape-font-specification:Sans"
       x="116.16754"
       y="336.6691"
       id="text3144"
       sodipodi:linespacing="125%"><tspan
         sodipodi:role="line"
         id="tspan3146"
         x="116.16754"
         y="336.6691">f=</tspan></text>
    <rect
       transform="matrix(0.9959886,-0.08948025,-0.1329623,0.9911211,0,0)"
       ry="2.1154432"
       y="460.9288"
       x="673.03656"
       height="79.53418"
       width="9.3098106"
       id="rect3009-0"
       style="opacity:0.89400922;fill:#333f48;fill-opacity:1;fill-rule:evenodd;stroke:#f2a900;stroke-width:1.57247913;stroke-linecap:round;stroke-linejoin:round;stroke-miterlimit:4;stroke-opacity:0.68617021;stroke-dasharray:none;stroke-dashoffset:0" />
    <rect
       style="opacity:0.89400922;fill:#333f48;fill-opacity:1;fill-rule:evenodd;stroke:#f2a900;stroke-width:1.57247913;stroke-linecap:round;stroke-linejoin:round;stroke-miterlimit:4;stroke-opacity:0.68617021;stroke-dasharray:none;stroke-dashoffset:0"
       id="rect3030-2"
       width="9.3098106"
       height="79.53418"
       x="696.79694"
       y="462.91946"
       ry="2.1154432"
       transform="matrix(0.9959886,-0.08948025,-0.1329623,0.9911211,0,0)" />
    <rect
       transform="matrix(0.9959886,-0.08948025,-0.1329623,0.9911211,0,0)"
       ry="2.1154432"
       y="464.19342"
       x="718.84308"
       height="79.53418"
       width="9.3098106"
       id="rect3034-2"
       style="opacity:0.89400922;fill:#333f48;fill-opacity:1;fill-rule:evenodd;stroke:#f2a900;stroke-width:1.57247913;stroke-linecap:round;stroke-linejoin:round;stroke-miterlimit:4;stroke-opacity:0.68617021;stroke-dasharray:none;stroke-dashoffset:0" />
    <rect
       transform="matrix(0.99965741,-0.02617387,0.04354813,0.99905133,0,0)"
       ry="1.4083858"
       y="422.54813"
       x="524.26196"
       height="61.776154"
       width="28.60659"
       id="rect3108-2"
       style="opacity:0.89400922;fill:#f2a900;fill-opacity:1;fill-rule:evenodd;stroke:#f2a900;stroke-width:1.70015537999999999;stroke-linecap:round;stroke-linejoin:round;stroke-miterlimit:4;stroke-opacity:0.68617021000000000;stroke-dasharray:none;stroke-dashoffset:0" />
    <rect
       style="opacity:0.86635946;fill:#f2a900;fill-opacity:1;fill-rule:evenodd;stroke:#f2a900;stroke-width:2.06220484;stroke-linecap:round;stroke-linejoin:round;stroke-miterlimit:4;stroke-opacity:0.68617021;stroke-dasharray:none;stroke-dashoffset:0"
       id="rect2985-6"
       width="384.54297"
       height="19.148203"
       x="369.70306"
       y="459.59027"
       ry="2.0957"
       transform="matrix(0.99851935,-0.05439769,0.05439769,0.99851935,0,0)" />
    <rect
       style="opacity:0.89400922;fill:#bf5700;fill-opacity:1;fill-rule:evenodd;stroke:#f2a900;stroke-width:2.06220484000000015;stroke-linecap:round;stroke-linejoin:round;stroke-miterlimit:4;stroke-opacity:0.68617021000000000;stroke-dasharray:none;stroke-dashoffset:0"
       id="rect2985-0"
       width="384.54297"
       height="19.148203"
       x="355.60934"
       y="458.31665"
       ry="2.0957"
       transform="matrix(0.99851935,-0.05439769,0.05439769,0.99851935,0,0)" />
    <rect
       style="opacity:0.89400922;fill:#333f48;fill-opacity:1;fill-rule:evenodd;stroke:#f2a900;stroke-width:1.55290627;stroke-linecap:round;stroke-linejoin:round;stroke-miterlimit:4;stroke-opacity:0.68617021;stroke-dasharray:none;stroke-dashoffset:0"
       id="rect2999-1"
       width="9.0541677"
       height="79.756622"
       x="504.93283"
       y="491.27136"
       ry="2.1213598"
       transform="matrix(0.98518418,-0.17149965,0.17653932,0.98429359,0,0)" />
    <rect
       transform="matrix(0.98518418,-0.17149965,0.17653932,0.98429359,0,0)"
       ry="2.1213598"
       y="495.59485"
       x="529.4256"
       height="79.756622"
       width="9.0541677"
       id="rect3011-8"
       style="opacity:0.89400922;fill:#333f48;fill-opacity:1;fill-rule:evenodd;stroke:#f2a900;stroke-width:1.55290627;stroke-linecap:round;stroke-linejoin:round;stroke-miterlimit:4;stroke-opacity:0.68617021;stroke-dasharray:none;stroke-dashoffset:0" />
    <rect
       style="opacity:0.89400922;fill:#333f48;fill-opacity:1;fill-rule:evenodd;stroke:#f2a900;stroke-width:1.55290627;stroke-linecap:round;stroke-linejoin:round;stroke-miterlimit:4;stroke-opacity:0.68617021;stroke-dasharray:none;stroke-dashoffset:0"
       id="rect3032-4"
       width="9.0541677"
       height="79.756622"
       x="551.9281"
       y="498.19751"
       ry="2.1213598"
       transform="matrix(0.98518418,-0.17149965,0.17653932,0.98429359,0,0)" />
    <rect
       transform="matrix(0.98518418,-0.17149965,0.17653932,0.98429359,0,0)"
       ry="2.1213598"
       y="501.93777"
       x="572.42401"
       height="79.756622"
       width="9.0541677"
       id="rect3036-6"
       style="opacity:0.89400922;fill:#333f48;fill-opacity:1;fill-rule:evenodd;stroke:#f2a900;stroke-width:1.55290627;stroke-linecap:round;stroke-linejoin:round;stroke-miterlimit:4;stroke-opacity:0.68617021;stroke-dasharray:none;stroke-dashoffset:0" />
    <rect
       style="opacity:0.89400922;fill:#f2a900;fill-opacity:1;fill-rule:evenodd;stroke:#f2a900;stroke-width:2.06220484000000015;stroke-linecap:round;stroke-linejoin:round;stroke-miterlimit:4;stroke-opacity:0.68617021000000000;stroke-dasharray:none;stroke-dashoffset:0"
       id="rect2991-0"
       width="28.284271"
       height="91.923882"
       x="539.41119"
       y="414.35629"
       ry="2.0957"
       transform="matrix(0.99922361,-0.03939775,0.03939775,0.99922361,0,0)" />
    <rect
       style="opacity:0.89400922;fill:#f2a900;fill-opacity:1;fill-rule:evenodd;stroke:#f2a900;stroke-width:2.06220484000000015;stroke-linecap:round;stroke-linejoin:round;stroke-miterlimit:4;stroke-opacity:0.68617021000000000;stroke-dasharray:none;stroke-dashoffset:0"
       id="rect2993-1"
       width="28.284271"
       height="41.416256"
       x="532.80823"
       y="371.2049"
       ry="2.0957"
       transform="matrix(0.99840121,-0.05652451,0.05652451,0.99840121,0,0)" />
    <rect
       style="opacity:0.53917051;fill:#f2a900;fill-opacity:1;fill-rule:evenodd;stroke:#f2a900;stroke-width:2.06220484000000015;stroke-linecap:round;stroke-linejoin:round;stroke-miterlimit:4;stroke-opacity:0.68617021000000000;stroke-dasharray:none;stroke-dashoffset:0"
       id="rect3112-6"
       width="26.011429"
       height="96.217033"
       x="549.0694"
       y="427.96149"
       ry="2.1266568"
       transform="matrix(0.99787602,-0.06514175,0.06514175,0.99787602,0,0)" />
    <rect
       style="opacity:0.89400922;fill:#000000;fill-opacity:1;fill-rule:evenodd;stroke:#f2a900;stroke-width:2.06220484000000015;stroke-linecap:round;stroke-linejoin:round;stroke-miterlimit:4;stroke-opacity:0.68617021000000000;stroke-dasharray:none;stroke-dashoffset:0"
       id="rect2995-2"
       width="16.162441"
       height="160.61426"
       x="545.37305"
       y="354.84482"
       ry="2.0957"
       transform="matrix(0.99921592,-0.03959219,0.03959219,0.99921592,0,0)" />
    <rect
       style="opacity:0.53917051;fill:#f2a900;fill-opacity:1;fill-rule:evenodd;stroke:#f2a900;stroke-width:2.06220484000000015;stroke-linecap:round;stroke-linejoin:round;stroke-miterlimit:4;stroke-opacity:0.68617021000000000;stroke-dasharray:none;stroke-dashoffset:0"
       id="rect2997-5"
       width="158.59395"
       height="44.446712"
       x="569.69287"
       y="358.81113"
       ry="2.0957"
       transform="matrix(0.99920236,-0.0399329,0.0399329,0.99920236,0,0)" />
    <rect
       style="opacity:0.77453332;fill:#333f48;fill-opacity:1;fill-rule:evenodd;stroke:#f2a900;stroke-width:1.57247913;stroke-linecap:round;stroke-linejoin:round;stroke-miterlimit:4;stroke-opacity:0.68617021;stroke-dasharray:none;stroke-dashoffset:0"
       id="rect3087-1"
       width="9.3098106"
       height="79.53418"
       x="744.87396"
       y="506.93713"
       ry="2.1154432"
       transform="matrix(0.98871565,-0.14980442,-0.07252312,0.99736673,0,0)" />
    <rect
       transform="matrix(0.99481034,-0.10174667,0.10683652,0.9942766,0,0)"
       ry="2.1213598"
       y="461.41876"
       x="639.4917"
       height="79.756622"
       width="9.0541677"
       id="rect3089-2"
       style="opacity:0.77453332;fill:#333f48;fill-opacity:1;fill-rule:evenodd;stroke:#f2a900;stroke-width:1.55290627;stroke-linecap:round;stroke-linejoin:round;stroke-miterlimit:4;stroke-opacity:0.68617021;stroke-dasharray:none;stroke-dashoffset:0" />
    <rect
       transform="matrix(0.98871565,-0.14980442,-0.07252312,0.99736673,0,0)"
       ry="2.1154432"
       y="508.33099"
       x="759.13403"
       height="79.53418"
       width="9.3098106"
       id="rect3091-5"
       style="opacity:0.77453332;fill:#333f48;fill-opacity:1;fill-rule:evenodd;stroke:#f2a900;stroke-width:1.57247913;stroke-linecap:round;stroke-linejoin:round;stroke-miterlimit:4;stroke-opacity:0.68617021;stroke-dasharray:none;stroke-dashoffset:0" />
    <rect
       style="opacity:0.77453332;fill:#333f48;fill-opacity:1;fill-rule:evenodd;stroke:#f2a900;stroke-width:1.55290627;stroke-linecap:round;stroke-linejoin:round;stroke-miterlimit:4;stroke-opacity:0.68617021;stroke-dasharray:none;stroke-dashoffset:0"
       id="rect3093-9"
       width="9.0541677"
       height="79.756622"
       x="652.68445"
       y="462.38089"
       ry="2.1213598"
       transform="matrix(0.99481034,-0.10174667,0.10683652,0.9942766,0,0)" />
    <rect
       style="opacity:0.77453332;fill:#333f48;fill-opacity:1;fill-rule:evenodd;stroke:#f2a900;stroke-width:1.57247913;stroke-linecap:round;stroke-linejoin:round;stroke-miterlimit:4;stroke-opacity:0.68617021;stroke-dasharray:none;stroke-dashoffset:0"
       id="rect3095-2"
       width="9.3098106"
       height="79.53418"
       x="772.43939"
       y="510.13458"
       ry="2.1154432"
       transform="matrix(0.98871565,-0.14980442,-0.07252312,0.99736673,0,0)" />
    <rect
       transform="matrix(0.99481034,-0.10174667,0.10683652,0.9942766,0,0)"
       ry="2.1213598"
       y="463.14603"
       x="666.18842"
       height="79.756622"
       width="9.0541677"
       id="rect3097-0"
       style="opacity:0.77453332;fill:#333f48;fill-opacity:1;fill-rule:evenodd;stroke:#f2a900;stroke-width:1.55290627;stroke-linecap:round;stroke-linejoin:round;stroke-miterlimit:4;stroke-opacity:0.68617021;stroke-dasharray:none;stroke-dashoffset:0" />
    <rect
       style="opacity:0.77453332;fill:#333f48;fill-opacity:1;fill-rule:evenodd;stroke:#f2a900;stroke-width:1.55290627;stroke-linecap:round;stroke-linejoin:round;stroke-miterlimit:4;stroke-opacity:0.68617021;stroke-dasharray:none;stroke-dashoffset:0"
       id="rect3099-5"
       width="9.0541677"
       height="79.756622"
       x="680.42865"
       y="464.90216"
       ry="2.1213598"
       transform="matrix(0.99481034,-0.10174667,0.10683652,0.9942766,0,0)" />
    <rect
       style="opacity:0.89400922;fill:#f2a900;fill-opacity:1;fill-rule:evenodd;stroke:#f2a900;stroke-width:2.06220484000000015;stroke-linecap:round;stroke-linejoin:round;stroke-miterlimit:4;stroke-opacity:0.68617021000000000;stroke-dasharray:none;stroke-dashoffset:0"
       id="rect3019-1"
       width="26.011429"
       height="96.217033"
       x="635.03625"
       y="430.8457"
       ry="2.1266568"
       transform="matrix(0.99787602,-0.06514175,0.06514175,0.99787602,0,0)" />
    <rect
       transform="matrix(0.99787602,-0.06514175,0.06514175,0.99787602,0,0)"
       ry="2.1266568"
       y="433.08966"
       x="723.57031"
       height="96.217033"
       width="26.011429"
       id="rect3026-7"
       style="opacity:0.640553;fill:#f2a900;fill-opacity:1;fill-rule:evenodd;stroke:#f2a900;stroke-width:2.06220484000000015;stroke-linecap:round;stroke-linejoin:round;stroke-miterlimit:4;stroke-opacity:0.68617021000000000;stroke-dasharray:none;stroke-dashoffset:0" />
    <path
       sodipodi:type="arc"
       style="opacity:0.89400922;fill:#000000;fill-opacity:1;fill-rule:evenodd;stroke:#f2a900;stroke-width:2.06220484000000015;stroke-linecap:round;stroke-linejoin:round;stroke-miterlimit:4;stroke-opacity:0.68617021000000000;stroke-dasharray:none;stroke-dashoffset:0"
       id="path3110-2"
       sodipodi:cx="388.39285"
       sodipodi:cy="287.54074"
       sodipodi:rx="6.6071429"
       sodipodi:ry="6.6071429"
       d="m 395,287.54074 a 6.6071429,6.6071429 0 1 1 -13.21429,0 6.6071429,6.6071429 0 1 1 13.21429,0 z"
       transform="translate(288.44263,145.38875)" />
    <rect
       style="opacity:0.53917051;fill:#f2a900;fill-opacity:1;fill-rule:evenodd;stroke:#f2a900;stroke-width:2.06220484000000015;stroke-linecap:round;stroke-linejoin:round;stroke-miterlimit:4;stroke-opacity:0.68617021000000000;stroke-dasharray:none;stroke-dashoffset:0"
       id="rect3114-8"
       width="16.071428"
       height="65.535713"
       x="568.8623"
       y="357.05099"
       ry="2.1266568"
       transform="matrix(0.99899387,-0.044847,0.044847,0.99899387,0,0)" />
    <text
       xml:space="preserve"
       style="font-size:12px;font-style:normal;font-variant:normal;font-weight:normal;font-stretch:normal;text-align:center;line-height:125%;letter-spacing:0px;word-spacing:0px;text-anchor:middle;fill:#000000;fill-opacity:1;stroke:none;font-family:BKM-cmr10;-inkscape-font-specification:Sans;opacity:0.89400922"
       x="677.32507"
       y="498.2562"
       id="text3132-4"
       sodipodi:linespacing="125%"><tspan
         sodipodi:role="line"
         id="tspan3134-0"
         x="677.32507"
         y="498.2562">d</tspan></text>
    <rect
       transform="matrix(0.99965741,-0.02617387,0.04354813,0.99905133,0,0)"
       ry="1.4083858"
       y="421.67294"
       x="510.15314"
       height="61.776154"
       width="28.60659"
       id="rect3108-6"
       style="opacity:0.89400922;fill:#bf5700;fill-opacity:1;fill-rule:evenodd;stroke:#f2a900;stroke-width:1.70015537999999999;stroke-linecap:round;stroke-linejoin:round;stroke-miterlimit:4;stroke-opacity:0.68617021000000000;stroke-dasharray:none;stroke-dashoffset:0" />
    <rect
       style="opacity:0.89400922;fill:#bf5700;fill-opacity:1;fill-rule:evenodd;stroke:#f2a900;stroke-width:2.06220484000000015;stroke-linecap:round;stroke-linejoin:round;stroke-miterlimit:4;stroke-opacity:0.68617021000000000;stroke-dasharray:none;stroke-dashoffset:0"
       id="rect2991-6"
       width="28.284271"
       height="91.923882"
       x="525.29993"
       y="413.29446"
       ry="2.0957"
       transform="matrix(0.99922361,-0.03939775,0.03939775,0.99922361,0,0)" />
    <rect
       style="opacity:0.89400922;fill:#bf5700;fill-opacity:1;fill-rule:evenodd;stroke:#f2a900;stroke-width:2.06220484000000015;stroke-linecap:round;stroke-linejoin:round;stroke-miterlimit:4;stroke-opacity:0.68617021000000000;stroke-dasharray:none;stroke-dashoffset:0"
       id="rect2993-0"
       width="28.284271"
       height="41.416256"
       x="518.71729"
       y="369.90125"
       ry="2.0957"
       transform="matrix(0.99840121,-0.05652451,0.05652451,0.99840121,0,0)" />
    <rect
       style="opacity:0.89400922;fill:#bf5700;fill-opacity:1;fill-rule:evenodd;stroke:#f2a900;stroke-width:2.06220484000000015;stroke-linecap:round;stroke-linejoin:round;stroke-miterlimit:4;stroke-opacity:0.68617021000000000;stroke-dasharray:none;stroke-dashoffset:0"
       id="rect3114-2"
       width="16.071428"
       height="65.535713"
       x="554.75702"
       y="355.91223"
       ry="2.1266568"
       transform="matrix(0.99899387,-0.044847,0.044847,0.99899387,0,0)" />
    <rect
       style="opacity:0.89400922;fill:#bf5700;fill-opacity:1;fill-rule:evenodd;stroke:#f2a900;stroke-width:2.06220484000000015;stroke-linecap:round;stroke-linejoin:round;stroke-miterlimit:4;stroke-opacity:0.68617021000000000;stroke-dasharray:none;stroke-dashoffset:0"
       id="rect3112-8"
       width="26.011429"
       height="96.217033"
       x="534.99023"
       y="426.53629"
       ry="2.1266568"
       transform="matrix(0.99787602,-0.06514175,0.06514175,0.99787602,0,0)" />
    <rect
       style="opacity:0.89400922;fill:#333f48;fill-opacity:1;fill-rule:evenodd;stroke:#f2a900;stroke-width:2.06220484000000015;stroke-linecap:round;stroke-linejoin:round;stroke-miterlimit:4;stroke-opacity:0.68617021000000000;stroke-dasharray:none;stroke-dashoffset:0"
       id="rect2995-9"
       width="16.162441"
       height="160.61426"
       x="531.26196"
       y="353.78024"
       ry="2.0957"
       transform="matrix(0.99921592,-0.03959219,0.03959219,0.99921592,0,0)" />
    <rect
       style="opacity:0.89400922;fill:#bf5700;fill-opacity:1;fill-rule:evenodd;stroke:#f2a900;stroke-width:2.06220484000000015;stroke-linecap:round;stroke-linejoin:round;stroke-miterlimit:4;stroke-opacity:0.68617021000000000;stroke-dasharray:none;stroke-dashoffset:0"
       id="rect2997-55"
       width="158.59395"
       height="44.446712"
       x="555.58215"
       y="357.74173"
       ry="2.0957"
       transform="matrix(0.99920236,-0.0399329,0.0399329,0.99920236,0,0)" />
    <rect
       transform="matrix(0.99787602,-0.06514175,0.06514175,0.99787602,0,0)"
       ry="2.1266568"
       y="431.66446"
       x="709.49115"
       height="96.217033"
       width="26.011429"
       id="rect3026-5"
       style="opacity:0.89400922;fill:#bf5700;fill-opacity:1;fill-rule:evenodd;stroke:#f2a900;stroke-width:2.06220484;stroke-linecap:round;stroke-linejoin:round;stroke-miterlimit:4;stroke-opacity:0.68617021;stroke-dasharray:none;stroke-dashoffset:0" />
    <rect
       transform="matrix(0.99289931,-0.11895779,-0.1035313,0.9946262,0,0)"
       ry="2.1154432"
       y="672.20569"
       x="691.99896"
       height="79.53418"
       width="9.3098106"
       id="rect3009-5"
       style="opacity:0.86635946;fill:#333f48;fill-opacity:1;fill-rule:evenodd;stroke:#f2a900;stroke-width:1.57247913;stroke-linecap:round;stroke-linejoin:round;stroke-miterlimit:4;stroke-opacity:0.68617021;stroke-dasharray:none;stroke-dashoffset:0" />
    <rect
       style="opacity:0.86635946;fill:#333f48;fill-opacity:1;fill-rule:evenodd;stroke:#f2a900;stroke-width:1.57247913;stroke-linecap:round;stroke-linejoin:round;stroke-miterlimit:4;stroke-opacity:0.68617021;stroke-dasharray:none;stroke-dashoffset:0"
       id="rect3030-24"
       width="9.3098106"
       height="79.53418"
       x="711.24677"
       y="673.96912"
       ry="2.1154432"
       transform="matrix(0.99289931,-0.11895779,-0.1035313,0.9946262,0,0)" />
    <rect
       transform="matrix(0.99289931,-0.11895779,-0.1035313,0.9946262,0,0)"
       ry="2.1154432"
       y="675.82721"
       x="729.7851"
       height="79.53418"
       width="9.3098106"
       id="rect3034-9"
       style="opacity:0.86635946;fill:#333f48;fill-opacity:1;fill-rule:evenodd;stroke:#f2a900;stroke-width:1.57247913;stroke-linecap:round;stroke-linejoin:round;stroke-miterlimit:4;stroke-opacity:0.68617021;stroke-dasharray:none;stroke-dashoffset:0" />
    <rect
       transform="matrix(0.99965741,-0.02617387,0.04354813,0.99905133,0,0)"
       ry="1.4083858"
       y="612.7608"
       x="518.42505"
       height="61.776154"
       width="28.60659"
       id="rect3108-4"
       style="opacity:0.86635946;fill:#bf5700;fill-opacity:1;fill-rule:evenodd;stroke:#f2a900;stroke-width:1.70015538;stroke-linecap:round;stroke-linejoin:round;stroke-miterlimit:4;stroke-opacity:0.68617021;stroke-dasharray:none;stroke-dashoffset:0" />
    <rect
       style="opacity:0.86635946;fill:#bf5700;fill-opacity:1;fill-rule:evenodd;stroke:#f2a900;stroke-width:2.06220484;stroke-linecap:round;stroke-linejoin:round;stroke-miterlimit:4;stroke-opacity:0.68617021;stroke-dasharray:none;stroke-dashoffset:0"
       id="rect2985-5"
       width="384.54297"
       height="19.148203"
       x="340.35617"
       y="638.01855"
       ry="2.0957"
       transform="matrix(0.99947641,-0.03235602,0.03235602,0.99947641,0,0)"
       inkscape:transform-center-x="182.80683"
       inkscape:transform-center-y="7.1445753" />
    <rect
       style="opacity:0.86635946;fill:#333f48;fill-opacity:1;fill-rule:evenodd;stroke:#f2a900;stroke-width:1.55290627;stroke-linecap:round;stroke-linejoin:round;stroke-miterlimit:4;stroke-opacity:0.68617021;stroke-dasharray:none;stroke-dashoffset:0"
       id="rect2999-5"
       width="9.0541677"
       height="79.756622"
       x="519.99097"
       y="655.26538"
       ry="2.1213598"
       transform="matrix(0.99249114,-0.12231653,0.12739424,0.99185216,0,0)" />
    <rect
       transform="matrix(0.99249114,-0.12231653,0.12739424,0.99185216,0,0)"
       ry="2.1213598"
       y="657.16296"
       x="537.84949"
       height="79.756622"
       width="9.0541677"
       id="rect3011-4"
       style="opacity:0.86635946;fill:#333f48;fill-opacity:1;fill-rule:evenodd;stroke:#f2a900;stroke-width:1.55290627;stroke-linecap:round;stroke-linejoin:round;stroke-miterlimit:4;stroke-opacity:0.68617021;stroke-dasharray:none;stroke-dashoffset:0" />
    <rect
       style="opacity:0.86635946;fill:#333f48;fill-opacity:1;fill-rule:evenodd;stroke:#f2a900;stroke-width:1.55290627;stroke-linecap:round;stroke-linejoin:round;stroke-miterlimit:4;stroke-opacity:0.68617021;stroke-dasharray:none;stroke-dashoffset:0"
       id="rect3032-6"
       width="9.0541677"
       height="79.756622"
       x="556.69232"
       y="658.94653"
       ry="2.1213598"
       transform="matrix(0.99249114,-0.12231653,0.12739424,0.99185216,0,0)" />
    <rect
       transform="matrix(0.99249114,-0.12231653,0.12739424,0.99185216,0,0)"
       ry="2.1213598"
       y="660.82001"
       x="574.80396"
       height="79.756622"
       width="9.0541677"
       id="rect3036-0"
       style="opacity:0.86635946;fill:#333f48;fill-opacity:1;fill-rule:evenodd;stroke:#f2a900;stroke-width:1.55290627;stroke-linecap:round;stroke-linejoin:round;stroke-miterlimit:4;stroke-opacity:0.68617021;stroke-dasharray:none;stroke-dashoffset:0" />
    <rect
       style="opacity:0.86635946;fill:#bf5700;fill-opacity:1;fill-rule:evenodd;stroke:#f2a900;stroke-width:2.06220484;stroke-linecap:round;stroke-linejoin:round;stroke-miterlimit:4;stroke-opacity:0.68617021;stroke-dasharray:none;stroke-dashoffset:0"
       id="rect2991-2"
       width="28.284271"
       height="91.923882"
       x="534.36493"
       y="604.49011"
       ry="2.0957"
       transform="matrix(0.99922361,-0.03939775,0.03939775,0.99922361,0,0)" />
    <rect
       style="opacity:0.86635946;fill:#bf5700;fill-opacity:1;fill-rule:evenodd;stroke:#f2a900;stroke-width:2.06220484;stroke-linecap:round;stroke-linejoin:round;stroke-miterlimit:4;stroke-opacity:0.68617021;stroke-dasharray:none;stroke-dashoffset:0"
       id="rect2993-3"
       width="28.284271"
       height="41.416256"
       x="524.50275"
       y="561.22424"
       ry="2.0957"
       transform="matrix(0.99840121,-0.05652451,0.05652451,0.99840121,0,0)" />
    <rect
       style="opacity:0.86635946;fill:#f2a900;fill-opacity:1;fill-rule:evenodd;stroke:#f2a900;stroke-width:2.06220484;stroke-linecap:round;stroke-linejoin:round;stroke-miterlimit:4;stroke-opacity:0.68617021;stroke-dasharray:none;stroke-dashoffset:0"
       id="rect3112-2"
       width="26.011429"
       height="96.217033"
       x="539.12372"
       y="617.9021"
       ry="2.1266568"
       transform="matrix(0.99787602,-0.06514175,0.06514175,0.99787602,0,0)" />
    <rect
       style="opacity:0.86635946;fill:#bf5700;fill-opacity:1;fill-rule:evenodd;stroke:#f2a900;stroke-width:2.06220484;stroke-linecap:round;stroke-linejoin:round;stroke-miterlimit:4;stroke-opacity:0.68617021;stroke-dasharray:none;stroke-dashoffset:0"
       id="rect2995-6"
       width="16.162441"
       height="160.61426"
       x="540.28973"
       y="544.97766"
       ry="2.0957"
       transform="matrix(0.99921592,-0.03959219,0.03959219,0.99921592,0,0)" />
    <rect
       style="opacity:0.86635946;fill:#f2a900;fill-opacity:1;fill-rule:evenodd;stroke:#f2a900;stroke-width:2.06220484;stroke-linecap:round;stroke-linejoin:round;stroke-miterlimit:4;stroke-opacity:0.68617021;stroke-dasharray:none;stroke-dashoffset:0"
       id="rect2997-6"
       width="158.59395"
       height="44.446712"
       x="564.54474"
       y="548.9422"
       ry="2.0957"
       transform="matrix(0.99920236,-0.0399329,0.0399329,0.99920236,0,0)" />
    <g
       id="g3085-56"
       transform="translate(379.16217,336.08408)">
      <rect
         transform="matrix(0.99289931,-0.11895779,-0.1035313,0.9946262,0,0)"
         ry="2.1154432"
         y="291.87665"
         x="358.47079"
         height="79.53418"
         width="9.3098106"
         id="rect3087-16"
         style="opacity:0.86635946;fill:#333f48;fill-opacity:1;fill-rule:evenodd;stroke:#f2a900;stroke-width:1.57247913;stroke-linecap:round;stroke-linejoin:round;stroke-miterlimit:4;stroke-opacity:0.68617021;stroke-dasharray:none;stroke-dashoffset:0" />
      <rect
         style="opacity:0.86635946;fill:#333f48;fill-opacity:1;fill-rule:evenodd;stroke:#f2a900;stroke-width:1.55290627;stroke-linecap:round;stroke-linejoin:round;stroke-miterlimit:4;stroke-opacity:0.68617021;stroke-dasharray:none;stroke-dashoffset:0"
         id="rect3089-57"
         width="9.0541677"
         height="79.756622"
         x="273.8042"
         y="284.23438"
         ry="2.1213598"
         transform="matrix(0.99249114,-0.12231653,0.12739424,0.99185216,0,0)" />
      <rect
         style="opacity:0.86635946;fill:#333f48;fill-opacity:1;fill-rule:evenodd;stroke:#f2a900;stroke-width:1.57247913;stroke-linecap:round;stroke-linejoin:round;stroke-miterlimit:4;stroke-opacity:0.68617021;stroke-dasharray:none;stroke-dashoffset:0"
         id="rect3091-9"
         width="9.3098106"
         height="79.53418"
         x="377.7186"
         y="293.64008"
         ry="2.1154432"
         transform="matrix(0.99289931,-0.11895779,-0.1035313,0.9946262,0,0)" />
      <rect
         transform="matrix(0.99249114,-0.12231653,0.12739424,0.99185216,0,0)"
         ry="2.1213598"
         y="285.40118"
         x="291.57657"
         height="79.756622"
         width="9.0541677"
         id="rect3093-94"
         style="opacity:0.86635946;fill:#333f48;fill-opacity:1;fill-rule:evenodd;stroke:#f2a900;stroke-width:1.55290627;stroke-linecap:round;stroke-linejoin:round;stroke-miterlimit:4;stroke-opacity:0.68617021;stroke-dasharray:none;stroke-dashoffset:0" />
      <rect
         transform="matrix(0.99289931,-0.11895779,-0.1035313,0.9946262,0,0)"
         ry="2.1154432"
         y="295.4982"
         x="396.2569"
         height="79.53418"
         width="9.3098106"
         id="rect3095-0"
         style="opacity:0.86635946;fill:#333f48;fill-opacity:1;fill-rule:evenodd;stroke:#f2a900;stroke-width:1.57247913;stroke-linecap:round;stroke-linejoin:round;stroke-miterlimit:4;stroke-opacity:0.68617021;stroke-dasharray:none;stroke-dashoffset:0" />
      <rect
         style="opacity:0.86635946;fill:#333f48;fill-opacity:1;fill-rule:evenodd;stroke:#f2a900;stroke-width:1.55290627;stroke-linecap:round;stroke-linejoin:round;stroke-miterlimit:4;stroke-opacity:0.68617021;stroke-dasharray:none;stroke-dashoffset:0"
         id="rect3097-3"
         width="9.0541677"
         height="79.756622"
         x="310.4194"
         y="287.18478"
         ry="2.1213598"
         transform="matrix(0.99249114,-0.12231653,0.12739424,0.99185216,0,0)" />
      <rect
         transform="matrix(0.99249114,-0.12231653,0.12739424,0.99185216,0,0)"
         ry="2.1213598"
         y="289.05826"
         x="328.53101"
         height="79.756622"
         width="9.0541677"
         id="rect3099-1"
         style="opacity:0.86635946;fill:#333f48;fill-opacity:1;fill-rule:evenodd;stroke:#f2a900;stroke-width:1.55290627;stroke-linecap:round;stroke-linejoin:round;stroke-miterlimit:4;stroke-opacity:0.68617021;stroke-dasharray:none;stroke-dashoffset:0" />
    </g>
    <rect
       transform="matrix(0.99787602,-0.06514175,0.06514175,0.99787602,0,0)"
       ry="2.1266568"
       y="623.03027"
       x="713.62463"
       height="96.217033"
       width="26.011429"
       id="rect3026-51"
       style="opacity:0.86635946;fill:#f2a900;fill-opacity:1;fill-rule:evenodd;stroke:#f2a900;stroke-width:2.06220484;stroke-linecap:round;stroke-linejoin:round;stroke-miterlimit:4;stroke-opacity:0.68617021;stroke-dasharray:none;stroke-dashoffset:0" />
    <rect
       style="opacity:0.86635946;fill:#f2a900;fill-opacity:1;fill-rule:evenodd;stroke:#f2a900;stroke-width:2.06220484;stroke-linecap:round;stroke-linejoin:round;stroke-miterlimit:4;stroke-opacity:0.68617021;stroke-dasharray:none;stroke-dashoffset:0"
       id="rect3019-32"
       width="26.011429"
       height="96.217033"
       x="625.09058"
       y="620.78632"
       ry="2.1266568"
       transform="matrix(0.99787602,-0.06514175,0.06514175,0.99787602,0,0)" />
    <path
       sodipodi:type="arc"
       style="opacity:0.86635946;fill:#000000;fill-opacity:1;fill-rule:evenodd;stroke:#f2a900;stroke-width:2.06220484;stroke-linecap:round;stroke-linejoin:round;stroke-miterlimit:4;stroke-opacity:0.68617021;stroke-dasharray:none;stroke-dashoffset:0"
       id="path3110-5"
       sodipodi:cx="388.39285"
       sodipodi:cy="287.54074"
       sodipodi:rx="6.6071429"
       sodipodi:ry="6.6071429"
       d="m 395,287.54074 a 6.6071429,6.6071429 0 1 1 -13.21429,0 6.6071429,6.6071429 0 1 1 13.21429,0 z"
       transform="translate(290.89112,335.57375)" />
    <rect
       style="opacity:0.86635946;fill:#f2a900;fill-opacity:1;fill-rule:evenodd;stroke:#f2a900;stroke-width:2.06220484;stroke-linecap:round;stroke-linejoin:round;stroke-miterlimit:4;stroke-opacity:0.68617021;stroke-dasharray:none;stroke-dashoffset:0"
       id="rect3114-9"
       width="16.071428"
       height="65.535713"
       x="562.77911"
       y="547.15448"
       ry="2.1266568"
       transform="matrix(0.99899387,-0.044847,0.044847,0.99899387,0,0)" />
    <text
       xml:space="preserve"
       style="font-size:12px;font-style:normal;font-variant:normal;font-weight:normal;font-stretch:normal;text-align:center;line-height:125%;letter-spacing:0px;word-spacing:0px;text-anchor:middle;fill:#000000;fill-opacity:1;stroke:none;font-family:BKM-cmr10;-inkscape-font-specification:Sans"
       x="576.20215"
       y="698.44122"
       id="text3132-46"
       sodipodi:linespacing="125%"><tspan
         sodipodi:role="line"
         id="tspan3134-6"
         x="576.20215"
         y="698.44122">m</tspan></text>
    <text
       xml:space="preserve"
       style="font-size:12px;font-style:normal;font-variant:normal;font-weight:normal;font-stretch:normal;text-align:center;line-height:125%;letter-spacing:0px;word-spacing:0px;text-anchor:middle;fill:#000000;fill-opacity:1;stroke:none;font-family:BKM-cmr10;-inkscape-font-specification:Sans"
       x="186.8111"
       y="435.02496"
       id="text4250"
       sodipodi:linespacing="125%"><tspan
         sodipodi:role="line"
         x="186.8111"
         y="435.02496"
         id="tspan4254">Rotary</tspan><tspan
         sodipodi:role="line"
         x="186.8111"
         y="450.02496"
         id="tspan4930">mass of</tspan><tspan
         sodipodi:role="line"
         x="186.8111"
         y="465.02496"
         id="tspan4934">Trans.</tspan></text>
    <text
       xml:space="preserve"
       style="font-size:12px;font-style:normal;font-variant:normal;font-weight:normal;font-stretch:normal;text-align:center;line-height:125%;letter-spacing:0px;word-spacing:0px;text-anchor:middle;fill:#000000;fill-opacity:1;stroke:none;font-family:BKM-cmr10;-inkscape-font-specification:Sans"
       x="185.35715"
       y="519.50507"
       id="text4258"
       sodipodi:linespacing="125%"><tspan
         sodipodi:role="line"
         x="185.35715"
         y="519.50507"
         id="tspan4938">ball-nut to</tspan><tspan
         sodipodi:role="line"
         x="185.35715"
         y="534.50507"
         id="tspan4945">ball-screw</tspan><tspan
         sodipodi:role="line"
         x="185.35715"
         y="549.50507"
         id="tspan4947">differential</tspan></text>
    <rect
       ry="2.1266568"
       y="499.42624"
       x="57.758171"
       height="60.609154"
       width="56.568542"
       id="rect4264"
       style="opacity:0.86635946;fill:#f2a900;fill-opacity:1;fill-rule:evenodd;stroke:#bf5700;stroke-width:2.06220484;stroke-linecap:round;stroke-linejoin:round;stroke-miterlimit:4;stroke-opacity:0.68617021;stroke-dasharray:none;stroke-dashoffset:0" />
    <text
       sodipodi:linespacing="125%"
       id="text4266"
       y="518.28571"
       x="83.888321"
       style="font-size:12px;font-style:normal;font-variant:normal;font-weight:normal;font-stretch:normal;text-align:center;line-height:125%;letter-spacing:0px;word-spacing:0px;text-anchor:middle;fill:#000000;fill-opacity:1;stroke:none;font-family:BKM-cmr10;-inkscape-font-specification:Sans"
       xml:space="preserve"><tspan
         y="518.28571"
         x="83.888321"
         id="tspan4268"
         sodipodi:role="line">Linear</tspan><tspan
         id="tspan4270"
         y="533.28571"
         x="83.888321"
         sodipodi:role="line">mass</tspan><tspan
         y="548.28571"
         x="83.888321"
         sodipodi:role="line"
         id="tspan4274">of rod</tspan></text>
    <text
       xml:space="preserve"
       style="font-size:12px;font-style:normal;font-variant:normal;font-weight:normal;font-stretch:normal;text-align:center;line-height:125%;letter-spacing:0px;word-spacing:0px;text-anchor:middle;fill:#000000;fill-opacity:1;stroke:none;font-family:BKM-cmr10;-inkscape-font-specification:Sans"
       x="282.95868"
       y="517.98975"
       id="text4276"
       sodipodi:linespacing="125%"><tspan
         sodipodi:role="line"
         id="tspan4278"
         x="282.95868"
         y="517.98975">Linear</tspan><tspan
         sodipodi:role="line"
         x="282.95868"
         y="532.98975"
         id="tspan4280">mass</tspan><tspan
         sodipodi:role="line"
         x="282.95868"
         y="547.98975"
         id="tspan4282">of Act.</tspan></text>
    <text
       xml:space="preserve"
       style="font-size:12px;font-style:normal;font-variant:normal;font-weight:normal;font-stretch:normal;text-align:center;line-height:125%;letter-spacing:0px;word-spacing:0px;text-anchor:middle;fill:#000000;fill-opacity:1;stroke:none;font-family:BKM-cmr10;-inkscape-font-specification:Sans"
       x="365.81583"
       y="523.70404"
       id="text4284"
       sodipodi:linespacing="125%"><tspan
         sodipodi:role="line"
         id="tspan4286"
         x="365.81583"
         y="523.70404">Spring Force</tspan></text>
    <text
       xml:space="preserve"
       style="font-size:12px;font-style:normal;font-variant:normal;font-weight:normal;font-stretch:normal;text-align:center;line-height:125%;letter-spacing:0px;word-spacing:0px;text-anchor:middle;fill:#000000;fill-opacity:1;stroke:none;font-family:BKM-cmr10;-inkscape-font-specification:Sans"
       x="7.4597502"
       y="520.42853"
       id="text4288"
       sodipodi:linespacing="125%"><tspan
         sodipodi:role="line"
         id="tspan4290"
         x="7.4597502"
         y="520.42853">Ext force</tspan></text>
    <text
       xml:space="preserve"
       style="font-size:12px;font-style:normal;font-variant:normal;font-weight:normal;font-stretch:normal;text-align:center;line-height:125%;letter-spacing:0px;word-spacing:0px;text-anchor:middle;fill:#000000;fill-opacity:1;stroke:none;font-family:BKM-cmr10;-inkscape-font-specification:Sans"
       x="251.0968"
       y="438.59641"
       id="text4292"
       sodipodi:linespacing="125%"><tspan
         sodipodi:role="line"
         id="tspan4294"
         x="251.0968"
         y="438.59641">Motor force</tspan></text>
    <path
       style="fill:none;stroke:#000000;stroke-width:1px;stroke-linecap:butt;stroke-linejoin:miter;stroke-opacity:1;marker-mid:none;marker-end:url(#Arrow1Mend)"
       d="m 282.52538,447.16784 -65.71429,0"
       id="path4298"
       inkscape:connector-curvature="0" />
    <path
       inkscape:connector-curvature="0"
       id="path4924"
       d="m 399.74439,531.2041 -65.71429,0"
       style="fill:none;stroke:#000000;stroke-width:1px;stroke-linecap:butt;stroke-linejoin:miter;stroke-opacity:1;marker-mid:none;marker-end:url(#Arrow1Mend)" />
    <path
       style="fill:none;stroke:#000000;stroke-width:1px;stroke-linecap:butt;stroke-linejoin:miter;stroke-opacity:1;marker-mid:none;marker-end:url(#Arrow1Mend)"
       d="m -15.790251,525.07139 65.71429,0"
       id="path4926"
       inkscape:connector-curvature="0" />
    <text
       sodipodi:linespacing="125%"
       id="text4951"
       y="533.1438"
       x="248.49754"
       style="font-size:12px;font-style:normal;font-variant:normal;font-weight:normal;font-stretch:normal;text-align:center;line-height:125%;letter-spacing:0px;word-spacing:0px;text-anchor:middle;fill:#000000;fill-opacity:1;stroke:none;font-family:BKM-cmr10;-inkscape-font-specification:Sans"
       xml:space="preserve"><tspan
         y="533.1438"
         x="248.49754"
         id="tspan4953"
         sodipodi:role="line">d</tspan></text>
    <text
       sodipodi:linespacing="125%"
       id="text4955"
       y="481.62598"
       x="186.37315"
       style="font-size:12px;font-style:normal;font-variant:normal;font-weight:normal;font-stretch:normal;text-align:center;line-height:125%;letter-spacing:0px;word-spacing:0px;text-anchor:middle;fill:#000000;fill-opacity:1;stroke:none;font-family:BKM-cmr10;-inkscape-font-specification:Sans"
       xml:space="preserve"><tspan
         y="481.62598"
         x="186.37315"
         id="tspan4957"
         sodipodi:role="line">m</tspan></text>
    <text
       xml:space="preserve"
       style="font-size:12px;font-style:normal;font-variant:normal;font-weight:normal;font-stretch:normal;text-align:center;line-height:125%;letter-spacing:0px;word-spacing:0px;text-anchor:middle;fill:#000000;fill-opacity:1;stroke:none;font-family:BKM-cmr10;-inkscape-font-specification:Sans"
       x="121.72338"
       y="530.11334"
       id="text4959"
       sodipodi:linespacing="125%"><tspan
         sodipodi:role="line"
         id="tspan4961"
         x="121.72338"
         y="530.11334">a</tspan></text>
    <text
       sodipodi:linespacing="125%"
       id="text4963"
       y="578.09558"
       x="184.85793"
       style="font-size:12px;font-style:normal;font-variant:normal;font-weight:normal;font-stretch:normal;text-align:center;line-height:125%;letter-spacing:0px;word-spacing:0px;text-anchor:middle;fill:#000000;fill-opacity:1;stroke:none;font-family:BKM-cmr10;-inkscape-font-specification:Sans"
       xml:space="preserve"><tspan
         y="578.09558"
         x="184.85793"
         id="tspan4965"
         sodipodi:role="line">0=m+d-a</tspan></text>
    <text
       sodipodi:linespacing="125%"
       id="text4971"
       y="590.47742"
       x="187.50586"
       style="font-size:12px;font-style:normal;font-variant:normal;font-weight:normal;font-stretch:normal;text-align:center;line-height:125%;letter-spacing:0px;word-spacing:0px;text-anchor:middle;fill:#000000;fill-opacity:1;stroke:none;font-family:BKM-cmr10;-inkscape-font-specification:Sans"
       xml:space="preserve"><tspan
         sodipodi:role="line"
         id="tspan4975"
         x="189.50977"
         y="590.47742">0=∑w=∑x f </tspan></text>
    <path
       sodipodi:type="arc"
       style="fill:#000000;fill-opacity:1;fill-rule:evenodd;stroke:none"
       id="path4977"
       sodipodi:cx="178.99553"
       sodipodi:cy="570.68805"
       sodipodi:rx="0.63616073"
       sodipodi:ry="0.63616073"
       d="m 179.63169,570.68805 a 0.63616073,0.63616073 0 1 1 -1.27232,0 0.63616073,0.63616073 0 1 1 1.27232,0 z"
       transform="translate(0.63134534,-0.12626907)" />
    <path
       transform="translate(18.056477,-2.5885159)"
       d="m 179.63169,570.68805 a 0.63616073,0.63616073 0 1 1 -1.27232,0 0.63616073,0.63616073 0 1 1 1.27232,0 z"
       sodipodi:ry="0.63616073"
       sodipodi:rx="0.63616073"
       sodipodi:cy="570.68805"
       sodipodi:cx="178.99553"
       id="path4979"
       style="fill:#000000;fill-opacity:1;fill-rule:evenodd;stroke:none"
       sodipodi:type="arc" />
    <path
       sodipodi:type="arc"
       style="fill:#000000;fill-opacity:1;fill-rule:evenodd;stroke:none"
       id="path4981"
       sodipodi:cx="178.99553"
       sodipodi:cy="570.68805"
       sodipodi:rx="0.63616073"
       sodipodi:ry="0.63616073"
       d="m 179.63169,570.68805 a 0.63616073,0.63616073 0 1 1 -1.27232,0 0.63616073,0.63616073 0 1 1 1.27232,0 z"
       transform="translate(28.158002,-0.06313453)" />
    <path
       transform="translate(29.224174,12.069529)"
       d="m 179.63169,570.68805 a 0.63616073,0.63616073 0 1 1 -1.27232,0 0.63616073,0.63616073 0 1 1 1.27232,0 z"
       sodipodi:ry="0.63616073"
       sodipodi:rx="0.63616073"
       sodipodi:cy="570.68805"
       sodipodi:cx="178.99553"
       id="path4991"
       style="fill:#000000;fill-opacity:1;fill-rule:evenodd;stroke:none"
       sodipodi:type="arc" />
    <text
       xml:space="preserve"
       style="font-size:12px;font-style:normal;font-variant:normal;font-weight:normal;font-stretch:normal;text-align:center;line-height:125%;letter-spacing:0px;word-spacing:0px;text-anchor:middle;fill:#000000;fill-opacity:1;stroke:none;font-family:BKM-cmr10;-inkscape-font-specification:Sans"
       x="231.51785"
       y="575.8443"
       id="text4993"
       sodipodi:linespacing="125%"><tspan
         sodipodi:role="line"
         id="tspan4995"
         x="231.51785"
         y="575.8443"
         style="font-size:6px">i</tspan></text>
    <text
       sodipodi:linespacing="125%"
       id="text4997"
       y="592.36218"
       x="213.30357"
       style="font-size:12px;font-style:normal;font-variant:normal;font-weight:normal;font-stretch:normal;text-align:center;line-height:125%;letter-spacing:0px;word-spacing:0px;text-anchor:middle;fill:#000000;fill-opacity:1;stroke:none;font-family:BKM-cmr10;-inkscape-font-specification:Sans"
       xml:space="preserve"><tspan
         style="font-size:6px"
         y="592.36218"
         x="213.30357"
         id="tspan4999"
         sodipodi:role="line">i</tspan></text>
    <text
       xml:space="preserve"
       style="font-size:12px;font-style:normal;font-variant:normal;font-weight:normal;font-stretch:normal;text-align:center;line-height:125%;letter-spacing:0px;word-spacing:0px;text-anchor:middle;fill:#000000;fill-opacity:1;stroke:none;font-family:BKM-cmr10;-inkscape-font-specification:Sans"
       x="220.08929"
       y="592.36218"
       id="text5001"
       sodipodi:linespacing="125%"><tspan
         sodipodi:role="line"
         id="tspan5003"
         x="220.08929"
         y="592.36218"
         style="font-size:6px">i</tspan></text>
    <text
       sodipodi:linespacing="125%"
       id="text5005"
       y="597.98712"
       x="201.78572"
       style="font-size:12px;font-style:normal;font-variant:normal;font-weight:normal;font-stretch:normal;text-align:center;line-height:125%;letter-spacing:0px;word-spacing:0px;text-anchor:middle;fill:#000000;fill-opacity:1;stroke:none;font-family:BKM-cmr10;-inkscape-font-specification:Sans"
       xml:space="preserve"><tspan
         style="font-size:6px"
         y="597.98712"
         x="201.78572"
         id="tspan5007"
         sodipodi:role="line">i</tspan></text>
    <text
       xml:space="preserve"
       style="font-size:12px;font-style:normal;font-variant:normal;font-weight:normal;font-stretch:normal;text-align:center;line-height:125%;letter-spacing:0px;word-spacing:0px;text-anchor:middle;fill:#000000;fill-opacity:1;stroke:none;font-family:BKM-cmr10;-inkscape-font-specification:Sans"
       x="308.09247"
       y="582.78918"
       id="text5019"
       sodipodi:linespacing="125%"><tspan
         sodipodi:role="line"
         id="tspan5021"
         x="308.09247"
         y="582.78918">J m = K i-l</tspan></text>
    <path
       sodipodi:type="arc"
       style="fill:#000000;fill-opacity:1;fill-rule:evenodd;stroke:none"
       id="path5023"
       sodipodi:cx="178.99553"
       sodipodi:cy="570.68805"
       sodipodi:rx="0.63616073"
       sodipodi:ry="0.63616073"
       d="m 179.63169,570.68805 a 0.63616073,0.63616073 0 1 1 -1.27232,0 0.63616073,0.63616073 0 1 1 1.27232,0 z"
       transform="translate(111.80648,5.6257698)" />
    <path
       transform="translate(111.80648,5.6257698)"
       d="m 179.63169,570.68805 a 0.63616073,0.63616073 0 1 1 -1.27232,0 0.63616073,0.63616073 0 1 1 1.27232,0 z"
       sodipodi:ry="0.63616073"
       sodipodi:rx="0.63616073"
       sodipodi:cy="570.68805"
       sodipodi:cx="178.99553"
       id="path5025"
       style="fill:#000000;fill-opacity:1;fill-rule:evenodd;stroke:none"
       sodipodi:type="arc" />
    <path
       sodipodi:type="arc"
       style="fill:#000000;fill-opacity:1;fill-rule:evenodd;stroke:none"
       id="path5027"
       sodipodi:cx="178.99553"
       sodipodi:cy="570.68805"
       sodipodi:rx="0.63616073"
       sodipodi:ry="0.63616073"
       d="m 179.63169,570.68805 a 0.63616073,0.63616073 0 1 1 -1.27232,0 0.63616073,0.63616073 0 1 1 1.27232,0 z"
       transform="translate(111.80648,5.6257698)" />
    <path
       transform="translate(114.93148,5.6257698)"
       d="m 179.63169,570.68805 a 0.63616073,0.63616073 0 1 1 -1.27232,0 0.63616073,0.63616073 0 1 1 1.27232,0 z"
       sodipodi:ry="0.63616073"
       sodipodi:rx="0.63616073"
       sodipodi:cy="570.68805"
       sodipodi:cx="178.99553"
       id="path5032"
       style="fill:#000000;fill-opacity:1;fill-rule:evenodd;stroke:none"
       sodipodi:type="arc" />
    <text
       xml:space="preserve"
       style="font-size:12px;font-style:normal;font-variant:normal;font-weight:normal;font-stretch:normal;text-align:center;line-height:125%;letter-spacing:0px;word-spacing:0px;text-anchor:middle;fill:#000000;fill-opacity:1;stroke:none;font-family:BKM-cmr10;-inkscape-font-specification:Sans"
       x="326.0976"
       y="585.99152"
       id="text5034"
       sodipodi:linespacing="125%"><tspan
         sodipodi:role="line"
         id="tspan5036"
         x="326.0976"
         y="585.99152"
         style="font-size:6px">m</tspan></text>
    <text
       sodipodi:linespacing="125%"
       id="text5038"
       y="585.48645"
       x="284.23938"
       style="font-size:12px;font-style:normal;font-variant:normal;font-weight:normal;font-stretch:normal;text-align:center;line-height:125%;letter-spacing:0px;word-spacing:0px;text-anchor:middle;fill:#000000;fill-opacity:1;stroke:none;font-family:BKM-cmr10;-inkscape-font-specification:Sans"
       xml:space="preserve"><tspan
         style="font-size:6px"
         y="585.48645"
         x="284.23938"
         id="tspan5040"
         sodipodi:role="line">m</tspan></text>
    <text
       sodipodi:linespacing="125%"
       id="text5046"
       y="596.61639"
       x="308.99692"
       style="font-size:12px;font-style:normal;font-variant:normal;font-weight:normal;font-stretch:normal;text-align:center;line-height:125%;letter-spacing:0px;word-spacing:0px;text-anchor:middle;fill:#000000;fill-opacity:1;stroke:none;font-family:BKM-cmr10;-inkscape-font-specification:Sans"
       xml:space="preserve"><tspan
         y="596.61639"
         x="308.99692"
         id="tspan5048"
         sodipodi:role="line">J d = -K d-l</tspan></text>
    <path
       transform="translate(109.65991,15.853564)"
       d="m 179.63169,570.68805 a 0.63616073,0.63616073 0 1 1 -1.27232,0 0.63616073,0.63616073 0 1 1 1.27232,0 z"
       sodipodi:ry="0.63616073"
       sodipodi:rx="0.63616073"
       sodipodi:cy="570.68805"
       sodipodi:cx="178.99553"
       id="path5050"
       style="fill:#000000;fill-opacity:1;fill-rule:evenodd;stroke:none"
       sodipodi:type="arc" />
    <path
       sodipodi:type="arc"
       style="fill:#000000;fill-opacity:1;fill-rule:evenodd;stroke:none"
       id="path5052"
       sodipodi:cx="178.99553"
       sodipodi:cy="570.68805"
       sodipodi:rx="0.63616073"
       sodipodi:ry="0.63616073"
       d="m 179.63169,570.68805 a 0.63616073,0.63616073 0 1 1 -1.27232,0 0.63616073,0.63616073 0 1 1 1.27232,0 z"
       transform="translate(109.65991,15.853564)" />
    <path
       transform="translate(109.65991,15.853564)"
       d="m 179.63169,570.68805 a 0.63616073,0.63616073 0 1 1 -1.27232,0 0.63616073,0.63616073 0 1 1 1.27232,0 z"
       sodipodi:ry="0.63616073"
       sodipodi:rx="0.63616073"
       sodipodi:cy="570.68805"
       sodipodi:cx="178.99553"
       id="path5054"
       style="fill:#000000;fill-opacity:1;fill-rule:evenodd;stroke:none"
       sodipodi:type="arc" />
    <path
       sodipodi:type="arc"
       style="fill:#000000;fill-opacity:1;fill-rule:evenodd;stroke:none"
       id="path5056"
       sodipodi:cx="178.99553"
       sodipodi:cy="570.68805"
       sodipodi:rx="0.63616073"
       sodipodi:ry="0.63616073"
       d="m 179.63169,570.68805 a 0.63616073,0.63616073 0 1 1 -1.27232,0 0.63616073,0.63616073 0 1 1 1.27232,0 z"
       transform="translate(112.78491,15.853564)" />
    <text
       sodipodi:linespacing="125%"
       id="text5058"
       y="599.3443"
       x="325.20102"
       style="font-size:12px;font-style:normal;font-variant:normal;font-weight:normal;font-stretch:normal;text-align:center;line-height:125%;letter-spacing:0px;word-spacing:0px;text-anchor:middle;fill:#000000;fill-opacity:1;stroke:none;font-family:BKM-cmr10;-inkscape-font-specification:Sans"
       xml:space="preserve"><tspan
         style="font-size:6px"
         y="599.3443"
         x="325.20102"
         id="tspan5060"
         sodipodi:role="line">d</tspan></text>
    <text
       xml:space="preserve"
       style="font-size:12px;font-style:normal;font-variant:normal;font-weight:normal;font-stretch:normal;text-align:center;line-height:125%;letter-spacing:0px;word-spacing:0px;text-anchor:middle;fill:#000000;fill-opacity:1;stroke:none;font-family:BKM-cmr10;-inkscape-font-specification:Sans"
       x="282.8071"
       y="598.39282"
       id="text5062"
       sodipodi:linespacing="125%"><tspan
         sodipodi:role="line"
         id="tspan5064"
         x="282.8071"
         y="598.39282"
         style="font-size:6px">d</tspan></text>
    <text
       xml:space="preserve"
       style="font-size:12px;font-style:normal;font-variant:normal;font-weight:normal;font-stretch:normal;text-align:center;line-height:125%;letter-spacing:0px;word-spacing:0px;text-anchor:middle;fill:#000000;fill-opacity:1;stroke:none;font-family:BKM-cmr10;-inkscape-font-specification:Sans"
       x="302.80972"
       y="608.73822"
       id="text5070"
       sodipodi:linespacing="125%"><tspan
         sodipodi:role="line"
         id="tspan5072"
         x="302.80972"
         y="608.73822">J a = l+e</tspan></text>
    <path
       sodipodi:type="arc"
       style="fill:#000000;fill-opacity:1;fill-rule:evenodd;stroke:none"
       id="path5074"
       sodipodi:cx="178.99553"
       sodipodi:cy="570.68805"
       sodipodi:rx="0.63616073"
       sodipodi:ry="0.63616073"
       d="m 179.63169,570.68805 a 0.63616073,0.63616073 0 1 1 -1.27232,0 0.63616073,0.63616073 0 1 1 1.27232,0 z"
       transform="translate(109.65991,30.248238)" />
    <path
       transform="translate(109.65991,30.248238)"
       d="m 179.63169,570.68805 a 0.63616073,0.63616073 0 1 1 -1.27232,0 0.63616073,0.63616073 0 1 1 1.27232,0 z"
       sodipodi:ry="0.63616073"
       sodipodi:rx="0.63616073"
       sodipodi:cy="570.68805"
       sodipodi:cx="178.99553"
       id="path5076"
       style="fill:#000000;fill-opacity:1;fill-rule:evenodd;stroke:none"
       sodipodi:type="arc" />
    <path
       sodipodi:type="arc"
       style="fill:#000000;fill-opacity:1;fill-rule:evenodd;stroke:none"
       id="path5078"
       sodipodi:cx="178.99553"
       sodipodi:cy="570.68805"
       sodipodi:rx="0.63616073"
       sodipodi:ry="0.63616073"
       d="m 179.63169,570.68805 a 0.63616073,0.63616073 0 1 1 -1.27232,0 0.63616073,0.63616073 0 1 1 1.27232,0 z"
       transform="translate(109.65991,30.248238)" />
    <path
       transform="translate(112.78491,30.248238)"
       d="m 179.63169,570.68805 a 0.63616073,0.63616073 0 1 1 -1.27232,0 0.63616073,0.63616073 0 1 1 1.27232,0 z"
       sodipodi:ry="0.63616073"
       sodipodi:rx="0.63616073"
       sodipodi:cy="570.68805"
       sodipodi:cx="178.99553"
       id="path5080"
       style="fill:#000000;fill-opacity:1;fill-rule:evenodd;stroke:none"
       sodipodi:type="arc" />
    <text
       sodipodi:linespacing="125%"
       id="text5086"
       y="610.89343"
       x="283.31216"
       style="font-size:12px;font-style:normal;font-variant:normal;font-weight:normal;font-stretch:normal;text-align:center;line-height:125%;letter-spacing:0px;word-spacing:0px;text-anchor:middle;fill:#000000;fill-opacity:1;stroke:none;font-family:BKM-cmr10;-inkscape-font-specification:Sans"
       xml:space="preserve"><tspan
         style="font-size:6px"
         y="610.89343"
         x="283.31216"
         id="tspan5088"
         sodipodi:role="line">a</tspan></text>
    <text
       xml:space="preserve"
       style="font-size:12px;font-style:normal;font-variant:normal;font-weight:normal;font-stretch:normal;text-align:center;line-height:125%;letter-spacing:0px;word-spacing:0px;text-anchor:middle;fill:#000000;fill-opacity:1;stroke:none;font-family:BKM-cmr10;-inkscape-font-specification:Sans"
       x="302.28818"
       y="624.31006"
       id="text5094"
       sodipodi:linespacing="125%"><tspan
         sodipodi:role="line"
         id="tspan5096"
         x="302.28818"
         y="624.31006">a=m+d</tspan></text>
    <path
       transform="translate(104.10407,46.663216)"
       d="m 179.63169,570.68805 a 0.63616073,0.63616073 0 1 1 -1.27232,0 0.63616073,0.63616073 0 1 1 1.27232,0 z"
       sodipodi:ry="0.63616073"
       sodipodi:rx="0.63616073"
       sodipodi:cy="570.68805"
       sodipodi:cx="178.99553"
       id="path5098"
       style="fill:#000000;fill-opacity:1;fill-rule:evenodd;stroke:none"
       sodipodi:type="arc" />
    <path
       sodipodi:type="arc"
       style="fill:#000000;fill-opacity:1;fill-rule:evenodd;stroke:none"
       id="path5100"
       sodipodi:cx="178.99553"
       sodipodi:cy="570.68805"
       sodipodi:rx="0.63616073"
       sodipodi:ry="0.63616073"
       d="m 179.63169,570.68805 a 0.63616073,0.63616073 0 1 1 -1.27232,0 0.63616073,0.63616073 0 1 1 1.27232,0 z"
       transform="translate(104.10407,46.663216)" />
    <path
       transform="translate(104.10407,46.663216)"
       d="m 179.63169,570.68805 a 0.63616073,0.63616073 0 1 1 -1.27232,0 0.63616073,0.63616073 0 1 1 1.27232,0 z"
       sodipodi:ry="0.63616073"
       sodipodi:rx="0.63616073"
       sodipodi:cy="570.68805"
       sodipodi:cx="178.99553"
       id="path5102"
       style="fill:#000000;fill-opacity:1;fill-rule:evenodd;stroke:none"
       sodipodi:type="arc" />
    <path
       sodipodi:type="arc"
       style="fill:#000000;fill-opacity:1;fill-rule:evenodd;stroke:none"
       id="path5104"
       sodipodi:cx="178.99553"
       sodipodi:cy="570.68805"
       sodipodi:rx="0.63616073"
       sodipodi:ry="0.63616073"
       d="m 179.63169,570.68805 a 0.63616073,0.63616073 0 1 1 -1.27232,0 0.63616073,0.63616073 0 1 1 1.27232,0 z"
       transform="translate(107.22907,46.663216)" />
    <path
       sodipodi:type="arc"
       style="fill:#000000;fill-opacity:1;fill-rule:evenodd;stroke:none"
       id="path5106"
       sodipodi:cx="178.99553"
       sodipodi:cy="570.68805"
       sodipodi:rx="0.63616073"
       sodipodi:ry="0.63616073"
       d="m 179.63169,570.68805 a 0.63616073,0.63616073 0 1 1 -1.27232,0 0.63616073,0.63616073 0 1 1 1.27232,0 z"
       transform="translate(121.15764,46.038216)" />
    <path
       transform="translate(121.15764,46.038216)"
       d="m 179.63169,570.68805 a 0.63616073,0.63616073 0 1 1 -1.27232,0 0.63616073,0.63616073 0 1 1 1.27232,0 z"
       sodipodi:ry="0.63616073"
       sodipodi:rx="0.63616073"
       sodipodi:cy="570.68805"
       sodipodi:cx="178.99553"
       id="path5108"
       style="fill:#000000;fill-opacity:1;fill-rule:evenodd;stroke:none"
       sodipodi:type="arc" />
    <path
       sodipodi:type="arc"
       style="fill:#000000;fill-opacity:1;fill-rule:evenodd;stroke:none"
       id="path5110"
       sodipodi:cx="178.99553"
       sodipodi:cy="570.68805"
       sodipodi:rx="0.63616073"
       sodipodi:ry="0.63616073"
       d="m 179.63169,570.68805 a 0.63616073,0.63616073 0 1 1 -1.27232,0 0.63616073,0.63616073 0 1 1 1.27232,0 z"
       transform="translate(121.15764,46.038216)" />
    <path
       transform="translate(124.28264,46.038216)"
       d="m 179.63169,570.68805 a 0.63616073,0.63616073 0 1 1 -1.27232,0 0.63616073,0.63616073 0 1 1 1.27232,0 z"
       sodipodi:ry="0.63616073"
       sodipodi:rx="0.63616073"
       sodipodi:cy="570.68805"
       sodipodi:cx="178.99553"
       id="path5112"
       style="fill:#000000;fill-opacity:1;fill-rule:evenodd;stroke:none"
       sodipodi:type="arc" />
    <path
       transform="translate(138.9255,43.538216)"
       d="m 179.63169,570.68805 a 0.63616073,0.63616073 0 1 1 -1.27232,0 0.63616073,0.63616073 0 1 1 1.27232,0 z"
       sodipodi:ry="0.63616073"
       sodipodi:rx="0.63616073"
       sodipodi:cy="570.68805"
       sodipodi:cx="178.99553"
       id="path5114"
       style="fill:#000000;fill-opacity:1;fill-rule:evenodd;stroke:none"
       sodipodi:type="arc" />
    <path
       sodipodi:type="arc"
       style="fill:#000000;fill-opacity:1;fill-rule:evenodd;stroke:none"
       id="path5116"
       sodipodi:cx="178.99553"
       sodipodi:cy="570.68805"
       sodipodi:rx="0.63616073"
       sodipodi:ry="0.63616073"
       d="m 179.63169,570.68805 a 0.63616073,0.63616073 0 1 1 -1.27232,0 0.63616073,0.63616073 0 1 1 1.27232,0 z"
       transform="translate(138.9255,43.538216)" />
    <path
       transform="translate(138.9255,43.538216)"
       d="m 179.63169,570.68805 a 0.63616073,0.63616073 0 1 1 -1.27232,0 0.63616073,0.63616073 0 1 1 1.27232,0 z"
       sodipodi:ry="0.63616073"
       sodipodi:rx="0.63616073"
       sodipodi:cy="570.68805"
       sodipodi:cx="178.99553"
       id="path5118"
       style="fill:#000000;fill-opacity:1;fill-rule:evenodd;stroke:none"
       sodipodi:type="arc" />
    <path
       sodipodi:type="arc"
       style="fill:#000000;fill-opacity:1;fill-rule:evenodd;stroke:none"
       id="path5120"
       sodipodi:cx="178.99553"
       sodipodi:cy="570.68805"
       sodipodi:rx="0.63616073"
       sodipodi:ry="0.63616073"
       d="m 179.63169,570.68805 a 0.63616073,0.63616073 0 1 1 -1.27232,0 0.63616073,0.63616073 0 1 1 1.27232,0 z"
       transform="translate(142.0505,43.538216)" />
    <text
       sodipodi:linespacing="125%"
       id="text5122"
       y="610.00958"
       x="338.03369"
       style="font-size:12px;font-style:normal;font-variant:normal;font-weight:normal;font-stretch:normal;text-align:center;line-height:125%;letter-spacing:0px;word-spacing:0px;text-anchor:middle;fill:#000000;fill-opacity:1;stroke:none;font-family:BKM-cmr10;-inkscape-font-specification:Sans"
       xml:space="preserve"><tspan
         style="font-size:6px"
         y="610.00958"
         x="338.03369"
         id="tspan5124"
         sodipodi:role="line">xternal</tspan></text>
    <text
       sodipodi:linespacing="125%"
       id="text5126"
       y="708.81866"
       x="384.04541"
       style="font-size:12px;font-style:normal;font-variant:normal;font-weight:normal;font-stretch:normal;text-align:center;line-height:125%;letter-spacing:0px;word-spacing:0px;text-anchor:middle;fill:#000000;fill-opacity:1;stroke:none;font-family:BKM-cmr10;-inkscape-font-specification:Sans"
       xml:space="preserve"><tspan
         y="708.81866"
         x="384.04541"
         id="tspan5128"
         sodipodi:role="line">-mt-ds</tspan></text>
    <path
       sodipodi:type="arc"
       style="fill:#000000;fill-opacity:1;fill-rule:evenodd;stroke:none"
       id="path5130"
       sodipodi:cx="178.99553"
       sodipodi:cy="570.68805"
       sodipodi:rx="0.63616073"
       sodipodi:ry="0.63616073"
       d="m 179.63169,570.68805 a 0.63616073,0.63616073 0 1 1 -1.27232,0 0.63616073,0.63616073 0 1 1 1.27232,0 z"
       transform="translate(197.59186,142.6537)" />
    <path
       transform="translate(215.1584,141.37941)"
       d="m 179.63169,570.68805 a 0.63616073,0.63616073 0 1 1 -1.27232,0 0.63616073,0.63616073 0 1 1 1.27232,0 z"
       sodipodi:ry="0.63616073"
       sodipodi:rx="0.63616073"
       sodipodi:cy="570.68805"
       sodipodi:cx="178.99553"
       id="path5132"
       style="fill:#000000;fill-opacity:1;fill-rule:evenodd;stroke:none"
       sodipodi:type="arc" />
    <path
       sodipodi:type="arc"
       style="fill:#000000;fill-opacity:1;fill-rule:evenodd;stroke:none"
       id="path5134"
       sodipodi:cx="178.99553"
       sodipodi:cy="570.68805"
       sodipodi:rx="0.63616073"
       sodipodi:ry="0.63616073"
       d="m 179.63169,570.68805 a 0.63616073,0.63616073 0 1 1 -1.27232,0 0.63616073,0.63616073 0 1 1 1.27232,0 z"
       transform="translate(197.56611,130.7041)" />
    <path
       transform="translate(214.57096,127.94335)"
       d="m 179.63169,570.68805 a 0.63616073,0.63616073 0 1 1 -1.27232,0 0.63616073,0.63616073 0 1 1 1.27232,0 z"
       sodipodi:ry="0.63616073"
       sodipodi:rx="0.63616073"
       sodipodi:cy="570.68805"
       sodipodi:cx="178.99553"
       id="path5136"
       style="fill:#000000;fill-opacity:1;fill-rule:evenodd;stroke:none"
       sodipodi:type="arc" />
    <text
       xml:space="preserve"
       style="font-size:12px;font-style:normal;font-variant:normal;font-weight:normal;font-stretch:normal;text-align:center;line-height:125%;letter-spacing:0px;word-spacing:0px;text-anchor:middle;fill:#000000;fill-opacity:1;stroke:none;font-family:BKM-cmr10;-inkscape-font-specification:Sans"
       x="384.80304"
       y="721.06677"
       id="text5138"
       sodipodi:linespacing="125%"><tspan
         sodipodi:role="line"
         id="tspan5140"
         x="384.80304"
         y="721.06677">(m+d)</tspan></text>
    <path
       inkscape:connector-curvature="0"
       id="path5142"
       d="m 367.83437,710.06394 32.95623,0"
       style="fill:none;stroke:#000000;stroke-width:1px;stroke-linecap:butt;stroke-linejoin:miter;stroke-opacity:1" />
    <text
       xml:space="preserve"
       style="font-size:12px;font-style:normal;font-variant:normal;font-weight:normal;font-stretch:normal;text-align:center;line-height:125%;letter-spacing:0px;word-spacing:0px;text-anchor:middle;fill:#000000;fill-opacity:1;stroke:none;font-family:BKM-cmr10;-inkscape-font-specification:Sans"
       x="357.78146"
       y="713.2381"
       id="text5144"
       sodipodi:linespacing="125%"><tspan
         sodipodi:role="line"
         id="tspan5146"
         x="357.78146"
         y="713.2381" /></text>
    <text
       sodipodi:linespacing="125%"
       id="text5148"
       y="724.98535"
       x="469.85574"
       style="font-size:12px;font-style:normal;font-variant:normal;font-weight:normal;font-stretch:normal;text-align:center;line-height:125%;letter-spacing:0px;word-spacing:0px;text-anchor:middle;fill:#000000;fill-opacity:1;stroke:none;font-family:BKM-cmr10;-inkscape-font-specification:Sans"
       xml:space="preserve"><tspan
         y="724.98535"
         x="469.85574"
         id="tspan5150"
         sodipodi:role="line">J</tspan></text>
    <text
       sodipodi:linespacing="125%"
       id="text5160"
       y="713.79303"
       x="462.1651"
       style="font-size:12px;font-style:normal;font-variant:normal;font-weight:normal;font-stretch:normal;text-align:center;line-height:125%;letter-spacing:0px;word-spacing:0px;text-anchor:middle;fill:#000000;fill-opacity:1;stroke:none;font-family:BKM-cmr10;-inkscape-font-specification:Sans"
       xml:space="preserve"><tspan
         style="font-size:6px"
         y="713.79303"
         x="462.1651"
         id="tspan5162"
         sodipodi:role="line">m</tspan></text>
    <text
       xml:space="preserve"
       style="font-size:12px;font-style:normal;font-variant:normal;font-weight:normal;font-stretch:normal;text-align:center;line-height:125%;letter-spacing:0px;word-spacing:0px;text-anchor:middle;fill:#000000;fill-opacity:1;stroke:none;font-family:BKM-cmr10;-inkscape-font-specification:Sans"
       x="474.28693"
       y="726.67249"
       id="text5164"
       sodipodi:linespacing="125%"><tspan
         sodipodi:role="line"
         id="tspan5166"
         x="474.28693"
         y="726.67249"
         style="font-size:6px">m</tspan></text>
    <text
       xml:space="preserve"
       style="font-size:12px;font-style:normal;font-variant:normal;font-weight:normal;font-stretch:normal;text-align:center;line-height:125%;letter-spacing:0px;word-spacing:0px;text-anchor:middle;fill:#000000;fill-opacity:1;stroke:none;font-family:BKM-cmr10;-inkscape-font-specification:Sans"
       x="482.36981"
       y="713.89948"
       id="text5168"
       sodipodi:linespacing="125%"><tspan
         sodipodi:role="line"
         id="tspan5170"
         x="482.36981"
         y="713.89948"
         style="font-size:6px">t</tspan></text>
    <text
       xml:space="preserve"
       style="font-size:12px;font-style:normal;font-variant:normal;font-weight:normal;font-stretch:normal;text-align:center;line-height:125%;letter-spacing:0px;word-spacing:0px;text-anchor:middle;fill:#000000;fill-opacity:1;stroke:none;font-family:BKM-cmr10;-inkscape-font-specification:Sans"
       x="531.32172"
       y="714.50098"
       id="text5184"
       sodipodi:linespacing="125%"><tspan
         sodipodi:role="line"
         id="tspan5186"
         x="531.32172"
         y="714.50098"
         style="font-size:6px">d</tspan></text>
    <text
       sodipodi:linespacing="125%"
       id="text5188"
       y="727.20447"
       x="544.32294"
       style="font-size:12px;font-style:normal;font-variant:normal;font-weight:normal;font-stretch:normal;text-align:center;line-height:125%;letter-spacing:0px;word-spacing:0px;text-anchor:middle;fill:#000000;fill-opacity:1;stroke:none;font-family:BKM-cmr10;-inkscape-font-specification:Sans"
       xml:space="preserve"><tspan
         style="font-size:6px"
         y="727.20447"
         x="544.32294"
         id="tspan5190"
         sodipodi:role="line">d</tspan></text>
    <text
       sodipodi:linespacing="125%"
       id="text5192"
       y="713.78802"
       x="554.98505"
       style="font-size:12px;font-style:normal;font-variant:normal;font-weight:normal;font-stretch:normal;text-align:center;line-height:125%;letter-spacing:0px;word-spacing:0px;text-anchor:middle;fill:#000000;fill-opacity:1;stroke:none;font-family:BKM-cmr10;-inkscape-font-specification:Sans"
       xml:space="preserve"><tspan
         style="font-size:6px"
         y="713.78802"
         x="554.98505"
         id="tspan5194"
         sodipodi:role="line">s</tspan></text>
    <text
       sodipodi:linespacing="125%"
       id="text5196"
       y="712.48828"
       x="486.88788"
       style="font-size:12px;font-style:normal;font-variant:normal;font-weight:normal;font-stretch:normal;text-align:center;line-height:125%;letter-spacing:0px;word-spacing:0px;text-anchor:middle;fill:#000000;fill-opacity:1;stroke:none;font-family:BKM-cmr10;-inkscape-font-specification:Sans"
       xml:space="preserve"><tspan
         y="712.48828"
         x="488.89178"
         id="tspan5198"
         sodipodi:role="line">+e     =(K i-K t) + (-K d-K s)  </tspan></text>
    <text
       xml:space="preserve"
       style="font-size:12px;font-style:normal;font-variant:normal;font-weight:normal;font-stretch:normal;text-align:center;line-height:125%;letter-spacing:0px;word-spacing:0px;text-anchor:middle;fill:#000000;fill-opacity:1;stroke:none;font-family:BKM-cmr10;-inkscape-font-specification:Sans"
       x="354.91931"
       y="698.03632"
       id="text5208"
       sodipodi:linespacing="125%"><tspan
         sodipodi:role="line"
         id="tspan5210"
         x="354.91931"
         y="698.03632"
         style="font-size:6px" /></text>
    <text
       xml:space="preserve"
       style="font-size:12px;font-style:normal;font-variant:normal;font-weight:normal;font-stretch:normal;text-align:center;line-height:125%;letter-spacing:0px;word-spacing:0px;text-anchor:middle;fill:#000000;fill-opacity:1;stroke:none;font-family:BKM-cmr10;-inkscape-font-specification:Sans"
       x="425.71228"
       y="715.18817"
       id="text5212"
       sodipodi:linespacing="125%"><tspan
         sodipodi:role="line"
         id="tspan5214"
         x="425.71228"
         y="715.18817"
         style="font-size:6px">xternal</tspan></text>
    <text
       xml:space="preserve"
       style="font-size:12px;font-style:normal;font-variant:normal;font-weight:normal;font-stretch:normal;text-align:center;line-height:125%;letter-spacing:0px;word-spacing:0px;text-anchor:middle;fill:#000000;fill-opacity:1;stroke:none;font-family:BKM-cmr10;-inkscape-font-specification:Sans"
       x="540.81897"
       y="724.48029"
       id="text5216"
       sodipodi:linespacing="125%"><tspan
         sodipodi:role="line"
         id="tspan5218"
         x="540.81897"
         y="724.48029">J</tspan></text>
    <path
       inkscape:connector-curvature="0"
       id="path5220"
       d="m 454.00043,714.9081 32.95623,0"
       style="fill:none;stroke:#000000;stroke-width:1px;stroke-linecap:butt;stroke-linejoin:miter;stroke-opacity:1" />
    <path
       style="fill:none;stroke:#000000;stroke-width:1px;stroke-linecap:butt;stroke-linejoin:miter;stroke-opacity:1"
       d="m 525.2373,715.25945 32.95623,0"
       id="path5222"
       inkscape:connector-curvature="0" />
    <text
       xml:space="preserve"
       style="font-size:12px;font-style:normal;font-variant:normal;font-weight:normal;font-stretch:normal;text-align:center;line-height:125%;letter-spacing:0px;word-spacing:0px;text-anchor:middle;fill:#000000;fill-opacity:1;stroke:none;font-family:BKM-cmr10;-inkscape-font-specification:Sans"
       x="383.36966"
       y="558.79071"
       id="text5243"
       sodipodi:linespacing="125%"><tspan
         sodipodi:role="line"
         id="tspan5245"
         x="385.37357"
         y="558.79071">unknowns: m, d, a, l </tspan></text>
    <g
       id="g5251">
      <path
         sodipodi:type="arc"
         style="fill:#000000;fill-opacity:1;fill-rule:evenodd;stroke:none"
         id="path5247"
         sodipodi:cx="178.99553"
         sodipodi:cy="570.68805"
         sodipodi:rx="0.63616073"
         sodipodi:ry="0.63616073"
         d="m 179.63169,570.68805 a 0.63616073,0.63616073 0 1 1 -1.27232,0 0.63616073,0.63616073 0 1 1 1.27232,0 z"
         transform="translate(213.95816,-19.754313)" />
      <path
         transform="translate(217.08316,-19.754313)"
         d="m 179.63169,570.68805 a 0.63616073,0.63616073 0 1 1 -1.27232,0 0.63616073,0.63616073 0 1 1 1.27232,0 z"
         sodipodi:ry="0.63616073"
         sodipodi:rx="0.63616073"
         sodipodi:cy="570.68805"
         sodipodi:cx="178.99553"
         id="path5249"
         style="fill:#000000;fill-opacity:1;fill-rule:evenodd;stroke:none"
         sodipodi:type="arc" />
    </g>
    <g
       id="g5255"
       transform="translate(15.973037,-2.5253814)">
      <path
         transform="translate(213.95816,-19.754313)"
         d="m 179.63169,570.68805 c 0,0.35134 -0.28482,0.63616 -0.63616,0.63616 -0.35134,0 -0.63616,-0.28482 -0.63616,-0.63616 0,-0.35134 0.28482,-0.63616 0.63616,-0.63616 0.35134,0 0.63616,0.28482 0.63616,0.63616 z"
         sodipodi:ry="0.63616073"
         sodipodi:rx="0.63616073"
         sodipodi:cy="570.68805"
         sodipodi:cx="178.99553"
         id="path5257"
         style="fill:#000000;fill-opacity:1;fill-rule:evenodd;stroke:none"
         sodipodi:type="arc" />
      <path
         sodipodi:type="arc"
         style="fill:#000000;fill-opacity:1;fill-rule:evenodd;stroke:none"
         id="path5259"
         sodipodi:cx="178.99553"
         sodipodi:cy="570.68805"
         sodipodi:rx="0.63616073"
         sodipodi:ry="0.63616073"
         d="m 179.63169,570.68805 c 0,0.35134 -0.28482,0.63616 -0.63616,0.63616 -0.35134,0 -0.63616,-0.28482 -0.63616,-0.63616 0,-0.35134 0.28482,-0.63616 0.63616,-0.63616 0.35134,0 0.63616,0.28482 0.63616,0.63616 z"
         transform="translate(217.08316,-19.754313)" />
    </g>
    <g
       transform="translate(29.041886,0.63134531)"
       id="g5261">
      <path
         sodipodi:type="arc"
         style="fill:#000000;fill-opacity:1;fill-rule:evenodd;stroke:none"
         id="path5263"
         sodipodi:cx="178.99553"
         sodipodi:cy="570.68805"
         sodipodi:rx="0.63616073"
         sodipodi:ry="0.63616073"
         d="m 179.63169,570.68805 c 0,0.35134 -0.28482,0.63616 -0.63616,0.63616 -0.35134,0 -0.63616,-0.28482 -0.63616,-0.63616 0,-0.35134 0.28482,-0.63616 0.63616,-0.63616 0.35134,0 0.63616,0.28482 0.63616,0.63616 z"
         transform="translate(213.95816,-19.754313)" />
      <path
         transform="translate(217.08316,-19.754313)"
         d="m 179.63169,570.68805 c 0,0.35134 -0.28482,0.63616 -0.63616,0.63616 -0.35134,0 -0.63616,-0.28482 -0.63616,-0.63616 0,-0.35134 0.28482,-0.63616 0.63616,-0.63616 0.35134,0 0.63616,0.28482 0.63616,0.63616 z"
         sodipodi:ry="0.63616073"
         sodipodi:rx="0.63616073"
         sodipodi:cy="570.68805"
         sodipodi:cx="178.99553"
         id="path5265"
         style="fill:#000000;fill-opacity:1;fill-rule:evenodd;stroke:none"
         sodipodi:type="arc" />
    </g>
  </g>
</svg>
