<?xml version="1.0" encoding="UTF-8" standalone="no"?>
<!-- Created with Inkscape (http://www.inkscape.org/) -->

<svg
   xmlns:dc="http://purl.org/dc/elements/1.1/"
   xmlns:cc="http://creativecommons.org/ns#"
   xmlns:rdf="http://www.w3.org/1999/02/22-rdf-syntax-ns#"
   xmlns:svg="http://www.w3.org/2000/svg"
   xmlns="http://www.w3.org/2000/svg"
   xmlns:sodipodi="http://sodipodi.sourceforge.net/DTD/sodipodi-0.dtd"
   xmlns:inkscape="http://www.inkscape.org/namespaces/inkscape"
   width="278.96164"
   height="282.23187"
   id="svg2"
   version="1.1"
   inkscape:version="0.48.4 r9939"
   sodipodi:docname="simple_ankle.svg">
  <defs
     id="defs4" />
  <sodipodi:namedview
     id="base"
     pagecolor="#ffffff"
     bordercolor="#666666"
     borderopacity="1.0"
     inkscape:pageopacity="0.0"
     inkscape:pageshadow="2"
     inkscape:zoom="1.979899"
     inkscape:cx="114.98747"
     inkscape:cy="149.99044"
     inkscape:document-units="px"
     inkscape:current-layer="layer1"
     showgrid="false"
     inkscape:snap-global="true"
     inkscape:object-nodes="true"
     inkscape:snap-object-midpoints="true"
     inkscape:snap-center="true"
     inkscape:object-paths="true"
     inkscape:snap-intersection-paths="true"
     inkscape:window-width="1920"
     inkscape:window-height="1055"
     inkscape:window-x="1920"
     inkscape:window-y="0"
     inkscape:window-maximized="1"
     fit-margin-left="5"
     fit-margin-top="5"
     fit-margin-right="5"
     fit-margin-bottom="5" />
  <metadata
     id="metadata7">
    <rdf:RDF>
      <cc:Work
         rdf:about="">
        <dc:format>image/svg+xml</dc:format>
        <dc:type
           rdf:resource="http://purl.org/dc/dcmitype/StillImage" />
        <dc:title />
      </cc:Work>
    </rdf:RDF>
  </metadata>
  <g
     inkscape:label="Layer 1"
     inkscape:groupmode="layer"
     id="layer1"
     transform="translate(-64.986606,-11.147894)">
    <text
       xml:space="preserve"
       style="font-size:24px;font-style:normal;font-variant:normal;font-weight:bold;font-stretch:normal;line-height:125%;letter-spacing:0px;word-spacing:0px;fill:#000000;fill-opacity:1;stroke:none;font-family:Arial;-inkscape-font-specification:Arial Bold"
       x="87.88327"
       y="228.58278"
       id="text3253"
       sodipodi:linespacing="125%"><tspan
         sodipodi:role="line"
         id="tspan3255"
         x="87.88327"
         y="228.58278" /></text>
    <g
       id="g4266">
      <path
         sodipodi:nodetypes="cccccc"
         inkscape:connector-curvature="0"
         id="path3239"
         d="m 143.58312,211.03143 -73.195935,28.63724 -0.01936,48.32987 268.199205,-0.76968 0,-24.62947 z"
         style="fill:none;stroke:#000000;stroke-width:0.76243836px;stroke-linecap:butt;stroke-linejoin:miter;stroke-opacity:1" />
      <path
         inkscape:connector-curvature="0"
         id="path3033"
         d="m 148.67986,38.206755 32.85714,4.233537 -65.71429,8.467077 65.71429,8.467077 -65.71429,8.467076 65.71429,8.467077 -32.85715,4.233538"
         style="fill:none;stroke:#000000;stroke-width:3;stroke-linecap:round;stroke-linejoin:round;stroke-miterlimit:4;stroke-opacity:1;stroke-dasharray:none" />
      <path
         style="fill:none;stroke:#000000;stroke-width:3;stroke-linecap:round;stroke-linejoin:round;stroke-miterlimit:4;stroke-opacity:1;stroke-dasharray:none"
         d="m 147.58305,105.81696 32.85714,4.23354 -65.71429,8.46707 65.71429,8.46708 -65.71429,8.46708 65.71429,8.46707 -32.85715,4.23354"
         id="path3035"
         inkscape:connector-curvature="0" />
      <rect
         y="80.542137"
         x="114.72591"
         height="25.40123"
         width="65.714287"
         id="rect3039"
         style="opacity:0.98000004;fill:#ffffff;stroke:#000000;stroke-width:1;stroke-linecap:round;stroke-linejoin:round;stroke-miterlimit:4;stroke-opacity:1;stroke-dasharray:none" />
      <rect
         y="16.647894"
         x="185.71429"
         height="154.28572"
         width="71.785713"
         id="rect3049"
         style="opacity:0.98000004;fill:none;stroke:#000000;stroke-width:1;stroke-linecap:round;stroke-linejoin:round;stroke-miterlimit:4;stroke-opacity:1;stroke-dasharray:none" />
      <g
         id="g3059">
        <path
           style="fill:none;stroke:#000000;stroke-width:1px;stroke-linecap:butt;stroke-linejoin:miter;stroke-opacity:1"
           d="m 175.40179,34.483814 10.3125,-10.312508"
           id="path3053"
           inkscape:connector-curvature="0" />
        <path
           style="fill:none;stroke:#000000;stroke-width:1px;stroke-linecap:butt;stroke-linejoin:miter;stroke-opacity:1"
           d="M 169.6875,34.483814 185.71429,18.45702"
           id="path3055"
           inkscape:connector-curvature="0" />
        <path
           inkscape:connector-curvature="0"
           id="path3057"
           d="m 179.98794,34.69589 5.93843,-5.938432"
           style="fill:none;stroke:#000000;stroke-width:0.57584757px;stroke-linecap:butt;stroke-linejoin:miter;stroke-opacity:1" />
      </g>
      <g
         transform="matrix(1.0078613,0,0,-1.0078613,-1.3969572,187.49922)"
         id="g3064">
        <path
           inkscape:connector-curvature="0"
           id="path3066"
           d="m 175.40179,34.483814 10.3125,-10.312508"
           style="fill:none;stroke:#000000;stroke-width:1px;stroke-linecap:butt;stroke-linejoin:miter;stroke-opacity:1" />
        <path
           inkscape:connector-curvature="0"
           id="path3068"
           d="M 169.6875,34.483814 185.71429,18.45702"
           style="fill:none;stroke:#000000;stroke-width:1px;stroke-linecap:butt;stroke-linejoin:miter;stroke-opacity:1" />
        <path
           style="fill:none;stroke:#000000;stroke-width:0.57584757px;stroke-linecap:butt;stroke-linejoin:miter;stroke-opacity:1"
           d="m 179.98794,34.69589 5.93843,-5.938432"
           id="path3070"
           inkscape:connector-curvature="0" />
      </g>
      <rect
         y="55.089081"
         x="92.428955"
         height="142.17897"
         width="16.162441"
         id="rect3072"
         style="opacity:0.98000004;fill:none;stroke:#000000;stroke-width:1;stroke-linecap:round;stroke-linejoin:round;stroke-miterlimit:4;stroke-opacity:1;stroke-dasharray:none" />
      <path
         inkscape:connector-curvature="0"
         id="path3076"
         d="M 92.428951,189.91809 108.5914,194.2038"
         style="fill:none;stroke:#000000;stroke-width:1px;stroke-linecap:butt;stroke-linejoin:miter;stroke-opacity:1" />
      <path
         style="fill:none;stroke:#000000;stroke-width:1px;stroke-linecap:butt;stroke-linejoin:miter;stroke-opacity:1"
         d="m 92.428951,186.85376 16.162449,4.28571"
         id="path3078"
         inkscape:connector-curvature="0" />
      <path
         inkscape:connector-curvature="0"
         id="path3080"
         d="m 92.428955,183.78948 16.162445,4.28571"
         style="fill:none;stroke:#000000;stroke-width:1px;stroke-linecap:butt;stroke-linejoin:miter;stroke-opacity:1" />
      <path
         style="fill:none;stroke:#000000;stroke-width:1px;stroke-linecap:butt;stroke-linejoin:miter;stroke-opacity:1"
         d="m 92.428947,180.72511 16.162453,4.28571"
         id="path3082"
         inkscape:connector-curvature="0" />
      <path
         inkscape:connector-curvature="0"
         id="path3084"
         d="m 92.428947,177.66084 16.162453,4.28571"
         style="fill:none;stroke:#000000;stroke-width:1px;stroke-linecap:butt;stroke-linejoin:miter;stroke-opacity:1" />
      <path
         style="fill:none;stroke:#000000;stroke-width:1px;stroke-linecap:butt;stroke-linejoin:miter;stroke-opacity:1"
         d="m 92.428951,174.59657 16.162449,4.28571"
         id="path3086"
         inkscape:connector-curvature="0" />
      <path
         inkscape:connector-curvature="0"
         id="path3088"
         d="m 92.428943,171.53228 16.162457,4.28571"
         style="fill:none;stroke:#000000;stroke-width:1px;stroke-linecap:butt;stroke-linejoin:miter;stroke-opacity:1" />
      <path
         style="fill:none;stroke:#000000;stroke-width:1px;stroke-linecap:butt;stroke-linejoin:miter;stroke-opacity:1"
         d="m 92.428943,168.46801 16.162457,4.28571"
         id="path3090"
         inkscape:connector-curvature="0" />
      <path
         inkscape:connector-curvature="0"
         id="path3092"
         d="m 92.428947,165.40368 16.162453,4.28571"
         style="fill:none;stroke:#000000;stroke-width:1px;stroke-linecap:butt;stroke-linejoin:miter;stroke-opacity:1" />
      <path
         style="fill:none;stroke:#000000;stroke-width:1px;stroke-linecap:butt;stroke-linejoin:miter;stroke-opacity:1"
         d="M 92.428939,162.33939 108.5914,166.6251"
         id="path3094"
         inkscape:connector-curvature="0" />
      <path
         inkscape:connector-curvature="0"
         id="path3096"
         d="m 92.428939,159.27512 16.162461,4.28571"
         style="fill:none;stroke:#000000;stroke-width:1px;stroke-linecap:butt;stroke-linejoin:miter;stroke-opacity:1" />
      <path
         style="fill:none;stroke:#000000;stroke-width:1px;stroke-linecap:butt;stroke-linejoin:miter;stroke-opacity:1"
         d="m 92.428943,156.21078 16.162457,4.28571"
         id="path3098"
         inkscape:connector-curvature="0" />
      <path
         inkscape:connector-curvature="0"
         id="path3100"
         d="m 92.428935,150.08216 16.162465,4.28571"
         style="fill:none;stroke:#000000;stroke-width:1px;stroke-linecap:butt;stroke-linejoin:miter;stroke-opacity:1" />
      <path
         style="fill:none;stroke:#000000;stroke-width:1px;stroke-linecap:butt;stroke-linejoin:miter;stroke-opacity:1"
         d="m 92.428935,143.95362 16.162465,4.28571"
         id="path3102"
         inkscape:connector-curvature="0" />
      <path
         inkscape:connector-curvature="0"
         id="path3104"
         d="m 92.428939,137.82502 16.162461,4.28571"
         style="fill:none;stroke:#000000;stroke-width:1px;stroke-linecap:butt;stroke-linejoin:miter;stroke-opacity:1" />
      <path
         style="fill:none;stroke:#000000;stroke-width:1px;stroke-linecap:butt;stroke-linejoin:miter;stroke-opacity:1"
         d="M 92.428935,153.14649 108.5914,157.4322"
         id="path3106"
         inkscape:connector-curvature="0" />
      <path
         inkscape:connector-curvature="0"
         id="path3108"
         d="M 92.428935,147.01789 108.5914,151.3036"
         style="fill:none;stroke:#000000;stroke-width:1px;stroke-linecap:butt;stroke-linejoin:miter;stroke-opacity:1" />
      <path
         style="fill:none;stroke:#000000;stroke-width:1px;stroke-linecap:butt;stroke-linejoin:miter;stroke-opacity:1"
         d="M 92.428939,140.88929 108.5914,145.175"
         id="path3110"
         inkscape:connector-curvature="0" />
      <path
         style="fill:none;stroke:#000000;stroke-width:1px;stroke-linecap:butt;stroke-linejoin:miter;stroke-opacity:1"
         d="m 92.428967,107.18209 16.162453,4.28571"
         id="path3131"
         inkscape:connector-curvature="0" />
      <path
         inkscape:connector-curvature="0"
         id="path3133"
         d="m 92.428967,104.11776 16.162453,4.28571"
         style="fill:none;stroke:#000000;stroke-width:1px;stroke-linecap:butt;stroke-linejoin:miter;stroke-opacity:1" />
      <path
         style="fill:none;stroke:#000000;stroke-width:1px;stroke-linecap:butt;stroke-linejoin:miter;stroke-opacity:1"
         d="m 92.428971,101.05349 16.162449,4.28571"
         id="path3135"
         inkscape:connector-curvature="0" />
      <path
         inkscape:connector-curvature="0"
         id="path3137"
         d="m 92.428963,97.989241 16.162457,4.285709"
         style="fill:none;stroke:#000000;stroke-width:1px;stroke-linecap:butt;stroke-linejoin:miter;stroke-opacity:1" />
      <path
         style="fill:none;stroke:#000000;stroke-width:1px;stroke-linecap:butt;stroke-linejoin:miter;stroke-opacity:1"
         d="m 92.428963,94.92491 16.162457,4.28571"
         id="path3139"
         inkscape:connector-curvature="0" />
      <path
         inkscape:connector-curvature="0"
         id="path3141"
         d="m 92.428967,91.860635 16.162453,4.28571"
         style="fill:none;stroke:#000000;stroke-width:1px;stroke-linecap:butt;stroke-linejoin:miter;stroke-opacity:1" />
      <path
         style="fill:none;stroke:#000000;stroke-width:1px;stroke-linecap:butt;stroke-linejoin:miter;stroke-opacity:1"
         d="m 92.428959,88.796346 16.162461,4.28571"
         id="path3143"
         inkscape:connector-curvature="0" />
      <path
         inkscape:connector-curvature="0"
         id="path3145"
         d="m 92.428959,85.732015 16.162461,4.28571"
         style="fill:none;stroke:#000000;stroke-width:1px;stroke-linecap:butt;stroke-linejoin:miter;stroke-opacity:1" />
      <path
         style="fill:none;stroke:#000000;stroke-width:1px;stroke-linecap:butt;stroke-linejoin:miter;stroke-opacity:1"
         d="m 92.428963,82.667741 16.162457,4.28571"
         id="path3147"
         inkscape:connector-curvature="0" />
      <path
         inkscape:connector-curvature="0"
         id="path3149"
         d="m 92.428955,79.603452 16.162465,4.28571"
         style="fill:none;stroke:#000000;stroke-width:1px;stroke-linecap:butt;stroke-linejoin:miter;stroke-opacity:1" />
      <path
         style="fill:none;stroke:#000000;stroke-width:1px;stroke-linecap:butt;stroke-linejoin:miter;stroke-opacity:1"
         d="m 92.428955,76.539182 16.162465,4.28571"
         id="path3151"
         inkscape:connector-curvature="0" />
      <path
         inkscape:connector-curvature="0"
         id="path3153"
         d="m 92.428959,73.474846 16.162461,4.28571"
         style="fill:none;stroke:#000000;stroke-width:1px;stroke-linecap:butt;stroke-linejoin:miter;stroke-opacity:1" />
      <path
         style="fill:none;stroke:#000000;stroke-width:1px;stroke-linecap:butt;stroke-linejoin:miter;stroke-opacity:1"
         d="m 92.428951,70.410558 16.162469,4.28571"
         id="path3155"
         inkscape:connector-curvature="0" />
      <path
         inkscape:connector-curvature="0"
         id="path3157"
         d="m 92.428951,64.281957 16.162469,4.28571"
         style="fill:none;stroke:#000000;stroke-width:1px;stroke-linecap:butt;stroke-linejoin:miter;stroke-opacity:1" />
      <path
         style="fill:none;stroke:#000000;stroke-width:1px;stroke-linecap:butt;stroke-linejoin:miter;stroke-opacity:1"
         d="m 92.428955,58.153412 16.162465,4.28571"
         id="path3159"
         inkscape:connector-curvature="0" />
      <path
         inkscape:connector-curvature="0"
         id="path3161"
         d="m 92.428951,67.346288 16.162469,4.28571"
         style="fill:none;stroke:#000000;stroke-width:1px;stroke-linecap:butt;stroke-linejoin:miter;stroke-opacity:1" />
      <path
         style="fill:none;stroke:#000000;stroke-width:1px;stroke-linecap:butt;stroke-linejoin:miter;stroke-opacity:1"
         d="m 92.428951,61.217687 16.162469,4.28571"
         id="path3163"
         inkscape:connector-curvature="0" />
      <path
         inkscape:connector-curvature="0"
         id="path3165"
         d="m 92.428955,55.089081 16.162465,4.28571"
         style="fill:none;stroke:#000000;stroke-width:1px;stroke-linecap:butt;stroke-linejoin:miter;stroke-opacity:1" />
      <path
         inkscape:connector-curvature="0"
         id="path3169"
         d="m 92.428939,134.76068 16.162461,4.28571"
         style="fill:none;stroke:#000000;stroke-width:1px;stroke-linecap:butt;stroke-linejoin:miter;stroke-opacity:1" />
      <path
         style="fill:none;stroke:#000000;stroke-width:1px;stroke-linecap:butt;stroke-linejoin:miter;stroke-opacity:1"
         d="m 92.428939,131.69641 16.162461,4.28571"
         id="path3171"
         inkscape:connector-curvature="0" />
      <path
         inkscape:connector-curvature="0"
         id="path3173"
         d="m 92.428943,128.63214 16.162457,4.28571"
         style="fill:none;stroke:#000000;stroke-width:1px;stroke-linecap:butt;stroke-linejoin:miter;stroke-opacity:1" />
      <path
         style="fill:none;stroke:#000000;stroke-width:1px;stroke-linecap:butt;stroke-linejoin:miter;stroke-opacity:1"
         d="m 92.428935,122.50358 16.162465,4.28571"
         id="path3175"
         inkscape:connector-curvature="0" />
      <path
         inkscape:connector-curvature="0"
         id="path3177"
         d="m 92.428935,116.37498 16.162465,4.28571"
         style="fill:none;stroke:#000000;stroke-width:1px;stroke-linecap:butt;stroke-linejoin:miter;stroke-opacity:1" />
      <path
         style="fill:none;stroke:#000000;stroke-width:1px;stroke-linecap:butt;stroke-linejoin:miter;stroke-opacity:1"
         d="m 92.428939,110.24637 16.162461,4.28571"
         id="path3179"
         inkscape:connector-curvature="0" />
      <path
         inkscape:connector-curvature="0"
         id="path3181"
         d="m 92.428935,125.56785 16.162465,4.28571"
         style="fill:none;stroke:#000000;stroke-width:1px;stroke-linecap:butt;stroke-linejoin:miter;stroke-opacity:1" />
      <path
         style="fill:none;stroke:#000000;stroke-width:1px;stroke-linecap:butt;stroke-linejoin:miter;stroke-opacity:1"
         d="m 92.428935,119.43931 16.162465,4.28571"
         id="path3183"
         inkscape:connector-curvature="0" />
      <path
         inkscape:connector-curvature="0"
         id="path3185"
         d="m 92.428939,113.31071 16.162461,4.28571"
         style="fill:none;stroke:#000000;stroke-width:1px;stroke-linecap:butt;stroke-linejoin:miter;stroke-opacity:1" />
      <path
         style="fill:none;stroke:#000000;stroke-width:1px;stroke-linecap:butt;stroke-linejoin:miter;stroke-opacity:1"
         d="m 92.42895,192.98234 16.16245,4.28571"
         id="path3187"
         inkscape:connector-curvature="0" />
      <rect
         y="73.150963"
         x="85.105354"
         height="38.880066"
         width="29.620554"
         id="rect3074"
         style="opacity:0.98000004;fill:#ffffff;stroke:#000000;stroke-width:1.58867514;stroke-linecap:round;stroke-linejoin:round;stroke-miterlimit:4;stroke-opacity:1;stroke-dasharray:none" />
      <text
         sodipodi:linespacing="125%"
         id="text3041"
         y="101.18084"
         x="89.91954"
         style="font-size:24px;font-style:normal;font-variant:normal;font-weight:normal;font-stretch:normal;text-align:start;line-height:125%;letter-spacing:0px;word-spacing:0px;writing-mode:lr-tb;text-anchor:start;fill:#000000;fill-opacity:1;stroke:none;font-family:Times New Roman;-inkscape-font-specification:'Times New Roman,'"
         xml:space="preserve"><tspan
           y="101.18084"
           x="89.91954"
           id="tspan3043"
           sodipodi:role="line">M</tspan></text>
      <path
         transform="translate(-18.687823,-39.39595)"
         d="m 192.93914,269.74649 c 0,6.27628 -5.08794,11.36422 -11.36422,11.36422 -6.27628,0 -11.36422,-5.08794 -11.36422,-11.36422 0,-6.27628 5.08794,-11.36422 11.36422,-11.36422 6.27628,0 11.36422,5.08794 11.36422,11.36422 z"
         sodipodi:ry="11.364216"
         sodipodi:rx="11.364216"
         sodipodi:cy="269.74649"
         sodipodi:cx="181.57492"
         id="path3189"
         style="opacity:0.98000004;fill:#ffffff;fill-opacity:1;stroke:#000000;stroke-width:1;stroke-linecap:round;stroke-linejoin:round;stroke-miterlimit:4;stroke-opacity:1;stroke-dasharray:none"
         sodipodi:type="arc" />
      <path
         sodipodi:type="arc"
         style="opacity:0.98000004;fill:#ffffff;fill-opacity:1;stroke:#000000;stroke-width:1;stroke-linecap:round;stroke-linejoin:round;stroke-miterlimit:4;stroke-opacity:1;stroke-dasharray:none"
         id="path3191"
         sodipodi:cx="181.57492"
         sodipodi:cy="269.74649"
         sodipodi:rx="11.364216"
         sodipodi:ry="11.364216"
         d="m 192.93914,269.74649 c 0,6.27628 -5.08794,11.36422 -11.36422,11.36422 -6.27628,0 -11.36422,-5.08794 -11.36422,-11.36422 0,-6.27628 5.08794,-11.36422 11.36422,-11.36422 6.27628,0 11.36422,5.08794 11.36422,11.36422 z"
         transform="matrix(0.51575033,0,0,0.51575033,69.239772,91.228707)" />
      <path
         sodipodi:type="arc"
         style="opacity:0.98000004;fill:#ffffff;fill-opacity:1;stroke:#000000;stroke-width:1;stroke-linecap:round;stroke-linejoin:round;stroke-miterlimit:4;stroke-opacity:1;stroke-dasharray:none"
         id="path3193"
         sodipodi:cx="181.57492"
         sodipodi:cy="269.74649"
         sodipodi:rx="11.364216"
         sodipodi:ry="11.364216"
         d="m 192.93914,269.74649 c 0,6.27628 -5.08794,11.36422 -11.36422,11.36422 -6.27628,0 -11.36422,-5.08794 -11.36422,-11.36422 0,-6.27628 5.08794,-11.36422 11.36422,-11.36422 6.27628,0 11.36422,5.08794 11.36422,11.36422 z"
         transform="translate(-18.687823,-39.39595)" />
      <path
         transform="matrix(0.51575033,0,0,0.51575033,69.239772,91.228707)"
         d="m 192.93914,269.74649 c 0,6.27628 -5.08794,11.36422 -11.36422,11.36422 -6.27628,0 -11.36422,-5.08794 -11.36422,-11.36422 0,-6.27628 5.08794,-11.36422 11.36422,-11.36422 6.27628,0 11.36422,5.08794 11.36422,11.36422 z"
         sodipodi:ry="11.364216"
         sodipodi:rx="11.364216"
         sodipodi:cy="269.74649"
         sodipodi:cx="181.57492"
         id="path3195"
         style="opacity:0.98000004;fill:#ffffff;fill-opacity:1;stroke:#000000;stroke-width:1;stroke-linecap:round;stroke-linejoin:round;stroke-miterlimit:4;stroke-opacity:1;stroke-dasharray:none"
         sodipodi:type="arc" />
      <path
         sodipodi:type="arc"
         style="opacity:0.98000004;fill:#ffffff;fill-opacity:1;stroke:#000000;stroke-width:1;stroke-linecap:round;stroke-linejoin:round;stroke-miterlimit:4;stroke-opacity:1;stroke-dasharray:none"
         id="path3197"
         sodipodi:cx="181.57492"
         sodipodi:cy="269.74649"
         sodipodi:rx="11.364216"
         sodipodi:ry="11.364216"
         d="m 192.93914,269.74649 c 0,6.27628 -5.08794,11.36422 -11.36422,11.36422 -6.27628,0 -11.36422,-5.08794 -11.36422,-11.36422 0,-6.27628 5.08794,-11.36422 11.36422,-11.36422 6.27628,0 11.36422,5.08794 11.36422,11.36422 z"
         transform="translate(-81.064745,-74.6213)" />
      <path
         transform="matrix(0.51575033,0,0,0.51575033,6.8628498,56.003354)"
         d="m 192.93914,269.74649 c 0,6.27628 -5.08794,11.36422 -11.36422,11.36422 -6.27628,0 -11.36422,-5.08794 -11.36422,-11.36422 0,-6.27628 5.08794,-11.36422 11.36422,-11.36422 6.27628,0 11.36422,5.08794 11.36422,11.36422 z"
         sodipodi:ry="11.364216"
         sodipodi:rx="11.364216"
         sodipodi:cy="269.74649"
         sodipodi:cx="181.57492"
         id="path3199"
         style="opacity:0.98000004;fill:#ffffff;fill-opacity:1;stroke:#000000;stroke-width:1;stroke-linecap:round;stroke-linejoin:round;stroke-miterlimit:4;stroke-opacity:1;stroke-dasharray:none"
         sodipodi:type="arc" />
      <path
         transform="translate(-81.064745,-74.6213)"
         d="m 192.93914,269.74649 c 0,6.27628 -5.08794,11.36422 -11.36422,11.36422 -6.27628,0 -11.36422,-5.08794 -11.36422,-11.36422 0,-6.27628 5.08794,-11.36422 11.36422,-11.36422 6.27628,0 11.36422,5.08794 11.36422,11.36422 z"
         sodipodi:ry="11.364216"
         sodipodi:rx="11.364216"
         sodipodi:cy="269.74649"
         sodipodi:cx="181.57492"
         id="path3201"
         style="opacity:0.98000004;fill:#ffffff;fill-opacity:1;stroke:#000000;stroke-width:1;stroke-linecap:round;stroke-linejoin:round;stroke-miterlimit:4;stroke-opacity:1;stroke-dasharray:none"
         sodipodi:type="arc" />
      <path
         sodipodi:type="arc"
         style="opacity:0.98000004;fill:#ffffff;fill-opacity:1;stroke:#000000;stroke-width:1;stroke-linecap:round;stroke-linejoin:round;stroke-miterlimit:4;stroke-opacity:1;stroke-dasharray:none"
         id="path3203"
         sodipodi:cx="181.57492"
         sodipodi:cy="269.74649"
         sodipodi:rx="11.364216"
         sodipodi:ry="11.364216"
         d="m 192.93914,269.74649 c 0,6.27628 -5.08794,11.36422 -11.36422,11.36422 -6.27628,0 -11.36422,-5.08794 -11.36422,-11.36422 0,-6.27628 5.08794,-11.36422 11.36422,-11.36422 6.27628,0 11.36422,5.08794 11.36422,11.36422 z"
         transform="matrix(0.51575033,0,0,0.51575033,6.8628498,56.003354)" />
      <path
         sodipodi:type="arc"
         style="opacity:0.98000004;fill:#ffffff;fill-opacity:1;stroke:#000000;stroke-width:1;stroke-linecap:round;stroke-linejoin:round;stroke-miterlimit:4;stroke-opacity:1;stroke-dasharray:none"
         id="path3205"
         sodipodi:cx="181.57492"
         sodipodi:cy="269.74649"
         sodipodi:rx="11.364216"
         sodipodi:ry="11.364216"
         d="m 192.93914,269.74649 c 0,6.27628 -5.08794,11.36422 -11.36422,11.36422 -6.27628,0 -11.36422,-5.08794 -11.36422,-11.36422 0,-6.27628 5.08794,-11.36422 11.36422,-11.36422 6.27628,0 11.36422,5.08794 11.36422,11.36422 z"
         transform="translate(-96.456599,-15.463324)" />
      <path
         transform="matrix(0.51575033,0,0,0.51575033,-8.5290038,115.16132)"
         d="m 192.93914,269.74649 c 0,6.27628 -5.08794,11.36422 -11.36422,11.36422 -6.27628,0 -11.36422,-5.08794 -11.36422,-11.36422 0,-6.27628 5.08794,-11.36422 11.36422,-11.36422 6.27628,0 11.36422,5.08794 11.36422,11.36422 z"
         sodipodi:ry="11.364216"
         sodipodi:rx="11.364216"
         sodipodi:cy="269.74649"
         sodipodi:cx="181.57492"
         id="path3207"
         style="opacity:0.98000004;fill:#ffffff;fill-opacity:1;stroke:#000000;stroke-width:1;stroke-linecap:round;stroke-linejoin:round;stroke-miterlimit:4;stroke-opacity:1;stroke-dasharray:none"
         sodipodi:type="arc" />
      <rect
         inkscape:transform-center-x="-7.8495494"
         transform="matrix(0.96903292,0.24693158,-0.24693158,0.96903292,0,0)"
         inkscape:transform-center-y="-30.803971"
         y="162.81631"
         x="139.39055"
         height="62.576729"
         width="11.869292"
         id="rect3213"
         style="opacity:0.98000004;fill:#ffffff;fill-opacity:1;stroke:#000000;stroke-width:1;stroke-linecap:round;stroke-linejoin:round;stroke-miterlimit:4;stroke-opacity:1;stroke-dasharray:none" />
      <path
         transform="translate(-96.456599,-15.463324)"
         d="m 192.93914,269.74649 c 0,6.27628 -5.08794,11.36422 -11.36422,11.36422 -6.27628,0 -11.36422,-5.08794 -11.36422,-11.36422 0,-6.27628 5.08794,-11.36422 11.36422,-11.36422 6.27628,0 11.36422,5.08794 11.36422,11.36422 z"
         sodipodi:ry="11.364216"
         sodipodi:rx="11.364216"
         sodipodi:cy="269.74649"
         sodipodi:cx="181.57492"
         id="path3209"
         style="opacity:0.98000004;fill:#ffffff;fill-opacity:1;stroke:#000000;stroke-width:1;stroke-linecap:round;stroke-linejoin:round;stroke-miterlimit:4;stroke-opacity:1;stroke-dasharray:none"
         sodipodi:type="arc" />
      <path
         sodipodi:type="arc"
         style="opacity:0.98000004;fill:#ffffff;fill-opacity:1;stroke:#000000;stroke-width:1;stroke-linecap:round;stroke-linejoin:round;stroke-miterlimit:4;stroke-opacity:1;stroke-dasharray:none"
         id="path3211"
         sodipodi:cx="181.57492"
         sodipodi:cy="269.74649"
         sodipodi:rx="11.364216"
         sodipodi:ry="11.364216"
         d="m 192.93914,269.74649 c 0,6.27628 -5.08794,11.36422 -11.36422,11.36422 -6.27628,0 -11.36422,-5.08794 -11.36422,-11.36422 0,-6.27628 5.08794,-11.36422 11.36422,-11.36422 6.27628,0 11.36422,5.08794 11.36422,11.36422 z"
         transform="matrix(0.51575033,0,0,0.51575033,-8.5290038,115.16132)" />
      <path
         sodipodi:type="arc"
         style="opacity:0.98000004;fill:#ffffff;fill-opacity:1;stroke:#000000;stroke-width:1;stroke-linecap:round;stroke-linejoin:round;stroke-miterlimit:4;stroke-opacity:1;stroke-dasharray:none"
         id="path3215"
         sodipodi:cx="181.57492"
         sodipodi:cy="269.74649"
         sodipodi:rx="11.364216"
         sodipodi:ry="11.364216"
         d="m 192.93914,269.74649 c 0,6.27628 -5.08794,11.36422 -11.36422,11.36422 -6.27628,0 -11.36422,-5.08794 -11.36422,-11.36422 0,-6.27628 5.08794,-11.36422 11.36422,-11.36422 6.27628,0 11.36422,5.08794 11.36422,11.36422 z"
         transform="translate(-18.687823,-39.39595)" />
      <path
         transform="matrix(0.51575033,0,0,0.51575033,69.239772,91.228707)"
         d="m 192.93914,269.74649 c 0,6.27628 -5.08794,11.36422 -11.36422,11.36422 -6.27628,0 -11.36422,-5.08794 -11.36422,-11.36422 0,-6.27628 5.08794,-11.36422 11.36422,-11.36422 6.27628,0 11.36422,5.08794 11.36422,11.36422 z"
         sodipodi:ry="11.364216"
         sodipodi:rx="11.364216"
         sodipodi:cy="269.74649"
         sodipodi:cx="181.57492"
         id="path3217"
         style="opacity:0.98000004;fill:#ffffff;fill-opacity:1;stroke:#000000;stroke-width:1;stroke-linecap:round;stroke-linejoin:round;stroke-miterlimit:4;stroke-opacity:1;stroke-dasharray:none"
         sodipodi:type="arc" />
      <path
         sodipodi:type="arc"
         style="opacity:0.98000004;fill:#ffffff;fill-opacity:1;stroke:#000000;stroke-width:1;stroke-linecap:round;stroke-linejoin:round;stroke-miterlimit:4;stroke-opacity:1;stroke-dasharray:none"
         id="path3223"
         sodipodi:cx="181.57492"
         sodipodi:cy="269.74649"
         sodipodi:rx="11.364216"
         sodipodi:ry="11.364216"
         d="m 192.93914,269.74649 c 0,6.27628 -5.08794,11.36422 -11.36422,11.36422 -6.27628,0 -11.36422,-5.08794 -11.36422,-11.36422 0,-6.27628 5.08794,-11.36422 11.36422,-11.36422 6.27628,0 11.36422,5.08794 11.36422,11.36422 z"
         transform="translate(-81.064745,-74.6213)" />
      <path
         transform="matrix(0.51575033,0,0,0.51575033,6.8628499,56.003351)"
         d="m 192.93914,269.74649 c 0,6.27628 -5.08794,11.36422 -11.36422,11.36422 -6.27628,0 -11.36422,-5.08794 -11.36422,-11.36422 0,-6.27628 5.08794,-11.36422 11.36422,-11.36422 6.27628,0 11.36422,5.08794 11.36422,11.36422 z"
         sodipodi:ry="11.364216"
         sodipodi:rx="11.364216"
         sodipodi:cy="269.74649"
         sodipodi:cx="181.57492"
         id="path3225"
         style="opacity:0.98000004;fill:#ffffff;fill-opacity:1;stroke:#000000;stroke-width:1;stroke-linecap:round;stroke-linejoin:round;stroke-miterlimit:4;stroke-opacity:1;stroke-dasharray:none"
         sodipodi:type="arc" />
      <path
         transform="translate(-81.064745,-74.6213)"
         d="m 192.93914,269.74649 c 0,6.27628 -5.08794,11.36422 -11.36422,11.36422 -6.27628,0 -11.36422,-5.08794 -11.36422,-11.36422 0,-6.27628 5.08794,-11.36422 11.36422,-11.36422 6.27628,0 11.36422,5.08794 11.36422,11.36422 z"
         sodipodi:ry="11.364216"
         sodipodi:rx="11.364216"
         sodipodi:cy="269.74649"
         sodipodi:cx="181.57492"
         id="path3227"
         style="opacity:0.98000004;fill:#ffffff;fill-opacity:1;stroke:#000000;stroke-width:1;stroke-linecap:round;stroke-linejoin:round;stroke-miterlimit:4;stroke-opacity:1;stroke-dasharray:none"
         sodipodi:type="arc" />
      <path
         sodipodi:type="arc"
         style="opacity:0.98000004;fill:#ffffff;fill-opacity:1;stroke:#000000;stroke-width:1;stroke-linecap:round;stroke-linejoin:round;stroke-miterlimit:4;stroke-opacity:1;stroke-dasharray:none"
         id="path3229"
         sodipodi:cx="181.57492"
         sodipodi:cy="269.74649"
         sodipodi:rx="11.364216"
         sodipodi:ry="11.364216"
         d="m 192.93914,269.74649 c 0,6.27628 -5.08794,11.36422 -11.36422,11.36422 -6.27628,0 -11.36422,-5.08794 -11.36422,-11.36422 0,-6.27628 5.08794,-11.36422 11.36422,-11.36422 6.27628,0 11.36422,5.08794 11.36422,11.36422 z"
         transform="matrix(0.51575033,0,0,0.51575033,6.8628499,56.003351)" />
      <path
         transform="translate(-81.064745,-74.6213)"
         d="m 192.93914,269.74649 c 0,6.27628 -5.08794,11.36422 -11.36422,11.36422 -6.27628,0 -11.36422,-5.08794 -11.36422,-11.36422 0,-6.27628 5.08794,-11.36422 11.36422,-11.36422 6.27628,0 11.36422,5.08794 11.36422,11.36422 z"
         sodipodi:ry="11.364216"
         sodipodi:rx="11.364216"
         sodipodi:cy="269.74649"
         sodipodi:cx="181.57492"
         id="path3231"
         style="opacity:0.98000004;fill:#ffffff;fill-opacity:1;stroke:#000000;stroke-width:1;stroke-linecap:round;stroke-linejoin:round;stroke-miterlimit:4;stroke-opacity:1;stroke-dasharray:none"
         sodipodi:type="arc" />
      <path
         sodipodi:type="arc"
         style="opacity:0.98000004;fill:#ffffff;fill-opacity:1;stroke:#000000;stroke-width:1;stroke-linecap:round;stroke-linejoin:round;stroke-miterlimit:4;stroke-opacity:1;stroke-dasharray:none"
         id="path3233"
         sodipodi:cx="181.57492"
         sodipodi:cy="269.74649"
         sodipodi:rx="11.364216"
         sodipodi:ry="11.364216"
         d="m 192.93914,269.74649 c 0,6.27628 -5.08794,11.36422 -11.36422,11.36422 -6.27628,0 -11.36422,-5.08794 -11.36422,-11.36422 0,-6.27628 5.08794,-11.36422 11.36422,-11.36422 6.27628,0 11.36422,5.08794 11.36422,11.36422 z"
         transform="matrix(0.51575033,0,0,0.51575033,6.8628499,56.003351)" />
      <path
         sodipodi:type="arc"
         style="opacity:0.98000004;fill:#ffffff;fill-opacity:1;stroke:#000000;stroke-width:1;stroke-linecap:round;stroke-linejoin:round;stroke-miterlimit:4;stroke-opacity:1;stroke-dasharray:none"
         id="path3235"
         sodipodi:cx="181.57492"
         sodipodi:cy="269.74649"
         sodipodi:rx="11.364216"
         sodipodi:ry="11.364216"
         d="m 192.93914,269.74649 c 0,6.27628 -5.08794,11.36422 -11.36422,11.36422 -6.27628,0 -11.36422,-5.08794 -11.36422,-11.36422 0,-6.27628 5.08794,-11.36422 11.36422,-11.36422 6.27628,0 11.36422,5.08794 11.36422,11.36422 z"
         transform="translate(-81.064745,-74.6213)" />
      <path
         transform="matrix(0.51575033,0,0,0.51575033,6.8628499,56.003351)"
         d="m 192.93914,269.74649 c 0,6.27628 -5.08794,11.36422 -11.36422,11.36422 -6.27628,0 -11.36422,-5.08794 -11.36422,-11.36422 0,-6.27628 5.08794,-11.36422 11.36422,-11.36422 6.27628,0 11.36422,5.08794 11.36422,11.36422 z"
         sodipodi:ry="11.364216"
         sodipodi:rx="11.364216"
         sodipodi:cy="269.74649"
         sodipodi:cx="181.57492"
         id="path3237"
         style="opacity:0.98000004;fill:#ffffff;fill-opacity:1;stroke:#000000;stroke-width:1;stroke-linecap:round;stroke-linejoin:round;stroke-miterlimit:4;stroke-opacity:1;stroke-dasharray:none"
         sodipodi:type="arc" />
      <path
         sodipodi:nodetypes="cccc"
         inkscape:connector-curvature="0"
         id="path3241"
         d="m 185.71429,170.93361 -28.68829,59.41694 11.7222,0 88.7518,-59.41694"
         style="fill:#ffffff;stroke:#000000;stroke-width:1px;stroke-linecap:butt;stroke-linejoin:miter;stroke-opacity:1" />
      <path
         transform="translate(-18.687823,-39.39595)"
         d="m 192.93914,269.74649 c 0,6.27628 -5.08794,11.36422 -11.36422,11.36422 -6.27628,0 -11.36422,-5.08794 -11.36422,-11.36422 0,-6.27628 5.08794,-11.36422 11.36422,-11.36422 6.27628,0 11.36422,5.08794 11.36422,11.36422 z"
         sodipodi:ry="11.364216"
         sodipodi:rx="11.364216"
         sodipodi:cy="269.74649"
         sodipodi:cx="181.57492"
         id="path3219"
         style="opacity:0.98000004;fill:#ffffff;fill-opacity:1;stroke:#000000;stroke-width:1;stroke-linecap:round;stroke-linejoin:round;stroke-miterlimit:4;stroke-opacity:1;stroke-dasharray:none"
         sodipodi:type="arc" />
      <path
         sodipodi:type="arc"
         style="opacity:0.98000004;fill:#ffffff;fill-opacity:1;stroke:#000000;stroke-width:1;stroke-linecap:round;stroke-linejoin:round;stroke-miterlimit:4;stroke-opacity:1;stroke-dasharray:none"
         id="path3221"
         sodipodi:cx="181.57492"
         sodipodi:cy="269.74649"
         sodipodi:rx="11.364216"
         sodipodi:ry="11.364216"
         d="m 192.93914,269.74649 c 0,6.27628 -5.08794,11.36422 -11.36422,11.36422 -6.27628,0 -11.36422,-5.08794 -11.36422,-11.36422 0,-6.27628 5.08794,-11.36422 11.36422,-11.36422 6.27628,0 11.36422,5.08794 11.36422,11.36422 z"
         transform="matrix(0.51575033,0,0,0.51575033,69.239772,91.228707)" />
      <text
         sodipodi:linespacing="125%"
         id="text3247"
         y="62.719322"
         x="200"
         style="font-size:24px;font-style:normal;font-variant:normal;font-weight:normal;font-stretch:normal;text-align:start;line-height:125%;letter-spacing:0px;word-spacing:0px;writing-mode:lr-tb;text-anchor:start;fill:#000000;fill-opacity:1;stroke:none;font-family:Times New Roman;-inkscape-font-specification:'Times New Roman,'"
         xml:space="preserve"><tspan
           y="62.719322"
           x="200"
           id="tspan3249"
           sodipodi:role="line">Calf</tspan></text>
      <path
         transform="matrix(0.75118788,0,0,0.75118788,12.754861,50.145515)"
         d="m 124.06267,231.41173 c 0,9.59817 -7.78085,17.37902 -17.37902,17.37902 -9.598173,0 -17.379027,-7.78085 -17.379027,-17.37902 0,-9.59817 7.780854,-17.37903 17.379027,-17.37903 9.59817,0 17.37902,7.78086 17.37902,17.37903 z"
         sodipodi:ry="17.379025"
         sodipodi:rx="17.379025"
         sodipodi:cy="231.41173"
         sodipodi:cx="106.68365"
         id="path3251"
         style="opacity:0.98000004;fill:#ffffff;fill-opacity:1;stroke:#000000;stroke-width:1;stroke-linecap:round;stroke-linejoin:round;stroke-miterlimit:4;stroke-opacity:1;stroke-dasharray:none"
         sodipodi:type="arc" />
      <text
         sodipodi:linespacing="125%"
         id="text3257"
         y="229.93379"
         x="87.783485"
         style="font-size:18px;font-style:normal;font-variant:normal;font-weight:bold;font-stretch:normal;line-height:125%;letter-spacing:0px;word-spacing:0px;fill:#000000;fill-opacity:1;stroke:none;font-family:Times New Roman;-inkscape-font-specification:Times New Roman"
         xml:space="preserve"><tspan
           y="229.93379"
           x="87.783485"
           id="tspan3259"
           sodipodi:role="line">S</tspan></text>
      <rect
         y="34.483814"
         x="115.48352"
         height="3.6530633"
         width="65.714287"
         id="rect3047"
         style="opacity:0.98000004;fill:#ffffff;stroke:#000000;stroke-width:0.37922874;stroke-linecap:round;stroke-linejoin:round;stroke-miterlimit:4;stroke-opacity:1;stroke-dasharray:none" />
      <g
         transform="translate(-3.75,-0.35714286)"
         id="g4039">
        <path
           transform="matrix(0.75118788,0,0,0.75118788,118.62974,-80.164163)"
           d="m 124.06267,231.41173 c 0,9.59817 -7.78085,17.37902 -17.37902,17.37902 -9.598173,0 -17.379027,-7.78085 -17.379027,-17.37902 0,-9.59817 7.780854,-17.37903 17.379027,-17.37903 9.59817,0 17.37902,7.78086 17.37902,17.37903 z"
           sodipodi:ry="17.379025"
           sodipodi:rx="17.379025"
           sodipodi:cy="231.41173"
           sodipodi:cx="106.68365"
           id="path4029"
           style="opacity:0.98000004;fill:#ffffff;fill-opacity:1;stroke:#000000;stroke-width:1;stroke-linecap:round;stroke-linejoin:round;stroke-miterlimit:4;stroke-opacity:1;stroke-dasharray:none"
           sodipodi:type="arc" />
        <text
           sodipodi:linespacing="125%"
           id="text4031"
           y="99.624115"
           x="193.65837"
           style="font-size:18px;font-style:normal;font-variant:normal;font-weight:bold;font-stretch:normal;line-height:125%;letter-spacing:0px;word-spacing:0px;fill:#000000;fill-opacity:1;stroke:none;font-family:Times New Roman;-inkscape-font-specification:Times New Roman"
           xml:space="preserve"><tspan
             y="99.624115"
             x="193.65837"
             id="tspan4033"
             sodipodi:role="line">S</tspan></text>
        <text
           xml:space="preserve"
           style="font-size:12px;font-style:normal;font-variant:normal;font-weight:bold;font-stretch:normal;line-height:125%;letter-spacing:0px;word-spacing:0px;fill:#000000;fill-opacity:1;stroke:none;font-family:Times New Roman;-inkscape-font-specification:Times New Roman"
           x="202.85715"
           y="101.64789"
           id="text4035"
           sodipodi:linespacing="125%"><tspan
             sodipodi:role="line"
             id="tspan4037"
             x="202.85715"
             y="101.64789">d</tspan></text>
      </g>
      <path
         inkscape:connector-curvature="0"
         id="path4046"
         d="m 180.44019,82.331631 2.93406,0 0,2.872622"
         style="fill:none;stroke:#000000;stroke-width:1px;stroke-linecap:butt;stroke-linejoin:miter;stroke-opacity:1" />
      <text
         sodipodi:linespacing="125%"
         id="text4048"
         y="232.36217"
         x="97.14286"
         style="font-size:12px;font-style:normal;font-variant:normal;font-weight:bold;font-stretch:normal;line-height:125%;letter-spacing:0px;word-spacing:0px;fill:#000000;fill-opacity:1;stroke:none;font-family:Times New Roman;-inkscape-font-specification:Times New Roman"
         xml:space="preserve"><tspan
           y="232.36217"
           x="97.14286"
           id="tspan4050"
           sodipodi:role="line">f</tspan></text>
      <path
         style="fill:none;stroke:#000000;stroke-width:3;stroke-linecap:round;stroke-linejoin:round;stroke-miterlimit:4;stroke-opacity:1;stroke-dasharray:none"
         d="m 148.67986,38.206755 32.85714,4.233537 -65.71429,8.467077 65.71429,8.467077 -65.71429,8.467076 65.71429,8.467077 -32.85715,4.233538"
         id="path4054"
         inkscape:connector-curvature="0" />
      <path
         inkscape:connector-curvature="0"
         id="path4056"
         d="m 147.58305,105.81696 32.85714,4.23354 -65.71429,8.46707 65.71429,8.46708 -65.71429,8.46708 65.71429,8.46707 -32.85715,4.23354"
         style="fill:none;stroke:#000000;stroke-width:3;stroke-linecap:round;stroke-linejoin:round;stroke-miterlimit:4;stroke-opacity:1;stroke-dasharray:none" />
      <rect
         style="opacity:0.98000004;fill:#ffffff;stroke:#000000;stroke-width:1;stroke-linecap:round;stroke-linejoin:round;stroke-miterlimit:4;stroke-opacity:1;stroke-dasharray:none"
         id="rect4058"
         width="65.714287"
         height="25.40123"
         x="114.72591"
         y="80.542137" />
      <g
         id="g4064">
        <path
           inkscape:connector-curvature="0"
           id="path4066"
           d="m 175.40179,34.483814 10.3125,-10.312508"
           style="fill:none;stroke:#000000;stroke-width:1px;stroke-linecap:butt;stroke-linejoin:miter;stroke-opacity:1" />
        <path
           inkscape:connector-curvature="0"
           id="path4068"
           d="M 169.6875,34.483814 185.71429,18.45702"
           style="fill:none;stroke:#000000;stroke-width:1px;stroke-linecap:butt;stroke-linejoin:miter;stroke-opacity:1" />
        <path
           style="fill:none;stroke:#000000;stroke-width:0.57584757px;stroke-linecap:butt;stroke-linejoin:miter;stroke-opacity:1"
           d="m 179.98794,34.69589 5.93843,-5.938432"
           id="path4070"
           inkscape:connector-curvature="0" />
      </g>
      <g
         id="g4072"
         transform="matrix(1.0078613,0,0,-1.0078613,-1.3969572,187.49922)">
        <path
           style="fill:none;stroke:#000000;stroke-width:1px;stroke-linecap:butt;stroke-linejoin:miter;stroke-opacity:1"
           d="m 175.40179,34.483814 10.3125,-10.312508"
           id="path4074"
           inkscape:connector-curvature="0" />
        <path
           style="fill:none;stroke:#000000;stroke-width:1px;stroke-linecap:butt;stroke-linejoin:miter;stroke-opacity:1"
           d="M 169.6875,34.483814 185.71429,18.45702"
           id="path4076"
           inkscape:connector-curvature="0" />
        <path
           inkscape:connector-curvature="0"
           id="path4078"
           d="m 179.98794,34.69589 5.93843,-5.938432"
           style="fill:none;stroke:#000000;stroke-width:0.57584757px;stroke-linecap:butt;stroke-linejoin:miter;stroke-opacity:1" />
      </g>
      <rect
         style="opacity:0.98000004;fill:none;stroke:#000000;stroke-width:1;stroke-linecap:round;stroke-linejoin:round;stroke-miterlimit:4;stroke-opacity:1;stroke-dasharray:none"
         id="rect4080"
         width="16.162441"
         height="142.17897"
         x="92.428955"
         y="55.089081" />
      <path
         style="fill:none;stroke:#000000;stroke-width:1px;stroke-linecap:butt;stroke-linejoin:miter;stroke-opacity:1"
         d="M 92.428951,189.91809 108.5914,194.2038"
         id="path4082"
         inkscape:connector-curvature="0" />
      <path
         inkscape:connector-curvature="0"
         id="path4084"
         d="m 92.428951,186.85376 16.162449,4.28571"
         style="fill:none;stroke:#000000;stroke-width:1px;stroke-linecap:butt;stroke-linejoin:miter;stroke-opacity:1" />
      <path
         style="fill:none;stroke:#000000;stroke-width:1px;stroke-linecap:butt;stroke-linejoin:miter;stroke-opacity:1"
         d="m 92.428955,183.78948 16.162445,4.28571"
         id="path4086"
         inkscape:connector-curvature="0" />
      <path
         inkscape:connector-curvature="0"
         id="path4088"
         d="m 92.428947,180.72511 16.162453,4.28571"
         style="fill:none;stroke:#000000;stroke-width:1px;stroke-linecap:butt;stroke-linejoin:miter;stroke-opacity:1" />
      <path
         style="fill:none;stroke:#000000;stroke-width:1px;stroke-linecap:butt;stroke-linejoin:miter;stroke-opacity:1"
         d="m 92.428947,177.66084 16.162453,4.28571"
         id="path4090"
         inkscape:connector-curvature="0" />
      <path
         inkscape:connector-curvature="0"
         id="path4092"
         d="m 92.428951,174.59657 16.162449,4.28571"
         style="fill:none;stroke:#000000;stroke-width:1px;stroke-linecap:butt;stroke-linejoin:miter;stroke-opacity:1" />
      <path
         style="fill:none;stroke:#000000;stroke-width:1px;stroke-linecap:butt;stroke-linejoin:miter;stroke-opacity:1"
         d="m 92.428943,171.53228 16.162457,4.28571"
         id="path4094"
         inkscape:connector-curvature="0" />
      <path
         inkscape:connector-curvature="0"
         id="path4096"
         d="m 92.428943,168.46801 16.162457,4.28571"
         style="fill:none;stroke:#000000;stroke-width:1px;stroke-linecap:butt;stroke-linejoin:miter;stroke-opacity:1" />
      <path
         style="fill:none;stroke:#000000;stroke-width:1px;stroke-linecap:butt;stroke-linejoin:miter;stroke-opacity:1"
         d="m 92.428947,165.40368 16.162453,4.28571"
         id="path4098"
         inkscape:connector-curvature="0" />
      <path
         inkscape:connector-curvature="0"
         id="path4100"
         d="M 92.428939,162.33939 108.5914,166.6251"
         style="fill:none;stroke:#000000;stroke-width:1px;stroke-linecap:butt;stroke-linejoin:miter;stroke-opacity:1" />
      <path
         style="fill:none;stroke:#000000;stroke-width:1px;stroke-linecap:butt;stroke-linejoin:miter;stroke-opacity:1"
         d="m 92.428939,159.27512 16.162461,4.28571"
         id="path4102"
         inkscape:connector-curvature="0" />
      <path
         inkscape:connector-curvature="0"
         id="path4104"
         d="m 92.428943,156.21078 16.162457,4.28571"
         style="fill:none;stroke:#000000;stroke-width:1px;stroke-linecap:butt;stroke-linejoin:miter;stroke-opacity:1" />
      <path
         style="fill:none;stroke:#000000;stroke-width:1px;stroke-linecap:butt;stroke-linejoin:miter;stroke-opacity:1"
         d="m 92.428935,150.08216 16.162465,4.28571"
         id="path4106"
         inkscape:connector-curvature="0" />
      <path
         inkscape:connector-curvature="0"
         id="path4108"
         d="m 92.428935,143.95362 16.162465,4.28571"
         style="fill:none;stroke:#000000;stroke-width:1px;stroke-linecap:butt;stroke-linejoin:miter;stroke-opacity:1" />
      <path
         style="fill:none;stroke:#000000;stroke-width:1px;stroke-linecap:butt;stroke-linejoin:miter;stroke-opacity:1"
         d="m 92.428939,137.82502 16.162461,4.28571"
         id="path4110"
         inkscape:connector-curvature="0" />
      <path
         inkscape:connector-curvature="0"
         id="path4112"
         d="M 92.428935,153.14649 108.5914,157.4322"
         style="fill:none;stroke:#000000;stroke-width:1px;stroke-linecap:butt;stroke-linejoin:miter;stroke-opacity:1" />
      <path
         style="fill:none;stroke:#000000;stroke-width:1px;stroke-linecap:butt;stroke-linejoin:miter;stroke-opacity:1"
         d="M 92.428935,147.01789 108.5914,151.3036"
         id="path4114"
         inkscape:connector-curvature="0" />
      <path
         inkscape:connector-curvature="0"
         id="path4116"
         d="M 92.428939,140.88929 108.5914,145.175"
         style="fill:none;stroke:#000000;stroke-width:1px;stroke-linecap:butt;stroke-linejoin:miter;stroke-opacity:1" />
      <path
         inkscape:connector-curvature="0"
         id="path4118"
         d="m 92.428967,107.18209 16.162453,4.28571"
         style="fill:none;stroke:#000000;stroke-width:1px;stroke-linecap:butt;stroke-linejoin:miter;stroke-opacity:1" />
      <path
         style="fill:none;stroke:#000000;stroke-width:1px;stroke-linecap:butt;stroke-linejoin:miter;stroke-opacity:1"
         d="m 92.428967,104.11776 16.162453,4.28571"
         id="path4120"
         inkscape:connector-curvature="0" />
      <path
         inkscape:connector-curvature="0"
         id="path4122"
         d="m 92.428971,101.05349 16.162449,4.28571"
         style="fill:none;stroke:#000000;stroke-width:1px;stroke-linecap:butt;stroke-linejoin:miter;stroke-opacity:1" />
      <path
         style="fill:none;stroke:#000000;stroke-width:1px;stroke-linecap:butt;stroke-linejoin:miter;stroke-opacity:1"
         d="m 92.428963,97.989241 16.162457,4.285709"
         id="path4124"
         inkscape:connector-curvature="0" />
      <path
         inkscape:connector-curvature="0"
         id="path4126"
         d="m 92.428963,94.92491 16.162457,4.28571"
         style="fill:none;stroke:#000000;stroke-width:1px;stroke-linecap:butt;stroke-linejoin:miter;stroke-opacity:1" />
      <path
         style="fill:none;stroke:#000000;stroke-width:1px;stroke-linecap:butt;stroke-linejoin:miter;stroke-opacity:1"
         d="m 92.428967,91.860635 16.162453,4.28571"
         id="path4128"
         inkscape:connector-curvature="0" />
      <path
         inkscape:connector-curvature="0"
         id="path4130"
         d="m 92.428959,88.796346 16.162461,4.28571"
         style="fill:none;stroke:#000000;stroke-width:1px;stroke-linecap:butt;stroke-linejoin:miter;stroke-opacity:1" />
      <path
         style="fill:none;stroke:#000000;stroke-width:1px;stroke-linecap:butt;stroke-linejoin:miter;stroke-opacity:1"
         d="m 92.428959,85.732015 16.162461,4.28571"
         id="path4132"
         inkscape:connector-curvature="0" />
      <path
         inkscape:connector-curvature="0"
         id="path4134"
         d="m 92.428963,82.667741 16.162457,4.28571"
         style="fill:none;stroke:#000000;stroke-width:1px;stroke-linecap:butt;stroke-linejoin:miter;stroke-opacity:1" />
      <path
         style="fill:none;stroke:#000000;stroke-width:1px;stroke-linecap:butt;stroke-linejoin:miter;stroke-opacity:1"
         d="m 92.428955,79.603452 16.162465,4.28571"
         id="path4136"
         inkscape:connector-curvature="0" />
      <path
         inkscape:connector-curvature="0"
         id="path4138"
         d="m 92.428955,76.539182 16.162465,4.28571"
         style="fill:none;stroke:#000000;stroke-width:1px;stroke-linecap:butt;stroke-linejoin:miter;stroke-opacity:1" />
      <path
         style="fill:none;stroke:#000000;stroke-width:1px;stroke-linecap:butt;stroke-linejoin:miter;stroke-opacity:1"
         d="m 92.428959,73.474846 16.162461,4.28571"
         id="path4140"
         inkscape:connector-curvature="0" />
      <path
         inkscape:connector-curvature="0"
         id="path4142"
         d="m 92.428951,70.410558 16.162469,4.28571"
         style="fill:none;stroke:#000000;stroke-width:1px;stroke-linecap:butt;stroke-linejoin:miter;stroke-opacity:1" />
      <path
         style="fill:none;stroke:#000000;stroke-width:1px;stroke-linecap:butt;stroke-linejoin:miter;stroke-opacity:1"
         d="m 92.428951,64.281957 16.162469,4.28571"
         id="path4144"
         inkscape:connector-curvature="0" />
      <path
         inkscape:connector-curvature="0"
         id="path4146"
         d="m 92.428955,58.153412 16.162465,4.28571"
         style="fill:none;stroke:#000000;stroke-width:1px;stroke-linecap:butt;stroke-linejoin:miter;stroke-opacity:1" />
      <path
         style="fill:none;stroke:#000000;stroke-width:1px;stroke-linecap:butt;stroke-linejoin:miter;stroke-opacity:1"
         d="m 92.428951,67.346288 16.162469,4.28571"
         id="path4148"
         inkscape:connector-curvature="0" />
      <path
         inkscape:connector-curvature="0"
         id="path4150"
         d="m 92.428951,61.217687 16.162469,4.28571"
         style="fill:none;stroke:#000000;stroke-width:1px;stroke-linecap:butt;stroke-linejoin:miter;stroke-opacity:1" />
      <path
         style="fill:none;stroke:#000000;stroke-width:1px;stroke-linecap:butt;stroke-linejoin:miter;stroke-opacity:1"
         d="m 92.428955,55.089081 16.162465,4.28571"
         id="path4152"
         inkscape:connector-curvature="0" />
      <path
         style="fill:none;stroke:#000000;stroke-width:1px;stroke-linecap:butt;stroke-linejoin:miter;stroke-opacity:1"
         d="m 92.428939,134.76068 16.162461,4.28571"
         id="path4154"
         inkscape:connector-curvature="0" />
      <path
         inkscape:connector-curvature="0"
         id="path4156"
         d="m 92.428939,131.69641 16.162461,4.28571"
         style="fill:none;stroke:#000000;stroke-width:1px;stroke-linecap:butt;stroke-linejoin:miter;stroke-opacity:1" />
      <path
         style="fill:none;stroke:#000000;stroke-width:1px;stroke-linecap:butt;stroke-linejoin:miter;stroke-opacity:1"
         d="m 92.428943,128.63214 16.162457,4.28571"
         id="path4158"
         inkscape:connector-curvature="0" />
      <path
         inkscape:connector-curvature="0"
         id="path4160"
         d="m 92.428935,122.50358 16.162465,4.28571"
         style="fill:none;stroke:#000000;stroke-width:1px;stroke-linecap:butt;stroke-linejoin:miter;stroke-opacity:1" />
      <path
         style="fill:none;stroke:#000000;stroke-width:1px;stroke-linecap:butt;stroke-linejoin:miter;stroke-opacity:1"
         d="m 92.428935,116.37498 16.162465,4.28571"
         id="path4162"
         inkscape:connector-curvature="0" />
      <path
         inkscape:connector-curvature="0"
         id="path4164"
         d="m 92.428939,110.24637 16.162461,4.28571"
         style="fill:none;stroke:#000000;stroke-width:1px;stroke-linecap:butt;stroke-linejoin:miter;stroke-opacity:1" />
      <path
         style="fill:none;stroke:#000000;stroke-width:1px;stroke-linecap:butt;stroke-linejoin:miter;stroke-opacity:1"
         d="m 92.428935,125.56785 16.162465,4.28571"
         id="path4166"
         inkscape:connector-curvature="0" />
      <path
         inkscape:connector-curvature="0"
         id="path4168"
         d="m 92.428935,119.43931 16.162465,4.28571"
         style="fill:none;stroke:#000000;stroke-width:1px;stroke-linecap:butt;stroke-linejoin:miter;stroke-opacity:1" />
      <path
         style="fill:none;stroke:#000000;stroke-width:1px;stroke-linecap:butt;stroke-linejoin:miter;stroke-opacity:1"
         d="m 92.428939,113.31071 16.162461,4.28571"
         id="path4170"
         inkscape:connector-curvature="0" />
      <path
         inkscape:connector-curvature="0"
         id="path4172"
         d="m 92.42895,192.98234 16.16245,4.28571"
         style="fill:none;stroke:#000000;stroke-width:1px;stroke-linecap:butt;stroke-linejoin:miter;stroke-opacity:1" />
      <rect
         style="opacity:0.98000004;fill:#ffffff;stroke:#000000;stroke-width:1.58867514;stroke-linecap:round;stroke-linejoin:round;stroke-miterlimit:4;stroke-opacity:1;stroke-dasharray:none"
         id="rect4174"
         width="29.620554"
         height="38.880066"
         x="85.105354"
         y="73.150963" />
      <text
         xml:space="preserve"
         style="font-size:24px;font-style:normal;font-variant:normal;font-weight:normal;font-stretch:normal;text-align:start;line-height:125%;letter-spacing:0px;word-spacing:0px;writing-mode:lr-tb;text-anchor:start;fill:#000000;fill-opacity:1;stroke:none;font-family:Times New Roman;-inkscape-font-specification:'Times New Roman,'"
         x="89.91954"
         y="101.18084"
         id="text4176"
         sodipodi:linespacing="125%"><tspan
           sodipodi:role="line"
           id="tspan4178"
           x="89.91954"
           y="101.18084">M</tspan></text>
      <path
         sodipodi:type="arc"
         style="opacity:0.98000004;fill:#ffffff;fill-opacity:1;stroke:#000000;stroke-width:1;stroke-linecap:round;stroke-linejoin:round;stroke-miterlimit:4;stroke-opacity:1;stroke-dasharray:none"
         id="path4180"
         sodipodi:cx="181.57492"
         sodipodi:cy="269.74649"
         sodipodi:rx="11.364216"
         sodipodi:ry="11.364216"
         d="m 192.93914,269.74649 c 0,6.27628 -5.08794,11.36422 -11.36422,11.36422 -6.27628,0 -11.36422,-5.08794 -11.36422,-11.36422 0,-6.27628 5.08794,-11.36422 11.36422,-11.36422 6.27628,0 11.36422,5.08794 11.36422,11.36422 z"
         transform="translate(-18.687823,-39.39595)" />
      <path
         transform="matrix(0.51575033,0,0,0.51575033,69.239772,91.228707)"
         d="m 192.93914,269.74649 c 0,6.27628 -5.08794,11.36422 -11.36422,11.36422 -6.27628,0 -11.36422,-5.08794 -11.36422,-11.36422 0,-6.27628 5.08794,-11.36422 11.36422,-11.36422 6.27628,0 11.36422,5.08794 11.36422,11.36422 z"
         sodipodi:ry="11.364216"
         sodipodi:rx="11.364216"
         sodipodi:cy="269.74649"
         sodipodi:cx="181.57492"
         id="path4182"
         style="opacity:0.98000004;fill:#ffffff;fill-opacity:1;stroke:#000000;stroke-width:1;stroke-linecap:round;stroke-linejoin:round;stroke-miterlimit:4;stroke-opacity:1;stroke-dasharray:none"
         sodipodi:type="arc" />
      <path
         transform="translate(-18.687823,-39.39595)"
         d="m 192.93914,269.74649 c 0,6.27628 -5.08794,11.36422 -11.36422,11.36422 -6.27628,0 -11.36422,-5.08794 -11.36422,-11.36422 0,-6.27628 5.08794,-11.36422 11.36422,-11.36422 6.27628,0 11.36422,5.08794 11.36422,11.36422 z"
         sodipodi:ry="11.364216"
         sodipodi:rx="11.364216"
         sodipodi:cy="269.74649"
         sodipodi:cx="181.57492"
         id="path4184"
         style="opacity:0.98000004;fill:#ffffff;fill-opacity:1;stroke:#000000;stroke-width:1;stroke-linecap:round;stroke-linejoin:round;stroke-miterlimit:4;stroke-opacity:1;stroke-dasharray:none"
         sodipodi:type="arc" />
      <path
         sodipodi:type="arc"
         style="opacity:0.98000004;fill:#ffffff;fill-opacity:1;stroke:#000000;stroke-width:1;stroke-linecap:round;stroke-linejoin:round;stroke-miterlimit:4;stroke-opacity:1;stroke-dasharray:none"
         id="path4186"
         sodipodi:cx="181.57492"
         sodipodi:cy="269.74649"
         sodipodi:rx="11.364216"
         sodipodi:ry="11.364216"
         d="m 192.93914,269.74649 c 0,6.27628 -5.08794,11.36422 -11.36422,11.36422 -6.27628,0 -11.36422,-5.08794 -11.36422,-11.36422 0,-6.27628 5.08794,-11.36422 11.36422,-11.36422 6.27628,0 11.36422,5.08794 11.36422,11.36422 z"
         transform="matrix(0.51575033,0,0,0.51575033,69.239772,91.228707)" />
      <path
         transform="translate(-81.064745,-74.6213)"
         d="m 192.93914,269.74649 c 0,6.27628 -5.08794,11.36422 -11.36422,11.36422 -6.27628,0 -11.36422,-5.08794 -11.36422,-11.36422 0,-6.27628 5.08794,-11.36422 11.36422,-11.36422 6.27628,0 11.36422,5.08794 11.36422,11.36422 z"
         sodipodi:ry="11.364216"
         sodipodi:rx="11.364216"
         sodipodi:cy="269.74649"
         sodipodi:cx="181.57492"
         id="path4188"
         style="opacity:0.98000004;fill:#ffffff;fill-opacity:1;stroke:#000000;stroke-width:1;stroke-linecap:round;stroke-linejoin:round;stroke-miterlimit:4;stroke-opacity:1;stroke-dasharray:none"
         sodipodi:type="arc" />
      <path
         sodipodi:type="arc"
         style="opacity:0.98000004;fill:#ffffff;fill-opacity:1;stroke:#000000;stroke-width:1;stroke-linecap:round;stroke-linejoin:round;stroke-miterlimit:4;stroke-opacity:1;stroke-dasharray:none"
         id="path4190"
         sodipodi:cx="181.57492"
         sodipodi:cy="269.74649"
         sodipodi:rx="11.364216"
         sodipodi:ry="11.364216"
         d="m 192.93914,269.74649 c 0,6.27628 -5.08794,11.36422 -11.36422,11.36422 -6.27628,0 -11.36422,-5.08794 -11.36422,-11.36422 0,-6.27628 5.08794,-11.36422 11.36422,-11.36422 6.27628,0 11.36422,5.08794 11.36422,11.36422 z"
         transform="matrix(0.51575033,0,0,0.51575033,6.8628498,56.003354)" />
      <path
         sodipodi:type="arc"
         style="opacity:0.98000004;fill:#ffffff;fill-opacity:1;stroke:#000000;stroke-width:1;stroke-linecap:round;stroke-linejoin:round;stroke-miterlimit:4;stroke-opacity:1;stroke-dasharray:none"
         id="path4192"
         sodipodi:cx="181.57492"
         sodipodi:cy="269.74649"
         sodipodi:rx="11.364216"
         sodipodi:ry="11.364216"
         d="m 192.93914,269.74649 c 0,6.27628 -5.08794,11.36422 -11.36422,11.36422 -6.27628,0 -11.36422,-5.08794 -11.36422,-11.36422 0,-6.27628 5.08794,-11.36422 11.36422,-11.36422 6.27628,0 11.36422,5.08794 11.36422,11.36422 z"
         transform="translate(-81.064745,-74.6213)" />
      <path
         transform="matrix(0.51575033,0,0,0.51575033,6.8628498,56.003354)"
         d="m 192.93914,269.74649 c 0,6.27628 -5.08794,11.36422 -11.36422,11.36422 -6.27628,0 -11.36422,-5.08794 -11.36422,-11.36422 0,-6.27628 5.08794,-11.36422 11.36422,-11.36422 6.27628,0 11.36422,5.08794 11.36422,11.36422 z"
         sodipodi:ry="11.364216"
         sodipodi:rx="11.364216"
         sodipodi:cy="269.74649"
         sodipodi:cx="181.57492"
         id="path4194"
         style="opacity:0.98000004;fill:#ffffff;fill-opacity:1;stroke:#000000;stroke-width:1;stroke-linecap:round;stroke-linejoin:round;stroke-miterlimit:4;stroke-opacity:1;stroke-dasharray:none"
         sodipodi:type="arc" />
      <path
         transform="translate(-96.456599,-15.463324)"
         d="m 192.93914,269.74649 c 0,6.27628 -5.08794,11.36422 -11.36422,11.36422 -6.27628,0 -11.36422,-5.08794 -11.36422,-11.36422 0,-6.27628 5.08794,-11.36422 11.36422,-11.36422 6.27628,0 11.36422,5.08794 11.36422,11.36422 z"
         sodipodi:ry="11.364216"
         sodipodi:rx="11.364216"
         sodipodi:cy="269.74649"
         sodipodi:cx="181.57492"
         id="path4196"
         style="opacity:0.98000004;fill:#ffffff;fill-opacity:1;stroke:#000000;stroke-width:1;stroke-linecap:round;stroke-linejoin:round;stroke-miterlimit:4;stroke-opacity:1;stroke-dasharray:none"
         sodipodi:type="arc" />
      <path
         sodipodi:type="arc"
         style="opacity:0.98000004;fill:#ffffff;fill-opacity:1;stroke:#000000;stroke-width:1;stroke-linecap:round;stroke-linejoin:round;stroke-miterlimit:4;stroke-opacity:1;stroke-dasharray:none"
         id="path4198"
         sodipodi:cx="181.57492"
         sodipodi:cy="269.74649"
         sodipodi:rx="11.364216"
         sodipodi:ry="11.364216"
         d="m 192.93914,269.74649 c 0,6.27628 -5.08794,11.36422 -11.36422,11.36422 -6.27628,0 -11.36422,-5.08794 -11.36422,-11.36422 0,-6.27628 5.08794,-11.36422 11.36422,-11.36422 6.27628,0 11.36422,5.08794 11.36422,11.36422 z"
         transform="matrix(0.51575033,0,0,0.51575033,-8.5290038,115.16132)" />
      <rect
         style="opacity:0.98000004;fill:#ffffff;fill-opacity:1;stroke:#000000;stroke-width:1;stroke-linecap:round;stroke-linejoin:round;stroke-miterlimit:4;stroke-opacity:1;stroke-dasharray:none"
         id="rect4200"
         width="11.869292"
         height="62.576729"
         x="139.39055"
         y="162.81631"
         inkscape:transform-center-y="-30.803971"
         transform="matrix(0.96903292,0.24693158,-0.24693158,0.96903292,0,0)"
         inkscape:transform-center-x="-7.8495494" />
      <path
         sodipodi:type="arc"
         style="opacity:0.98000004;fill:#ffffff;fill-opacity:1;stroke:#000000;stroke-width:1;stroke-linecap:round;stroke-linejoin:round;stroke-miterlimit:4;stroke-opacity:1;stroke-dasharray:none"
         id="path4202"
         sodipodi:cx="181.57492"
         sodipodi:cy="269.74649"
         sodipodi:rx="11.364216"
         sodipodi:ry="11.364216"
         d="m 192.93914,269.74649 c 0,6.27628 -5.08794,11.36422 -11.36422,11.36422 -6.27628,0 -11.36422,-5.08794 -11.36422,-11.36422 0,-6.27628 5.08794,-11.36422 11.36422,-11.36422 6.27628,0 11.36422,5.08794 11.36422,11.36422 z"
         transform="translate(-96.456599,-15.463324)" />
      <path
         transform="matrix(0.51575033,0,0,0.51575033,-8.5290038,115.16132)"
         d="m 192.93914,269.74649 c 0,6.27628 -5.08794,11.36422 -11.36422,11.36422 -6.27628,0 -11.36422,-5.08794 -11.36422,-11.36422 0,-6.27628 5.08794,-11.36422 11.36422,-11.36422 6.27628,0 11.36422,5.08794 11.36422,11.36422 z"
         sodipodi:ry="11.364216"
         sodipodi:rx="11.364216"
         sodipodi:cy="269.74649"
         sodipodi:cx="181.57492"
         id="path4204"
         style="opacity:0.98000004;fill:#ffffff;fill-opacity:1;stroke:#000000;stroke-width:1;stroke-linecap:round;stroke-linejoin:round;stroke-miterlimit:4;stroke-opacity:1;stroke-dasharray:none"
         sodipodi:type="arc" />
      <path
         transform="translate(-18.687823,-39.39595)"
         d="m 192.93914,269.74649 c 0,6.27628 -5.08794,11.36422 -11.36422,11.36422 -6.27628,0 -11.36422,-5.08794 -11.36422,-11.36422 0,-6.27628 5.08794,-11.36422 11.36422,-11.36422 6.27628,0 11.36422,5.08794 11.36422,11.36422 z"
         sodipodi:ry="11.364216"
         sodipodi:rx="11.364216"
         sodipodi:cy="269.74649"
         sodipodi:cx="181.57492"
         id="path4206"
         style="opacity:0.98000004;fill:#ffffff;fill-opacity:1;stroke:#000000;stroke-width:1;stroke-linecap:round;stroke-linejoin:round;stroke-miterlimit:4;stroke-opacity:1;stroke-dasharray:none"
         sodipodi:type="arc" />
      <path
         sodipodi:type="arc"
         style="opacity:0.98000004;fill:#ffffff;fill-opacity:1;stroke:#000000;stroke-width:1;stroke-linecap:round;stroke-linejoin:round;stroke-miterlimit:4;stroke-opacity:1;stroke-dasharray:none"
         id="path4208"
         sodipodi:cx="181.57492"
         sodipodi:cy="269.74649"
         sodipodi:rx="11.364216"
         sodipodi:ry="11.364216"
         d="m 192.93914,269.74649 c 0,6.27628 -5.08794,11.36422 -11.36422,11.36422 -6.27628,0 -11.36422,-5.08794 -11.36422,-11.36422 0,-6.27628 5.08794,-11.36422 11.36422,-11.36422 6.27628,0 11.36422,5.08794 11.36422,11.36422 z"
         transform="matrix(0.51575033,0,0,0.51575033,69.239772,91.228707)" />
      <path
         transform="translate(-81.064745,-74.6213)"
         d="m 192.93914,269.74649 c 0,6.27628 -5.08794,11.36422 -11.36422,11.36422 -6.27628,0 -11.36422,-5.08794 -11.36422,-11.36422 0,-6.27628 5.08794,-11.36422 11.36422,-11.36422 6.27628,0 11.36422,5.08794 11.36422,11.36422 z"
         sodipodi:ry="11.364216"
         sodipodi:rx="11.364216"
         sodipodi:cy="269.74649"
         sodipodi:cx="181.57492"
         id="path4210"
         style="opacity:0.98000004;fill:#ffffff;fill-opacity:1;stroke:#000000;stroke-width:1;stroke-linecap:round;stroke-linejoin:round;stroke-miterlimit:4;stroke-opacity:1;stroke-dasharray:none"
         sodipodi:type="arc" />
      <path
         sodipodi:type="arc"
         style="opacity:0.98000004;fill:#ffffff;fill-opacity:1;stroke:#000000;stroke-width:1;stroke-linecap:round;stroke-linejoin:round;stroke-miterlimit:4;stroke-opacity:1;stroke-dasharray:none"
         id="path4212"
         sodipodi:cx="181.57492"
         sodipodi:cy="269.74649"
         sodipodi:rx="11.364216"
         sodipodi:ry="11.364216"
         d="m 192.93914,269.74649 c 0,6.27628 -5.08794,11.36422 -11.36422,11.36422 -6.27628,0 -11.36422,-5.08794 -11.36422,-11.36422 0,-6.27628 5.08794,-11.36422 11.36422,-11.36422 6.27628,0 11.36422,5.08794 11.36422,11.36422 z"
         transform="matrix(0.51575033,0,0,0.51575033,6.8628499,56.003351)" />
      <path
         sodipodi:type="arc"
         style="opacity:0.98000004;fill:#ffffff;fill-opacity:1;stroke:#000000;stroke-width:1;stroke-linecap:round;stroke-linejoin:round;stroke-miterlimit:4;stroke-opacity:1;stroke-dasharray:none"
         id="path4214"
         sodipodi:cx="181.57492"
         sodipodi:cy="269.74649"
         sodipodi:rx="11.364216"
         sodipodi:ry="11.364216"
         d="m 192.93914,269.74649 c 0,6.27628 -5.08794,11.36422 -11.36422,11.36422 -6.27628,0 -11.36422,-5.08794 -11.36422,-11.36422 0,-6.27628 5.08794,-11.36422 11.36422,-11.36422 6.27628,0 11.36422,5.08794 11.36422,11.36422 z"
         transform="translate(-81.064745,-74.6213)" />
      <path
         transform="matrix(0.51575033,0,0,0.51575033,6.8628499,56.003351)"
         d="m 192.93914,269.74649 c 0,6.27628 -5.08794,11.36422 -11.36422,11.36422 -6.27628,0 -11.36422,-5.08794 -11.36422,-11.36422 0,-6.27628 5.08794,-11.36422 11.36422,-11.36422 6.27628,0 11.36422,5.08794 11.36422,11.36422 z"
         sodipodi:ry="11.364216"
         sodipodi:rx="11.364216"
         sodipodi:cy="269.74649"
         sodipodi:cx="181.57492"
         id="path4216"
         style="opacity:0.98000004;fill:#ffffff;fill-opacity:1;stroke:#000000;stroke-width:1;stroke-linecap:round;stroke-linejoin:round;stroke-miterlimit:4;stroke-opacity:1;stroke-dasharray:none"
         sodipodi:type="arc" />
      <path
         sodipodi:type="arc"
         style="opacity:0.98000004;fill:#ffffff;fill-opacity:1;stroke:#000000;stroke-width:1;stroke-linecap:round;stroke-linejoin:round;stroke-miterlimit:4;stroke-opacity:1;stroke-dasharray:none"
         id="path4218"
         sodipodi:cx="181.57492"
         sodipodi:cy="269.74649"
         sodipodi:rx="11.364216"
         sodipodi:ry="11.364216"
         d="m 192.93914,269.74649 c 0,6.27628 -5.08794,11.36422 -11.36422,11.36422 -6.27628,0 -11.36422,-5.08794 -11.36422,-11.36422 0,-6.27628 5.08794,-11.36422 11.36422,-11.36422 6.27628,0 11.36422,5.08794 11.36422,11.36422 z"
         transform="translate(-81.064745,-74.6213)" />
      <path
         transform="matrix(0.51575033,0,0,0.51575033,6.8628499,56.003351)"
         d="m 192.93914,269.74649 c 0,6.27628 -5.08794,11.36422 -11.36422,11.36422 -6.27628,0 -11.36422,-5.08794 -11.36422,-11.36422 0,-6.27628 5.08794,-11.36422 11.36422,-11.36422 6.27628,0 11.36422,5.08794 11.36422,11.36422 z"
         sodipodi:ry="11.364216"
         sodipodi:rx="11.364216"
         sodipodi:cy="269.74649"
         sodipodi:cx="181.57492"
         id="path4220"
         style="opacity:0.98000004;fill:#ffffff;fill-opacity:1;stroke:#000000;stroke-width:1;stroke-linecap:round;stroke-linejoin:round;stroke-miterlimit:4;stroke-opacity:1;stroke-dasharray:none"
         sodipodi:type="arc" />
      <path
         transform="translate(-81.064745,-74.6213)"
         d="m 192.93914,269.74649 c 0,6.27628 -5.08794,11.36422 -11.36422,11.36422 -6.27628,0 -11.36422,-5.08794 -11.36422,-11.36422 0,-6.27628 5.08794,-11.36422 11.36422,-11.36422 6.27628,0 11.36422,5.08794 11.36422,11.36422 z"
         sodipodi:ry="11.364216"
         sodipodi:rx="11.364216"
         sodipodi:cy="269.74649"
         sodipodi:cx="181.57492"
         id="path4222"
         style="opacity:0.98000004;fill:#ffffff;fill-opacity:1;stroke:#000000;stroke-width:1;stroke-linecap:round;stroke-linejoin:round;stroke-miterlimit:4;stroke-opacity:1;stroke-dasharray:none"
         sodipodi:type="arc" />
      <path
         sodipodi:type="arc"
         style="opacity:0.98000004;fill:#ffffff;fill-opacity:1;stroke:#000000;stroke-width:1;stroke-linecap:round;stroke-linejoin:round;stroke-miterlimit:4;stroke-opacity:1;stroke-dasharray:none"
         id="path4224"
         sodipodi:cx="181.57492"
         sodipodi:cy="269.74649"
         sodipodi:rx="11.364216"
         sodipodi:ry="11.364216"
         d="m 192.93914,269.74649 c 0,6.27628 -5.08794,11.36422 -11.36422,11.36422 -6.27628,0 -11.36422,-5.08794 -11.36422,-11.36422 0,-6.27628 5.08794,-11.36422 11.36422,-11.36422 6.27628,0 11.36422,5.08794 11.36422,11.36422 z"
         transform="matrix(0.51575033,0,0,0.51575033,6.8628499,56.003351)" />
      <path
         style="fill:#ffffff;stroke:#000000;stroke-width:1px;stroke-linecap:butt;stroke-linejoin:miter;stroke-opacity:1"
         d="m 185.71429,170.93361 -28.68829,59.41694 11.7222,0 88.7518,-59.41694"
         id="path4226"
         inkscape:connector-curvature="0"
         sodipodi:nodetypes="cccc" />
      <path
         sodipodi:type="arc"
         style="opacity:0.98000004;fill:#ffffff;fill-opacity:1;stroke:#000000;stroke-width:1;stroke-linecap:round;stroke-linejoin:round;stroke-miterlimit:4;stroke-opacity:1;stroke-dasharray:none"
         id="path4228"
         sodipodi:cx="181.57492"
         sodipodi:cy="269.74649"
         sodipodi:rx="11.364216"
         sodipodi:ry="11.364216"
         d="m 192.93914,269.74649 c 0,6.27628 -5.08794,11.36422 -11.36422,11.36422 -6.27628,0 -11.36422,-5.08794 -11.36422,-11.36422 0,-6.27628 5.08794,-11.36422 11.36422,-11.36422 6.27628,0 11.36422,5.08794 11.36422,11.36422 z"
         transform="translate(-18.687823,-39.39595)" />
      <path
         transform="matrix(0.51575033,0,0,0.51575033,69.239772,91.228707)"
         d="m 192.93914,269.74649 c 0,6.27628 -5.08794,11.36422 -11.36422,11.36422 -6.27628,0 -11.36422,-5.08794 -11.36422,-11.36422 0,-6.27628 5.08794,-11.36422 11.36422,-11.36422 6.27628,0 11.36422,5.08794 11.36422,11.36422 z"
         sodipodi:ry="11.364216"
         sodipodi:rx="11.364216"
         sodipodi:cy="269.74649"
         sodipodi:cx="181.57492"
         id="path4230"
         style="opacity:0.98000004;fill:#ffffff;fill-opacity:1;stroke:#000000;stroke-width:1;stroke-linecap:round;stroke-linejoin:round;stroke-miterlimit:4;stroke-opacity:1;stroke-dasharray:none"
         sodipodi:type="arc" />
      <text
         xml:space="preserve"
         style="font-size:24px;font-style:normal;font-variant:normal;font-weight:normal;font-stretch:normal;text-align:start;line-height:125%;letter-spacing:0px;word-spacing:0px;writing-mode:lr-tb;text-anchor:start;fill:#000000;fill-opacity:1;stroke:none;font-family:Times New Roman;-inkscape-font-specification:'Times New Roman,'"
         x="112.14286"
         y="263.07648"
         id="text4232"
         sodipodi:linespacing="125%"><tspan
           sodipodi:role="line"
           id="tspan4234"
           x="112.14286"
           y="263.07648">Foot</tspan></text>
      <text
         xml:space="preserve"
         style="font-size:24px;font-style:normal;font-variant:normal;font-weight:normal;font-stretch:normal;text-align:start;line-height:125%;letter-spacing:0px;word-spacing:0px;writing-mode:lr-tb;text-anchor:start;fill:#000000;fill-opacity:1;stroke:none;font-family:Times New Roman;-inkscape-font-specification:'Times New Roman,'"
         x="200"
         y="62.719322"
         id="text4236"
         sodipodi:linespacing="125%"><tspan
           sodipodi:role="line"
           id="tspan4238"
           x="200"
           y="62.719322">Calf</tspan></text>
      <path
         sodipodi:type="arc"
         style="opacity:0.98000004;fill:#ffffff;fill-opacity:1;stroke:#000000;stroke-width:1;stroke-linecap:round;stroke-linejoin:round;stroke-miterlimit:4;stroke-opacity:1;stroke-dasharray:none"
         id="path4240"
         sodipodi:cx="106.68365"
         sodipodi:cy="231.41173"
         sodipodi:rx="17.379025"
         sodipodi:ry="17.379025"
         d="m 124.06267,231.41173 c 0,9.59817 -7.78085,17.37902 -17.37902,17.37902 -9.598173,0 -17.379027,-7.78085 -17.379027,-17.37902 0,-9.59817 7.780854,-17.37903 17.379027,-17.37903 9.59817,0 17.37902,7.78086 17.37902,17.37903 z"
         transform="matrix(0.75118788,0,0,0.75118788,12.754861,50.145515)" />
      <text
         xml:space="preserve"
         style="font-size:18px;font-style:normal;font-variant:normal;font-weight:bold;font-stretch:normal;line-height:125%;letter-spacing:0px;word-spacing:0px;fill:#000000;fill-opacity:1;stroke:none;font-family:Times New Roman;-inkscape-font-specification:Times New Roman"
         x="87.783485"
         y="229.93379"
         id="text4242"
         sodipodi:linespacing="125%"><tspan
           sodipodi:role="line"
           id="tspan4244"
           x="87.783485"
           y="229.93379">S</tspan></text>
      <rect
         style="opacity:0.98000004;fill:#ffffff;stroke:#000000;stroke-width:0.37922874;stroke-linecap:round;stroke-linejoin:round;stroke-miterlimit:4;stroke-opacity:1;stroke-dasharray:none"
         id="rect4246"
         width="65.714287"
         height="3.6530633"
         x="115.48352"
         y="34.483814" />
      <g
         id="g4248"
         transform="translate(-3.75,-0.35714286)">
        <path
           sodipodi:type="arc"
           style="opacity:0.98000004;fill:#ffffff;fill-opacity:1;stroke:#000000;stroke-width:1;stroke-linecap:round;stroke-linejoin:round;stroke-miterlimit:4;stroke-opacity:1;stroke-dasharray:none"
           id="path4250"
           sodipodi:cx="106.68365"
           sodipodi:cy="231.41173"
           sodipodi:rx="17.379025"
           sodipodi:ry="17.379025"
           d="m 124.06267,231.41173 c 0,9.59817 -7.78085,17.37902 -17.37902,17.37902 -9.598173,0 -17.379027,-7.78085 -17.379027,-17.37902 0,-9.59817 7.780854,-17.37903 17.379027,-17.37903 9.59817,0 17.37902,7.78086 17.37902,17.37903 z"
           transform="matrix(0.75118788,0,0,0.75118788,118.62974,-80.164163)" />
        <text
           xml:space="preserve"
           style="font-size:18px;font-style:normal;font-variant:normal;font-weight:bold;font-stretch:normal;line-height:125%;letter-spacing:0px;word-spacing:0px;fill:#000000;fill-opacity:1;stroke:none;font-family:Times New Roman;-inkscape-font-specification:Times New Roman"
           x="193.65837"
           y="99.624115"
           id="text4252"
           sodipodi:linespacing="125%"><tspan
             sodipodi:role="line"
             id="tspan4254"
             x="193.65837"
             y="99.624115">S</tspan></text>
        <text
           sodipodi:linespacing="125%"
           id="text4256"
           y="101.64789"
           x="202.85715"
           style="font-size:12px;font-style:normal;font-variant:normal;font-weight:bold;font-stretch:normal;line-height:125%;letter-spacing:0px;word-spacing:0px;fill:#000000;fill-opacity:1;stroke:none;font-family:Times New Roman;-inkscape-font-specification:Times New Roman"
           xml:space="preserve"><tspan
             y="101.64789"
             x="202.85715"
             id="tspan4258"
             sodipodi:role="line">d</tspan></text>
      </g>
      <path
         style="fill:none;stroke:#000000;stroke-width:1px;stroke-linecap:butt;stroke-linejoin:miter;stroke-opacity:1"
         d="m 180.44019,82.331631 2.93406,0 0,2.872622"
         id="path4260"
         inkscape:connector-curvature="0" />
      <text
         xml:space="preserve"
         style="font-size:12px;font-style:normal;font-variant:normal;font-weight:bold;font-stretch:normal;line-height:125%;letter-spacing:0px;word-spacing:0px;fill:#000000;fill-opacity:1;stroke:none;font-family:Times New Roman;-inkscape-font-specification:Times New Roman"
         x="97.14286"
         y="232.36217"
         id="text4262"
         sodipodi:linespacing="125%"><tspan
           sodipodi:role="line"
           id="tspan4264"
           x="97.14286"
           y="232.36217">f</tspan></text>
      <rect
         style="opacity:0.98000004;fill:#ffffff;stroke:#000000;stroke-width:0.39531231;stroke-linecap:round;stroke-linejoin:round;stroke-miterlimit:4;stroke-opacity:1;stroke-dasharray:none"
         id="rect3045"
         width="66.011269"
         height="3.9516375"
         x="114.57742"
         y="148.57893" />
    </g>
  </g>
</svg>
