<?xml version="1.0" encoding="UTF-8" standalone="no"?>
<!-- Created with Inkscape (http://www.inkscape.org/) -->

<svg
   xmlns:dc="http://purl.org/dc/elements/1.1/"
   xmlns:cc="http://creativecommons.org/ns#"
   xmlns:rdf="http://www.w3.org/1999/02/22-rdf-syntax-ns#"
   xmlns:svg="http://www.w3.org/2000/svg"
   xmlns="http://www.w3.org/2000/svg"
   xmlns:sodipodi="http://sodipodi.sourceforge.net/DTD/sodipodi-0.dtd"
   xmlns:inkscape="http://www.inkscape.org/namespaces/inkscape"
   width="744.09448819"
   height="1052.3622047"
   id="svg2"
   version="1.1"
   inkscape:version="0.48.4 r9939"
   sodipodi:docname="bug robot shape.svg"
   inkscape:export-filename="/home/gray/wk/grayutils/tex/MultiContact/inkscape/bug robot shape.png"
   inkscape:export-xdpi="400"
   inkscape:export-ydpi="400">
  <defs
     id="defs4" />
  <sodipodi:namedview
     id="base"
     pagecolor="#ffffff"
     bordercolor="#666666"
     borderopacity="1.0"
     inkscape:pageopacity="0.0"
     inkscape:pageshadow="2"
     inkscape:zoom="2.8"
     inkscape:cx="383.95136"
     inkscape:cy="721.73339"
     inkscape:document-units="px"
     inkscape:current-layer="layer1"
     showgrid="false"
     inkscape:window-width="1920"
     inkscape:window-height="1030"
     inkscape:window-x="1920"
     inkscape:window-y="0"
     inkscape:window-maximized="1" />
  <metadata
     id="metadata7">
    <rdf:RDF>
      <cc:Work
         rdf:about="">
        <dc:format>image/svg+xml</dc:format>
        <dc:type
           rdf:resource="http://purl.org/dc/dcmitype/StillImage" />
        <dc:title></dc:title>
      </cc:Work>
    </rdf:RDF>
  </metadata>
  <g
     inkscape:label="Layer 1"
     inkscape:groupmode="layer"
     id="layer1">
    <path
       style="fill:none;stroke:#000000;stroke-width:1px;stroke-linecap:butt;stroke-linejoin:miter;stroke-opacity:1"
       d="m 343.95694,230.09801 c 34.34519,-12.12183 71.21576,-1.01015 71.21576,-1.01015"
       id="path3003"
       inkscape:connector-curvature="0" />
    <path
       transform="translate(-13.693078,0.11992368)"
       d="M 357.99675,251.57414 A 9.8489876,9.8489876 0 1 1 355.31866,232.1314"
       sodipodi:ry="9.8489876"
       sodipodi:rx="9.8489876"
       sodipodi:cy="241.9673"
       sodipodi:cx="355.82623"
       id="path3037"
       style="fill:#000000;fill-opacity:1;fill-rule:evenodd;stroke:#005f86;stroke-width:4.4000001;stroke-linecap:round;stroke-linejoin:round;stroke-miterlimit:4;stroke-opacity:0.68617021;stroke-dasharray:none;stroke-dashoffset:0"
       sodipodi:type="arc"
       sodipodi:start="1.3485924"
       sodipodi:end="4.6608301"
       sodipodi:open="true" />
    <path
       sodipodi:type="arc"
       style="fill:#000000;fill-opacity:1;fill-rule:evenodd;stroke:#005f86;stroke-width:4.4000001;stroke-linecap:round;stroke-linejoin:round;stroke-miterlimit:4;stroke-opacity:0.68617021;stroke-dasharray:none;stroke-dashoffset:0"
       id="path3005"
       sodipodi:cx="355.82623"
       sodipodi:cy="241.9673"
       sodipodi:rx="9.8489876"
       sodipodi:ry="9.8489876"
       d="m 363.58655,248.03196 a 9.8489876,9.8489876 0 1 1 -6.35782,-15.81328"
       transform="translate(-8.4943821,1.3672954)"
       sodipodi:start="0.66335638"
       sodipodi:end="4.8552748"
       sodipodi:open="true" />
    <path
       style="fill:none;stroke:#000000;stroke-width:1px;stroke-linecap:butt;stroke-linejoin:miter;stroke-opacity:1"
       d="m 350.01786,256.86705 c 34.34518,-5.05076 64.14468,-5.05076 64.14468,-5.05076"
       id="path3007"
       inkscape:connector-curvature="0" />
    <path
       style="fill:none;stroke:#000000;stroke-width:1px;stroke-linecap:butt;stroke-linejoin:miter;stroke-opacity:1"
       d="m 366.96429,315.57647 -13.75,-4.82143 c 0,0 -2.14286,-27.14286 7.85714,-44.82143 l 18.39286,4.10714"
       id="path3039"
       inkscape:connector-curvature="0"
       sodipodi:nodetypes="cccc" />
    <path
       style="fill:none;stroke:#000000;stroke-width:1px;stroke-linecap:butt;stroke-linejoin:miter;stroke-opacity:1"
       d="m 380.32243,269.49396 c 29.03033,20.74068 80.19052,29.95698 137.88583,0.50508 0,0 13.63706,18.68782 3.53553,28.28427 -10.10153,9.59645 -63.13453,29.7995 -68.69037,31.31473 -5.55584,1.51522 -6.06092,12.12183 -12.12183,11.11167 -6.06092,-1.01015 -72.73099,-21.2132 -72.73099,-21.2132 0,0 -4.54568,-28.28427 12.12183,-50.00255 z"
       id="path3009"
       inkscape:connector-curvature="0"
       sodipodi:nodetypes="cc" />
    <path
       sodipodi:type="arc"
       style="fill:#333f48;fill-opacity:1;fill-rule:evenodd;stroke:#ffffff;stroke-width:4.40000009999999975;stroke-linecap:round;stroke-linejoin:round;stroke-miterlimit:4;stroke-opacity:0.68617021000000000;stroke-dasharray:none;stroke-dashoffset:0"
       id="path3011"
       sodipodi:cx="374.7666"
       sodipodi:cy="293.73761"
       sodipodi:rx="5.5558391"
       sodipodi:ry="5.5558391"
       d="m 380.32244,293.73761 a 5.5558391,5.5558391 0 1 1 -11.11168,0 5.5558391,5.5558391 0 1 1 11.11168,0 z" />
    <path
       sodipodi:type="arc"
       style="fill:#333f48;fill-opacity:1;fill-rule:evenodd;stroke:#ffffff;stroke-width:4.40000009999999975;stroke-linecap:round;stroke-linejoin:round;stroke-miterlimit:4;stroke-opacity:0.68617021000000000;stroke-dasharray:none;stroke-dashoffset:0"
       id="path3013"
       sodipodi:cx="373.50391"
       sodipodi:cy="313.68814"
       sodipodi:rx="5.8083773"
       sodipodi:ry="5.8083773"
       d="m 379.31228,313.68814 a 5.8083773,5.8083773 0 1 1 -11.61675,0 5.8083773,5.8083773 0 1 1 11.61675,0 z" />
    <path
       sodipodi:type="arc"
       style="fill:#333f48;fill-opacity:1;fill-rule:evenodd;stroke:#ffffff;stroke-width:4.40000009999999975;stroke-linecap:round;stroke-linejoin:round;stroke-miterlimit:4;stroke-opacity:0.68617021000000000;stroke-dasharray:none;stroke-dashoffset:0"
       id="path3015"
       sodipodi:cx="401.03055"
       sodipodi:cy="308.38483"
       sodipodi:rx="7.5761442"
       sodipodi:ry="7.5761442"
       d="m 408.60669,308.38483 a 7.5761442,7.5761442 0 1 1 -15.15229,0 7.5761442,7.5761442 0 1 1 15.15229,0 z"
       transform="translate(-2.0203051,-12.121831)" />
    <path
       sodipodi:type="arc"
       style="fill:#333f48;fill-opacity:1;fill-rule:evenodd;stroke:#ffffff;stroke-width:4.40000009999999975;stroke-linecap:round;stroke-linejoin:round;stroke-miterlimit:4;stroke-opacity:0.68617021000000000;stroke-dasharray:none;stroke-dashoffset:0"
       id="path3017"
       sodipodi:cx="431.84021"
       sodipodi:cy="309.39499"
       sodipodi:rx="8.0812206"
       sodipodi:ry="8.0812206"
       d="m 439.92143,309.39499 a 8.0812206,8.0812206 0 1 1 -16.16244,0 8.0812206,8.0812206 0 1 1 16.16244,0 z"
       transform="translate(2.5253814,-8.0812204)" />
    <path
       style="fill:none;stroke:#000000;stroke-width:1px;stroke-linecap:butt;stroke-linejoin:miter;stroke-opacity:1"
       d="m 379.31228,254.34167 c 3.03046,15.65737 3.53553,16.16244 3.53553,16.16244"
       id="path3019"
       inkscape:connector-curvature="0" />
    <path
       style="fill:none;stroke:#000000;stroke-width:1px;stroke-linecap:butt;stroke-linejoin:miter;stroke-opacity:1"
       d="m 359.10923,228.58278 c -52.52793,-15.15229 -69.70053,-12.12183 -72.73098,-5.55584 -3.03046,6.56599 9.59645,7.57615 9.59645,7.57615"
       id="path3021"
       inkscape:connector-curvature="0" />
    <path
       inkscape:connector-curvature="0"
       id="path3023"
       d="m 361.17068,226.89883 c -51.1751,-19.23236 -68.53271,-17.56045 -72.06966,-11.25285 -3.53696,6.3076 8.97156,8.30669 8.97156,8.30669"
       style="fill:none;stroke:#000000;stroke-width:1px;stroke-linecap:butt;stroke-linejoin:miter;stroke-opacity:1" />
    <path
       style="fill:none;stroke:#000000;stroke-width:1px;stroke-linecap:butt;stroke-linejoin:miter;stroke-opacity:1"
       d="m 342.44171,307.87976 c 0,0 0,0 5.55584,-6.56599 l 0,9.59645"
       id="path3025"
       inkscape:connector-curvature="0" />
    <path
       style="fill:none;stroke:#000000;stroke-width:1px;stroke-linecap:butt;stroke-linejoin:miter;stroke-opacity:1"
       d="m 348.50263,300.80869 6.06091,-22.72843 4.54569,35.86041 14.14214,-20.20305"
       id="path3027"
       inkscape:connector-curvature="0"
       sodipodi:nodetypes="cccc" />
    <path
       style="fill:none;stroke:#000000;stroke-width:1px;stroke-linecap:butt;stroke-linejoin:miter;stroke-opacity:1"
       d="m 399.51533,297.77823 1.01015,20.70813 9.59645,-29.29443 8.5863,100.00511"
       id="path3029"
       inkscape:connector-curvature="0" />
    <path
       style="fill:none;stroke:#000000;stroke-width:1px;stroke-linecap:butt;stroke-linejoin:miter;stroke-opacity:1"
       d="m 434.36559,301.81884 2.02031,21.2132 14.64721,-26.26396 30.30458,56.06346"
       id="path3031"
       inkscape:connector-curvature="0" />
    <path
       style="fill:none;stroke:#000000;stroke-width:1px;stroke-linecap:butt;stroke-linejoin:miter;stroke-opacity:1"
       d="M 383.35289,325.55743 357.594,365.45845"
       id="path3033"
       inkscape:connector-curvature="0" />
    <path
       style="fill:none;stroke:#000000;stroke-width:1px;stroke-linecap:butt;stroke-linejoin:miter;stroke-opacity:1"
       d="m 451.03311,332.62849 7.07107,38.3858"
       id="path3035"
       inkscape:connector-curvature="0" />
    <path
       style="fill:none;stroke:#000000;stroke-width:1px;stroke-linecap:butt;stroke-linejoin:miter;stroke-opacity:1"
       d="m 361.25,272.8979 c -0.35714,3.21428 -0.35714,3.21428 -0.35714,3.21428"
       id="path3041"
       inkscape:connector-curvature="0" />
    <path
       style="fill:none;stroke:#000000;stroke-width:1px;stroke-linecap:butt;stroke-linejoin:miter;stroke-opacity:1"
       d="m 368.57143,275.57647 c -0.53571,3.39285 -0.53571,3.39285 -0.53571,3.39285"
       id="path3043"
       inkscape:connector-curvature="0" />
    <path
       style="fill:none;stroke:#000000;stroke-width:1px;stroke-linecap:butt;stroke-linejoin:miter;stroke-opacity:1"
       d="m 359.10714,281.82647 c -0.53571,3.39285 -0.53571,3.39285 -0.53571,3.39285"
       id="path3045"
       inkscape:connector-curvature="0" />
    <path
       style="fill:none;stroke:#000000;stroke-width:1px;stroke-linecap:butt;stroke-linejoin:miter;stroke-opacity:1"
       d="m 366.07143,283.61218 c -0.53571,2.85714 -0.53571,2.85714 -0.53571,2.85714"
       id="path3047"
       inkscape:connector-curvature="0" />
    <path
       style="fill:none;stroke:#000000;stroke-width:1px;stroke-linecap:butt;stroke-linejoin:miter;stroke-opacity:1"
       d="M 358.03572,289.32647 C 357.5,293.43361 357.5,293.43361 357.5,293.43361"
       id="path3049"
       inkscape:connector-curvature="0" />
    <path
       style="fill:none;stroke:#000000;stroke-width:1px;stroke-linecap:butt;stroke-linejoin:miter;stroke-opacity:1"
       d="m 364.28572,292.00504 c -0.17858,3.21428 -0.17858,3.39286 -0.17858,3.39286"
       id="path3051"
       inkscape:connector-curvature="0" />
    <path
       style="fill:none;stroke:#000000;stroke-width:1px;stroke-linecap:butt;stroke-linejoin:miter;stroke-opacity:1"
       d="m 356.07143,299.32647 c -0.35714,3.57143 -0.35714,3.57143 -0.35714,3.57143"
       id="path3053"
       inkscape:connector-curvature="0" />
    <path
       style="fill:none;stroke:#000000;stroke-width:1px;stroke-linecap:butt;stroke-linejoin:miter;stroke-opacity:1"
       d="m 363.75,300.57647 c -0.35714,3.57143 -0.35714,3.57143 -0.35714,3.57143"
       id="path3055"
       inkscape:connector-curvature="0" />
    <path
       style="fill:none;stroke:#000000;stroke-width:1px;stroke-linecap:butt;stroke-linejoin:miter;stroke-opacity:1"
       d="m 373.21429,314.1479 -5.71429,20.71428 -5.71429,-32.5 -7.5,19.28572 2.50001,1.33928 -4.91072,3.83929"
       id="path3057"
       inkscape:connector-curvature="0" />
    <path
       style="fill:none;stroke:#000000;stroke-width:1px;stroke-linecap:butt;stroke-linejoin:miter;stroke-opacity:1"
       d="m 336.07143,367.00504 c 16.07142,-2.85715 38.21428,-0.71429 38.21428,-0.71429 l 0,-5.71429 9.64286,14.64286"
       id="path3059"
       inkscape:connector-curvature="0" />
    <path
       style="fill:none;stroke:#000000;stroke-width:1px;stroke-linecap:butt;stroke-linejoin:miter;stroke-opacity:1"
       d="m 401.78571,402.71932 -10,-9.28571 3.57143,-7.14286 c 1.78572,-0.71428 49.64286,7.5 49.64286,7.5"
       id="path3061"
       inkscape:connector-curvature="0" />
    <path
       style="fill:none;stroke:#000000;stroke-width:1px;stroke-linecap:butt;stroke-linejoin:miter;stroke-opacity:1"
       d="m 356.07143,406.29075 c 8.21428,-18.92857 11.78571,-19.64285 11.78571,-19.64285 l 8.21429,2.14285 -2.14286,11.78572"
       id="path3063"
       inkscape:connector-curvature="0" />
    <path
       style="fill:none;stroke:#000000;stroke-width:1px;stroke-linecap:butt;stroke-linejoin:miter;stroke-opacity:1"
       d="m 493.21429,364.50504 -26.78572,-1.07143 0.71429,-10.35714 -4.64286,18.92857 0.35714,13.57143"
       id="path3065"
       inkscape:connector-curvature="0" />
    <path
       style="fill:none;stroke:#000000;stroke-width:1px;stroke-linecap:butt;stroke-linejoin:miter;stroke-opacity:1"
       d="m 467.5,353.07647 38.92857,0.35714 11.78572,8.92857 15.35714,34.28572"
       id="path3067"
       inkscape:connector-curvature="0" />
    <path
       style="fill:none;stroke:#000000;stroke-width:1px;stroke-linecap:butt;stroke-linejoin:miter;stroke-opacity:1"
       d="m 463.92857,380.57647 17.85715,0.35714"
       id="path3069"
       inkscape:connector-curvature="0" />
    <path
       style="fill:none;stroke:#000000;stroke-width:1px;stroke-linecap:butt;stroke-linejoin:miter;stroke-opacity:1"
       d="m 433.92857,363.07647 12.14286,-17.14286 42.14286,0.35714 12.5,6.78572"
       id="path3071"
       inkscape:connector-curvature="0" />
    <path
       style="fill:none;stroke:#000000;stroke-width:1px;stroke-linecap:butt;stroke-linejoin:miter;stroke-opacity:1"
       d="m 445.35714,370.57647 15.35715,0"
       id="path3073"
       inkscape:connector-curvature="0" />
  </g>
</svg>
