<?xml version="1.0" encoding="UTF-8" standalone="no"?>
<!-- Created with Inkscape (http://www.inkscape.org/) -->

<svg
   xmlns:dc="http://purl.org/dc/elements/1.1/"
   xmlns:cc="http://creativecommons.org/ns#"
   xmlns:rdf="http://www.w3.org/1999/02/22-rdf-syntax-ns#"
   xmlns:svg="http://www.w3.org/2000/svg"
   xmlns="http://www.w3.org/2000/svg"
   xmlns:sodipodi="http://sodipodi.sourceforge.net/DTD/sodipodi-0.dtd"
   xmlns:inkscape="http://www.inkscape.org/namespaces/inkscape"
   width="258.66141"
   height="102.75591"
   id="svg3249"
   version="1.1"
   inkscape:version="0.48.4 r9939"
   sodipodi:docname="min_speed_planner.svg"
   inkscape:export-filename="/home/gray/wk/grayutils/tex/MultiContactTAC2015/figures/min_speed.png"
   inkscape:export-xdpi="400"
   inkscape:export-ydpi="400">
  <defs
     id="defs3251" />
  <sodipodi:namedview
     id="base"
     pagecolor="#ffffff"
     bordercolor="#666666"
     borderopacity="1.0"
     inkscape:pageopacity="0.0"
     inkscape:pageshadow="2"
     inkscape:zoom="5.1161833"
     inkscape:cx="129.05175"
     inkscape:cy="35.976271"
     inkscape:document-units="px"
     inkscape:current-layer="layer1"
     showgrid="false"
     inkscape:window-width="1920"
     inkscape:window-height="1030"
     inkscape:window-x="0"
     inkscape:window-y="0"
     inkscape:window-maximized="1"
     units="mm"
     fit-margin-left="0.1"
     fit-margin-top="0.1"
     fit-margin-right="0.1"
     fit-margin-bottom="0.1" />
  <metadata
     id="metadata3254">
    <rdf:RDF>
      <cc:Work
         rdf:about="">
        <dc:format>image/svg+xml</dc:format>
        <dc:type
           rdf:resource="http://purl.org/dc/dcmitype/StillImage" />
        <dc:title />
      </cc:Work>
    </rdf:RDF>
  </metadata>
  <g
     inkscape:label="Layer 1"
     inkscape:groupmode="layer"
     id="layer1"
     transform="translate(18.485315,-911.68961)">
    <path
       style="fill:#005f86;stroke:none"
       d="m 73.26889,974.6945 c 5.3922,0.02 13.23822,-43.55319 20.42847,-44.74679 4.34618,-0.7214 7.58445,35.25271 12.3688,45.29959 z"
       id="path3623"
       inkscape:connector-curvature="0"
       sodipodi:nodetypes="csc" />
    <path
       sodipodi:nodetypes="ccc"
       inkscape:connector-curvature="0"
       id="path3674"
       d="m 100.02451,948.89847 c 6.30252,-10.4266 13.85175,-16.3297 17.91541,-16.7206 2.5,0 10.39488,17.2433 15.89488,41.24333 l -34.15629,0 z"
       style="fill:#bf5700;stroke:none" />
    <path
       sodipodi:nodetypes="cccccc"
       style="fill:#d6d2c4;stroke:none"
       d="m -11.70382,973.8767 172.97793,0.2764 0.64691,-43.38905 c 11.34277,9.89059 21.53251,8.58208 30.47981,0.5516 l 0.34206,42.56105 37.93435,0"
       id="path4035"
       inkscape:connector-curvature="0" />
    <path
       sodipodi:nodetypes="ccc"
       inkscape:connector-curvature="0"
       id="path3595"
       d="m 15.861087,975.1729 c 7.72982,0.7692 17.51596,-23.6214 34.11028,-0.069 z"
       style="fill:#005f86;stroke:none" />
    <g
       id="g6610"
       transform="translate(-10.406544,-26.471607)">
      <rect
         y="888.64276"
         x="-14.643833"
         height="121.75"
         width="268.5"
         id="rect6099"
         style="opacity:0.5;fill:#ffffff;fill-opacity:1;stroke:none" />
      <g
         style="opacity:0.61290325;stroke-width:1.01765096;stroke-miterlimit:4;stroke-dasharray:none"
         transform="matrix(1.0432186,0.05281708,-0.05281708,1.0432186,39.624321,-49.348541)"
         id="g5929">
        <g
           style="stroke-width:1.01765096;stroke-miterlimit:4;stroke-dasharray:none"
           transform="translate(56,0)"
           id="g5417">
          <path
             transform="translate(-18.485315,884.7229)"
             inkscape:connector-curvature="0"
             id="path5419"
             d="M 15.556349,7.0395996 46.166257,121.27733"
             style="fill:none;stroke:#ffffff;stroke-width:1.01765096;stroke-linecap:butt;stroke-linejoin:miter;stroke-miterlimit:4;stroke-opacity:1;stroke-dasharray:none" />
          <path
             style="fill:none;stroke:#ffffff;stroke-width:1.01765096;stroke-linecap:butt;stroke-linejoin:miter;stroke-miterlimit:4;stroke-opacity:1;stroke-dasharray:none"
             d="m -0.928966,891.7625 30.609908,114.2377"
             id="path5421"
             inkscape:connector-curvature="0" />
          <path
             inkscape:connector-curvature="0"
             id="path5423"
             d="m 1.071034,891.7625 30.609908,114.2377"
             style="fill:none;stroke:#ffffff;stroke-width:1.01765096;stroke-linecap:butt;stroke-linejoin:miter;stroke-miterlimit:4;stroke-opacity:1;stroke-dasharray:none" />
          <path
             style="fill:none;stroke:#ffffff;stroke-width:1.01765096;stroke-linecap:butt;stroke-linejoin:miter;stroke-miterlimit:4;stroke-opacity:1;stroke-dasharray:none"
             d="m 3.071034,891.7625 30.609908,114.2377"
             id="path5425"
             inkscape:connector-curvature="0" />
          <path
             inkscape:connector-curvature="0"
             id="path5427"
             d="m 5.071034,891.7625 30.609908,114.2377"
             style="fill:none;stroke:#ffffff;stroke-width:1.01765096;stroke-linecap:butt;stroke-linejoin:miter;stroke-miterlimit:4;stroke-opacity:1;stroke-dasharray:none" />
          <path
             style="fill:none;stroke:#ffffff;stroke-width:1.01765096;stroke-linecap:butt;stroke-linejoin:miter;stroke-miterlimit:4;stroke-opacity:1;stroke-dasharray:none"
             d="m 7.071034,891.7625 30.609908,114.2377"
             id="path5429"
             inkscape:connector-curvature="0" />
          <path
             inkscape:connector-curvature="0"
             id="path5431"
             d="m 9.071034,891.7625 30.609908,114.2377"
             style="fill:none;stroke:#ffffff;stroke-width:1.01765096;stroke-linecap:butt;stroke-linejoin:miter;stroke-miterlimit:4;stroke-opacity:1;stroke-dasharray:none" />
          <path
             style="fill:none;stroke:#ffffff;stroke-width:1.01765096;stroke-linecap:butt;stroke-linejoin:miter;stroke-miterlimit:4;stroke-opacity:1;stroke-dasharray:none"
             d="m 11.071034,891.7625 30.609908,114.2377"
             id="path5433"
             inkscape:connector-curvature="0" />
          <path
             inkscape:connector-curvature="0"
             id="path5435"
             d="m 13.071034,891.7625 30.609908,114.2377"
             style="fill:none;stroke:#ffffff;stroke-width:1.01765096;stroke-linecap:butt;stroke-linejoin:miter;stroke-miterlimit:4;stroke-opacity:1;stroke-dasharray:none" />
          <path
             style="fill:none;stroke:#ffffff;stroke-width:1.01765096;stroke-linecap:butt;stroke-linejoin:miter;stroke-miterlimit:4;stroke-opacity:1;stroke-dasharray:none"
             d="m 15.071034,891.7625 30.609908,114.2377"
             id="path5437"
             inkscape:connector-curvature="0" />
          <path
             inkscape:connector-curvature="0"
             id="path5439"
             d="m 17.071034,891.7625 30.609908,114.2377"
             style="fill:none;stroke:#ffffff;stroke-width:1.01765096;stroke-linecap:butt;stroke-linejoin:miter;stroke-miterlimit:4;stroke-opacity:1;stroke-dasharray:none" />
          <path
             style="fill:none;stroke:#ffffff;stroke-width:1.01765096;stroke-linecap:butt;stroke-linejoin:miter;stroke-miterlimit:4;stroke-opacity:1;stroke-dasharray:none"
             d="m 19.071034,891.7625 30.609908,114.2377"
             id="path5441"
             inkscape:connector-curvature="0" />
          <path
             inkscape:connector-curvature="0"
             id="path5443"
             d="m 21.071034,891.7625 30.609908,114.2377"
             style="fill:none;stroke:#ffffff;stroke-width:1.01765096;stroke-linecap:butt;stroke-linejoin:miter;stroke-miterlimit:4;stroke-opacity:1;stroke-dasharray:none" />
          <path
             style="fill:none;stroke:#ffffff;stroke-width:1.01765096;stroke-linecap:butt;stroke-linejoin:miter;stroke-miterlimit:4;stroke-opacity:1;stroke-dasharray:none"
             d="m 23.071034,891.7625 30.609908,114.2377"
             id="path5445"
             inkscape:connector-curvature="0" />
        </g>
        <g
           style="stroke-width:1.01765096;stroke-miterlimit:4;stroke-dasharray:none"
           id="g5371">
          <path
             transform="translate(-18.485315,884.7229)"
             inkscape:connector-curvature="0"
             id="path5343"
             d="M 15.556349,7.0395996 46.166257,121.27733"
             style="fill:none;stroke:#ffffff;stroke-width:1.01765096;stroke-linecap:butt;stroke-linejoin:miter;stroke-miterlimit:4;stroke-opacity:1;stroke-dasharray:none" />
          <path
             style="fill:none;stroke:#ffffff;stroke-width:1.01765096;stroke-linecap:butt;stroke-linejoin:miter;stroke-miterlimit:4;stroke-opacity:1;stroke-dasharray:none"
             d="m -0.928966,891.7625 30.609908,114.2377"
             id="path5345"
             inkscape:connector-curvature="0" />
          <path
             inkscape:connector-curvature="0"
             id="path5347"
             d="m 1.071034,891.7625 30.609908,114.2377"
             style="fill:none;stroke:#ffffff;stroke-width:1.01765096;stroke-linecap:butt;stroke-linejoin:miter;stroke-miterlimit:4;stroke-opacity:1;stroke-dasharray:none" />
          <path
             style="fill:none;stroke:#ffffff;stroke-width:1.01765096;stroke-linecap:butt;stroke-linejoin:miter;stroke-miterlimit:4;stroke-opacity:1;stroke-dasharray:none"
             d="m 3.071034,891.7625 30.609908,114.2377"
             id="path5349"
             inkscape:connector-curvature="0" />
          <path
             inkscape:connector-curvature="0"
             id="path5351"
             d="m 5.071034,891.7625 30.609908,114.2377"
             style="fill:none;stroke:#ffffff;stroke-width:1.01765096;stroke-linecap:butt;stroke-linejoin:miter;stroke-miterlimit:4;stroke-opacity:1;stroke-dasharray:none" />
          <path
             style="fill:none;stroke:#ffffff;stroke-width:1.01765096;stroke-linecap:butt;stroke-linejoin:miter;stroke-miterlimit:4;stroke-opacity:1;stroke-dasharray:none"
             d="m 7.071034,891.7625 30.609908,114.2377"
             id="path5353"
             inkscape:connector-curvature="0" />
          <path
             inkscape:connector-curvature="0"
             id="path5355"
             d="m 9.071034,891.7625 30.609908,114.2377"
             style="fill:none;stroke:#ffffff;stroke-width:1.01765096;stroke-linecap:butt;stroke-linejoin:miter;stroke-miterlimit:4;stroke-opacity:1;stroke-dasharray:none" />
          <path
             style="fill:none;stroke:#ffffff;stroke-width:1.01765096;stroke-linecap:butt;stroke-linejoin:miter;stroke-miterlimit:4;stroke-opacity:1;stroke-dasharray:none"
             d="m 11.071034,891.7625 30.609908,114.2377"
             id="path5357"
             inkscape:connector-curvature="0" />
          <path
             inkscape:connector-curvature="0"
             id="path5359"
             d="m 13.071034,891.7625 30.609908,114.2377"
             style="fill:none;stroke:#ffffff;stroke-width:1.01765096;stroke-linecap:butt;stroke-linejoin:miter;stroke-miterlimit:4;stroke-opacity:1;stroke-dasharray:none" />
          <path
             style="fill:none;stroke:#ffffff;stroke-width:1.01765096;stroke-linecap:butt;stroke-linejoin:miter;stroke-miterlimit:4;stroke-opacity:1;stroke-dasharray:none"
             d="m 15.071034,891.7625 30.609908,114.2377"
             id="path5361"
             inkscape:connector-curvature="0" />
          <path
             inkscape:connector-curvature="0"
             id="path5363"
             d="m 17.071034,891.7625 30.609908,114.2377"
             style="fill:none;stroke:#ffffff;stroke-width:1.01765096;stroke-linecap:butt;stroke-linejoin:miter;stroke-miterlimit:4;stroke-opacity:1;stroke-dasharray:none" />
          <path
             style="fill:none;stroke:#ffffff;stroke-width:1.01765096;stroke-linecap:butt;stroke-linejoin:miter;stroke-miterlimit:4;stroke-opacity:1;stroke-dasharray:none"
             d="m 19.071034,891.7625 30.609908,114.2377"
             id="path5365"
             inkscape:connector-curvature="0" />
          <path
             inkscape:connector-curvature="0"
             id="path5367"
             d="m 21.071034,891.7625 30.609908,114.2377"
             style="fill:none;stroke:#ffffff;stroke-width:1.01765096;stroke-linecap:butt;stroke-linejoin:miter;stroke-miterlimit:4;stroke-opacity:1;stroke-dasharray:none" />
          <path
             style="fill:none;stroke:#ffffff;stroke-width:1.01765096;stroke-linecap:butt;stroke-linejoin:miter;stroke-miterlimit:4;stroke-opacity:1;stroke-dasharray:none"
             d="m 23.071034,891.7625 30.609908,114.2377"
             id="path5369"
             inkscape:connector-curvature="0" />
        </g>
        <g
           style="stroke-width:1.01765096;stroke-miterlimit:4;stroke-dasharray:none"
           id="g5387"
           transform="translate(28,0)">
          <path
             style="fill:none;stroke:#ffffff;stroke-width:1.01765096;stroke-linecap:butt;stroke-linejoin:miter;stroke-miterlimit:4;stroke-opacity:1;stroke-dasharray:none"
             d="M 15.556349,7.0395996 46.166257,121.27733"
             id="path5389"
             inkscape:connector-curvature="0"
             transform="translate(-18.485315,884.7229)" />
          <path
             inkscape:connector-curvature="0"
             id="path5391"
             d="m -0.928966,891.7625 30.609908,114.2377"
             style="fill:none;stroke:#ffffff;stroke-width:1.01765096;stroke-linecap:butt;stroke-linejoin:miter;stroke-miterlimit:4;stroke-opacity:1;stroke-dasharray:none" />
          <path
             style="fill:none;stroke:#ffffff;stroke-width:1.01765096;stroke-linecap:butt;stroke-linejoin:miter;stroke-miterlimit:4;stroke-opacity:1;stroke-dasharray:none"
             d="m 1.071034,891.7625 30.609908,114.2377"
             id="path5393"
             inkscape:connector-curvature="0" />
          <path
             inkscape:connector-curvature="0"
             id="path5395"
             d="m 3.071034,891.7625 30.609908,114.2377"
             style="fill:none;stroke:#ffffff;stroke-width:1.01765096;stroke-linecap:butt;stroke-linejoin:miter;stroke-miterlimit:4;stroke-opacity:1;stroke-dasharray:none" />
          <path
             style="fill:none;stroke:#ffffff;stroke-width:1.01765096;stroke-linecap:butt;stroke-linejoin:miter;stroke-miterlimit:4;stroke-opacity:1;stroke-dasharray:none"
             d="m 5.071034,891.7625 30.609908,114.2377"
             id="path5397"
             inkscape:connector-curvature="0" />
          <path
             inkscape:connector-curvature="0"
             id="path5399"
             d="m 7.071034,891.7625 30.609908,114.2377"
             style="fill:none;stroke:#ffffff;stroke-width:1.01765096;stroke-linecap:butt;stroke-linejoin:miter;stroke-miterlimit:4;stroke-opacity:1;stroke-dasharray:none" />
          <path
             style="fill:none;stroke:#ffffff;stroke-width:1.01765096;stroke-linecap:butt;stroke-linejoin:miter;stroke-miterlimit:4;stroke-opacity:1;stroke-dasharray:none"
             d="m 9.071034,891.7625 30.609908,114.2377"
             id="path5401"
             inkscape:connector-curvature="0" />
          <path
             inkscape:connector-curvature="0"
             id="path5403"
             d="m 11.071034,891.7625 30.609908,114.2377"
             style="fill:none;stroke:#ffffff;stroke-width:1.01765096;stroke-linecap:butt;stroke-linejoin:miter;stroke-miterlimit:4;stroke-opacity:1;stroke-dasharray:none" />
          <path
             style="fill:none;stroke:#ffffff;stroke-width:1.01765096;stroke-linecap:butt;stroke-linejoin:miter;stroke-miterlimit:4;stroke-opacity:1;stroke-dasharray:none"
             d="m 13.071034,891.7625 30.609908,114.2377"
             id="path5405"
             inkscape:connector-curvature="0" />
          <path
             inkscape:connector-curvature="0"
             id="path5407"
             d="m 15.071034,891.7625 30.609908,114.2377"
             style="fill:none;stroke:#ffffff;stroke-width:1.01765096;stroke-linecap:butt;stroke-linejoin:miter;stroke-miterlimit:4;stroke-opacity:1;stroke-dasharray:none" />
          <path
             style="fill:none;stroke:#ffffff;stroke-width:1.01765096;stroke-linecap:butt;stroke-linejoin:miter;stroke-miterlimit:4;stroke-opacity:1;stroke-dasharray:none"
             d="m 17.071034,891.7625 30.609908,114.2377"
             id="path5409"
             inkscape:connector-curvature="0" />
          <path
             inkscape:connector-curvature="0"
             id="path5411"
             d="m 19.071034,891.7625 30.609908,114.2377"
             style="fill:none;stroke:#ffffff;stroke-width:1.01765096;stroke-linecap:butt;stroke-linejoin:miter;stroke-miterlimit:4;stroke-opacity:1;stroke-dasharray:none" />
          <path
             style="fill:none;stroke:#ffffff;stroke-width:1.01765096;stroke-linecap:butt;stroke-linejoin:miter;stroke-miterlimit:4;stroke-opacity:1;stroke-dasharray:none"
             d="m 21.071034,891.7625 30.609908,114.2377"
             id="path5413"
             inkscape:connector-curvature="0" />
          <path
             inkscape:connector-curvature="0"
             id="path5415"
             d="m 23.071034,891.7625 30.609908,114.2377"
             style="fill:none;stroke:#ffffff;stroke-width:1.01765096;stroke-linecap:butt;stroke-linejoin:miter;stroke-miterlimit:4;stroke-opacity:1;stroke-dasharray:none" />
        </g>
        <g
           style="stroke-width:1.01765096;stroke-miterlimit:4;stroke-dasharray:none"
           id="g5447"
           transform="translate(84,0)">
          <path
             style="fill:none;stroke:#ffffff;stroke-width:1.01765096;stroke-linecap:butt;stroke-linejoin:miter;stroke-miterlimit:4;stroke-opacity:1;stroke-dasharray:none"
             d="M 15.556349,7.0395996 46.166257,121.27733"
             id="path5449"
             inkscape:connector-curvature="0"
             transform="translate(-18.485315,884.7229)" />
          <path
             inkscape:connector-curvature="0"
             id="path5451"
             d="m -0.928966,891.7625 30.609908,114.2377"
             style="fill:none;stroke:#ffffff;stroke-width:1.01765096;stroke-linecap:butt;stroke-linejoin:miter;stroke-miterlimit:4;stroke-opacity:1;stroke-dasharray:none" />
          <path
             style="fill:none;stroke:#ffffff;stroke-width:1.01765096;stroke-linecap:butt;stroke-linejoin:miter;stroke-miterlimit:4;stroke-opacity:1;stroke-dasharray:none"
             d="m 1.071034,891.7625 30.609908,114.2377"
             id="path5453"
             inkscape:connector-curvature="0" />
          <path
             inkscape:connector-curvature="0"
             id="path5455"
             d="m 3.071034,891.7625 30.609908,114.2377"
             style="fill:none;stroke:#ffffff;stroke-width:1.01765096;stroke-linecap:butt;stroke-linejoin:miter;stroke-miterlimit:4;stroke-opacity:1;stroke-dasharray:none" />
          <path
             style="fill:none;stroke:#ffffff;stroke-width:1.01765096;stroke-linecap:butt;stroke-linejoin:miter;stroke-miterlimit:4;stroke-opacity:1;stroke-dasharray:none"
             d="m 5.071034,891.7625 30.609908,114.2377"
             id="path5457"
             inkscape:connector-curvature="0" />
          <path
             inkscape:connector-curvature="0"
             id="path5459"
             d="m 7.071034,891.7625 30.609908,114.2377"
             style="fill:none;stroke:#ffffff;stroke-width:1.01765096;stroke-linecap:butt;stroke-linejoin:miter;stroke-miterlimit:4;stroke-opacity:1;stroke-dasharray:none" />
          <path
             style="fill:none;stroke:#ffffff;stroke-width:1.01765096;stroke-linecap:butt;stroke-linejoin:miter;stroke-miterlimit:4;stroke-opacity:1;stroke-dasharray:none"
             d="m 9.071034,891.7625 30.609908,114.2377"
             id="path5461"
             inkscape:connector-curvature="0" />
          <path
             inkscape:connector-curvature="0"
             id="path5463"
             d="m 11.071034,891.7625 30.609908,114.2377"
             style="fill:none;stroke:#ffffff;stroke-width:1.01765096;stroke-linecap:butt;stroke-linejoin:miter;stroke-miterlimit:4;stroke-opacity:1;stroke-dasharray:none" />
          <path
             style="fill:none;stroke:#ffffff;stroke-width:1.01765096;stroke-linecap:butt;stroke-linejoin:miter;stroke-miterlimit:4;stroke-opacity:1;stroke-dasharray:none"
             d="m 13.071034,891.7625 30.609908,114.2377"
             id="path5465"
             inkscape:connector-curvature="0" />
          <path
             inkscape:connector-curvature="0"
             id="path5467"
             d="m 15.071034,891.7625 30.609908,114.2377"
             style="fill:none;stroke:#ffffff;stroke-width:1.01765096;stroke-linecap:butt;stroke-linejoin:miter;stroke-miterlimit:4;stroke-opacity:1;stroke-dasharray:none" />
          <path
             style="fill:none;stroke:#ffffff;stroke-width:1.01765096;stroke-linecap:butt;stroke-linejoin:miter;stroke-miterlimit:4;stroke-opacity:1;stroke-dasharray:none"
             d="m 17.071034,891.7625 30.609908,114.2377"
             id="path5469"
             inkscape:connector-curvature="0" />
          <path
             inkscape:connector-curvature="0"
             id="path5471"
             d="m 19.071034,891.7625 30.609908,114.2377"
             style="fill:none;stroke:#ffffff;stroke-width:1.01765096;stroke-linecap:butt;stroke-linejoin:miter;stroke-miterlimit:4;stroke-opacity:1;stroke-dasharray:none" />
          <path
             style="fill:none;stroke:#ffffff;stroke-width:1.01765096;stroke-linecap:butt;stroke-linejoin:miter;stroke-miterlimit:4;stroke-opacity:1;stroke-dasharray:none"
             d="m 21.071034,891.7625 30.609908,114.2377"
             id="path5473"
             inkscape:connector-curvature="0" />
          <path
             inkscape:connector-curvature="0"
             id="path5475"
             d="m 23.071034,891.7625 30.609908,114.2377"
             style="fill:none;stroke:#ffffff;stroke-width:1.01765096;stroke-linecap:butt;stroke-linejoin:miter;stroke-miterlimit:4;stroke-opacity:1;stroke-dasharray:none" />
        </g>
        <g
           style="stroke-width:1.01765096;stroke-miterlimit:4;stroke-dasharray:none"
           transform="translate(112,0)"
           id="g5477">
          <path
             transform="translate(-18.485315,884.7229)"
             inkscape:connector-curvature="0"
             id="path5479"
             d="M 15.556349,7.0395996 46.166257,121.27733"
             style="fill:none;stroke:#ffffff;stroke-width:1.01765096;stroke-linecap:butt;stroke-linejoin:miter;stroke-miterlimit:4;stroke-opacity:1;stroke-dasharray:none" />
          <path
             style="fill:none;stroke:#ffffff;stroke-width:1.01765096;stroke-linecap:butt;stroke-linejoin:miter;stroke-miterlimit:4;stroke-opacity:1;stroke-dasharray:none"
             d="m -0.928966,891.7625 30.609908,114.2377"
             id="path5481"
             inkscape:connector-curvature="0" />
          <path
             inkscape:connector-curvature="0"
             id="path5483"
             d="m 1.071034,891.7625 30.609908,114.2377"
             style="fill:none;stroke:#ffffff;stroke-width:1.01765096;stroke-linecap:butt;stroke-linejoin:miter;stroke-miterlimit:4;stroke-opacity:1;stroke-dasharray:none" />
          <path
             style="fill:none;stroke:#ffffff;stroke-width:1.01765096;stroke-linecap:butt;stroke-linejoin:miter;stroke-miterlimit:4;stroke-opacity:1;stroke-dasharray:none"
             d="m 3.071034,891.7625 30.609908,114.2377"
             id="path5485"
             inkscape:connector-curvature="0" />
          <path
             inkscape:connector-curvature="0"
             id="path5487"
             d="m 5.071034,891.7625 30.609908,114.2377"
             style="fill:none;stroke:#ffffff;stroke-width:1.01765096;stroke-linecap:butt;stroke-linejoin:miter;stroke-miterlimit:4;stroke-opacity:1;stroke-dasharray:none" />
          <path
             style="fill:none;stroke:#ffffff;stroke-width:1.01765096;stroke-linecap:butt;stroke-linejoin:miter;stroke-miterlimit:4;stroke-opacity:1;stroke-dasharray:none"
             d="m 7.071034,891.7625 30.609908,114.2377"
             id="path5489"
             inkscape:connector-curvature="0" />
          <path
             inkscape:connector-curvature="0"
             id="path5491"
             d="m 9.071034,891.7625 30.609908,114.2377"
             style="fill:none;stroke:#ffffff;stroke-width:1.01765096;stroke-linecap:butt;stroke-linejoin:miter;stroke-miterlimit:4;stroke-opacity:1;stroke-dasharray:none" />
          <path
             style="fill:none;stroke:#ffffff;stroke-width:1.01765096;stroke-linecap:butt;stroke-linejoin:miter;stroke-miterlimit:4;stroke-opacity:1;stroke-dasharray:none"
             d="m 11.071034,891.7625 30.609908,114.2377"
             id="path5493"
             inkscape:connector-curvature="0" />
          <path
             inkscape:connector-curvature="0"
             id="path5495"
             d="m 13.071034,891.7625 30.609908,114.2377"
             style="fill:none;stroke:#ffffff;stroke-width:1.01765096;stroke-linecap:butt;stroke-linejoin:miter;stroke-miterlimit:4;stroke-opacity:1;stroke-dasharray:none" />
          <path
             style="fill:none;stroke:#ffffff;stroke-width:1.01765096;stroke-linecap:butt;stroke-linejoin:miter;stroke-miterlimit:4;stroke-opacity:1;stroke-dasharray:none"
             d="m 15.071034,891.7625 30.609908,114.2377"
             id="path5497"
             inkscape:connector-curvature="0" />
          <path
             inkscape:connector-curvature="0"
             id="path5499"
             d="m 17.071034,891.7625 30.609908,114.2377"
             style="fill:none;stroke:#ffffff;stroke-width:1.01765096;stroke-linecap:butt;stroke-linejoin:miter;stroke-miterlimit:4;stroke-opacity:1;stroke-dasharray:none" />
          <path
             style="fill:none;stroke:#ffffff;stroke-width:1.01765096;stroke-linecap:butt;stroke-linejoin:miter;stroke-miterlimit:4;stroke-opacity:1;stroke-dasharray:none"
             d="m 19.071034,891.7625 30.609908,114.2377"
             id="path5501"
             inkscape:connector-curvature="0" />
          <path
             inkscape:connector-curvature="0"
             id="path5503"
             d="m 21.071034,891.7625 30.609908,114.2377"
             style="fill:none;stroke:#ffffff;stroke-width:1.01765096;stroke-linecap:butt;stroke-linejoin:miter;stroke-miterlimit:4;stroke-opacity:1;stroke-dasharray:none" />
          <path
             style="fill:none;stroke:#ffffff;stroke-width:1.01765096;stroke-linecap:butt;stroke-linejoin:miter;stroke-miterlimit:4;stroke-opacity:1;stroke-dasharray:none"
             d="m 23.071034,891.7625 30.609908,114.2377"
             id="path5505"
             inkscape:connector-curvature="0" />
        </g>
        <g
           style="stroke-width:1.01765096;stroke-miterlimit:4;stroke-dasharray:none"
           id="g5507"
           transform="translate(140,0)">
          <path
             style="fill:none;stroke:#ffffff;stroke-width:1.01765096;stroke-linecap:butt;stroke-linejoin:miter;stroke-miterlimit:4;stroke-opacity:1;stroke-dasharray:none"
             d="M 15.556349,7.0395996 46.166257,121.27733"
             id="path5509"
             inkscape:connector-curvature="0"
             transform="translate(-18.485315,884.7229)" />
          <path
             inkscape:connector-curvature="0"
             id="path5511"
             d="m -0.928966,891.7625 30.609908,114.2377"
             style="fill:none;stroke:#ffffff;stroke-width:1.01765096;stroke-linecap:butt;stroke-linejoin:miter;stroke-miterlimit:4;stroke-opacity:1;stroke-dasharray:none" />
          <path
             style="fill:none;stroke:#ffffff;stroke-width:1.01765096;stroke-linecap:butt;stroke-linejoin:miter;stroke-miterlimit:4;stroke-opacity:1;stroke-dasharray:none"
             d="m 1.071034,891.7625 30.609908,114.2377"
             id="path5513"
             inkscape:connector-curvature="0" />
          <path
             inkscape:connector-curvature="0"
             id="path5515"
             d="m 3.071034,891.7625 30.609908,114.2377"
             style="fill:none;stroke:#ffffff;stroke-width:1.01765096;stroke-linecap:butt;stroke-linejoin:miter;stroke-miterlimit:4;stroke-opacity:1;stroke-dasharray:none" />
          <path
             style="fill:none;stroke:#ffffff;stroke-width:1.01765096;stroke-linecap:butt;stroke-linejoin:miter;stroke-miterlimit:4;stroke-opacity:1;stroke-dasharray:none"
             d="m 5.071034,891.7625 30.609908,114.2377"
             id="path5517"
             inkscape:connector-curvature="0" />
          <path
             inkscape:connector-curvature="0"
             id="path5519"
             d="m 7.071034,891.7625 30.609908,114.2377"
             style="fill:none;stroke:#ffffff;stroke-width:1.01765096;stroke-linecap:butt;stroke-linejoin:miter;stroke-miterlimit:4;stroke-opacity:1;stroke-dasharray:none" />
          <path
             style="fill:none;stroke:#ffffff;stroke-width:1.01765096;stroke-linecap:butt;stroke-linejoin:miter;stroke-miterlimit:4;stroke-opacity:1;stroke-dasharray:none"
             d="m 9.071034,891.7625 30.609908,114.2377"
             id="path5521"
             inkscape:connector-curvature="0" />
          <path
             inkscape:connector-curvature="0"
             id="path5523"
             d="m 11.071034,891.7625 30.609908,114.2377"
             style="fill:none;stroke:#ffffff;stroke-width:1.01765096;stroke-linecap:butt;stroke-linejoin:miter;stroke-miterlimit:4;stroke-opacity:1;stroke-dasharray:none" />
          <path
             style="fill:none;stroke:#ffffff;stroke-width:1.01765096;stroke-linecap:butt;stroke-linejoin:miter;stroke-miterlimit:4;stroke-opacity:1;stroke-dasharray:none"
             d="m 13.071034,891.7625 30.609908,114.2377"
             id="path5525"
             inkscape:connector-curvature="0" />
          <path
             inkscape:connector-curvature="0"
             id="path5527"
             d="m 15.071034,891.7625 30.609908,114.2377"
             style="fill:none;stroke:#ffffff;stroke-width:1.01765096;stroke-linecap:butt;stroke-linejoin:miter;stroke-miterlimit:4;stroke-opacity:1;stroke-dasharray:none" />
          <path
             style="fill:none;stroke:#ffffff;stroke-width:1.01765096;stroke-linecap:butt;stroke-linejoin:miter;stroke-miterlimit:4;stroke-opacity:1;stroke-dasharray:none"
             d="m 17.071034,891.7625 30.609908,114.2377"
             id="path5529"
             inkscape:connector-curvature="0" />
          <path
             inkscape:connector-curvature="0"
             id="path5531"
             d="m 19.071034,891.7625 30.609908,114.2377"
             style="fill:none;stroke:#ffffff;stroke-width:1.01765096;stroke-linecap:butt;stroke-linejoin:miter;stroke-miterlimit:4;stroke-opacity:1;stroke-dasharray:none" />
          <path
             style="fill:none;stroke:#ffffff;stroke-width:1.01765096;stroke-linecap:butt;stroke-linejoin:miter;stroke-miterlimit:4;stroke-opacity:1;stroke-dasharray:none"
             d="m 21.071034,891.7625 30.609908,114.2377"
             id="path5533"
             inkscape:connector-curvature="0" />
          <path
             inkscape:connector-curvature="0"
             id="path5535"
             d="m 23.071034,891.7625 30.609908,114.2377"
             style="fill:none;stroke:#ffffff;stroke-width:1.01765096;stroke-linecap:butt;stroke-linejoin:miter;stroke-miterlimit:4;stroke-opacity:1;stroke-dasharray:none" />
        </g>
        <g
           style="stroke-width:1.01765096;stroke-miterlimit:4;stroke-dasharray:none"
           transform="translate(168,0)"
           id="g5537">
          <path
             transform="translate(-18.485315,884.7229)"
             inkscape:connector-curvature="0"
             id="path5539"
             d="M 15.556349,7.0395996 46.166257,121.27733"
             style="fill:none;stroke:#ffffff;stroke-width:1.01765096;stroke-linecap:butt;stroke-linejoin:miter;stroke-miterlimit:4;stroke-opacity:1;stroke-dasharray:none" />
          <path
             style="fill:none;stroke:#ffffff;stroke-width:1.01765096;stroke-linecap:butt;stroke-linejoin:miter;stroke-miterlimit:4;stroke-opacity:1;stroke-dasharray:none"
             d="m -0.928966,891.7625 30.609908,114.2377"
             id="path5541"
             inkscape:connector-curvature="0" />
          <path
             inkscape:connector-curvature="0"
             id="path5543"
             d="m 1.071034,891.7625 30.609908,114.2377"
             style="fill:none;stroke:#ffffff;stroke-width:1.01765096;stroke-linecap:butt;stroke-linejoin:miter;stroke-miterlimit:4;stroke-opacity:1;stroke-dasharray:none" />
          <path
             style="fill:none;stroke:#ffffff;stroke-width:1.01765096;stroke-linecap:butt;stroke-linejoin:miter;stroke-miterlimit:4;stroke-opacity:1;stroke-dasharray:none"
             d="m 3.071034,891.7625 30.609908,114.2377"
             id="path5545"
             inkscape:connector-curvature="0" />
          <path
             inkscape:connector-curvature="0"
             id="path5547"
             d="m 5.071034,891.7625 30.609908,114.2377"
             style="fill:none;stroke:#ffffff;stroke-width:1.01765096;stroke-linecap:butt;stroke-linejoin:miter;stroke-miterlimit:4;stroke-opacity:1;stroke-dasharray:none" />
          <path
             style="fill:none;stroke:#ffffff;stroke-width:1.01765096;stroke-linecap:butt;stroke-linejoin:miter;stroke-miterlimit:4;stroke-opacity:1;stroke-dasharray:none"
             d="m 7.071034,891.7625 30.609908,114.2377"
             id="path5549"
             inkscape:connector-curvature="0" />
          <path
             inkscape:connector-curvature="0"
             id="path5551"
             d="m 9.071034,891.7625 30.609908,114.2377"
             style="fill:none;stroke:#ffffff;stroke-width:1.01765096;stroke-linecap:butt;stroke-linejoin:miter;stroke-miterlimit:4;stroke-opacity:1;stroke-dasharray:none" />
          <path
             style="fill:none;stroke:#ffffff;stroke-width:1.01765096;stroke-linecap:butt;stroke-linejoin:miter;stroke-miterlimit:4;stroke-opacity:1;stroke-dasharray:none"
             d="m 11.071034,891.7625 30.609908,114.2377"
             id="path5553"
             inkscape:connector-curvature="0" />
          <path
             inkscape:connector-curvature="0"
             id="path5555"
             d="m 13.071034,891.7625 30.609908,114.2377"
             style="fill:none;stroke:#ffffff;stroke-width:1.01765096;stroke-linecap:butt;stroke-linejoin:miter;stroke-miterlimit:4;stroke-opacity:1;stroke-dasharray:none" />
          <path
             style="fill:none;stroke:#ffffff;stroke-width:1.01765096;stroke-linecap:butt;stroke-linejoin:miter;stroke-miterlimit:4;stroke-opacity:1;stroke-dasharray:none"
             d="m 15.071034,891.7625 30.609908,114.2377"
             id="path5557"
             inkscape:connector-curvature="0" />
          <path
             inkscape:connector-curvature="0"
             id="path5559"
             d="m 17.071034,891.7625 30.609908,114.2377"
             style="fill:none;stroke:#ffffff;stroke-width:1.01765096;stroke-linecap:butt;stroke-linejoin:miter;stroke-miterlimit:4;stroke-opacity:1;stroke-dasharray:none" />
          <path
             style="fill:none;stroke:#ffffff;stroke-width:1.01765096;stroke-linecap:butt;stroke-linejoin:miter;stroke-miterlimit:4;stroke-opacity:1;stroke-dasharray:none"
             d="m 19.071034,891.7625 30.609908,114.2377"
             id="path5561"
             inkscape:connector-curvature="0" />
          <path
             inkscape:connector-curvature="0"
             id="path5563"
             d="m 21.071034,891.7625 30.609908,114.2377"
             style="fill:none;stroke:#ffffff;stroke-width:1.01765096;stroke-linecap:butt;stroke-linejoin:miter;stroke-miterlimit:4;stroke-opacity:1;stroke-dasharray:none" />
          <path
             style="fill:none;stroke:#ffffff;stroke-width:1.01765096;stroke-linecap:butt;stroke-linejoin:miter;stroke-miterlimit:4;stroke-opacity:1;stroke-dasharray:none"
             d="m 23.071034,891.7625 30.609908,114.2377"
             id="path5565"
             inkscape:connector-curvature="0" />
        </g>
        <g
           style="stroke-width:1.01765096;stroke-miterlimit:4;stroke-dasharray:none"
           id="g5567"
           transform="translate(196,0)">
          <path
             style="fill:none;stroke:#ffffff;stroke-width:1.01765096;stroke-linecap:butt;stroke-linejoin:miter;stroke-miterlimit:4;stroke-opacity:1;stroke-dasharray:none"
             d="M 15.556349,7.0395996 46.166257,121.27733"
             id="path5569"
             inkscape:connector-curvature="0"
             transform="translate(-18.485315,884.7229)" />
          <path
             inkscape:connector-curvature="0"
             id="path5571"
             d="m -0.928966,891.7625 30.609908,114.2377"
             style="fill:none;stroke:#ffffff;stroke-width:1.01765096;stroke-linecap:butt;stroke-linejoin:miter;stroke-miterlimit:4;stroke-opacity:1;stroke-dasharray:none" />
          <path
             style="fill:none;stroke:#ffffff;stroke-width:1.01765096;stroke-linecap:butt;stroke-linejoin:miter;stroke-miterlimit:4;stroke-opacity:1;stroke-dasharray:none"
             d="m 1.071034,891.7625 30.609908,114.2377"
             id="path5573"
             inkscape:connector-curvature="0" />
          <path
             inkscape:connector-curvature="0"
             id="path5575"
             d="m 3.071034,891.7625 30.609908,114.2377"
             style="fill:none;stroke:#ffffff;stroke-width:1.01765096;stroke-linecap:butt;stroke-linejoin:miter;stroke-miterlimit:4;stroke-opacity:1;stroke-dasharray:none" />
          <path
             style="fill:none;stroke:#ffffff;stroke-width:1.01765096;stroke-linecap:butt;stroke-linejoin:miter;stroke-miterlimit:4;stroke-opacity:1;stroke-dasharray:none"
             d="m 5.071034,891.7625 30.609908,114.2377"
             id="path5577"
             inkscape:connector-curvature="0" />
          <path
             inkscape:connector-curvature="0"
             id="path5579"
             d="m 7.071034,891.7625 30.609908,114.2377"
             style="fill:none;stroke:#ffffff;stroke-width:1.01765096;stroke-linecap:butt;stroke-linejoin:miter;stroke-miterlimit:4;stroke-opacity:1;stroke-dasharray:none" />
          <path
             style="fill:none;stroke:#ffffff;stroke-width:1.01765096;stroke-linecap:butt;stroke-linejoin:miter;stroke-miterlimit:4;stroke-opacity:1;stroke-dasharray:none"
             d="m 9.071034,891.7625 30.609908,114.2377"
             id="path5581"
             inkscape:connector-curvature="0" />
          <path
             inkscape:connector-curvature="0"
             id="path5583"
             d="m 11.071034,891.7625 30.609908,114.2377"
             style="fill:none;stroke:#ffffff;stroke-width:1.01765096;stroke-linecap:butt;stroke-linejoin:miter;stroke-miterlimit:4;stroke-opacity:1;stroke-dasharray:none" />
          <path
             style="fill:none;stroke:#ffffff;stroke-width:1.01765096;stroke-linecap:butt;stroke-linejoin:miter;stroke-miterlimit:4;stroke-opacity:1;stroke-dasharray:none"
             d="m 13.071034,891.7625 30.609908,114.2377"
             id="path5585"
             inkscape:connector-curvature="0" />
          <path
             inkscape:connector-curvature="0"
             id="path5587"
             d="m 15.071034,891.7625 30.609908,114.2377"
             style="fill:none;stroke:#ffffff;stroke-width:1.01765096;stroke-linecap:butt;stroke-linejoin:miter;stroke-miterlimit:4;stroke-opacity:1;stroke-dasharray:none" />
          <path
             style="fill:none;stroke:#ffffff;stroke-width:1.01765096;stroke-linecap:butt;stroke-linejoin:miter;stroke-miterlimit:4;stroke-opacity:1;stroke-dasharray:none"
             d="m 17.071034,891.7625 30.609908,114.2377"
             id="path5589"
             inkscape:connector-curvature="0" />
          <path
             inkscape:connector-curvature="0"
             id="path5591"
             d="m 19.071034,891.7625 30.609908,114.2377"
             style="fill:none;stroke:#ffffff;stroke-width:1.01765096;stroke-linecap:butt;stroke-linejoin:miter;stroke-miterlimit:4;stroke-opacity:1;stroke-dasharray:none" />
          <path
             style="fill:none;stroke:#ffffff;stroke-width:1.01765096;stroke-linecap:butt;stroke-linejoin:miter;stroke-miterlimit:4;stroke-opacity:1;stroke-dasharray:none"
             d="m 21.071034,891.7625 30.609908,114.2377"
             id="path5593"
             inkscape:connector-curvature="0" />
          <path
             inkscape:connector-curvature="0"
             id="path5595"
             d="m 23.071034,891.7625 30.609908,114.2377"
             style="fill:none;stroke:#ffffff;stroke-width:1.01765096;stroke-linecap:butt;stroke-linejoin:miter;stroke-miterlimit:4;stroke-opacity:1;stroke-dasharray:none" />
        </g>
        <g
           style="stroke-width:1.01765096;stroke-miterlimit:4;stroke-dasharray:none"
           transform="translate(224,0)"
           id="g5597">
          <path
             transform="translate(-18.485315,884.7229)"
             inkscape:connector-curvature="0"
             id="path5599"
             d="M 15.556349,7.0395996 46.166257,121.27733"
             style="fill:none;stroke:#ffffff;stroke-width:1.01765096;stroke-linecap:butt;stroke-linejoin:miter;stroke-miterlimit:4;stroke-opacity:1;stroke-dasharray:none" />
          <path
             style="fill:none;stroke:#ffffff;stroke-width:1.01765096;stroke-linecap:butt;stroke-linejoin:miter;stroke-miterlimit:4;stroke-opacity:1;stroke-dasharray:none"
             d="m -0.928966,891.7625 30.609908,114.2377"
             id="path5601"
             inkscape:connector-curvature="0" />
          <path
             inkscape:connector-curvature="0"
             id="path5603"
             d="m 1.071034,891.7625 30.609908,114.2377"
             style="fill:none;stroke:#ffffff;stroke-width:1.01765096;stroke-linecap:butt;stroke-linejoin:miter;stroke-miterlimit:4;stroke-opacity:1;stroke-dasharray:none" />
          <path
             style="fill:none;stroke:#ffffff;stroke-width:1.01765096;stroke-linecap:butt;stroke-linejoin:miter;stroke-miterlimit:4;stroke-opacity:1;stroke-dasharray:none"
             d="m 3.071034,891.7625 30.609908,114.2377"
             id="path5605"
             inkscape:connector-curvature="0" />
          <path
             inkscape:connector-curvature="0"
             id="path5607"
             d="m 5.071034,891.7625 30.609908,114.2377"
             style="fill:none;stroke:#ffffff;stroke-width:1.01765096;stroke-linecap:butt;stroke-linejoin:miter;stroke-miterlimit:4;stroke-opacity:1;stroke-dasharray:none" />
          <path
             style="fill:none;stroke:#ffffff;stroke-width:1.01765096;stroke-linecap:butt;stroke-linejoin:miter;stroke-miterlimit:4;stroke-opacity:1;stroke-dasharray:none"
             d="m 7.071034,891.7625 30.609908,114.2377"
             id="path5609"
             inkscape:connector-curvature="0" />
          <path
             inkscape:connector-curvature="0"
             id="path5611"
             d="m 9.071034,891.7625 30.609908,114.2377"
             style="fill:none;stroke:#ffffff;stroke-width:1.01765096;stroke-linecap:butt;stroke-linejoin:miter;stroke-miterlimit:4;stroke-opacity:1;stroke-dasharray:none" />
          <path
             style="fill:none;stroke:#ffffff;stroke-width:1.01765096;stroke-linecap:butt;stroke-linejoin:miter;stroke-miterlimit:4;stroke-opacity:1;stroke-dasharray:none"
             d="m 11.071034,891.7625 30.609908,114.2377"
             id="path5613"
             inkscape:connector-curvature="0" />
          <path
             inkscape:connector-curvature="0"
             id="path5615"
             d="m 13.071034,891.7625 30.609908,114.2377"
             style="fill:none;stroke:#ffffff;stroke-width:1.01765096;stroke-linecap:butt;stroke-linejoin:miter;stroke-miterlimit:4;stroke-opacity:1;stroke-dasharray:none" />
          <path
             style="fill:none;stroke:#ffffff;stroke-width:1.01765096;stroke-linecap:butt;stroke-linejoin:miter;stroke-miterlimit:4;stroke-opacity:1;stroke-dasharray:none"
             d="m 15.071034,891.7625 30.609908,114.2377"
             id="path5617"
             inkscape:connector-curvature="0" />
          <path
             inkscape:connector-curvature="0"
             id="path5619"
             d="m 17.071034,891.7625 30.609908,114.2377"
             style="fill:none;stroke:#ffffff;stroke-width:1.01765096;stroke-linecap:butt;stroke-linejoin:miter;stroke-miterlimit:4;stroke-opacity:1;stroke-dasharray:none" />
          <path
             style="fill:none;stroke:#ffffff;stroke-width:1.01765096;stroke-linecap:butt;stroke-linejoin:miter;stroke-miterlimit:4;stroke-opacity:1;stroke-dasharray:none"
             d="m 19.071034,891.7625 30.609908,114.2377"
             id="path5621"
             inkscape:connector-curvature="0" />
          <path
             inkscape:connector-curvature="0"
             id="path5623"
             d="m 21.071034,891.7625 30.609908,114.2377"
             style="fill:none;stroke:#ffffff;stroke-width:1.01765096;stroke-linecap:butt;stroke-linejoin:miter;stroke-miterlimit:4;stroke-opacity:1;stroke-dasharray:none" />
          <path
             style="fill:none;stroke:#ffffff;stroke-width:1.01765096;stroke-linecap:butt;stroke-linejoin:miter;stroke-miterlimit:4;stroke-opacity:1;stroke-dasharray:none"
             d="m 23.071034,891.7625 30.609908,114.2377"
             id="path5625"
             inkscape:connector-curvature="0" />
        </g>
        <g
           style="stroke-width:1.01765096;stroke-miterlimit:4;stroke-dasharray:none"
           id="g5627"
           transform="translate(-28,0)">
          <path
             style="fill:none;stroke:#ffffff;stroke-width:1.01765096;stroke-linecap:butt;stroke-linejoin:miter;stroke-miterlimit:4;stroke-opacity:1;stroke-dasharray:none"
             d="M 15.556349,7.0395996 46.166257,121.27733"
             id="path5629"
             inkscape:connector-curvature="0"
             transform="translate(-18.485315,884.7229)" />
          <path
             inkscape:connector-curvature="0"
             id="path5631"
             d="m -0.928966,891.7625 30.609908,114.2377"
             style="fill:none;stroke:#ffffff;stroke-width:1.01765096;stroke-linecap:butt;stroke-linejoin:miter;stroke-miterlimit:4;stroke-opacity:1;stroke-dasharray:none" />
          <path
             style="fill:none;stroke:#ffffff;stroke-width:1.01765096;stroke-linecap:butt;stroke-linejoin:miter;stroke-miterlimit:4;stroke-opacity:1;stroke-dasharray:none"
             d="m 1.071034,891.7625 30.609908,114.2377"
             id="path5633"
             inkscape:connector-curvature="0" />
          <path
             inkscape:connector-curvature="0"
             id="path5635"
             d="m 3.071034,891.7625 30.609908,114.2377"
             style="fill:none;stroke:#ffffff;stroke-width:1.01765096;stroke-linecap:butt;stroke-linejoin:miter;stroke-miterlimit:4;stroke-opacity:1;stroke-dasharray:none" />
          <path
             style="fill:none;stroke:#ffffff;stroke-width:1.01765096;stroke-linecap:butt;stroke-linejoin:miter;stroke-miterlimit:4;stroke-opacity:1;stroke-dasharray:none"
             d="m 5.071034,891.7625 30.609908,114.2377"
             id="path5637"
             inkscape:connector-curvature="0" />
          <path
             inkscape:connector-curvature="0"
             id="path5639"
             d="m 7.071034,891.7625 30.609908,114.2377"
             style="fill:none;stroke:#ffffff;stroke-width:1.01765096;stroke-linecap:butt;stroke-linejoin:miter;stroke-miterlimit:4;stroke-opacity:1;stroke-dasharray:none" />
          <path
             style="fill:none;stroke:#ffffff;stroke-width:1.01765096;stroke-linecap:butt;stroke-linejoin:miter;stroke-miterlimit:4;stroke-opacity:1;stroke-dasharray:none"
             d="m 9.071034,891.7625 30.609908,114.2377"
             id="path5641"
             inkscape:connector-curvature="0" />
          <path
             inkscape:connector-curvature="0"
             id="path5643"
             d="m 11.071034,891.7625 30.609908,114.2377"
             style="fill:none;stroke:#ffffff;stroke-width:1.01765096;stroke-linecap:butt;stroke-linejoin:miter;stroke-miterlimit:4;stroke-opacity:1;stroke-dasharray:none" />
          <path
             style="fill:none;stroke:#ffffff;stroke-width:1.01765096;stroke-linecap:butt;stroke-linejoin:miter;stroke-miterlimit:4;stroke-opacity:1;stroke-dasharray:none"
             d="m 13.071034,891.7625 30.609908,114.2377"
             id="path5645"
             inkscape:connector-curvature="0" />
          <path
             inkscape:connector-curvature="0"
             id="path5647"
             d="m 15.071034,891.7625 30.609908,114.2377"
             style="fill:none;stroke:#ffffff;stroke-width:1.01765096;stroke-linecap:butt;stroke-linejoin:miter;stroke-miterlimit:4;stroke-opacity:1;stroke-dasharray:none" />
          <path
             style="fill:none;stroke:#ffffff;stroke-width:1.01765096;stroke-linecap:butt;stroke-linejoin:miter;stroke-miterlimit:4;stroke-opacity:1;stroke-dasharray:none"
             d="m 17.071034,891.7625 30.609908,114.2377"
             id="path5649"
             inkscape:connector-curvature="0" />
          <path
             inkscape:connector-curvature="0"
             id="path5651"
             d="m 19.071034,891.7625 30.609908,114.2377"
             style="fill:none;stroke:#ffffff;stroke-width:1.01765096;stroke-linecap:butt;stroke-linejoin:miter;stroke-miterlimit:4;stroke-opacity:1;stroke-dasharray:none" />
          <path
             style="fill:none;stroke:#ffffff;stroke-width:1.01765096;stroke-linecap:butt;stroke-linejoin:miter;stroke-miterlimit:4;stroke-opacity:1;stroke-dasharray:none"
             d="m 21.071034,891.7625 30.609908,114.2377"
             id="path5653"
             inkscape:connector-curvature="0" />
          <path
             inkscape:connector-curvature="0"
             id="path5655"
             d="m 23.071034,891.7625 30.609908,114.2377"
             style="fill:none;stroke:#ffffff;stroke-width:1.01765096;stroke-linecap:butt;stroke-linejoin:miter;stroke-miterlimit:4;stroke-opacity:1;stroke-dasharray:none" />
        </g>
      </g>
      <rect
         y="890.34827"
         x="-1.514753"
         height="7.0710683"
         width="254.55844"
         id="rect5341"
         style="fill:#ffffff;fill-opacity:1;stroke:none" />
    </g>
    <path
       inkscape:connector-curvature="0"
       id="path3278"
       d="m -11.70382,973.8767 172.97793,0.2764 0.64691,-43.38905 c 11.34277,9.89059 21.53251,8.58208 30.47981,0.5516 l 0.34206,42.56105 37.93435,0"
       style="fill:none;stroke:#d6d2c4;stroke-width:1.6722852;stroke-linecap:butt;stroke-linejoin:miter;stroke-miterlimit:4;stroke-opacity:1;stroke-dasharray:none"
       sodipodi:nodetypes="cccccc" />
    <path
       style="fill:none;stroke:#000000;stroke-width:1px;stroke-linecap:butt;stroke-linejoin:miter;stroke-opacity:1"
       d="m -12.021408,974.0408 242.759088,0"
       id="path3818"
       inkscape:connector-curvature="0" />
    <path
       sodipodi:type="arc"
       style="fill:#333f48;fill-opacity:1;stroke:#d6d2c4;stroke-width:2;stroke-linecap:round;stroke-linejoin:round;stroke-miterlimit:4;stroke-opacity:1;stroke-dasharray:none;stroke-dashoffset:0"
       id="path4186"
       sodipodi:cx="161"
       sodipodi:cy="-42.540771"
       sodipodi:rx="3.5"
       sodipodi:ry="3.5"
       d="m 164.5,-42.540771 c 0,1.932996 -1.567,3.5 -3.5,3.5 -1.933,0 -3.5,-1.567004 -3.5,-3.5 0,-1.932997 1.567,-3.5 3.5,-3.5 1.933,0 3.5,1.567003 3.5,3.5 z"
       transform="matrix(1.25,0,0,1.25,30.31767,1026.7305)" />
    <text
       xml:space="preserve"
       style="font-size:18px;font-style:normal;font-variant:normal;font-weight:bold;font-stretch:normal;line-height:125%;letter-spacing:0px;word-spacing:0px;fill:#000000;fill-opacity:1;stroke:none;font-family:Asana Math;-inkscape-font-specification:Asana Math"
       x="-9.5040913"
       y="996.67328"
       id="text4486"
       sodipodi:linespacing="125%"><tspan
         sodipodi:role="line"
         id="tspan4488"
         x="-9.5040913"
         y="996.67328"
         style="font-style:italic;font-variant:normal;font-weight:normal;font-stretch:normal;font-family:Latin Modern Math;-inkscape-font-specification:Latin Modern Math Italic">ξ</tspan></text>
    <g
       style="fill:#bf5700;stroke:#bf5700;stroke-width:0.5;stroke-miterlimit:4;stroke-dasharray:none"
       transform="matrix(-4.9009641,0,0,-5.1311207,95.93339,5764.5952)"
       id="g4516">
      <path
         sodipodi:nodetypes="ccccc"
         style="fill:#000000;fill-opacity:1;stroke:#000000;stroke-width:0.02856796;stroke-linecap:round;stroke-linejoin:round;stroke-miterlimit:4;stroke-opacity:1;stroke-dasharray:none"
         d="m 19.149282,930.37535 -3.6e-5,-0.14374 -3.972266,0.003 2.323066,0.62247 -0.553542,-0.46183"
         id="path4494"
         inkscape:connector-curvature="0" />
      <path
         inkscape:connector-curvature="0"
         id="path4514"
         d="m 19.152404,930.0898 -3.6e-5,0.14385 -3.975374,-0.003 2.324883,-0.62296 -0.553975,0.4622"
         style="fill:#000000;fill-opacity:1;stroke:#000000;stroke-width:0.02859031;stroke-linecap:round;stroke-linejoin:round;stroke-miterlimit:4;stroke-opacity:1;stroke-dasharray:none"
         sodipodi:nodetypes="ccccc" />
    </g>
    <g
       style="fill:#bf5700;stroke:#bf5700;stroke-width:0.5;stroke-miterlimit:4;stroke-dasharray:none"
       transform="matrix(0,4.9009639,-5.1311208,0,4759.7021,843.30583)"
       id="g4526">
      <path
         sodipodi:nodetypes="ccccc"
         style="fill:#000000;fill-opacity:1;stroke:#000000;stroke-width:0.02856796;stroke-linecap:round;stroke-linejoin:round;stroke-miterlimit:4;stroke-opacity:1;stroke-dasharray:none"
         d="m 19.149282,930.37535 -3.6e-5,-0.14374 -3.972266,0.003 2.323066,0.62247 -0.553542,-0.46183"
         id="path4528"
         inkscape:connector-curvature="0" />
      <path
         inkscape:connector-curvature="0"
         id="path4530"
         d="m 19.152404,930.0898 -3.6e-5,0.14385 -3.975374,-0.003 2.324883,-0.62296 -0.553975,0.4622"
         style="fill:#000000;fill-opacity:1;stroke:#000000;stroke-width:0.02859031;stroke-linecap:round;stroke-linejoin:round;stroke-miterlimit:4;stroke-opacity:1;stroke-dasharray:none"
         sodipodi:nodetypes="ccccc" />
    </g>
    <path
       transform="matrix(1.25,0,0,1.25,-212.84256,1026.9846)"
       d="m 164.5,-42.540771 c 0,1.932996 -1.567,3.5 -3.5,3.5 -1.933,0 -3.5,-1.567004 -3.5,-3.5 0,-1.932997 1.567,-3.5 3.5,-3.5 1.933,0 3.5,1.567003 3.5,3.5 z"
       sodipodi:ry="3.5"
       sodipodi:rx="3.5"
       sodipodi:cy="-42.540771"
       sodipodi:cx="161"
       id="path4188"
       style="fill:#333f48;fill-opacity:1;stroke:#d6d2c4;stroke-width:2;stroke-linecap:round;stroke-linejoin:round;stroke-miterlimit:4;stroke-opacity:1;stroke-dasharray:none;stroke-dashoffset:0"
       sodipodi:type="arc" />
    <g
       id="g4196"
       transform="matrix(0,1,-1,0,934.76222,971.02565)">
      <text
         transform="matrix(0,-1,1,0,0,0)"
         xml:space="preserve"
         style="font-size:18px;font-style:normal;font-variant:normal;font-weight:bold;font-stretch:normal;line-height:125%;letter-spacing:0px;word-spacing:0px;fill:#000000;fill-opacity:1;stroke:none;font-family:Times New Roman;-inkscape-font-specification:Times New Roman"
         x="-953.4881"
         y="-12.645006"
         id="text4190"
         sodipodi:linespacing="125%"><tspan
           sodipodi:role="line"
           id="tspan4192"
           x="-953.4881"
           y="-12.645006"
           style="font-style:italic;font-variant:normal;font-weight:normal;font-stretch:normal;font-family:Latin Modern Math;-inkscape-font-specification:Latin Modern Math Italic">ξ</tspan></text>
      <path
         transform="matrix(0.20208877,0,0,0.20208877,-60.002401,955.90182)"
         d="m 164.5,-42.540771 a 3.5,3.5 0 1 1 -7,0 3.5,3.5 0 1 1 7,0 z"
         sodipodi:ry="3.5"
         sodipodi:rx="3.5"
         sodipodi:cy="-42.540771"
         sodipodi:cx="161"
         id="path4194"
         style="fill:#000000;fill-opacity:1;stroke:#000000;stroke-width:2;stroke-linecap:round;stroke-linejoin:round;stroke-miterlimit:4;stroke-opacity:1;stroke-dasharray:none;stroke-dashoffset:0"
         sodipodi:type="arc" />
    </g>
    <g
       id="g3283"
       transform="translate(-52.503563,58.389223)">
      <g
         transform="matrix(0.99988755,0.01499612,-0.01499612,0.99988755,7.148683,5.1670813)"
         id="g6103"
         style="stroke:#333f48">
        <path
           inkscape:connector-curvature="0"
           id="path6083"
           d="M 66.468037,24.894046 93.105228,24.645591"
           style="fill:none;stroke:#333f48;stroke-width:4.6062994;stroke-linecap:butt;stroke-linejoin:round;stroke-miterlimit:4;stroke-opacity:1;stroke-dasharray:4.60629921, 4.60629921;stroke-dashoffset:0"
           transform="translate(-18.485315,884.7229)"
           sodipodi:nodetypes="cc" />
        <path
           style="fill:none;stroke:#333f48;stroke-width:1.77165353;stroke-linecap:square;stroke-linejoin:miter;stroke-miterlimit:4;stroke-opacity:1;stroke-dasharray:none;stroke-dashoffset:0"
           d="m 66.468037,24.894046 26.913579,-0.2526"
           id="path3873"
           inkscape:connector-curvature="0"
           transform="translate(-18.485315,884.7229)"
           sodipodi:nodetypes="cc" />
      </g>
      <text
         xml:space="preserve"
         style="font-size:14px;font-style:italic;font-variant:normal;font-weight:normal;font-stretch:normal;line-height:125%;letter-spacing:0px;word-spacing:0px;fill:#333f48;fill-opacity:1;stroke:#000000;stroke-width:0.25;stroke-miterlimit:4;stroke-dasharray:none;font-family:Latin Modern Math;-inkscape-font-specification:Latin Modern Math Italic"
         x="46.278111"
         y="905.73132"
         id="text3224"
         sodipodi:linespacing="125%"><tspan
           sodipodi:role="line"
           id="tspan3226"
           x="46.278111"
           y="905.73132"
           style="font-size:14px;font-style:italic;font-variant:normal;font-weight:normal;font-stretch:normal;fill:#333f48;font-family:Latin Modern Math;-inkscape-font-specification:Latin Modern Math Italic">QSF</tspan></text>
      <path
         transform="matrix(1.5,0,0,1.5,-442.10207,845.29897)"
         d="m 342.94678,46.737251 c 0,1.269204 -1.02889,2.298097 -2.2981,2.298097 -1.2692,0 -2.2981,-1.028893 -2.2981,-2.298097 0,-1.269204 1.0289,-2.298097 2.2981,-2.298097 1.26921,0 2.2981,1.028893 2.2981,2.298097 z"
         sodipodi:ry="2.2980971"
         sodipodi:rx="2.2980971"
         sodipodi:cy="46.737251"
         sodipodi:cx="340.64868"
         id="path3567-5"
         style="fill:#005f86;fill-opacity:1;stroke:#333f48;stroke-width:2;stroke-linecap:round;stroke-linejoin:round;stroke-miterlimit:4;stroke-opacity:1;stroke-dasharray:none;stroke-dashoffset:0"
         sodipodi:type="arc" />
    </g>
    <g
       id="g3307"
       transform="translate(-101.52763,21.348991)">
      <g
         transform="translate(-6,6)"
         id="g6839">
        <path
           style="fill:none;stroke:#005f86;stroke-width:4.125;stroke-linecap:round;stroke-linejoin:round;stroke-miterlimit:4;stroke-opacity:1;stroke-dasharray:none"
           d="m 124.27242,946.49811 c 7.72982,0.76913 16.20297,-22.99949 32.79729,0.55282"
           id="path4334"
           inkscape:connector-curvature="0"
           sodipodi:nodetypes="cc" />
        <path
           sodipodi:type="arc"
           style="fill:#43695b;fill-opacity:1;stroke:#005f86;stroke-width:2;stroke-linecap:round;stroke-linejoin:round;stroke-miterlimit:4;stroke-opacity:1;stroke-dasharray:none;stroke-dashoffset:0"
           id="path3353"
           sodipodi:cx="340.64868"
           sodipodi:cy="46.737251"
           sodipodi:rx="2.2980971"
           sodipodi:ry="2.2980971"
           d="m 342.94678,46.737251 c 0,1.269204 -1.02889,2.298097 -2.2981,2.298097 -1.2692,0 -2.2981,-1.028893 -2.2981,-2.298097 0,-1.269204 1.0289,-2.298097 2.2981,-2.298097 1.26921,0 2.2981,1.028893 2.2981,2.298097 z"
           transform="matrix(1.5,0,0,1.5,-353.59401,876.65295)" />
        <path
           transform="matrix(1.232002,0,0,1.232002,-285.27492,882.25285)"
           d="m 342.94678,46.737251 c 0,1.269204 -1.02889,2.298097 -2.2981,2.298097 -1.2692,0 -2.2981,-1.028893 -2.2981,-2.298097 0,-1.269204 1.0289,-2.298097 2.2981,-2.298097 1.26921,0 2.2981,1.028893 2.2981,2.298097 z"
           sodipodi:ry="2.2980971"
           sodipodi:rx="2.2980971"
           sodipodi:cy="46.737251"
           sodipodi:cx="340.64868"
           id="path3093"
           style="fill:#ffffff;fill-opacity:1;stroke:#005f86;stroke-width:2;stroke-linecap:round;stroke-linejoin:round;stroke-miterlimit:4;stroke-opacity:1;stroke-dasharray:none;stroke-dashoffset:0"
           sodipodi:type="arc" />
        <path
           sodipodi:type="arc"
           style="fill:#ffffff;fill-opacity:1;stroke:#005f86;stroke-width:2;stroke-linecap:round;stroke-linejoin:round;stroke-miterlimit:4;stroke-opacity:1;stroke-dasharray:none;stroke-dashoffset:0"
           id="path3095"
           sodipodi:cx="340.64868"
           sodipodi:cy="46.737251"
           sodipodi:rx="2.2980971"
           sodipodi:ry="2.2980971"
           d="m 342.94678,46.737251 c 0,1.269204 -1.02889,2.298097 -2.2981,2.298097 -1.2692,0 -2.2981,-1.028893 -2.2981,-2.298097 0,-1.269204 1.0289,-2.298097 2.2981,-2.298097 1.26921,0 2.2981,1.028893 2.2981,2.298097 z"
           transform="matrix(1.232002,0,0,1.232002,-271.06626,880.74861)" />
      </g>
      <text
         sodipodi:linespacing="125%"
         id="text3228"
         y="938.39392"
         x="126.86326"
         style="font-size:14px;font-style:italic;font-variant:normal;font-weight:normal;font-stretch:normal;line-height:125%;letter-spacing:0px;word-spacing:0px;fill:#005f86;fill-opacity:1;stroke:#000000;stroke-width:0.25;stroke-miterlimit:4;stroke-dasharray:none;font-family:Latin Modern Math;-inkscape-font-specification:Latin Modern Math Italic"
         xml:space="preserve"><tspan
           style="font-size:14px;font-style:italic;font-variant:normal;font-weight:normal;font-stretch:normal;fill:#005f86;font-family:Latin Modern Math;-inkscape-font-specification:Latin Modern Math Italic"
           y="938.39392"
           x="126.86326"
           id="tspan3230"
           sodipodi:role="line">DF</tspan></text>
      <g
         id="g3593"
         transform="translate(-6,6)">
        <path
           transform="matrix(1.5,0,0,1.5,-353.59401,876.65295)"
           d="m 342.94678,46.737251 c 0,1.269204 -1.02889,2.298097 -2.2981,2.298097 -1.2692,0 -2.2981,-1.028893 -2.2981,-2.298097 0,-1.269204 1.0289,-2.298097 2.2981,-2.298097 1.26921,0 2.2981,1.028893 2.2981,2.298097 z"
           sodipodi:ry="2.2980971"
           sodipodi:rx="2.2980971"
           sodipodi:cy="46.737251"
           sodipodi:cx="340.64868"
           id="path3597"
           style="fill:#333f48;fill-opacity:1;stroke:#005f86;stroke-width:2;stroke-linecap:round;stroke-linejoin:round;stroke-miterlimit:4;stroke-opacity:1;stroke-dasharray:none;stroke-dashoffset:0"
           sodipodi:type="arc" />
        <path
           sodipodi:type="arc"
           style="fill:#ffffff;fill-opacity:1;stroke:#005f86;stroke-width:2;stroke-linecap:round;stroke-linejoin:round;stroke-miterlimit:4;stroke-opacity:1;stroke-dasharray:none;stroke-dashoffset:0"
           id="path3599"
           sodipodi:cx="340.64868"
           sodipodi:cy="46.737251"
           sodipodi:rx="2.2980971"
           sodipodi:ry="2.2980971"
           d="m 342.94678,46.737251 c 0,1.269204 -1.02889,2.298097 -2.2981,2.298097 -1.2692,0 -2.2981,-1.028893 -2.2981,-2.298097 0,-1.269204 1.0289,-2.298097 2.2981,-2.298097 1.26921,0 2.2981,1.028893 2.2981,2.298097 z"
           transform="matrix(1.232002,0,0,1.232002,-285.27492,882.25285)" />
        <path
           transform="matrix(1.232002,0,0,1.232002,-271.06626,880.74861)"
           d="m 342.94678,46.737251 c 0,1.269204 -1.02889,2.298097 -2.2981,2.298097 -1.2692,0 -2.2981,-1.028893 -2.2981,-2.298097 0,-1.269204 1.0289,-2.298097 2.2981,-2.298097 1.26921,0 2.2981,1.028893 2.2981,2.298097 z"
           sodipodi:ry="2.2980971"
           sodipodi:rx="2.2980971"
           sodipodi:cy="46.737251"
           sodipodi:cx="340.64868"
           id="path3601"
           style="fill:#ffffff;fill-opacity:1;stroke:#005f86;stroke-width:2;stroke-linecap:round;stroke-linejoin:round;stroke-miterlimit:4;stroke-opacity:1;stroke-dasharray:none;stroke-dashoffset:0"
           sodipodi:type="arc" />
      </g>
    </g>
    <g
       transform="translate(10.42233,58.942062)"
       id="g3545">
      <g
         id="g3547"
         transform="matrix(0.99988755,0.01499612,-0.01499612,0.99988755,7.148683,5.1670813)"
         style="stroke:#333f48">
        <path
           transform="translate(-18.485315,884.7229)"
           style="fill:none;stroke:#333f48;stroke-width:4.6062994;stroke-linecap:butt;stroke-linejoin:round;stroke-miterlimit:4;stroke-opacity:1;stroke-dasharray:4.60629921, 4.60629921;stroke-dashoffset:0"
           d="M 66.468037,24.894046 88.406623,24.716059"
           id="path3549"
           inkscape:connector-curvature="0"
           sodipodi:nodetypes="cc" />
        <path
           transform="translate(-18.485315,884.7229)"
           inkscape:connector-curvature="0"
           id="path3551"
           d="M 66.468037,24.894046 87.715651,24.726422"
           style="fill:none;stroke:#333f48;stroke-width:1.77165353;stroke-linecap:square;stroke-linejoin:miter;stroke-miterlimit:4;stroke-opacity:1;stroke-dasharray:none;stroke-dashoffset:0"
           sodipodi:nodetypes="cc" />
        <path
           sodipodi:type="arc"
           style="fill:#ffffff;fill-opacity:1;stroke:#333f48;stroke-width:2;stroke-linecap:round;stroke-linejoin:round;stroke-miterlimit:4;stroke-opacity:1;stroke-dasharray:none;stroke-dashoffset:0"
           id="path3553"
           sodipodi:cx="340.64868"
           sodipodi:cy="46.737251"
           sodipodi:rx="2.2980971"
           sodipodi:ry="2.2980971"
           d="m 342.94678,46.737251 c 0,1.269204 -1.02889,2.298097 -2.2981,2.298097 -1.2692,0 -2.2981,-1.028893 -2.2981,-2.298097 0,-1.269204 1.0289,-2.298097 2.2981,-2.298097 1.26921,0 2.2981,1.028893 2.2981,2.298097 z"
           transform="matrix(1.232002,0,0,1.232002,-360.78613,852.03725)" />
      </g>
      <text
         sodipodi:linespacing="125%"
         id="text3555"
         y="906.37128"
         x="37.369709"
         style="font-size:14px;font-style:italic;font-variant:normal;font-weight:normal;font-stretch:normal;line-height:125%;letter-spacing:0px;word-spacing:0px;fill:#333f48;fill-opacity:1;stroke:#000000;stroke-width:0.25;stroke-miterlimit:4;stroke-dasharray:none;font-family:Latin Modern Math;-inkscape-font-specification:Latin Modern Math Italic"
         xml:space="preserve"><tspan
           style="font-size:14px;font-style:italic;font-variant:normal;font-weight:normal;font-stretch:normal;fill:#333f48;font-family:Latin Modern Math;-inkscape-font-specification:Latin Modern Math Italic"
           y="906.37128"
           x="37.369709"
           id="tspan3557"
           sodipodi:role="line">QSF</tspan></text>
      <path
         transform="matrix(1.5,0,0,1.5,-446.84929,845.31228)"
         d="m 342.94678,46.737251 c 0,1.269204 -1.02889,2.298097 -2.2981,2.298097 -1.2692,0 -2.2981,-1.028893 -2.2981,-2.298097 0,-1.269204 1.0289,-2.298097 2.2981,-2.298097 1.26921,0 2.2981,1.028893 2.2981,2.298097 z"
         sodipodi:ry="2.2980971"
         sodipodi:rx="2.2980971"
         sodipodi:cy="46.737251"
         sodipodi:cx="340.64868"
         id="path3567-5-2"
         style="fill:#005f86;fill-opacity:1;stroke:#333f48;stroke-width:2;stroke-linecap:round;stroke-linejoin:round;stroke-miterlimit:4;stroke-opacity:1;stroke-dasharray:none;stroke-dashoffset:0"
         sodipodi:type="arc" />
    </g>
    <g
       transform="translate(-44.049127,21.739907)"
       id="g3561">
      <g
         id="g3563"
         transform="translate(-6,6)">
        <path
           sodipodi:nodetypes="csc"
           inkscape:connector-curvature="0"
           id="path3565"
           d="m 124.27242,946.49811 c 5.39221,0.0198 13.23823,-43.55317 20.42848,-44.74672 4.34618,-0.72145 7.58445,35.25269 12.36881,45.29954"
           style="fill:none;stroke:#005f86;stroke-width:4.125;stroke-linecap:round;stroke-linejoin:round;stroke-miterlimit:4;stroke-opacity:1;stroke-dasharray:none" />
        <path
           transform="matrix(1.5,0,0,1.5,-353.59401,876.65295)"
           d="m 342.94678,46.737251 c 0,1.269204 -1.02889,2.298097 -2.2981,2.298097 -1.2692,0 -2.2981,-1.028893 -2.2981,-2.298097 0,-1.269204 1.0289,-2.298097 2.2981,-2.298097 1.26921,0 2.2981,1.028893 2.2981,2.298097 z"
           sodipodi:ry="2.2980971"
           sodipodi:rx="2.2980971"
           sodipodi:cy="46.737251"
           sodipodi:cx="340.64868"
           id="path3567"
           style="fill:#ffffff;fill-opacity:1;stroke:#005f86;stroke-width:2;stroke-linecap:round;stroke-linejoin:round;stroke-miterlimit:4;stroke-opacity:1;stroke-dasharray:none;stroke-dashoffset:0"
           sodipodi:type="arc" />
        <path
           sodipodi:type="arc"
           style="fill:#ffffff;fill-opacity:1;stroke:#005f86;stroke-width:2;stroke-linecap:round;stroke-linejoin:round;stroke-miterlimit:4;stroke-opacity:1;stroke-dasharray:none;stroke-dashoffset:0"
           id="path3569"
           sodipodi:cx="340.64868"
           sodipodi:cy="46.737251"
           sodipodi:rx="2.2980971"
           sodipodi:ry="2.2980971"
           d="m 342.94678,46.737251 c 0,1.269204 -1.02889,2.298097 -2.2981,2.298097 -1.2692,0 -2.2981,-1.028893 -2.2981,-2.298097 0,-1.269204 1.0289,-2.298097 2.2981,-2.298097 1.26921,0 2.2981,1.028893 2.2981,2.298097 z"
           transform="matrix(1.232002,0,0,1.232002,-283.89282,859.86286)" />
      </g>
      <text
         xml:space="preserve"
         style="font-size:14px;font-style:italic;font-variant:normal;font-weight:normal;font-stretch:normal;line-height:125%;letter-spacing:0px;word-spacing:0px;fill:#005f86;fill-opacity:1;stroke:#000000;stroke-width:0.25;stroke-miterlimit:4;stroke-dasharray:none;font-family:Latin Modern Math;-inkscape-font-specification:Latin Modern Math Italic"
         x="129.40422"
         y="903.60236"
         id="text3573"
         sodipodi:linespacing="125%"><tspan
           sodipodi:role="line"
           id="tspan3575"
           x="129.40422"
           y="903.60236"
           style="font-size:14px;font-style:italic;font-variant:normal;font-weight:normal;font-stretch:normal;fill:#005f86;font-family:Latin Modern Math;-inkscape-font-specification:Latin Modern Math Italic">DF</tspan></text>
    </g>
    <g
       id="g3300"
       transform="translate(-26.422548,58.888065)">
      <g
         transform="translate(-6,6)"
         id="g6855">
        <path
           style="fill:none;stroke:#f2a900;stroke-width:3.54330707;stroke-linecap:round;stroke-linejoin:miter;stroke-miterlimit:4;stroke-opacity:1;stroke-dasharray:3.54330707, 3.54330707;stroke-dashoffset:0"
           d="m 139.96072,909.43115 27.08993,0.0376"
           id="path3072"
           inkscape:connector-curvature="0"
           sodipodi:nodetypes="cc" />
        <path
           transform="matrix(1.9015273,0,0,1.9015273,-139.23198,990.09788)"
           d="m 164.5,-42.540771 c 0,1.932996 -1.567,3.5 -3.5,3.5 -1.933,0 -3.5,-1.567004 -3.5,-3.5 0,-1.932997 1.567,-3.5 3.5,-3.5 1.933,0 3.5,1.567003 3.5,3.5 z"
           sodipodi:ry="3.5"
           sodipodi:rx="3.5"
           sodipodi:cy="-42.540771"
           sodipodi:cx="161"
           id="path4066"
           style="fill:#005f86;fill-opacity:1;stroke:#f2a900;stroke-width:2;stroke-linecap:round;stroke-linejoin:round;stroke-miterlimit:4;stroke-opacity:1;stroke-dasharray:none;stroke-dashoffset:0"
           sodipodi:type="arc" />
      </g>
      <text
         xml:space="preserve"
         style="font-size:14px;font-style:italic;font-variant:normal;font-weight:normal;font-stretch:normal;line-height:125%;letter-spacing:0px;word-spacing:0px;fill:#f2a900;fill-opacity:1;stroke:#000000;stroke-width:0.25;stroke-miterlimit:4;stroke-dasharray:none;font-family:Latin Modern Math;-inkscape-font-specification:Latin Modern Math Italic"
         x="136.08046"
         y="929.79474"
         id="text3232"
         sodipodi:linespacing="125%"><tspan
           sodipodi:role="line"
           id="tspan3234"
           x="136.08046"
           y="929.79474"
           style="font-size:14px;font-style:italic;font-variant:normal;font-weight:normal;font-stretch:normal;fill:#f2a900;font-family:Latin Modern Math;-inkscape-font-specification:Latin Modern Math Italic">SA</tspan></text>
    </g>
    <g
       id="g3329"
       transform="matrix(-1,0,0,-1,325.58198,1887.8936)">
      <g
         transform="translate(-6,6)"
         id="g6834">
        <path
           style="fill:none;stroke:#bf5700;stroke-width:3.54330707;stroke-linecap:round;stroke-linejoin:round;stroke-miterlimit:4;stroke-opacity:1;stroke-dasharray:7.08661417, 3.54330709, 1.77165354, 3.54330709;stroke-dashoffset:0"
           d="m 231.27903,933.89773 c -6.30252,10.4266 -13.85175,16.32967 -17.91541,16.72059 -2.5,0 -10.39487,-17.24332 -15.89487,-41.24332"
           id="path3440"
           inkscape:connector-curvature="0"
           sodipodi:nodetypes="ccc" />
        <path
           transform="matrix(1.232002,0,0,1.232002,-206.06239,892.31399)"
           d="m 342.94678,46.737251 c 0,1.269204 -1.02889,2.298097 -2.2981,2.298097 -1.2692,0 -2.2981,-1.028893 -2.2981,-2.298097 0,-1.269204 1.0289,-2.298097 2.2981,-2.298097 1.26921,0 2.2981,1.028893 2.2981,2.298097 z"
           sodipodi:ry="2.2980971"
           sodipodi:rx="2.2980971"
           sodipodi:cy="46.737251"
           sodipodi:cx="340.64868"
           id="path3097"
           style="fill:#ffffff;fill-opacity:1;stroke:#bf5700;stroke-width:2;stroke-linecap:round;stroke-linejoin:round;stroke-miterlimit:4;stroke-opacity:1;stroke-dasharray:none;stroke-dashoffset:0"
           sodipodi:type="arc" />
        <path
           transform="matrix(1.5,0,0,1.5,-279.86116,864.62478)"
           d="m 342.94678,46.737251 c 0,1.269204 -1.02889,2.298097 -2.2981,2.298097 -1.2692,0 -2.2981,-1.028893 -2.2981,-2.298097 0,-1.269204 1.0289,-2.298097 2.2981,-2.298097 1.26921,0 2.2981,1.028893 2.2981,2.298097 z"
           sodipodi:ry="2.2980971"
           sodipodi:rx="2.2980971"
           sodipodi:cy="46.737251"
           sodipodi:cx="340.64868"
           id="path6134"
           style="fill:#333f48;fill-opacity:1;stroke:#bf5700;stroke-width:2;stroke-linecap:round;stroke-linejoin:round;stroke-miterlimit:4;stroke-opacity:1;stroke-dasharray:none;stroke-dashoffset:0"
           sodipodi:type="arc" />
      </g>
      <text
         xml:space="preserve"
         style="font-size:14px;font-style:italic;font-variant:normal;font-weight:normal;font-stretch:normal;line-height:125%;letter-spacing:0px;word-spacing:0px;fill:#bf5700;fill-opacity:1;stroke:#000000;stroke-width:0.25;stroke-miterlimit:4;stroke-dasharray:none;font-family:Latin Modern Math;-inkscape-font-specification:Latin Modern Math Italic"
         x="-213.44182"
         y="-962.2771"
         id="text3240"
         sodipodi:linespacing="125%"
         transform="scale(-1,-1)"><tspan
           sodipodi:role="line"
           id="tspan3242"
           x="-213.44182"
           y="-962.2771"
           style="font-size:14px;font-style:italic;font-variant:normal;font-weight:normal;font-stretch:normal;font-family:Latin Modern Math;-inkscape-font-specification:Latin Modern Math Italic">AB</tspan></text>
    </g>
    <g
       id="g3316"
       transform="translate(-43.73975,58.665643)">
      <g
         transform="translate(-6,6)"
         id="g6845">
        <g
           id="g6118"
           style="stroke:#333f48">
          <path
             transform="translate(-18.485315,884.7229)"
             style="fill:none;stroke:#333f48;stroke-width:4.6062994;stroke-linecap:butt;stroke-linejoin:round;stroke-miterlimit:4;stroke-opacity:1;stroke-dasharray:4.60629921, 4.60629921;stroke-dashoffset:0"
             d="m 203.1875,24.847626 26.64028,0"
             id="path6087"
             inkscape:connector-curvature="0"
             sodipodi:nodetypes="cc" />
          <path
             transform="translate(-18.485315,884.7229)"
             inkscape:connector-curvature="0"
             id="path6081"
             d="m 203.1875,24.847626 25.95866,-0.253724"
             style="fill:none;stroke:#333f48;stroke-width:1.77165353;stroke-linecap:square;stroke-linejoin:miter;stroke-miterlimit:4;stroke-opacity:1;stroke-dasharray:none;stroke-dashoffset:0"
             sodipodi:nodetypes="cc" />
        </g>
        <path
           transform="matrix(0.79855758,0,0,0.79855758,-87.616828,872.34411)"
           d="m 342.94678,46.737251 c 0,1.269204 -1.02889,2.298097 -2.2981,2.298097 -1.2692,0 -2.2981,-1.028893 -2.2981,-2.298097 0,-1.269204 1.0289,-2.298097 2.2981,-2.298097 1.26921,0 2.2981,1.028893 2.2981,2.298097 z"
           sodipodi:ry="2.2980971"
           sodipodi:rx="2.2980971"
           sodipodi:cy="46.737251"
           sodipodi:cx="340.64868"
           id="path6122"
           style="fill:#333f48;fill-opacity:1;stroke:#333f48;stroke-width:2;stroke-linecap:round;stroke-linejoin:round;stroke-miterlimit:4;stroke-opacity:1;stroke-dasharray:none;stroke-dashoffset:0"
           sodipodi:type="arc" />
        <path
           style="fill:none;stroke:#333f48;stroke-width:1.77165353;stroke-linecap:round;stroke-linejoin:round;stroke-miterlimit:4;stroke-opacity:1;stroke-dasharray:1.77165353, 3.54330707;stroke-dashoffset:0"
           d="m 149.66629,883.91815 0,41.19118 c 5.47296,11.4345 28.14611,12.60725 34.79169,1.07521 l 0,-15.83211"
           id="path6126"
           inkscape:connector-curvature="0"
           sodipodi:nodetypes="cc" />
        <path
           sodipodi:type="arc"
           style="fill:#bf5700;fill-opacity:1;stroke:#333f48;stroke-width:2;stroke-linecap:round;stroke-linejoin:round;stroke-miterlimit:4;stroke-opacity:1;stroke-dasharray:none;stroke-dashoffset:0"
           id="path3567-5-2-3-7"
           sodipodi:cx="340.64868"
           sodipodi:cy="46.737251"
           sodipodi:rx="2.2980971"
           sodipodi:ry="2.2980971"
           d="m 342.94678,46.737251 c 0,1.269204 -1.02889,2.298097 -2.2981,2.298097 -1.2692,0 -2.2981,-1.028893 -2.2981,-2.298097 0,-1.269204 1.0289,-2.298097 2.2981,-2.298097 1.26921,0 2.2981,1.028893 2.2981,2.298097 z"
           transform="matrix(1.5,0,0,1.5,-299.68779,839.46472)" />
      </g>
      <text
         sodipodi:linespacing="125%"
         id="text3236"
         y="952.35681"
         x="148.54764"
         style="font-size:14px;font-style:italic;font-variant:normal;font-weight:normal;font-stretch:normal;line-height:125%;letter-spacing:0px;word-spacing:0px;fill:#333f48;fill-opacity:1;stroke:#000000;stroke-width:0.25;stroke-miterlimit:4;stroke-dasharray:none;font-family:Latin Modern Math;-inkscape-font-specification:Latin Modern Math Italic"
         xml:space="preserve"><tspan
           style="font-size:14px;font-style:italic;font-variant:normal;font-weight:normal;font-stretch:normal;fill:#333f48;font-family:Latin Modern Math;-inkscape-font-specification:Latin Modern Math Italic"
           y="952.35681"
           x="148.54764"
           id="tspan3238"
           sodipodi:role="line">QSF</tspan></text>
    </g>
    <g
       transform="translate(72.990956,20.243312)"
       id="g3577" />
    <g
       transform="translate(-37.592233,75.54994)"
       id="g3621" />
    <g
       id="g3962"
       transform="translate(-8,-32)">
      <path
         inkscape:connector-curvature="0"
         id="path3833"
         d="m 169.60778,963.48814 c -3.7137,14.65937 -13.68207,42.80536 -13.68207,42.80536"
         style="fill:none;stroke:#bf5700;stroke-width:3.54330707;stroke-linecap:round;stroke-linejoin:miter;stroke-opacity:1;stroke-miterlimit:4;stroke-dasharray:7.08661413,3.54330707,1.77165353,3.54330707;stroke-dashoffset:0" />
      <text
         inkscape:transform-center-y="50.623675"
         inkscape:transform-center-x="-21.109486"
         sodipodi:linespacing="125%"
         id="text3240-6"
         y="975.69452"
         x="143.2462"
         style="font-size:14px;font-style:italic;font-variant:normal;font-weight:normal;font-stretch:normal;line-height:125%;letter-spacing:0px;word-spacing:0px;fill:#bf5700;fill-opacity:1;stroke:#000000;stroke-width:0.25;stroke-miterlimit:4;stroke-dasharray:none;font-family:Latin Modern Math;-inkscape-font-specification:Latin Modern Math Italic"
         xml:space="preserve"><tspan
           style="font-size:14px;font-style:italic;font-variant:normal;font-weight:normal;font-stretch:normal;font-family:Latin Modern Math;-inkscape-font-specification:Latin Modern Math Italic"
           y="975.69452"
           x="143.2462"
           id="tspan3242-3"
           sodipodi:role="line">AB</tspan></text>
      <path
         sodipodi:type="arc"
         style="fill:#43695b;fill-opacity:1;stroke:#bf5700;stroke-width:2;stroke-linecap:round;stroke-linejoin:round;stroke-miterlimit:4;stroke-opacity:1;stroke-dasharray:none;stroke-dashoffset:0"
         id="path3567-5-2-3"
         sodipodi:cx="340.64868"
         sodipodi:cy="46.737251"
         sodipodi:rx="2.2980971"
         sodipodi:ry="2.2980971"
         d="m 342.94678,46.737251 c 0,1.269204 -1.02889,2.298097 -2.2981,2.298097 -1.2692,0 -2.2981,-1.028893 -2.2981,-2.298097 0,-1.269204 1.0289,-2.298097 2.2981,-2.298097 1.26921,0 2.2981,1.028893 2.2981,2.298097 z"
         transform="matrix(1.5,0,0,1.5,-355.17575,936.18523)" />
      <path
         style="fill:none;stroke:#bf5700;stroke-width:1.77165353;stroke-linecap:round;stroke-linejoin:miter;stroke-opacity:1;stroke-miterlimit:4;stroke-dasharray:1.77165353,3.54330707;stroke-dashoffset:0"
         d="m 188.12852,133.62077 0.39092,-42.707619"
         id="path4033"
         inkscape:connector-curvature="0"
         transform="translate(-18.485315,872.7132)" />
    </g>
    <g
       id="g3921"
       transform="translate(163.83018,58.291494)">
      <g
         style="stroke:#333f48"
         transform="matrix(0.99988755,0.01499612,-0.01499612,0.99988755,7.148683,5.1670813)"
         id="g3923">
        <path
           sodipodi:nodetypes="cc"
           inkscape:connector-curvature="0"
           id="path3925"
           d="M 66.468037,24.894046 92.70622,24.651574"
           style="fill:none;stroke:#333f48;stroke-width:4.6062994;stroke-linecap:butt;stroke-linejoin:round;stroke-miterlimit:4;stroke-opacity:1;stroke-dasharray:4.60629921, 4.60629921;stroke-dashoffset:0"
           transform="translate(-18.485315,884.7229)" />
        <path
           sodipodi:nodetypes="cc"
           style="fill:none;stroke:#333f48;stroke-width:1.77165353;stroke-linecap:square;stroke-linejoin:miter;stroke-miterlimit:4;stroke-opacity:1;stroke-dasharray:none;stroke-dashoffset:0"
           d="M 66.468037,24.894046 92.308402,24.657541"
           id="path3927"
           inkscape:connector-curvature="0"
           transform="translate(-18.485315,884.7229)" />
      </g>
      <text
         xml:space="preserve"
         style="font-size:14px;font-style:italic;font-variant:normal;font-weight:normal;font-stretch:normal;line-height:125%;letter-spacing:0px;word-spacing:0px;fill:#333f48;fill-opacity:1;stroke:#000000;stroke-width:0.25;stroke-miterlimit:4;stroke-dasharray:none;font-family:Latin Modern Math;-inkscape-font-specification:Latin Modern Math Italic"
         x="43.036312"
         y="906.09485"
         id="text3931"
         sodipodi:linespacing="125%"><tspan
           sodipodi:role="line"
           id="tspan3933"
           x="43.036312"
           y="906.09485"
           style="font-size:14px;font-style:italic;font-variant:normal;font-weight:normal;font-stretch:normal;fill:#333f48;font-family:Latin Modern Math;-inkscape-font-specification:Latin Modern Math Italic">QSF</tspan></text>
    </g>
    <g
       id="g4805">
      <text
         xml:space="preserve"
         style="font-size:14px;font-style:italic;font-variant:normal;font-weight:normal;font-stretch:normal;line-height:125%;letter-spacing:0px;word-spacing:0px;fill:#43695b;fill-opacity:1;stroke:#000000;stroke-width:0.25;stroke-miterlimit:4;stroke-dasharray:none;font-family:Latin Modern Math;-inkscape-font-specification:Latin Modern Math Italic"
         x="168.1041"
         y="930.39783"
         id="text3236-3"
         sodipodi:linespacing="125%"><tspan
           sodipodi:role="line"
           id="tspan3238-2"
           x="168.1041"
           y="930.39783"
           style="font-size:14px;font-style:italic;font-variant:normal;font-weight:normal;font-stretch:normal;fill:#43695b;font-family:Latin Modern Math;-inkscape-font-specification:Latin Modern Math Italic">FF</tspan></text>
      <g
         id="g6118-7"
         transform="translate(-22.309653,22.523901)">
        <path
           sodipodi:nodetypes="cc"
           style="fill:none;stroke:#43695b;stroke-width:1.77165353;stroke-linecap:square;stroke-linejoin:miter;stroke-miterlimit:4;stroke-opacity:1;stroke-dasharray:none;stroke-dashoffset:0"
           d="m 203.1875,24.847626 c 9.88355,7.012294 19.80409,9.400476 29.81737,0.195458"
           id="path6081-6"
           inkscape:connector-curvature="0"
           transform="translate(-18.485315,884.7229)" />
        <path
           transform="translate(-18.485315,884.7229)"
           style="fill:none;stroke:#43695b;stroke-width:4.6062994;stroke-linecap:butt;stroke-linejoin:round;stroke-miterlimit:4;stroke-opacity:1;stroke-dasharray:4.60629921, 4.60629921;stroke-dashoffset:0"
           d="m 203.1875,24.847626 c 13.04115,9.9745 22.41885,6.551243 30.94124,0"
           id="path3789-3"
           inkscape:connector-curvature="0"
           sodipodi:nodetypes="cc" />
      </g>
      <path
         sodipodi:nodetypes="cccc"
         inkscape:connector-curvature="0"
         id="path6126-5"
         d="m 148.15344,974.9367 0,15.5862 c 5.01998,6.1722 8.29882,6.3192 13.09583,0.3911 l 0.87956,-59.71245"
         style="fill:none;stroke:#43695b;stroke-width:1.77165353;stroke-linecap:round;stroke-linejoin:round;stroke-miterlimit:4;stroke-opacity:1;stroke-dasharray:1.77165353, 3.54330707;stroke-dashoffset:0" />
      <path
         sodipodi:type="arc"
         style="fill:#005f86;fill-opacity:1;stroke:#43695b;stroke-width:2;stroke-linecap:round;stroke-linejoin:round;stroke-miterlimit:4;stroke-opacity:1;stroke-dasharray:none;stroke-dashoffset:0"
         id="path3567-5-2-9"
         sodipodi:cx="340.64868"
         sodipodi:cy="46.737251"
         sodipodi:rx="2.2980971"
         sodipodi:ry="2.2980971"
         d="m 342.94678,46.737251 c 0,1.269204 -1.02889,2.298097 -2.2981,2.298097 -1.2692,0 -2.2981,-1.028893 -2.2981,-2.298097 0,-1.269204 1.0289,-2.298097 2.2981,-2.298097 1.26921,0 2.2981,1.028893 2.2981,2.298097 z"
         transform="matrix(1.5,0,0,1.5,-317.70472,861.34018)" />
      <path
         transform="matrix(1.232002,0,0,1.232002,-238.7978,880.63643)"
         d="m 342.94678,46.737251 a 2.2980971,2.2980971 0 1 1 -4.5962,0 2.2980971,2.2980971 0 1 1 4.5962,0 z"
         sodipodi:ry="2.2980971"
         sodipodi:rx="2.2980971"
         sodipodi:cy="46.737251"
         sodipodi:cx="340.64868"
         id="path3601-5"
         style="fill:#ffffff;fill-opacity:1;stroke:#43695b;stroke-width:2;stroke-linecap:round;stroke-linejoin:round;stroke-miterlimit:4;stroke-opacity:1;stroke-dasharray:none;stroke-dashoffset:0"
         sodipodi:type="arc" />
    </g>
    <g
       id="g4007"
       transform="translate(-8,-32)">
      <path
         inkscape:connector-curvature="0"
         id="path3835"
         d="m 200.91343,963.51186 c 6.64558,8.60016 11.53204,42.80534 11.53204,42.80534"
         style="fill:none;stroke:#005f86;stroke-width:3.54330708999999988;stroke-linecap:round;stroke-linejoin:miter;stroke-opacity:1;stroke-miterlimit:4;stroke-dasharray:none" />
      <path
         sodipodi:type="arc"
         style="fill:#333f48;fill-opacity:1;stroke:#005f86;stroke-width:2;stroke-linecap:round;stroke-linejoin:round;stroke-miterlimit:4;stroke-opacity:1;stroke-dasharray:none;stroke-dashoffset:0"
         id="path3567-5-2-9-6"
         sodipodi:cx="340.64868"
         sodipodi:cy="46.737251"
         sodipodi:rx="2.2980971"
         sodipodi:ry="2.2980971"
         d="m 342.94678,46.737251 c 0,1.269204 -1.02889,2.298097 -2.2981,2.298097 -1.2692,0 -2.2981,-1.028893 -2.2981,-2.298097 0,-1.269204 1.0289,-2.298097 2.2981,-2.298097 1.26921,0 2.2981,1.028893 2.2981,2.298097 z"
         transform="matrix(1.5,0,0,1.5,-298.50973,935.35597)" />
      <text
         sodipodi:linespacing="125%"
         id="text3573-3"
         y="974.58472"
         x="207.78961"
         style="font-size:14px;font-style:italic;font-variant:normal;font-weight:normal;font-stretch:normal;line-height:125%;letter-spacing:0px;word-spacing:0px;fill:#005f86;fill-opacity:1;stroke:#000000;stroke-width:0.25;stroke-miterlimit:4;stroke-dasharray:none;font-family:Latin Modern Math;-inkscape-font-specification:Latin Modern Math Italic"
         xml:space="preserve"><tspan
           style="font-size:14px;font-style:italic;font-variant:normal;font-weight:normal;font-stretch:normal;fill:#005f86;font-family:Latin Modern Math;-inkscape-font-specification:Latin Modern Math Italic"
           y="974.58472"
           x="207.78961"
           id="tspan3575-7"
           sodipodi:role="line">DF</tspan></text>
      <path
         transform="matrix(1.232002,0,0,1.232002,-211.6429,924.9503)"
         d="m 342.94678,46.737251 a 2.2980971,2.2980971 0 1 1 -4.5962,0 2.2980971,2.2980971 0 1 1 4.5962,0 z"
         sodipodi:ry="2.2980971"
         sodipodi:rx="2.2980971"
         sodipodi:cy="46.737251"
         sodipodi:cx="340.64868"
         id="path3601-0"
         style="fill:#ffffff;fill-opacity:1;stroke:#005f86;stroke-width:2;stroke-linecap:round;stroke-linejoin:round;stroke-miterlimit:4;stroke-opacity:1;stroke-dasharray:none;stroke-dashoffset:0"
         sodipodi:type="arc" />
    </g>
  </g>
</svg>
