<?xml version="1.0" encoding="UTF-8" standalone="no"?>
<!-- Created with Inkscape (http://www.inkscape.org/) -->

<svg
   xmlns:dc="http://purl.org/dc/elements/1.1/"
   xmlns:cc="http://creativecommons.org/ns#"
   xmlns:rdf="http://www.w3.org/1999/02/22-rdf-syntax-ns#"
   xmlns:svg="http://www.w3.org/2000/svg"
   xmlns="http://www.w3.org/2000/svg"
   xmlns:sodipodi="http://sodipodi.sourceforge.net/DTD/sodipodi-0.dtd"
   xmlns:inkscape="http://www.inkscape.org/namespaces/inkscape"
   id="svg3182"
   version="1.1"
   inkscape:version="0.48.4 r9939"
   width="414.423"
   height="621.6345"
   xml:space="preserve"
   sodipodi:docname="Demo8Frame1Mod.svg"
   inkscape:export-filename="/home/gray/wk/grayutils/tex/MultiContactTAC2015/final_figs/Demo8Frame1Mod.png"
   inkscape:export-xdpi="400"
   inkscape:export-ydpi="400"><metadata
     id="metadata3188"><rdf:RDF><cc:Work
         rdf:about=""><dc:format>image/svg+xml</dc:format><dc:type
           rdf:resource="http://purl.org/dc/dcmitype/StillImage" /><dc:title></dc:title></cc:Work></rdf:RDF></metadata><defs
     id="defs3186"><clipPath
       clipPathUnits="userSpaceOnUse"
       id="clipPath3200"><path
         d="m 0,0 331.5384,0 0,497.3076 L 0,497.3076 0,0 z"
         id="path3202" /></clipPath><clipPath
       clipPathUnits="userSpaceOnUse"
       id="clipPath3210"><path
         d="m 0,0 331.5384,0 0,497.3076 L 0,497.3076 0,0 z"
         id="path3212" /></clipPath><clipPath
       clipPathUnits="userSpaceOnUse"
       id="clipPath3220"><path
         d="m 0,0 331.5384,0 0,497.3076 L 0,497.3076 0,0 z"
         id="path3222" /></clipPath><clipPath
       clipPathUnits="userSpaceOnUse"
       id="clipPath3230"><path
         d="m 0,0 331.5384,0 0,497.3076 L 0,497.3076 0,0 z"
         id="path3232" /></clipPath><clipPath
       clipPathUnits="userSpaceOnUse"
       id="clipPath3240"><path
         d="m 0,0 331.5384,0 0,497.3076 L 0,497.3076 0,0 z"
         id="path3242" /></clipPath><clipPath
       clipPathUnits="userSpaceOnUse"
       id="clipPath3250"><path
         d="m 0,0 331.5384,0 0,497.3076 L 0,497.3076 0,0 z"
         id="path3252" /></clipPath><clipPath
       clipPathUnits="userSpaceOnUse"
       id="clipPath3260"><path
         d="m 0,0 331.5384,0 0,497.3076 L 0,497.3076 0,0 z"
         id="path3262" /></clipPath><clipPath
       clipPathUnits="userSpaceOnUse"
       id="clipPath3270"><path
         d="m 0,0 331.5384,0 0,497.3076 L 0,497.3076 0,0 z"
         id="path3272" /></clipPath><clipPath
       clipPathUnits="userSpaceOnUse"
       id="clipPath3280"><path
         d="m 0,0 331.5384,0 0,497.3076 L 0,497.3076 0,0 z"
         id="path3282" /></clipPath><clipPath
       clipPathUnits="userSpaceOnUse"
       id="clipPath3290"><path
         d="m 0,0 331.5384,0 0,497.3076 L 0,497.3076 0,0 z"
         id="path3292" /></clipPath><clipPath
       clipPathUnits="userSpaceOnUse"
       id="clipPath3300"><path
         d="m 0,0 331.5384,0 0,497.3076 L 0,497.3076 0,0 z"
         id="path3302" /></clipPath><clipPath
       clipPathUnits="userSpaceOnUse"
       id="clipPath3310"><path
         d="m 0,0 331.5384,0 0,497.3076 L 0,497.3076 0,0 z"
         id="path3312" /></clipPath><clipPath
       clipPathUnits="userSpaceOnUse"
       id="clipPath3320"><path
         d="m 0,0 331.5384,0 0,497.3076 L 0,497.3076 0,0 z"
         id="path3322" /></clipPath><clipPath
       clipPathUnits="userSpaceOnUse"
       id="clipPath3330"><path
         d="m 0,0 331.5384,0 0,497.3076 L 0,497.3076 0,0 z"
         id="path3332" /></clipPath><clipPath
       clipPathUnits="userSpaceOnUse"
       id="clipPath3340"><path
         d="m 0,0 331.5384,0 0,497.3076 L 0,497.3076 0,0 z"
         id="path3342" /></clipPath><clipPath
       clipPathUnits="userSpaceOnUse"
       id="clipPath3350"><path
         d="m 0,0 331.5384,0 0,497.3076 L 0,497.3076 0,0 z"
         id="path3352" /></clipPath><clipPath
       clipPathUnits="userSpaceOnUse"
       id="clipPath3360"><path
         d="m 0,0 331.5384,0 0,497.3076 L 0,497.3076 0,0 z"
         id="path3362" /></clipPath><clipPath
       clipPathUnits="userSpaceOnUse"
       id="clipPath3370"><path
         d="m 0,0 331.5384,0 0,497.3076 L 0,497.3076 0,0 z"
         id="path3372" /></clipPath><clipPath
       clipPathUnits="userSpaceOnUse"
       id="clipPath3380"><path
         d="m 0,0 331.5384,0 0,497.3076 L 0,497.3076 0,0 z"
         id="path3382" /></clipPath><clipPath
       clipPathUnits="userSpaceOnUse"
       id="clipPath3390"><path
         d="m 0,0 331.5384,0 0,497.3076 L 0,497.3076 0,0 z"
         id="path3392" /></clipPath><clipPath
       clipPathUnits="userSpaceOnUse"
       id="clipPath3400"><path
         d="m 0,0 331.5384,0 0,497.3076 L 0,497.3076 0,0 z"
         id="path3402" /></clipPath><clipPath
       clipPathUnits="userSpaceOnUse"
       id="clipPath3410"><path
         d="m 0,0 331.5384,0 0,497.3076 L 0,497.3076 0,0 z"
         id="path3412" /></clipPath><clipPath
       clipPathUnits="userSpaceOnUse"
       id="clipPath3420"><path
         d="m 0,0 331.5384,0 0,497.3076 L 0,497.3076 0,0 z"
         id="path3422" /></clipPath><clipPath
       clipPathUnits="userSpaceOnUse"
       id="clipPath3430"><path
         d="m 0,0 331.5384,0 0,497.3076 L 0,497.3076 0,0 z"
         id="path3432" /></clipPath><clipPath
       clipPathUnits="userSpaceOnUse"
       id="clipPath3440"><path
         d="m 0,0 331.5384,0 0,497.3076 L 0,497.3076 0,0 z"
         id="path3442" /></clipPath><clipPath
       clipPathUnits="userSpaceOnUse"
       id="clipPath3450"><path
         d="m 0,0 331.5384,0 0,497.3076 L 0,497.3076 0,0 z"
         id="path3452" /></clipPath><clipPath
       clipPathUnits="userSpaceOnUse"
       id="clipPath3460"><path
         d="m 0,0 331.5384,0 0,497.3076 L 0,497.3076 0,0 z"
         id="path3462" /></clipPath><clipPath
       clipPathUnits="userSpaceOnUse"
       id="clipPath3470"><path
         d="m 0,0 331.5384,0 0,497.3076 L 0,497.3076 0,0 z"
         id="path3472" /></clipPath><clipPath
       clipPathUnits="userSpaceOnUse"
       id="clipPath3480"><path
         d="m 0,0 331.5384,0 0,497.3076 L 0,497.3076 0,0 z"
         id="path3482" /></clipPath><clipPath
       clipPathUnits="userSpaceOnUse"
       id="clipPath3490"><path
         d="m 0,0 331.5384,0 0,497.3076 L 0,497.3076 0,0 z"
         id="path3492" /></clipPath><clipPath
       clipPathUnits="userSpaceOnUse"
       id="clipPath3500"><path
         d="m 0,0 331.5384,0 0,497.3076 L 0,497.3076 0,0 z"
         id="path3502" /></clipPath><clipPath
       clipPathUnits="userSpaceOnUse"
       id="clipPath3510"><path
         d="m 0,0 331.5384,0 0,497.3076 L 0,497.3076 0,0 z"
         id="path3512" /></clipPath><clipPath
       clipPathUnits="userSpaceOnUse"
       id="clipPath3520"><path
         d="m 0,0 331.5384,0 0,497.3076 L 0,497.3076 0,0 z"
         id="path3522" /></clipPath><clipPath
       clipPathUnits="userSpaceOnUse"
       id="clipPath3530"><path
         d="m -7.5,-7.5 15,0 0,15 -15,0 0,-15 z"
         id="path3532" /></clipPath><clipPath
       clipPathUnits="userSpaceOnUse"
       id="clipPath3540"><path
         d="m 0,0 331.5384,0 0,497.3076 L 0,497.3076 0,0 z"
         id="path3542" /></clipPath><clipPath
       clipPathUnits="userSpaceOnUse"
       id="clipPath3550"><path
         d="m -7.5,-7.5 15,0 0,15 -15,0 0,-15 z"
         id="path3552" /></clipPath><clipPath
       clipPathUnits="userSpaceOnUse"
       id="clipPath3560"><path
         d="m 0,0 331.5384,0 0,497.3076 L 0,497.3076 0,0 z"
         id="path3562" /></clipPath><clipPath
       clipPathUnits="userSpaceOnUse"
       id="clipPath3570"><path
         d="m 0,0 331.5384,0 0,497.3076 L 0,497.3076 0,0 z"
         id="path3572" /></clipPath><clipPath
       clipPathUnits="userSpaceOnUse"
       id="clipPath3580"><path
         d="m 0,0 331.5384,0 0,497.3076 L 0,497.3076 0,0 z"
         id="path3582" /></clipPath><clipPath
       clipPathUnits="userSpaceOnUse"
       id="clipPath3600"><path
         d="m 0,0 331.5384,0 0,497.3076 L 0,497.3076 0,0 z"
         id="path3602" /></clipPath><clipPath
       clipPathUnits="userSpaceOnUse"
       id="clipPath3620"><path
         d="m 0,0 331.5384,0 0,497.3076 L 0,497.3076 0,0 z"
         id="path3622" /></clipPath><clipPath
       clipPathUnits="userSpaceOnUse"
       id="clipPath3640"><path
         d="m 0,0 331.5384,0 0,497.3076 L 0,497.3076 0,0 z"
         id="path3642" /></clipPath><clipPath
       clipPathUnits="userSpaceOnUse"
       id="clipPath3660"><path
         d="m 0,0 331.5384,0 0,497.3076 L 0,497.3076 0,0 z"
         id="path3662" /></clipPath><clipPath
       clipPathUnits="userSpaceOnUse"
       id="clipPath3680"><path
         d="m 0,0 331.5384,0 0,497.3076 L 0,497.3076 0,0 z"
         id="path3682" /></clipPath><clipPath
       clipPathUnits="userSpaceOnUse"
       id="clipPath3700"><path
         d="m 0,0 331.5384,0 0,497.3076 L 0,497.3076 0,0 z"
         id="path3702" /></clipPath><clipPath
       clipPathUnits="userSpaceOnUse"
       id="clipPath3720"><path
         d="m 0,0 331.5384,0 0,497.3076 L 0,497.3076 0,0 z"
         id="path3722" /></clipPath><clipPath
       clipPathUnits="userSpaceOnUse"
       id="clipPath3740"><path
         d="m 0,0 331.5384,0 0,497.3076 L 0,497.3076 0,0 z"
         id="path3742" /></clipPath><clipPath
       clipPathUnits="userSpaceOnUse"
       id="clipPath3760"><path
         d="m 0,0 331.5384,0 0,497.3076 L 0,497.3076 0,0 z"
         id="path3762" /></clipPath></defs><sodipodi:namedview
     pagecolor="#ffffff"
     bordercolor="#666666"
     borderopacity="1"
     objecttolerance="10"
     gridtolerance="10"
     guidetolerance="10"
     inkscape:pageopacity="0"
     inkscape:pageshadow="2"
     inkscape:window-width="859"
     inkscape:window-height="788"
     id="namedview3184"
     showgrid="false"
     inkscape:zoom="0.75928859"
     inkscape:cx="154.43572"
     inkscape:cy="300.97748"
     inkscape:window-x="913"
     inkscape:window-y="58"
     inkscape:window-maximized="0"
     inkscape:current-layer="g3190" /><g
     id="g3190"
     inkscape:groupmode="layer"
     inkscape:label="Demo8Frame41"
     transform="matrix(1.25,0,0,-1.25,0,621.6345)"><path
       d="m 0,0 331.5384,0 0,497.3076 L 0,497.3076 0,0 z"
       style="fill:#ffffff;fill-opacity:1;fill-rule:nonzero;stroke:none"
       id="path3192" /><path
       d="m 0,0 331.5384,0 0,497.3076 L 0,497.3076 0,0 z"
       style="fill:#ffffff;fill-opacity:1;fill-rule:nonzero;stroke:none"
       id="path3194" /><g
       id="g3196"><g
         id="g3198"
         clip-path="url(#clipPath3200)"><path
           d="m 96.6987,317.7243 8.19712,1.85057 8.0524,1.59057 8.09253,1.37151 8.12724,1.14836 7.96155,0.90242 7.9833,0.68373 7.99913,0.46297 8.0089,0.24079 8.0125,0.0179 8.0099,-0.2051 8.00111,-0.42744 7.98625,-0.64847 7.96541,-0.86752 7.93888,-1.084 8.09921,-1.33157 8.06004,-1.55141 8.01556,-1.76671 7.44362,-1.63506 5.0109,-0.84049 5.04222,-0.62559 5.06463,-0.40603 5.07755,-0.1834 5.0807,0.0407 5.07398,0.26439 5.05756,0.48609 5.03186,0.70413 4.99746,0.91702 4.00589,0.89171 0,0"
           style="fill:none;stroke:#d6d2c4;stroke-opacity:1;stroke-width:9;stroke-linecap:round;stroke-linejoin:round;stroke-miterlimit:10;stroke-dasharray:none"
           id="path3204" /></g></g><g
       id="g3206"><g
         id="g3208"
         clip-path="url(#clipPath3210)"><path
           d="m 96.6987,317.7243 1.129102,0.26877 1.13004,0.26456 1.131008,0.26034 1.13202,0.25612 1.13292,0.25187 1.13389,0.24762 1.13482,0.24335 1.13569,0.23906 1.13664,0.23476 1.13749,0.23046 1.13833,0.22611 1.13925,0.2218 1.14005,0.21743 1.14086,0.21307 1.14171,0.2087 1.14247,0.20431 1.14325,0.1999 1.14404,0.1955 1.14475,0.19106 1.14551,0.18664 1.14622,0.18219 1.1469,0.17772 1.14761,0.17326 1.14827,0.16878 1.1489,0.16429 1.14957,0.15979 1.15017,0.15528 1.15075,0.15076 1.15137,0.14624 1.15192,0.14169 1.15246,0.13715 1.15302,0.1326 1.15352,0.12803 1.154,0.12346 1.15452,0.11888 1.15496,0.11429 1.15539,0.1097 1.15586,0.10511 1.15624,0.10049 1.15662,0.0959 1.15703,0.0913 1.15736,0.0866 1.15769,0.082 1.15804,0.0774 1.15832,0.0727 1.1586,0.0681 1.15888,0.0634 1.15911,0.0588 1.15933,0.0541 1.15956,0.0495 1.15974,0.0448 1.15991,0.0401 1.16006,0.0354 1.1602,0.0308 1.16031,0.0261 1.16041,0.0214 1.16048,0.0168 1.16054,0.0121 1.16058,0.007 1.1606,0.003 1.1606,-0.002 1.16059,-0.007 1.16055,-0.0113 1.16049,-0.016 1.16042,-0.0207 1.16033,-0.0254 1.16021,-0.03 1.16009,-0.0347 1.15993,-0.0394 1.15977,-0.0441 1.15958,-0.0487 1.15937,-0.0534 1.15916,-0.058 1.15891,-0.0627 1.15864,-0.0673 1.15838,-0.072 1.15807,-0.0766 1.15775,-0.0813 1.15743,-0.0859 1.15706,-0.0905 1.15669,-0.0952 1.15632,-0.0998 1.1559,-0.10437 1.15547,-0.10898 1.15504,-0.11357 1.15457,-0.11815 1.15409,-0.12274 1.15362,-0.12731 1.15307,-0.13188 1.15256,-0.13643 1.15202,-0.14098 1.15144,-0.14551 1.15085,-0.15005 1.15029,-0.15457 1.14963,-0.15908 1.14902,-0.16357 1.1484,-0.16808 1.14768,-0.17255 1.14702,-0.17702"
           style="fill:none;stroke:#9c9796;stroke-opacity:1;stroke-width:9;stroke-linecap:round;stroke-linejoin:round;stroke-miterlimit:10;stroke-dasharray:none"
           id="path3214" /></g></g><g
       id="g3216"><g
         id="g3218"
         clip-path="url(#clipPath3220)"><path
           d="m 96.6987,317.7243 c 46.047,11.05128 92.094,11.05128 138.141,0 18.4188,-4.42051 36.8376,-4.42051 55.2564,0"
           style="fill:none;stroke:#bf5700;stroke-opacity:1;stroke-width:4;stroke-linecap:butt;stroke-linejoin:round;stroke-miterlimit:10;stroke-dasharray:none"
           id="path3224" /></g></g><g
       id="g3226"><g
         id="g3228"
         clip-path="url(#clipPath3230)"><path
           d="m 89.79165,13.8141 -140.816514,243.90136 281.633024,0 L 89.79165,13.8141 z"
           style="fill:#9c9796;fill-opacity:1;fill-rule:nonzero;stroke:#382f2d;stroke-opacity:1;stroke-width:3;stroke-linecap:butt;stroke-linejoin:round;stroke-miterlimit:10;stroke-dasharray:none"
           id="path3234" /></g></g><g
       id="g3236"><g
         id="g3238"
         clip-path="url(#clipPath3240)"><path
           d="m 165.7692,428.2371 35.20413,-60.97534 -70.40826,0 35.20413,60.97534 z"
           style="fill:#9c9796;fill-opacity:1;fill-rule:nonzero;stroke:#382f2d;stroke-opacity:1;stroke-width:3;stroke-linecap:butt;stroke-linejoin:round;stroke-miterlimit:10;stroke-dasharray:none"
           id="path3244" /></g></g><g
       id="g3246"><g
         id="g3248"
         clip-path="url(#clipPath3250)"><path
           d="M 124.97895,323.12207 C 73.487711,357.25768 87.084462,392.29602 165.7692,428.2371"
           style="fill:none;stroke:#000000;stroke-opacity:1;stroke-width:3;stroke-linecap:butt;stroke-linejoin:round;stroke-miterlimit:10;stroke-dasharray:none"
           id="path3254" /></g></g><g
       id="g3256"><g
         id="g3258"
         clip-path="url(#clipPath3260)"><path
           d="m 124.97895,323.12207 c 61.66052,-3.81668 87.46974,13.1548 77.42764,50.91445"
           style="fill:none;stroke:#000000;stroke-opacity:1;stroke-width:3;stroke-linecap:butt;stroke-linejoin:round;stroke-miterlimit:10;stroke-dasharray:none"
           id="path3264" /></g></g><g
       id="g3266"><g
         id="g3268"
         clip-path="url(#clipPath3270)"><path
           d="M 124.97895,323.12207 C 113.39805,220.8112 78.072433,183.36112 19.002091,210.77184"
           style="fill:none;stroke:#000000;stroke-opacity:1;stroke-width:3;stroke-linecap:butt;stroke-linejoin:round;stroke-miterlimit:10;stroke-dasharray:none"
           id="path3274" /></g></g><g
       id="g3276"><g
         id="g3278"
         clip-path="url(#clipPath3280)"><path
           d="M 124.97895,323.12207 C 181.87163,237.30334 170.14253,134.20069 89.79165,13.8141"
           style="fill:none;stroke:#000000;stroke-opacity:1;stroke-width:3;stroke-linecap:butt;stroke-linejoin:round;stroke-miterlimit:10;stroke-dasharray:none"
           id="path3284" /></g></g><g
       id="g3286"><g
         id="g3288"
         clip-path="url(#clipPath3290)"><path
           d="m 91.509222,13.636173 14.338538,138.413577 4.79686,-3.96892 -5.44687,14.45228 -8.293701,-13.02887 5.508571,2.90137 -14.338541,-138.413583 3.435143,-0.355854 z"
           style="fill:#43695b;fill-opacity:0.9;fill-rule:nonzero;stroke:none"
           id="path3294" /></g></g><g
       id="g3296"><g
         id="g3298"
         clip-path="url(#clipPath3300)"><path
           d="m 164.29985,429.08543 -8.48328,-14.69348 -2.71139,5.48368 -0.90923,-15.14809 12.66402,8.36147 -6.1047,-0.39371 8.48328,14.69347 -2.9387,1.69666 z"
           style="fill:#43695b;fill-opacity:0.9;fill-rule:nonzero;stroke:none"
           id="path3304" /></g></g><g
       id="g3306"><g
         id="g3308"
         clip-path="url(#clipPath3310)"><path
           d="m -13786.472,-13938.427 0,0 0,0 0,0 0,0 0,0 0,0 z"
           style="fill:#43695b;fill-opacity:0.9;fill-rule:nonzero;stroke:none"
           id="path3314" /></g></g><g
       id="g3316"><g
         id="g3318"
         clip-path="url(#clipPath3320)"><path
           d="m -13786.472,-13938.427 0,0 0,0 0,0 0,0 0,0 0,0 z"
           style="fill:#43695b;fill-opacity:0.9;fill-rule:nonzero;stroke:none"
           id="path3324" /></g></g><g
       id="g3326"><g
         id="g3328"
         clip-path="url(#clipPath3330)"><path
           d="m 124.97895,305.85445 c 4.57943,0 8.97191,1.81942 12.21005,5.05757 3.23815,3.23814 5.05757,7.63062 5.05757,12.21005 0,4.57943 -1.81942,8.97191 -5.05757,12.21006 -3.23814,3.23814 -7.63062,5.05757 -12.21005,5.05757 -4.57943,0 -8.97191,-1.81943 -12.21006,-5.05757 -3.23814,-3.23815 -5.05757,-7.63063 -5.05757,-12.21006 0,-4.57943 1.81943,-8.97191 5.05757,-12.21005 3.23815,-3.23815 7.63063,-5.05757 12.21006,-5.05757 z"
           style="fill:#ffffff;fill-opacity:1;fill-rule:nonzero;stroke:#000000;stroke-opacity:1;stroke-width:2;stroke-linecap:butt;stroke-linejoin:round;stroke-miterlimit:10;stroke-dasharray:none"
           id="path3334" /></g></g><g
       id="g3336"><g
         id="g3338"
         clip-path="url(#clipPath3340)"><path
           d="m 124.97895,340.3897 c -4.5779,0 -8.97299,-1.82051 -12.21006,-5.05757 -3.23706,-3.23707 -5.05757,-7.63216 -5.05757,-12.21006 l 17.26763,0 0,17.26763 z"
           style="fill:#000000;fill-opacity:1;fill-rule:nonzero;stroke:#000000;stroke-opacity:1;stroke-width:1;stroke-linecap:butt;stroke-linejoin:round;stroke-miterlimit:10;stroke-dasharray:none"
           id="path3344" /></g></g><g
       id="g3346"><g
         id="g3348"
         clip-path="url(#clipPath3350)"><path
           d="m 124.97895,305.85445 c 4.5779,0 8.97299,1.8205 12.21005,5.05757 3.23707,3.23706 5.05757,7.63215 5.05757,12.21005 l -17.26762,0 0,-17.26762 z"
           style="fill:#000000;fill-opacity:1;fill-rule:nonzero;stroke:#000000;stroke-opacity:1;stroke-width:1;stroke-linecap:butt;stroke-linejoin:round;stroke-miterlimit:10;stroke-dasharray:none"
           id="path3354" /></g></g><g
       id="g3356"><g
         id="g3358"
         clip-path="url(#clipPath3360)"><path
           d="m 124.17073,323.00752 1.14552,-8.08222 -2.65377,1.27278 4.14931,-6.00756 2.31647,6.92399 -2.19556,-1.96011 -1.14553,8.08222 -1.61644,-0.2291 z"
           style="fill:#005f86;fill-opacity:0.9;fill-rule:nonzero;stroke:none"
           id="path3364" /></g></g><g
       id="g3366"><g
         id="g3368"
         clip-path="url(#clipPath3370)"><path
           d="m 125.22071,321.41633 17.05747,2.41763 -2.68621,-5.60077 12.67892,8.75709 -14.61302,4.88888 4.13678,-4.63371 -17.05746,-2.41763 0.48352,-3.41149 z"
           style="fill:#f2a900;fill-opacity:0.9;fill-rule:nonzero;stroke:none"
           id="path3374" /></g></g><g
       id="g3376"><g
         id="g3378"
         clip-path="url(#clipPath3380)"><path
           d="m 124.97895,323.12207 0,0 0,0 0,0 0,0 0,0 0,0 0,0 z"
           style="fill:#ffc0cb;fill-opacity:0.8;fill-rule:nonzero;stroke:none"
           id="path3384" /></g></g><g
       id="g3386"><g
         id="g3388"
         clip-path="url(#clipPath3390)"><path
           d="m 27.6282,13.8141 69.0705,0"
           style="fill:none;stroke:#000000;stroke-opacity:1;stroke-width:4;stroke-linecap:square;stroke-linejoin:round;stroke-miterlimit:10;stroke-dasharray:none"
           id="path3394" /></g></g><g
       id="g3396"><g
         id="g3398"
         clip-path="url(#clipPath3400)"><path
           d="m 234.8397,13.8141 69.0705,0"
           style="fill:none;stroke:#000000;stroke-opacity:1;stroke-width:4;stroke-linecap:square;stroke-linejoin:round;stroke-miterlimit:10;stroke-dasharray:none"
           id="path3404" /></g></g><g
       id="g3406"><g
         id="g3408"
         clip-path="url(#clipPath3410)"><path
           d="m 234.8397,428.2371 -138.141,0"
           style="fill:none;stroke:#000000;stroke-opacity:1;stroke-width:4;stroke-linecap:square;stroke-linejoin:round;stroke-miterlimit:10;stroke-dasharray:none"
           id="path3414" /></g></g><g
       id="g3416"><g
         id="g3418"
         clip-path="url(#clipPath3420)"><path
           d="m 96.6987,317.7243 -6.447674,26.86531"
           style="fill:none;stroke:#bf5700;stroke-opacity:1;stroke-width:1;stroke-linecap:square;stroke-linejoin:round;stroke-miterlimit:10;stroke-dasharray:none"
           id="path3424" /></g></g><g
       id="g3426"><g
         id="g3428"
         clip-path="url(#clipPath3430)"><path
           d="m 117.9535,322.04057 -4.52823,27.25459"
           style="fill:none;stroke:#bf5700;stroke-opacity:1;stroke-width:1;stroke-linecap:square;stroke-linejoin:round;stroke-miterlimit:10;stroke-dasharray:none"
           id="path3434" /></g></g><g
       id="g3436"><g
         id="g3438"
         clip-path="url(#clipPath3440)"><path
           d="m 139.46412,324.81059 -2.5148,27.51351"
           style="fill:none;stroke:#bf5700;stroke-opacity:1;stroke-width:1;stroke-linecap:square;stroke-linejoin:round;stroke-miterlimit:10;stroke-dasharray:none"
           id="path3444" /></g></g><g
       id="g3446"><g
         id="g3448"
         clip-path="url(#clipPath3450)"><path
           d="m 161.12087,325.97522 -0.44618,27.6246"
           style="fill:none;stroke:#bf5700;stroke-opacity:1;stroke-width:1;stroke-linecap:square;stroke-linejoin:round;stroke-miterlimit:10;stroke-dasharray:none"
           id="path3454" /></g></g><g
       id="g3456"><g
         id="g3458"
         clip-path="url(#clipPath3460)"><path
           d="m 182.80387,325.50862 1.63247,27.57992"
           style="fill:none;stroke:#bf5700;stroke-opacity:1;stroke-width:1;stroke-linecap:square;stroke-linejoin:round;stroke-miterlimit:10;stroke-dasharray:none"
           id="path3464" /></g></g><g
       id="g3466"><g
         id="g3468"
         clip-path="url(#clipPath3470)"><path
           d="m 204.39132,323.4212 3.67478,27.38272"
           style="fill:none;stroke:#bf5700;stroke-opacity:1;stroke-width:1;stroke-linecap:square;stroke-linejoin:round;stroke-miterlimit:10;stroke-dasharray:none"
           id="path3474" /></g></g><g
       id="g3476"><g
         id="g3478"
         clip-path="url(#clipPath3480)"><path
           d="m 225.76825,319.75848 5.63867,27.04668"
           style="fill:none;stroke:#bf5700;stroke-opacity:1;stroke-width:1;stroke-linecap:square;stroke-linejoin:round;stroke-miterlimit:10;stroke-dasharray:none"
           id="path3484" /></g></g><g
       id="g3486"><g
         id="g3488"
         clip-path="url(#clipPath3490)"><path
           d="m 247.01905,315.44554 3.67478,27.38272"
           style="fill:none;stroke:#bf5700;stroke-opacity:1;stroke-width:1;stroke-linecap:square;stroke-linejoin:round;stroke-miterlimit:10;stroke-dasharray:none"
           id="path3494" /></g></g><g
       id="g3496"><g
         id="g3498"
         clip-path="url(#clipPath3500)"><path
           d="m 268.66295,314.57561 -1.48466,27.58828"
           style="fill:none;stroke:#bf5700;stroke-opacity:1;stroke-width:1;stroke-linecap:square;stroke-linejoin:round;stroke-miterlimit:10;stroke-dasharray:none"
           id="path3504" /></g></g><g
       id="g3506"><g
         id="g3508"
         clip-path="url(#clipPath3510)"><path
           d="m 290.0961,317.7243 -6.44767,26.86531"
           style="fill:none;stroke:#bf5700;stroke-opacity:1;stroke-width:1;stroke-linecap:square;stroke-linejoin:round;stroke-miterlimit:10;stroke-dasharray:none"
           id="path3514" /></g></g><g
       id="g3516"><g
         id="g3518"
         clip-path="url(#clipPath3520)"><g
           id="g3524"
           transform="translate(89.79165,13.8141)"><g
             id="g3526"><g
               id="g3528"
               clip-path="url(#clipPath3530)"><path
                 d="m 0,-6 c 1.5912186,0 3.1174792,0.6321979 4.2426407,1.7573593 C 5.3678021,-3.1174792 6,-1.5912186 6,0 6,1.5912186 5.3678021,3.1174792 4.2426407,4.2426407 3.1174792,5.3678021 1.5912186,6 0,6 -1.5912186,6 -3.1174792,5.3678021 -4.2426407,4.2426407 -5.3678021,3.1174792 -6,1.5912186 -6,0 -6,-1.5912186 -5.3678021,-3.1174792 -4.2426407,-4.2426407 -3.1174792,-5.3678021 -1.5912186,-6 0,-6 z"
                 style="fill:#9c9796;fill-opacity:1;fill-rule:nonzero;stroke:#382f2d;stroke-opacity:1;stroke-width:3;stroke-linecap:butt;stroke-linejoin:round;stroke-miterlimit:10;stroke-dasharray:none"
                 id="path3534" /></g></g></g></g></g><g
       id="g3536"><g
         id="g3538"
         clip-path="url(#clipPath3540)"><g
           id="g3544"
           transform="translate(165.7692,428.2371)"><g
             id="g3546"><g
               id="g3548"
               clip-path="url(#clipPath3550)"><path
                 d="m 0,-6 c 1.5912186,0 3.1174792,0.6321979 4.2426407,1.7573593 C 5.3678021,-3.1174792 6,-1.5912186 6,0 6,1.5912186 5.3678021,3.1174792 4.2426407,4.2426407 3.1174792,5.3678021 1.5912186,6 0,6 -1.5912186,6 -3.1174792,5.3678021 -4.2426407,4.2426407 -5.3678021,3.1174792 -6,1.5912186 -6,0 -6,-1.5912186 -5.3678021,-3.1174792 -4.2426407,-4.2426407 -3.1174792,-5.3678021 -1.5912186,-6 0,-6 z"
                 style="fill:#9c9796;fill-opacity:1;fill-rule:nonzero;stroke:#382f2d;stroke-opacity:1;stroke-width:3;stroke-linecap:butt;stroke-linejoin:round;stroke-miterlimit:10;stroke-dasharray:none"
                 id="path3554" /></g></g></g></g></g><g
       id="g3556"><g
         id="g3558"
         clip-path="url(#clipPath3560)"><path
           d="m 99.922538,304.29165 1.611922,-6.71633"
           style="fill:none;stroke:#382f2d;stroke-opacity:1;stroke-width:3;stroke-linecap:round;stroke-linejoin:round;stroke-miterlimit:10;stroke-dasharray:none"
           id="path3564" /></g></g><g
       id="g3566"><g
         id="g3568"
         clip-path="url(#clipPath3570)"><path
           d="m 208.62499,308.84794 -1.06679,-6.82417"
           style="fill:none;stroke:#382f2d;stroke-opacity:1;stroke-width:3;stroke-linecap:round;stroke-linejoin:round;stroke-miterlimit:10;stroke-dasharray:none"
           id="path3574" /></g></g><g
       id="g3576"><g
         id="g3578"
         clip-path="url(#clipPath3580)"><path
           d="m 27.6282,0 0,497.3076"
           style="fill:none;stroke:#000000;stroke-opacity:1;stroke-width:0.5;stroke-linecap:butt;stroke-linejoin:round;stroke-miterlimit:10;stroke-dasharray:1,3;stroke-dashoffset:0"
           id="path3584" /></g></g><g
       id="g3586"><path
         d="m 27.6282,0 0,4"
         style="fill:#000000;fill-opacity:1;fill-rule:nonzero;stroke:#000000;stroke-opacity:1;stroke-width:0.5;stroke-linecap:butt;stroke-linejoin:round;stroke-miterlimit:10;stroke-dasharray:none"
         id="path3588" /><path
         d="m 27.6282,497.3076 0,-4"
         style="fill:#000000;fill-opacity:1;fill-rule:nonzero;stroke:#000000;stroke-opacity:1;stroke-width:0.5;stroke-linecap:butt;stroke-linejoin:round;stroke-miterlimit:10;stroke-dasharray:none"
         id="path3590" /><text
         transform="matrix(1,0,0,-1,18.8782,-13.125)"
         id="text3592"><tspan
           style="fill:#000000;fill-opacity:1;fill-rule:nonzero;stroke:none;font-family:DejaVu Sans;font-variant:normal;font-weight:normal;font-size:12;writing-mode:lr;-inkscape-font-specification:DejaVuSans"
           x="0 7.632 11.448"
           y="0"
           sodipodi:role="line"
           id="tspan3594">0.0</tspan></text>
</g><g
       id="g3596"><g
         id="g3598"
         clip-path="url(#clipPath3600)"><path
           d="m 82.8846,0 0,497.3076"
           style="fill:none;stroke:#000000;stroke-opacity:1;stroke-width:0.5;stroke-linecap:butt;stroke-linejoin:round;stroke-miterlimit:10;stroke-dasharray:1,3;stroke-dashoffset:0"
           id="path3604" /></g></g><g
       id="g3606"><path
         d="m 82.8846,0 0,4"
         style="fill:#000000;fill-opacity:1;fill-rule:nonzero;stroke:#000000;stroke-opacity:1;stroke-width:0.5;stroke-linecap:butt;stroke-linejoin:round;stroke-miterlimit:10;stroke-dasharray:none"
         id="path3608" /><path
         d="m 82.8846,497.3076 0,-4"
         style="fill:#000000;fill-opacity:1;fill-rule:nonzero;stroke:#000000;stroke-opacity:1;stroke-width:0.5;stroke-linecap:butt;stroke-linejoin:round;stroke-miterlimit:10;stroke-dasharray:none"
         id="path3610" /><text
         transform="matrix(1,0,0,-1,74.337725,-13.125)"
         id="text3612"><tspan
           style="fill:#000000;fill-opacity:1;fill-rule:nonzero;stroke:none;font-family:DejaVu Sans;font-variant:normal;font-weight:normal;font-size:12;writing-mode:lr;-inkscape-font-specification:DejaVuSans"
           x="0 7.632 11.448"
           y="0"
           sodipodi:role="line"
           id="tspan3614">0.2</tspan></text>
</g><g
       id="g3616"><g
         id="g3618"
         clip-path="url(#clipPath3620)"><path
           d="m 138.141,0 0,497.3076"
           style="fill:none;stroke:#000000;stroke-opacity:1;stroke-width:0.5;stroke-linecap:butt;stroke-linejoin:round;stroke-miterlimit:10;stroke-dasharray:1,3;stroke-dashoffset:0"
           id="path3624" /></g></g><g
       id="g3626"><path
         d="m 138.141,0 0,4"
         style="fill:#000000;fill-opacity:1;fill-rule:nonzero;stroke:#000000;stroke-opacity:1;stroke-width:0.5;stroke-linecap:butt;stroke-linejoin:round;stroke-miterlimit:10;stroke-dasharray:none"
         id="path3628" /><path
         d="m 138.141,497.3076 0,-4"
         style="fill:#000000;fill-opacity:1;fill-rule:nonzero;stroke:#000000;stroke-opacity:1;stroke-width:0.5;stroke-linecap:butt;stroke-linejoin:round;stroke-miterlimit:10;stroke-dasharray:none"
         id="path3630" /><text
         transform="matrix(1,0,0,-1,129.3285,-13.125)"
         id="text3632"><tspan
           style="fill:#000000;fill-opacity:1;fill-rule:nonzero;stroke:none;font-family:DejaVu Sans;font-variant:normal;font-weight:normal;font-size:12;writing-mode:lr;-inkscape-font-specification:DejaVuSans"
           x="0 7.632 11.448"
           y="0"
           sodipodi:role="line"
           id="tspan3634">0.4</tspan></text>
</g><g
       id="g3636"><g
         id="g3638"
         clip-path="url(#clipPath3640)"><path
           d="m 193.3974,0 0,497.3076"
           style="fill:none;stroke:#000000;stroke-opacity:1;stroke-width:0.5;stroke-linecap:butt;stroke-linejoin:round;stroke-miterlimit:10;stroke-dasharray:1,3;stroke-dashoffset:0"
           id="path3644" /></g></g><g
       id="g3646"><path
         d="m 193.3974,0 0,4"
         style="fill:#000000;fill-opacity:1;fill-rule:nonzero;stroke:#000000;stroke-opacity:1;stroke-width:0.5;stroke-linecap:butt;stroke-linejoin:round;stroke-miterlimit:10;stroke-dasharray:none"
         id="path3648" /><path
         d="m 193.3974,497.3076 0,-4"
         style="fill:#000000;fill-opacity:1;fill-rule:nonzero;stroke:#000000;stroke-opacity:1;stroke-width:0.5;stroke-linecap:butt;stroke-linejoin:round;stroke-miterlimit:10;stroke-dasharray:none"
         id="path3650" /><text
         transform="matrix(1,0,0,-1,184.63178,-13.125)"
         id="text3652"><tspan
           style="fill:#000000;fill-opacity:1;fill-rule:nonzero;stroke:none;font-family:DejaVu Sans;font-variant:normal;font-weight:normal;font-size:12;writing-mode:lr;-inkscape-font-specification:DejaVuSans"
           x="0 7.632 11.448"
           y="0"
           sodipodi:role="line"
           id="tspan3654">0.6</tspan></text>
</g><g
       id="g3656"><g
         id="g3658"
         clip-path="url(#clipPath3660)"><path
           d="m 248.6538,0 0,497.3076"
           style="fill:none;stroke:#000000;stroke-opacity:1;stroke-width:0.5;stroke-linecap:butt;stroke-linejoin:round;stroke-miterlimit:10;stroke-dasharray:1,3;stroke-dashoffset:0"
           id="path3664" /></g></g><g
       id="g3666"><path
         d="m 248.6538,0 0,4"
         style="fill:#000000;fill-opacity:1;fill-rule:nonzero;stroke:#000000;stroke-opacity:1;stroke-width:0.5;stroke-linecap:butt;stroke-linejoin:round;stroke-miterlimit:10;stroke-dasharray:none"
         id="path3668" /><path
         d="m 248.6538,497.3076 0,-4"
         style="fill:#000000;fill-opacity:1;fill-rule:nonzero;stroke:#000000;stroke-opacity:1;stroke-width:0.5;stroke-linecap:butt;stroke-linejoin:round;stroke-miterlimit:10;stroke-dasharray:none"
         id="path3670" /><text
         transform="matrix(1,0,0,-1,239.91943,-13.125)"
         id="text3672"><tspan
           style="fill:#000000;fill-opacity:1;fill-rule:nonzero;stroke:none;font-family:DejaVu Sans;font-variant:normal;font-weight:normal;font-size:12;writing-mode:lr;-inkscape-font-specification:DejaVuSans"
           x="0 7.632 11.448"
           y="0"
           sodipodi:role="line"
           id="tspan3674">0.8</tspan></text>
</g><g
       id="g3676"><g
         id="g3678"
         clip-path="url(#clipPath3680)"><path
           d="m 303.9102,0 0,497.3076"
           style="fill:none;stroke:#000000;stroke-opacity:1;stroke-width:0.5;stroke-linecap:butt;stroke-linejoin:round;stroke-miterlimit:10;stroke-dasharray:1,3;stroke-dashoffset:0"
           id="path3684" /></g></g><g
       id="g3686"><path
         d="m 303.9102,0 0,4"
         style="fill:#000000;fill-opacity:1;fill-rule:nonzero;stroke:#000000;stroke-opacity:1;stroke-width:0.5;stroke-linecap:butt;stroke-linejoin:round;stroke-miterlimit:10;stroke-dasharray:none"
         id="path3688" /><path
         d="m 303.9102,497.3076 0,-4"
         style="fill:#000000;fill-opacity:1;fill-rule:nonzero;stroke:#000000;stroke-opacity:1;stroke-width:0.5;stroke-linecap:butt;stroke-linejoin:round;stroke-miterlimit:10;stroke-dasharray:none"
         id="path3690" /><text
         transform="matrix(1,0,0,-1,295.41801,-13.125)"
         id="text3692"><tspan
           style="fill:#000000;fill-opacity:1;fill-rule:nonzero;stroke:none;font-family:DejaVu Sans;font-variant:normal;font-weight:normal;font-size:12;writing-mode:lr;-inkscape-font-specification:DejaVuSans"
           x="0 7.632 11.448"
           y="0"
           sodipodi:role="line"
           id="tspan3694">1.0</tspan></text>
</g><g
       id="g3696"><g
         id="g3698"
         clip-path="url(#clipPath3700)"><path
           d="m 0,13.8141 331.5384,0"
           style="fill:none;stroke:#000000;stroke-opacity:1;stroke-width:0.5;stroke-linecap:butt;stroke-linejoin:round;stroke-miterlimit:10;stroke-dasharray:1,3;stroke-dashoffset:0"
           id="path3704" /></g></g><g
       id="g3706"><path
         d="m 0,13.8141 4,0"
         style="fill:#000000;fill-opacity:1;fill-rule:nonzero;stroke:#000000;stroke-opacity:1;stroke-width:0.5;stroke-linecap:butt;stroke-linejoin:round;stroke-miterlimit:10;stroke-dasharray:none"
         id="path3708" /><path
         d="m 331.5384,13.8141 -4,0"
         style="fill:#000000;fill-opacity:1;fill-rule:nonzero;stroke:#000000;stroke-opacity:1;stroke-width:0.5;stroke-linecap:butt;stroke-linejoin:round;stroke-miterlimit:10;stroke-dasharray:none"
         id="path3710" /><text
         transform="matrix(1,0,0,-1,-21.25,10.5016)"
         id="text3712"><tspan
           style="fill:#000000;fill-opacity:1;fill-rule:nonzero;stroke:none;font-family:DejaVu Sans;font-variant:normal;font-weight:normal;font-size:12;writing-mode:lr;-inkscape-font-specification:DejaVuSans"
           x="0 7.632 11.448"
           y="0"
           sodipodi:role="line"
           id="tspan3714">0.5</tspan></text>
</g><g
       id="g3716"><g
         id="g3718"
         clip-path="url(#clipPath3720)"><path
           d="m 0,151.9551 331.5384,0"
           style="fill:none;stroke:#000000;stroke-opacity:1;stroke-width:0.5;stroke-linecap:butt;stroke-linejoin:round;stroke-miterlimit:10;stroke-dasharray:1,3;stroke-dashoffset:0"
           id="path3724" /></g></g><g
       id="g3726"><path
         d="m 0,151.9551 4,0"
         style="fill:#000000;fill-opacity:1;fill-rule:nonzero;stroke:#000000;stroke-opacity:1;stroke-width:0.5;stroke-linecap:butt;stroke-linejoin:round;stroke-miterlimit:10;stroke-dasharray:none"
         id="path3728" /><path
         d="m 331.5384,151.9551 -4,0"
         style="fill:#000000;fill-opacity:1;fill-rule:nonzero;stroke:#000000;stroke-opacity:1;stroke-width:0.5;stroke-linecap:butt;stroke-linejoin:round;stroke-miterlimit:10;stroke-dasharray:none"
         id="path3730" /><text
         transform="matrix(1,0,0,-1,-20.984375,148.6426)"
         id="text3732"><tspan
           style="fill:#000000;fill-opacity:1;fill-rule:nonzero;stroke:none;font-family:DejaVu Sans;font-variant:normal;font-weight:normal;font-size:12;writing-mode:lr;-inkscape-font-specification:DejaVuSans"
           x="0 7.632 11.448"
           y="0"
           sodipodi:role="line"
           id="tspan3734">1.0</tspan></text>
</g><g
       id="g3736"><g
         id="g3738"
         clip-path="url(#clipPath3740)"><path
           d="m 0,290.0961 331.5384,0"
           style="fill:none;stroke:#000000;stroke-opacity:1;stroke-width:0.5;stroke-linecap:butt;stroke-linejoin:round;stroke-miterlimit:10;stroke-dasharray:1,3;stroke-dashoffset:0"
           id="path3744" /></g></g><g
       id="g3746"><path
         d="m 0,290.0961 4,0"
         style="fill:#000000;fill-opacity:1;fill-rule:nonzero;stroke:#000000;stroke-opacity:1;stroke-width:0.5;stroke-linecap:butt;stroke-linejoin:round;stroke-miterlimit:10;stroke-dasharray:none"
         id="path3748" /><path
         d="m 331.5384,290.0961 -4,0"
         style="fill:#000000;fill-opacity:1;fill-rule:nonzero;stroke:#000000;stroke-opacity:1;stroke-width:0.5;stroke-linecap:butt;stroke-linejoin:round;stroke-miterlimit:10;stroke-dasharray:none"
         id="path3750" /><text
         transform="matrix(1,0,0,-1,-20.734375,286.7836)"
         id="text3752"><tspan
           style="fill:#000000;fill-opacity:1;fill-rule:nonzero;stroke:none;font-family:DejaVu Sans;font-variant:normal;font-weight:normal;font-size:12;writing-mode:lr;-inkscape-font-specification:DejaVuSans"
           x="0 7.632 11.448"
           y="0"
           sodipodi:role="line"
           id="tspan3754">1.5</tspan></text>
</g><g
       id="g3756"><g
         id="g3758"
         clip-path="url(#clipPath3760)"><path
           d="m 0,428.2371 331.5384,0"
           style="fill:none;stroke:#000000;stroke-opacity:1;stroke-width:0.5;stroke-linecap:butt;stroke-linejoin:round;stroke-miterlimit:10;stroke-dasharray:1,3;stroke-dashoffset:0"
           id="path3764" /></g></g><path
       inkscape:connector-curvature="0"
       id="path3768"
       style="fill:#000000;fill-opacity:1;fill-rule:nonzero;stroke:#000000;stroke-width:0.5;stroke-linecap:butt;stroke-linejoin:round;stroke-miterlimit:10;stroke-opacity:1;stroke-dasharray:none"
       d="m 0,428.2371 4,0" /><path
       inkscape:connector-curvature="0"
       id="path3770"
       style="fill:#000000;fill-opacity:1;fill-rule:nonzero;stroke:#000000;stroke-width:0.5;stroke-linecap:butt;stroke-linejoin:round;stroke-miterlimit:10;stroke-opacity:1;stroke-dasharray:none"
       d="m 331.5384,428.2371 -4,0" /><text
       id="text3772"
       transform="scale(1,-1)"
       x="-21.421875"
       y="-424.92459"><tspan
         id="tspan3774"
         sodipodi:role="line"
         y="-424.92459"
         x="-21.421875 -13.789875 -9.973875"
         style="font-size:12px;font-variant:normal;font-weight:normal;writing-mode:lr-tb;fill:#000000;fill-opacity:1;fill-rule:nonzero;stroke:none;font-family:DejaVu Sans;-inkscape-font-specification:DejaVuSans">2.0</tspan></text>
<path
       inkscape:connector-curvature="0"
       id="path3776"
       style="fill:none;stroke:#000000;stroke-width:1;stroke-linecap:butt;stroke-linejoin:round;stroke-miterlimit:10;stroke-opacity:1;stroke-dasharray:none"
       d="m 0,497.3076 331.5384,0" /><path
       inkscape:connector-curvature="0"
       id="path3778"
       style="fill:none;stroke:#000000;stroke-width:1;stroke-linecap:butt;stroke-linejoin:round;stroke-miterlimit:10;stroke-opacity:1;stroke-dasharray:none"
       d="m 331.5384,0 0,497.3076" /><path
       inkscape:connector-curvature="0"
       id="path3780"
       style="fill:none;stroke:#000000;stroke-width:1;stroke-linecap:butt;stroke-linejoin:round;stroke-miterlimit:10;stroke-opacity:1;stroke-dasharray:none"
       d="M 0,0 331.5384,0" /><path
       inkscape:connector-curvature="0"
       id="path3782"
       style="fill:none;stroke:#000000;stroke-width:1;stroke-linecap:butt;stroke-linejoin:round;stroke-miterlimit:10;stroke-opacity:1;stroke-dasharray:none"
       d="M 0,0 0,497.3076" /><text
       id="text3784"
       transform="scale(1,-1)"
       x="16.57692"
       y="-472.44223"><tspan
         id="tspan3786"
         sodipodi:role="line"
         y="-472.44223"
         x="16.57692 21.28092 24.61692 36.30492 43.684921 47.500919 57.556919 61.372921 69.004921 72.820923 80.452919 88.084923 95.716919"
         style="font-size:12px;font-variant:normal;font-weight:normal;writing-mode:lr-tb;fill:#000000;fill-opacity:1;fill-rule:nonzero;stroke:none;font-family:DejaVu Sans;-inkscape-font-specification:DejaVuSans">time = 0.205s</tspan></text>
<text
       id="text3788"
       transform="scale(1,-1)"
       x="16.57692"
       y="-447.57684"><tspan
         id="tspan3790"
         sodipodi:role="line"
         y="-447.57684"
         x="16.57692 28.264919 35.608921 47.296921 54.676918 62.28492 66.988922 70.804924 78.184921 83.11692 88.04892 95.392921 100.32492 104.14092 114.19692 118.01292 125.64492 129.46092 137.09293 144.72491 152.35692 159.98892 167.62093 171.43692 180.41292"
         style="font-size:12px;font-variant:normal;font-weight:normal;writing-mode:lr-tb;fill:#000000;fill-opacity:1;fill-rule:nonzero;stroke:none;font-family:DejaVu Sans;-inkscape-font-specification:DejaVuSans">moment error = 0.00000 Nm</tspan></text>
<text
       id="text3792"
       transform="scale(1,-1)"
       x="24.907619"
       y="-468.03665"><tspan
         id="tspan3794"
         sodipodi:role="line"
         y="-468.03665"
         x="24.907619 34.066013 45.154018 49.733219 62.160419 71.290009 75.293213 80.938019 84.941208 90.139618 100.19081 109.00362 118.13321 123.77802 132.60521 140.52521 146.17001 150.74921 164.99081 173.8036 179.72202 183.7252"
         style="font-size:14.39999962px;font-variant:normal;font-weight:normal;writing-mode:lr-tb;fill:#000000;fill-opacity:1;fill-rule:nonzero;stroke:none;font-family:DejaVu Sans;-inkscape-font-specification:DejaVuSans">2D Multi-Contact World</tspan></text>
<rect
       style="fill:#ffffff;fill-opacity:1;stroke:none;stroke-width:3.40000010000000019;stroke-linecap:round;stroke-linejoin:bevel;stroke-miterlimit:10;stroke-opacity:1;stroke-dasharray:3.39999999999999991, 3.39999999999999991;stroke-dashoffset:0"
       id="rect3815"
       width="232.81885"
       height="54.013973"
       x="14.900406"
       y="13.511689"
       transform="matrix(0.8,0,0,-0.8,0,497.3076)" /></g></svg>