\relax 
\@writefile{toc}{\contentsline {section}{\numberline {1}Design of a Recurrant Neural Network which Estimates the ODE of a Series Elastic Actuator}{1}}
\@writefile{toc}{\contentsline {section}{\numberline {2}Training with real data}{1}}
\@writefile{lof}{\contentsline {figure}{\numberline {1}{\ignorespaces Off-white box neural network which predicts acceleration of an SEA. This was a previous model\relax }}{3}}
\providecommand*\caption@xref[2]{\@setref\relax\@undefined{#1}}
\newlabel{fig:SEANetwork}{{1}{3}}
\@writefile{lof}{\contentsline {figure}{\numberline {2}{\ignorespaces Filtered results of a linear semi-physical modeling approach\relax }}{4}}
\newlabel{fig:data}{{2}{4}}
\@writefile{lof}{\contentsline {figure}{\numberline {3}{\ignorespaces Real data: input, motor encoder, spring encoder, output encoder\relax }}{5}}
\newlabel{fig:data}{{3}{5}}
\@writefile{lof}{\contentsline {figure}{\numberline {4}{\ignorespaces Reformatting the dynamics to use a gross position in the units of the joint encoder and a difference variable in the units of the spring encoder I was at last able to identify a model of the actuator. This model at last achieved training which demonstrated the benefit of including damping.\relax }}{6}}
\newlabel{fig:data}{{4}{6}}
