<?xml version="1.0" encoding="UTF-8" standalone="no"?>
<!-- Created with Inkscape (http://www.inkscape.org/) -->

<svg
   xmlns:dc="http://purl.org/dc/elements/1.1/"
   xmlns:cc="http://creativecommons.org/ns#"
   xmlns:rdf="http://www.w3.org/1999/02/22-rdf-syntax-ns#"
   xmlns:svg="http://www.w3.org/2000/svg"
   xmlns="http://www.w3.org/2000/svg"
   xmlns:xlink="http://www.w3.org/1999/xlink"
   xmlns:sodipodi="http://sodipodi.sourceforge.net/DTD/sodipodi-0.dtd"
   xmlns:inkscape="http://www.inkscape.org/namespaces/inkscape"
   width="642.59998"
   height="315"
   id="svg2"
   version="1.1"
   inkscape:version="0.48.4 r9939"
   sodipodi:docname="thoma1.svg"
   inkscape:export-filename="/home/gray/wk/grayutils/tex/Hume-Est/figures/thoma1.png"
   inkscape:export-xdpi="400"
   inkscape:export-ydpi="400">
  <defs
     id="defs4">
    <linearGradient
       inkscape:collect="always"
       id="linearGradient3946">
      <stop
         style="stop-color:#666666;stop-opacity:1;"
         offset="0"
         id="stop3948" />
      <stop
         style="stop-color:#666666;stop-opacity:0;"
         offset="1"
         id="stop3950" />
    </linearGradient>
    <linearGradient
       inkscape:collect="always"
       xlink:href="#linearGradient3946"
       id="linearGradient3954"
       x1="212.98888"
       y1="185.53191"
       x2="327.65182"
       y2="94.10331"
       gradientUnits="userSpaceOnUse" />
  </defs>
  <sodipodi:namedview
     id="base"
     pagecolor="#ffffff"
     bordercolor="#666666"
     borderopacity="1.0"
     inkscape:pageopacity="0.0"
     inkscape:pageshadow="2"
     inkscape:zoom="0.70710678"
     inkscape:cx="250.15316"
     inkscape:cy="238.70474"
     inkscape:document-units="px"
     inkscape:current-layer="layer1"
     showgrid="false"
     units="in"
     inkscape:window-width="1920"
     inkscape:window-height="1030"
     inkscape:window-x="-1"
     inkscape:window-y="0"
     inkscape:window-maximized="0" />
  <metadata
     id="metadata7">
    <rdf:RDF>
      <cc:Work
         rdf:about="">
        <dc:format>image/svg+xml</dc:format>
        <dc:type
           rdf:resource="http://purl.org/dc/dcmitype/StillImage" />
        <dc:title></dc:title>
      </cc:Work>
    </rdf:RDF>
  </metadata>
  <g
     inkscape:label="Layer 1"
     inkscape:groupmode="layer"
     id="layer1"
     transform="translate(0,-737.35975)">
    <g
       id="g4668"
       transform="translate(246.07316,3.5355339)">
      <g
         id="g4670">
        <path
           transform="matrix(0.64308361,0,0,0.64308361,61.59166,798.87064)"
           d="m 294.86352,278.58401 c 0,4.10051 -3.32411,7.42463 -7.42462,7.42463 -4.1005,0 -7.42462,-3.32412 -7.42462,-7.42463 0,-4.1005 3.32412,-7.42462 7.42462,-7.42462 4.10051,0 7.42462,3.32412 7.42462,7.42462 z"
           sodipodi:ry="7.4246211"
           sodipodi:rx="7.4246211"
           sodipodi:cy="278.58401"
           sodipodi:cx="287.4389"
           id="path4672"
           style="opacity:0.62211986;fill:#ba00ff;fill-opacity:1;stroke:#cccccc;stroke-width:1;stroke-linecap:round;stroke-linejoin:round;stroke-miterlimit:4;stroke-opacity:1;stroke-dasharray:none"
           sodipodi:type="arc" />
        <path
           sodipodi:type="arc"
           style="opacity:0.62211986;fill:#0e232e;fill-opacity:1;stroke:none"
           id="path4674"
           sodipodi:cx="287.4389"
           sodipodi:cy="278.58401"
           sodipodi:rx="7.4246211"
           sodipodi:ry="7.4246211"
           d="m 294.86352,278.58401 c 0,4.10051 -3.32411,7.42463 -7.42462,7.42463 -4.1005,0 -7.42462,-3.32412 -7.42462,-7.42463 0,-4.1005 3.32412,-7.42462 7.42462,-7.42462 4.10051,0 7.42462,3.32412 7.42462,7.42462 z"
           transform="matrix(0.11466718,0,0,0.11466718,213.4791,946.07901)" />
      </g>
      <g
         id="g4676"
         transform="matrix(0.93063916,-0.36593819,0.36593819,0.93063916,-400.99939,154.43965)"
         style="fill:#ffffff">
        <path
           transform="translate(0,737.35975)"
           inkscape:connector-curvature="0"
           id="path4678"
           d="m 301.58104,189.13499 0,88.38835 8.83884,0 0,-88.38835"
           style="fill:#ffffff;stroke:#000000;stroke-width:1px;stroke-linecap:butt;stroke-linejoin:miter;stroke-opacity:1" />
        <path
           inkscape:connector-curvature="0"
           id="path4680"
           d="m 301.52651,1014.7609 2.76071,0"
           style="fill:#ffffff;stroke:#000000;stroke-width:1.06770968px;stroke-linecap:butt;stroke-linejoin:miter;stroke-opacity:1" />
        <path
           style="fill:#ffffff;stroke:#000000;stroke-width:1.06770968px;stroke-linecap:butt;stroke-linejoin:miter;stroke-opacity:1"
           d="m 301.52651,1012.2566 2.76071,0"
           id="path4682"
           inkscape:connector-curvature="0" />
        <path
           inkscape:connector-curvature="0"
           id="path4684"
           d="m 301.52651,1009.7525 2.76071,0"
           style="fill:#ffffff;stroke:#000000;stroke-width:1.06770968px;stroke-linecap:butt;stroke-linejoin:miter;stroke-opacity:1" />
        <path
           style="fill:#ffffff;stroke:#000000;stroke-width:1.06770968px;stroke-linecap:butt;stroke-linejoin:miter;stroke-opacity:1"
           d="m 301.52651,1007.2482 2.76071,0"
           id="path4686"
           inkscape:connector-curvature="0" />
        <path
           style="fill:#ffffff;stroke:#000000;stroke-width:1.06770968px;stroke-linecap:butt;stroke-linejoin:miter;stroke-opacity:1"
           d="m 301.52651,1004.7442 2.76071,0"
           id="path4688"
           inkscape:connector-curvature="0" />
        <path
           inkscape:connector-curvature="0"
           id="path4690"
           d="m 301.52651,1002.24 2.76071,0"
           style="fill:#ffffff;stroke:#000000;stroke-width:1.06770968px;stroke-linecap:butt;stroke-linejoin:miter;stroke-opacity:1" />
        <path
           style="fill:#ffffff;stroke:#000000;stroke-width:1.06770968px;stroke-linecap:butt;stroke-linejoin:miter;stroke-opacity:1"
           d="m 301.52651,999.73579 2.76071,0"
           id="path4692"
           inkscape:connector-curvature="0" />
        <path
           inkscape:connector-curvature="0"
           id="path4694"
           d="m 301.52651,997.23166 2.76071,0"
           style="fill:#ffffff;stroke:#000000;stroke-width:1.06770968px;stroke-linecap:butt;stroke-linejoin:miter;stroke-opacity:1" />
        <path
           inkscape:connector-curvature="0"
           id="path4696"
           d="m 301.52651,994.72749 2.76071,0"
           style="fill:#ffffff;stroke:#000000;stroke-width:1.06770968px;stroke-linecap:butt;stroke-linejoin:miter;stroke-opacity:1" />
        <path
           style="fill:#ffffff;stroke:#000000;stroke-width:1.06770968px;stroke-linecap:butt;stroke-linejoin:miter;stroke-opacity:1"
           d="m 301.52651,992.22331 2.76071,0"
           id="path4698"
           inkscape:connector-curvature="0" />
        <path
           inkscape:connector-curvature="0"
           id="path4700"
           d="m 301.52651,989.71914 2.76071,0"
           style="fill:#ffffff;stroke:#000000;stroke-width:1.06770968px;stroke-linecap:butt;stroke-linejoin:miter;stroke-opacity:1" />
        <path
           style="fill:#ffffff;stroke:#000000;stroke-width:1.06770968px;stroke-linecap:butt;stroke-linejoin:miter;stroke-opacity:1"
           d="m 301.52651,987.21497 2.76071,0"
           id="path4702"
           inkscape:connector-curvature="0" />
        <path
           style="fill:#ffffff;stroke:#000000;stroke-width:1.06770968px;stroke-linecap:butt;stroke-linejoin:miter;stroke-opacity:1"
           d="m 301.52651,984.7108 2.76071,0"
           id="path4704"
           inkscape:connector-curvature="0" />
        <path
           inkscape:connector-curvature="0"
           id="path4706"
           d="m 301.52651,982.20663 2.76071,0"
           style="fill:#ffffff;stroke:#000000;stroke-width:1.06770968px;stroke-linecap:butt;stroke-linejoin:miter;stroke-opacity:1" />
        <path
           style="fill:#ffffff;stroke:#000000;stroke-width:1.06770968px;stroke-linecap:butt;stroke-linejoin:miter;stroke-opacity:1"
           d="m 301.52651,979.70247 2.76071,0"
           id="path4708"
           inkscape:connector-curvature="0" />
        <path
           inkscape:connector-curvature="0"
           id="path4710"
           d="m 301.52651,977.1983 2.76071,0"
           style="fill:#ffffff;stroke:#000000;stroke-width:1.06770968px;stroke-linecap:butt;stroke-linejoin:miter;stroke-opacity:1" />
        <path
           inkscape:connector-curvature="0"
           id="path4712"
           d="m 301.52651,974.69412 2.76071,0"
           style="fill:#ffffff;stroke:#000000;stroke-width:1.06770968px;stroke-linecap:butt;stroke-linejoin:miter;stroke-opacity:1" />
        <path
           style="fill:#ffffff;stroke:#000000;stroke-width:1.06770968px;stroke-linecap:butt;stroke-linejoin:miter;stroke-opacity:1"
           d="m 301.52651,972.18994 2.76071,0"
           id="path4714"
           inkscape:connector-curvature="0" />
        <path
           inkscape:connector-curvature="0"
           id="path4716"
           d="m 301.52651,969.68578 2.76071,0"
           style="fill:#ffffff;stroke:#000000;stroke-width:1.06770968px;stroke-linecap:butt;stroke-linejoin:miter;stroke-opacity:1" />
        <path
           style="fill:#ffffff;stroke:#000000;stroke-width:1.06770968px;stroke-linecap:butt;stroke-linejoin:miter;stroke-opacity:1"
           d="m 301.52651,967.18162 2.76071,0"
           id="path4718"
           inkscape:connector-curvature="0" />
        <path
           style="fill:#ffffff;stroke:#000000;stroke-width:1.06770968px;stroke-linecap:butt;stroke-linejoin:miter;stroke-opacity:1"
           d="m 301.52651,964.67745 2.76071,0"
           id="path4720"
           inkscape:connector-curvature="0" />
        <path
           inkscape:connector-curvature="0"
           id="path4722"
           d="m 301.52651,962.17328 2.76071,0"
           style="fill:#ffffff;stroke:#000000;stroke-width:1.06770968px;stroke-linecap:butt;stroke-linejoin:miter;stroke-opacity:1" />
        <path
           style="fill:#ffffff;stroke:#000000;stroke-width:1.06770968px;stroke-linecap:butt;stroke-linejoin:miter;stroke-opacity:1"
           d="m 301.52651,959.66911 2.76071,0"
           id="path4724"
           inkscape:connector-curvature="0" />
        <path
           inkscape:connector-curvature="0"
           id="path4726"
           d="m 301.52651,957.16495 2.76071,0"
           style="fill:#ffffff;stroke:#000000;stroke-width:1.06770968px;stroke-linecap:butt;stroke-linejoin:miter;stroke-opacity:1" />
        <path
           inkscape:connector-curvature="0"
           id="path4728"
           d="m 301.52651,954.66076 2.76071,0"
           style="fill:#ffffff;stroke:#000000;stroke-width:1.06770968px;stroke-linecap:butt;stroke-linejoin:miter;stroke-opacity:1" />
        <path
           style="fill:#ffffff;stroke:#000000;stroke-width:1.06770968px;stroke-linecap:butt;stroke-linejoin:miter;stroke-opacity:1"
           d="m 301.52651,952.15659 2.76071,0"
           id="path4730"
           inkscape:connector-curvature="0" />
        <path
           inkscape:connector-curvature="0"
           id="path4732"
           d="m 301.52651,949.65243 2.76071,0"
           style="fill:#ffffff;stroke:#000000;stroke-width:1.06770968px;stroke-linecap:butt;stroke-linejoin:miter;stroke-opacity:1" />
        <path
           style="fill:#ffffff;stroke:#000000;stroke-width:1.06770968px;stroke-linecap:butt;stroke-linejoin:miter;stroke-opacity:1"
           d="m 301.52651,947.14826 2.76071,0"
           id="path4734"
           inkscape:connector-curvature="0" />
        <path
           style="fill:#ffffff;stroke:#000000;stroke-width:1.06770968px;stroke-linecap:butt;stroke-linejoin:miter;stroke-opacity:1"
           d="m 301.52651,944.64409 2.76071,0"
           id="path4736"
           inkscape:connector-curvature="0" />
        <path
           inkscape:connector-curvature="0"
           id="path4738"
           d="m 301.52651,942.13992 2.76071,0"
           style="fill:#ffffff;stroke:#000000;stroke-width:1.06770968px;stroke-linecap:butt;stroke-linejoin:miter;stroke-opacity:1" />
        <path
           style="fill:#ffffff;stroke:#000000;stroke-width:1.06770968px;stroke-linecap:butt;stroke-linejoin:miter;stroke-opacity:1"
           d="m 301.52651,939.63576 2.76071,0"
           id="path4740"
           inkscape:connector-curvature="0" />
        <path
           inkscape:connector-curvature="0"
           id="path4742"
           d="m 301.52651,937.13157 2.76071,0"
           style="fill:#ffffff;stroke:#000000;stroke-width:1.06770968px;stroke-linecap:butt;stroke-linejoin:miter;stroke-opacity:1" />
        <path
           inkscape:connector-curvature="0"
           id="path4744"
           d="m 301.52651,934.6274 2.76071,0"
           style="fill:#ffffff;stroke:#000000;stroke-width:1.06770968px;stroke-linecap:butt;stroke-linejoin:miter;stroke-opacity:1" />
        <path
           style="fill:#ffffff;stroke:#000000;stroke-width:1.06770968px;stroke-linecap:butt;stroke-linejoin:miter;stroke-opacity:1"
           d="m 301.52651,932.12324 2.76071,0"
           id="path4746"
           inkscape:connector-curvature="0" />
        <path
           inkscape:connector-curvature="0"
           id="path4748"
           d="m 301.52651,929.61907 2.76071,0"
           style="fill:#ffffff;stroke:#000000;stroke-width:1.06770968px;stroke-linecap:butt;stroke-linejoin:miter;stroke-opacity:1" />
        <path
           style="fill:#ffffff;stroke:#000000;stroke-width:1.06770968px;stroke-linecap:butt;stroke-linejoin:miter;stroke-opacity:1"
           d="m 301.52651,927.1149 2.76071,0"
           id="path4750"
           inkscape:connector-curvature="0" />
      </g>
      <g
         transform="matrix(-0.32286881,-0.93603223,-0.93603223,0.32286881,1229.7761,875.36968)"
         id="g4752"
         style="fill:#ffffff">
        <path
           style="fill:#ffffff;stroke:#000000;stroke-width:1px;stroke-linecap:butt;stroke-linejoin:miter;stroke-opacity:1"
           d="m 301.58104,189.13499 0,88.38835 8.83884,0 0,-88.38835"
           id="path4754"
           inkscape:connector-curvature="0"
           transform="translate(0,737.35975)" />
        <path
           style="fill:#ffffff;stroke:#000000;stroke-width:1.06770968px;stroke-linecap:butt;stroke-linejoin:miter;stroke-opacity:1"
           d="m 301.52651,1014.7609 2.76071,0"
           id="path4756"
           inkscape:connector-curvature="0" />
        <path
           inkscape:connector-curvature="0"
           id="path4758"
           d="m 301.52651,1012.2566 2.76071,0"
           style="fill:#ffffff;stroke:#000000;stroke-width:1.06770968px;stroke-linecap:butt;stroke-linejoin:miter;stroke-opacity:1" />
        <path
           style="fill:#ffffff;stroke:#000000;stroke-width:1.06770968px;stroke-linecap:butt;stroke-linejoin:miter;stroke-opacity:1"
           d="m 301.52651,1009.7525 2.76071,0"
           id="path4760"
           inkscape:connector-curvature="0" />
        <path
           inkscape:connector-curvature="0"
           id="path4762"
           d="m 301.52651,1007.2482 2.76071,0"
           style="fill:#ffffff;stroke:#000000;stroke-width:1.06770968px;stroke-linecap:butt;stroke-linejoin:miter;stroke-opacity:1" />
        <path
           inkscape:connector-curvature="0"
           id="path4764"
           d="m 301.52651,1004.7442 2.76071,0"
           style="fill:#ffffff;stroke:#000000;stroke-width:1.06770968px;stroke-linecap:butt;stroke-linejoin:miter;stroke-opacity:1" />
        <path
           style="fill:#ffffff;stroke:#000000;stroke-width:1.06770968px;stroke-linecap:butt;stroke-linejoin:miter;stroke-opacity:1"
           d="m 301.52651,1002.24 2.76071,0"
           id="path4766"
           inkscape:connector-curvature="0" />
        <path
           inkscape:connector-curvature="0"
           id="path4768"
           d="m 301.52651,999.73579 2.76071,0"
           style="fill:#ffffff;stroke:#000000;stroke-width:1.06770968px;stroke-linecap:butt;stroke-linejoin:miter;stroke-opacity:1" />
        <path
           style="fill:#ffffff;stroke:#000000;stroke-width:1.06770968px;stroke-linecap:butt;stroke-linejoin:miter;stroke-opacity:1"
           d="m 301.52651,997.23166 2.76071,0"
           id="path4770"
           inkscape:connector-curvature="0" />
        <path
           style="fill:#ffffff;stroke:#000000;stroke-width:1.06770968px;stroke-linecap:butt;stroke-linejoin:miter;stroke-opacity:1"
           d="m 301.52651,994.72749 2.76071,0"
           id="path4772"
           inkscape:connector-curvature="0" />
        <path
           inkscape:connector-curvature="0"
           id="path4774"
           d="m 301.52651,992.22331 2.76071,0"
           style="fill:#ffffff;stroke:#000000;stroke-width:1.06770968px;stroke-linecap:butt;stroke-linejoin:miter;stroke-opacity:1" />
        <path
           style="fill:#ffffff;stroke:#000000;stroke-width:1.06770968px;stroke-linecap:butt;stroke-linejoin:miter;stroke-opacity:1"
           d="m 301.52651,989.71914 2.76071,0"
           id="path4776"
           inkscape:connector-curvature="0" />
        <path
           inkscape:connector-curvature="0"
           id="path4778"
           d="m 301.52651,987.21497 2.76071,0"
           style="fill:#ffffff;stroke:#000000;stroke-width:1.06770968px;stroke-linecap:butt;stroke-linejoin:miter;stroke-opacity:1" />
        <path
           inkscape:connector-curvature="0"
           id="path4780"
           d="m 301.52651,984.7108 2.76071,0"
           style="fill:#ffffff;stroke:#000000;stroke-width:1.06770968px;stroke-linecap:butt;stroke-linejoin:miter;stroke-opacity:1" />
        <path
           style="fill:#ffffff;stroke:#000000;stroke-width:1.06770968px;stroke-linecap:butt;stroke-linejoin:miter;stroke-opacity:1"
           d="m 301.52651,982.20663 2.76071,0"
           id="path4782"
           inkscape:connector-curvature="0" />
        <path
           inkscape:connector-curvature="0"
           id="path4784"
           d="m 301.52651,979.70247 2.76071,0"
           style="fill:#ffffff;stroke:#000000;stroke-width:1.06770968px;stroke-linecap:butt;stroke-linejoin:miter;stroke-opacity:1" />
        <path
           style="fill:#ffffff;stroke:#000000;stroke-width:1.06770968px;stroke-linecap:butt;stroke-linejoin:miter;stroke-opacity:1"
           d="m 301.52651,977.1983 2.76071,0"
           id="path4786"
           inkscape:connector-curvature="0" />
        <path
           style="fill:#ffffff;stroke:#000000;stroke-width:1.06770968px;stroke-linecap:butt;stroke-linejoin:miter;stroke-opacity:1"
           d="m 301.52651,974.69412 2.76071,0"
           id="path4788"
           inkscape:connector-curvature="0" />
        <path
           inkscape:connector-curvature="0"
           id="path4790"
           d="m 301.52651,972.18994 2.76071,0"
           style="fill:#ffffff;stroke:#000000;stroke-width:1.06770968px;stroke-linecap:butt;stroke-linejoin:miter;stroke-opacity:1" />
        <path
           style="fill:#ffffff;stroke:#000000;stroke-width:1.06770968px;stroke-linecap:butt;stroke-linejoin:miter;stroke-opacity:1"
           d="m 301.52651,969.68578 2.76071,0"
           id="path4792"
           inkscape:connector-curvature="0" />
        <path
           inkscape:connector-curvature="0"
           id="path4794"
           d="m 301.52651,967.18162 2.76071,0"
           style="fill:#ffffff;stroke:#000000;stroke-width:1.06770968px;stroke-linecap:butt;stroke-linejoin:miter;stroke-opacity:1" />
        <path
           inkscape:connector-curvature="0"
           id="path4796"
           d="m 301.52651,964.67745 2.76071,0"
           style="fill:#ffffff;stroke:#000000;stroke-width:1.06770968px;stroke-linecap:butt;stroke-linejoin:miter;stroke-opacity:1" />
        <path
           style="fill:#ffffff;stroke:#000000;stroke-width:1.06770968px;stroke-linecap:butt;stroke-linejoin:miter;stroke-opacity:1"
           d="m 301.52651,962.17328 2.76071,0"
           id="path4798"
           inkscape:connector-curvature="0" />
        <path
           inkscape:connector-curvature="0"
           id="path4800"
           d="m 301.52651,959.66911 2.76071,0"
           style="fill:#ffffff;stroke:#000000;stroke-width:1.06770968px;stroke-linecap:butt;stroke-linejoin:miter;stroke-opacity:1" />
        <path
           style="fill:#ffffff;stroke:#000000;stroke-width:1.06770968px;stroke-linecap:butt;stroke-linejoin:miter;stroke-opacity:1"
           d="m 301.52651,957.16495 2.76071,0"
           id="path4802"
           inkscape:connector-curvature="0" />
        <path
           style="fill:#ffffff;stroke:#000000;stroke-width:1.06770968px;stroke-linecap:butt;stroke-linejoin:miter;stroke-opacity:1"
           d="m 301.52651,954.66076 2.76071,0"
           id="path4804"
           inkscape:connector-curvature="0" />
        <path
           inkscape:connector-curvature="0"
           id="path4806"
           d="m 301.52651,952.15659 2.76071,0"
           style="fill:#ffffff;stroke:#000000;stroke-width:1.06770968px;stroke-linecap:butt;stroke-linejoin:miter;stroke-opacity:1" />
        <path
           style="fill:#ffffff;stroke:#000000;stroke-width:1.06770968px;stroke-linecap:butt;stroke-linejoin:miter;stroke-opacity:1"
           d="m 301.52651,949.65243 2.76071,0"
           id="path4808"
           inkscape:connector-curvature="0" />
        <path
           inkscape:connector-curvature="0"
           id="path4810"
           d="m 301.52651,947.14826 2.76071,0"
           style="fill:#ffffff;stroke:#000000;stroke-width:1.06770968px;stroke-linecap:butt;stroke-linejoin:miter;stroke-opacity:1" />
        <path
           inkscape:connector-curvature="0"
           id="path4812"
           d="m 301.52651,944.64409 2.76071,0"
           style="fill:#ffffff;stroke:#000000;stroke-width:1.06770968px;stroke-linecap:butt;stroke-linejoin:miter;stroke-opacity:1" />
        <path
           style="fill:#ffffff;stroke:#000000;stroke-width:1.06770968px;stroke-linecap:butt;stroke-linejoin:miter;stroke-opacity:1"
           d="m 301.52651,942.13992 2.76071,0"
           id="path4814"
           inkscape:connector-curvature="0" />
        <path
           inkscape:connector-curvature="0"
           id="path4816"
           d="m 301.52651,939.63576 2.76071,0"
           style="fill:#ffffff;stroke:#000000;stroke-width:1.06770968px;stroke-linecap:butt;stroke-linejoin:miter;stroke-opacity:1" />
        <path
           style="fill:#ffffff;stroke:#000000;stroke-width:1.06770968px;stroke-linecap:butt;stroke-linejoin:miter;stroke-opacity:1"
           d="m 301.52651,937.13157 2.76071,0"
           id="path4818"
           inkscape:connector-curvature="0" />
        <path
           style="fill:#ffffff;stroke:#000000;stroke-width:1.06770968px;stroke-linecap:butt;stroke-linejoin:miter;stroke-opacity:1"
           d="m 301.52651,934.6274 2.76071,0"
           id="path4820"
           inkscape:connector-curvature="0" />
        <path
           inkscape:connector-curvature="0"
           id="path4822"
           d="m 301.52651,932.12324 2.76071,0"
           style="fill:#ffffff;stroke:#000000;stroke-width:1.06770968px;stroke-linecap:butt;stroke-linejoin:miter;stroke-opacity:1" />
        <path
           style="fill:#ffffff;stroke:#000000;stroke-width:1.06770968px;stroke-linecap:butt;stroke-linejoin:miter;stroke-opacity:1"
           d="m 301.52651,929.61907 2.76071,0"
           id="path4824"
           inkscape:connector-curvature="0" />
        <path
           inkscape:connector-curvature="0"
           id="path4826"
           d="m 301.52651,927.1149 2.76071,0"
           style="fill:#ffffff;stroke:#000000;stroke-width:1.06770968px;stroke-linecap:butt;stroke-linejoin:miter;stroke-opacity:1" />
      </g>
    </g>
    <path
       inkscape:connector-curvature="0"
       id="path3962"
       d="m 564.99999,833.07403 c 1.79306,-31.01869 -27.76083,-56.63952 -57.48507,-57.43632 -22.39674,-1.58911 -46.44232,13.06143 -50.51242,36.07659 -2.69213,16.3148 7.34324,31.17853 16.71158,43.56329 13.58299,16.8348 30.3533,30.90663 42.69008,48.78314 17.41222,20.0943 55.86652,16.11431 66.56924,-9.11613 6.23291,-14.54273 -2.56904,-29.4773 -11.54086,-40.59927 -4.47378,-6.06577 -8.17965,-13.53568 -6.43255,-21.2713 z"
       style="fill:#ffffff;stroke:#000000;stroke-width:1px;stroke-linecap:butt;stroke-linejoin:miter;stroke-opacity:1" />
    <path
       inkscape:connector-curvature="0"
       id="path3964"
       d="m 490.22321,777.516 c -16.18083,4.65007 -30.19886,17.11093 -33.21875,34.1875 -2.69213,16.3148 7.35041,31.17774 16.71875,43.5625 13.58299,16.8348 30.35072,30.90474 42.6875,48.78125 14.73581,17.00563 44.51052,16.76722 59.8125,1 -34.07159,-7.18329 -64.8671,-28.6876 -83.6875,-57.96875 -16.31841,-20.60372 -9.45974,-46.3977 -2.3125,-69.5625 z"
       style="opacity:0.48387098000000001;fill:#999999;fill-opacity:1;stroke:none" />
    <path
       style="fill:#ffffff;stroke:#000000;stroke-width:1.01260626px;stroke-linecap:butt;stroke-linejoin:miter;stroke-opacity:1"
       d="m 629.27941,936.50382 -0.73249,68.56388 -55.66912,-44.28083 2.92996,-70.70653 z"
       id="path4166"
       inkscape:connector-curvature="0" />
    <g
       transform="matrix(0.52922567,0.57575188,-0.57575188,0.52922567,723.41822,157.67529)"
       id="g4106">
      <path
         style="fill:none;stroke:#000000;stroke-width:1px;stroke-linecap:butt;stroke-linejoin:miter;stroke-opacity:1"
         d="M 411.30602,105.96683 445,107.85714 l -20,35 -32.85714,-2.14285 z"
         id="path4108"
         inkscape:connector-curvature="0"
         transform="translate(0,737.35975)"
         sodipodi:nodetypes="ccccc" />
      <path
         style="fill:none;stroke:#000000;stroke-width:1px;stroke-linecap:butt;stroke-linejoin:miter;stroke-opacity:1"
         d="m 427.29453,106.65604 -18.43529,34.59772"
         id="path4110"
         inkscape:connector-curvature="0"
         transform="translate(0,737.35975)"
         sodipodi:nodetypes="cc" />
      <path
         style="fill:none;stroke:#000000;stroke-width:1px;stroke-linecap:butt;stroke-linejoin:miter;stroke-opacity:1"
         d="m 435.37575,123.82863 -33.08249,-1.76777"
         id="path4112"
         inkscape:connector-curvature="0"
         transform="translate(0,737.35975)"
         sodipodi:nodetypes="cc" />
      <path
         style="fill:#0e232e;stroke:#000000;stroke-width:1px;stroke-linecap:butt;stroke-linejoin:miter;stroke-opacity:1"
         d="m 426.91572,106.90858 18.05648,1.01015 -9.09138,15.9099 -17.29886,-1.01015 z"
         id="path4114"
         inkscape:connector-curvature="0"
         transform="translate(0,737.35975)" />
      <path
         style="fill:#0e232e;stroke:#000000;stroke-width:1px;stroke-linecap:butt;stroke-linejoin:miter;stroke-opacity:1"
         d="m 408.2279,141.88511 10.35406,-19.1929 -16.03617,-0.63135 -10.35406,18.56156 z"
         id="path4116"
         inkscape:connector-curvature="0"
         transform="translate(0,737.35975)" />
    </g>
    <g
       id="g3009"
       transform="matrix(0.99889871,0.04691887,-0.04691887,0.99889871,47.384561,-3.1320585)">
      <path
         transform="translate(0,737.35975)"
         inkscape:connector-curvature="0"
         id="path2985"
         d="m 56.428571,146.42857 24.285715,9.28572 16.428571,-76.428576 -24.285714,-10 z"
         style="fill:none;stroke:#000000;stroke-width:1px;stroke-linecap:butt;stroke-linejoin:miter;stroke-opacity:1" />
      <path
         transform="translate(0,737.35975)"
         inkscape:connector-curvature="0"
         id="path2987"
         d="M 80.714286,154.28571 109.28571,141.42857 126.42857,70 l -28.571427,9.285714 -25,-10 L 100,57.142857 107.85714,60.714285 97.857143,80 126.42857,70 114.28571,60 l -7.14285,1.428571"
         style="fill:none;stroke:#000000;stroke-width:1px;stroke-linecap:butt;stroke-linejoin:miter;stroke-opacity:1" />
    </g>
    <g
       id="g3001"
       transform="matrix(0.63725657,0.77065171,-0.77065171,0.63725657,714.13184,266.83682)">
      <path
         transform="translate(0,737.35975)"
         inkscape:connector-curvature="0"
         id="path2989"
         d="m 85.714286,154.28571 33.571424,36.42858"
         style="fill:none;stroke:#000000;stroke-width:1px;stroke-linecap:butt;stroke-linejoin:miter;stroke-opacity:1" />
      <path
         transform="translate(0,737.35975)"
         inkscape:connector-curvature="0"
         id="path2991"
         d="m 61.428571,155.71429 39.285719,42.85714"
         style="fill:none;stroke:#000000;stroke-width:1px;stroke-linecap:butt;stroke-linejoin:miter;stroke-opacity:1" />
    </g>
    <path
       style="fill:none;stroke:#000000;stroke-width:1px;stroke-linecap:butt;stroke-linejoin:miter;stroke-opacity:1"
       d="M 62.241724,952.24023 42.75828,1004.6222"
       id="path2993"
       inkscape:connector-curvature="0" />
    <g
       id="g3005"
       transform="matrix(0.65381784,0.75665199,-0.75665199,0.65381784,706.44654,225.84017)">
      <path
         transform="translate(0,737.35975)"
         inkscape:connector-curvature="0"
         id="path2995"
         d="m 107.14286,145.71429 35.71428,13.57142"
         style="fill:none;stroke:#000000;stroke-width:1px;stroke-linecap:butt;stroke-linejoin:miter;stroke-opacity:1" />
      <path
         transform="translate(0,737.35975)"
         inkscape:connector-curvature="0"
         id="path2997"
         d="m 101.42857,164.28571 27.14286,8.57143"
         style="fill:none;stroke:#000000;stroke-width:1px;stroke-linecap:butt;stroke-linejoin:miter;stroke-opacity:1" />
    </g>
    <path
       style="fill:none;stroke:#000000;stroke-width:1px;stroke-linecap:butt;stroke-linejoin:miter;stroke-opacity:1"
       d="M 113.11272,932.1568 81.172982,975.41984"
       id="path2999"
       inkscape:connector-curvature="0" />
    <g
       id="g3041">
      <path
         transform="matrix(0.14218565,0,0,0.14218565,82.662834,776.47885)"
         d="m 272.14286,131.78572 a 29.642857,29.642857 0 1 1 -59.28572,0 29.642857,29.642857 0 1 1 59.28572,0 z"
         sodipodi:ry="29.642857"
         sodipodi:rx="29.642857"
         sodipodi:cy="131.78572"
         sodipodi:cx="242.5"
         id="path3013-6"
         style="opacity:0.61290325;fill:#b50000;fill-opacity:1;stroke:#ffffff;stroke-width:1.5;stroke-linecap:round;stroke-linejoin:round;stroke-miterlimit:4;stroke-opacity:1;stroke-dasharray:none"
         sodipodi:type="arc" />
      <path
         sodipodi:type="arc"
         style="opacity:0.61290325;fill:#b50000;fill-opacity:1;stroke:#ffffff;stroke-width:1.5;stroke-linecap:round;stroke-linejoin:round;stroke-miterlimit:4;stroke-opacity:1;stroke-dasharray:none"
         id="path3033"
         sodipodi:cx="242.5"
         sodipodi:cy="131.78572"
         sodipodi:rx="29.642857"
         sodipodi:ry="29.642857"
         d="m 272.14286,131.78572 a 29.642857,29.642857 0 1 1 -59.28572,0 29.642857,29.642857 0 1 1 59.28572,0 z"
         transform="matrix(0.14218565,0,0,0.14218565,71.948548,798.62171)" />
      <path
         transform="matrix(0.14218565,0,0,0.14218565,48.377119,787.19314)"
         d="m 272.14286,131.78572 a 29.642857,29.642857 0 1 1 -59.28572,0 29.642857,29.642857 0 1 1 59.28572,0 z"
         sodipodi:ry="29.642857"
         sodipodi:rx="29.642857"
         sodipodi:cy="131.78572"
         sodipodi:cx="242.5"
         id="path3035"
         style="opacity:0.61290325;fill:#b50000;fill-opacity:1;stroke:#ffffff;stroke-width:1.5;stroke-linecap:round;stroke-linejoin:round;stroke-miterlimit:4;stroke-opacity:1;stroke-dasharray:none"
         sodipodi:type="arc" />
      <path
         sodipodi:type="arc"
         style="opacity:0.61290325;fill:#b50000;fill-opacity:1;stroke:#ffffff;stroke-width:1.5;stroke-linecap:round;stroke-linejoin:round;stroke-miterlimit:4;stroke-opacity:1;stroke-dasharray:none"
         id="path3037"
         sodipodi:cx="242.5"
         sodipodi:cy="131.78572"
         sodipodi:rx="29.642857"
         sodipodi:ry="29.642857"
         d="m 272.14286,131.78572 a 29.642857,29.642857 0 1 1 -59.28572,0 29.642857,29.642857 0 1 1 59.28572,0 z"
         transform="matrix(0.14218565,0,0,0.14218565,101.94855,791.47885)" />
      <path
         transform="matrix(0.14218565,0,0,0.14218565,74.091407,844.33599)"
         d="m 272.14286,131.78572 a 29.642857,29.642857 0 1 1 -59.28572,0 29.642857,29.642857 0 1 1 59.28572,0 z"
         sodipodi:ry="29.642857"
         sodipodi:rx="29.642857"
         sodipodi:cy="131.78572"
         sodipodi:cx="242.5"
         id="path3039"
         style="opacity:0.61290325;fill:#b50000;fill-opacity:1;stroke:#ffffff;stroke-width:1.5;stroke-linecap:round;stroke-linejoin:round;stroke-miterlimit:4;stroke-opacity:1;stroke-dasharray:none"
         sodipodi:type="arc" />
    </g>
    <g
       id="g3859">
      <path
         transform="translate(0,737.35975)"
         inkscape:connector-curvature="0"
         id="path3060"
         d="M 22.142857,7.8571425 43.571429,33.571428 65,21.428571 47.142857,3.5714282"
         style="fill:none;stroke:#000000;stroke-width:1px;stroke-linecap:butt;stroke-linejoin:miter;stroke-opacity:1" />
      <path
         inkscape:connector-curvature="0"
         id="path3062"
         d="m 91.875,744.50261 1.428572,12.14285"
         style="fill:none;stroke:#000000;stroke-width:1px;stroke-linecap:butt;stroke-linejoin:miter;stroke-opacity:1" />
      <path
         transform="translate(-2.4107143,733.69904)"
         d="m 112.85714,22.5 a 8.5714283,6.7857141 0 1 1 -17.142855,0 8.5714283,6.7857141 0 1 1 17.142855,0 z"
         sodipodi:ry="6.7857141"
         sodipodi:rx="8.5714283"
         sodipodi:cy="22.5"
         sodipodi:cx="104.28571"
         id="path3064"
         style="opacity:1;fill:none;fill-opacity:1;stroke:#000000;stroke-width:1;stroke-linecap:round;stroke-linejoin:round;stroke-miterlimit:4;stroke-opacity:1;stroke-dasharray:none"
         sodipodi:type="arc" />
      <path
         transform="translate(0,737.35975)"
         inkscape:connector-curvature="0"
         id="path3834"
         d="M 110.53571,19.017856 111.07143,6.6964278"
         style="fill:none;stroke:#000000;stroke-width:1px;stroke-linecap:butt;stroke-linejoin:miter;stroke-opacity:1" />
      <path
         sodipodi:type="arc"
         style="fill:none;stroke:#000000;stroke-width:1.96899231;stroke-linecap:round;stroke-linejoin:round;stroke-miterlimit:4;stroke-opacity:1;stroke-dasharray:none"
         id="path3847"
         sodipodi:cx="104.28571"
         sodipodi:cy="22.5"
         sodipodi:rx="8.5714283"
         sodipodi:ry="6.7857141"
         d="m 112.85714,22.5 a 8.5714283,6.7857141 0 1 1 -17.142855,0 8.5714283,6.7857141 0 1 1 17.142855,0 z"
         transform="matrix(0.507874,0,0,0.507874,48.910997,746.11117)" />
      <path
         transform="translate(0,737.35975)"
         inkscape:connector-curvature="0"
         id="path3849"
         d="m 59.599,26.096372 6.565992,4.04061 -12.121831,8.08122 -3.535534,-9.091372"
         style="fill:none;stroke:#000000;stroke-width:1px;stroke-linecap:butt;stroke-linejoin:miter;stroke-opacity:1" />
      <path
         sodipodi:nodetypes="ccccc"
         transform="translate(0,737.35975)"
         inkscape:connector-curvature="0"
         id="path3851"
         d="m 140.88038,17.122295 14.68311,1.903009 6.06092,12.626907 -16.16244,-2.525381 -4.54569,-12.121831"
         style="fill:none;stroke:#000000;stroke-width:1px;stroke-linecap:butt;stroke-linejoin:miter;stroke-opacity:1" />
      <path
         transform="translate(0,737.35975)"
         inkscape:connector-curvature="0"
         id="path3853"
         d="M 155.71429,19.285714 167.5,5.7142852 l 5,9.9999998 -10.71429,15.714286"
         style="fill:none;stroke:#000000;stroke-width:1px;stroke-linecap:butt;stroke-linejoin:miter;stroke-opacity:1" />
      <path
         transform="translate(0,737.35975)"
         inkscape:connector-curvature="0"
         id="path3855"
         d="M 141.07143,17.5 155.35714,6.0714281 166.07143,5.3571424"
         style="fill:none;stroke:#000000;stroke-width:1px;stroke-linecap:butt;stroke-linejoin:miter;stroke-opacity:1" />
      <path
         transform="matrix(0.88222692,-0.47082444,0.47082444,0.88222692,6.1950541,812.21516)"
         d="m 154.73215,25.044641 a 2.0089285,2.9910715 0 1 1 -4.01786,0 2.0089285,2.9910715 0 1 1 4.01786,0 z"
         sodipodi:ry="2.9910715"
         sodipodi:rx="2.0089285"
         sodipodi:cy="25.044641"
         sodipodi:cx="152.72322"
         id="path3857"
         style="fill:none;stroke:#000000;stroke-width:1;stroke-linecap:round;stroke-linejoin:round;stroke-miterlimit:4;stroke-opacity:1;stroke-dasharray:none"
         sodipodi:type="arc" />
    </g>
    <g
       id="g3871"
       transform="translate(177,0)">
      <path
         style="fill:none;stroke:#000000;stroke-width:1px;stroke-linecap:butt;stroke-linejoin:miter;stroke-opacity:1"
         d="M 22.142857,7.8571425 43.571429,33.571428 65,21.428571 47.142857,3.5714282"
         id="path3873"
         inkscape:connector-curvature="0"
         transform="translate(0,737.35975)" />
      <path
         style="fill:none;stroke:#000000;stroke-width:1px;stroke-linecap:butt;stroke-linejoin:miter;stroke-opacity:1"
         d="m 91.875,744.50261 1.428572,12.14285"
         id="path3875"
         inkscape:connector-curvature="0" />
      <path
         sodipodi:type="arc"
         style="fill:none;stroke:#000000;stroke-width:1;stroke-linecap:round;stroke-linejoin:round;stroke-miterlimit:4;stroke-opacity:1;stroke-dasharray:none"
         id="path3877"
         sodipodi:cx="104.28571"
         sodipodi:cy="22.5"
         sodipodi:rx="8.5714283"
         sodipodi:ry="6.7857141"
         d="m 112.85714,22.5 c 0,3.747646 -3.83756,6.785714 -8.57143,6.785714 -4.733866,0 -8.571425,-3.038068 -8.571425,-6.785714 0,-3.747646 3.837559,-6.785714 8.571425,-6.785714 4.73387,0 8.57143,3.038068 8.57143,6.785714 z"
         transform="translate(-2.4107143,733.69904)" />
      <path
         style="fill:none;stroke:#000000;stroke-width:1px;stroke-linecap:butt;stroke-linejoin:miter;stroke-opacity:1"
         d="M 110.53571,19.017856 111.07143,6.6964278"
         id="path3879"
         inkscape:connector-curvature="0"
         transform="translate(0,737.35975)" />
      <path
         transform="matrix(0.507874,0,0,0.507874,48.910997,746.11117)"
         d="m 112.85714,22.5 c 0,3.747646 -3.83756,6.785714 -8.57143,6.785714 -4.733866,0 -8.571425,-3.038068 -8.571425,-6.785714 0,-3.747646 3.837559,-6.785714 8.571425,-6.785714 4.73387,0 8.57143,3.038068 8.57143,6.785714 z"
         sodipodi:ry="6.7857141"
         sodipodi:rx="8.5714283"
         sodipodi:cy="22.5"
         sodipodi:cx="104.28571"
         id="path3881"
         style="fill:none;stroke:#000000;stroke-width:1.96899235;stroke-linecap:round;stroke-linejoin:round;stroke-miterlimit:4;stroke-opacity:1;stroke-dasharray:none"
         sodipodi:type="arc" />
      <path
         style="fill:none;stroke:#000000;stroke-width:1px;stroke-linecap:butt;stroke-linejoin:miter;stroke-opacity:1"
         d="m 59.599,26.096372 6.565992,4.04061 -12.121831,8.08122 -3.535534,-9.091372"
         id="path3883"
         inkscape:connector-curvature="0"
         transform="translate(0,737.35975)" />
      <path
         style="fill:none;stroke:#000000;stroke-width:1px;stroke-linecap:butt;stroke-linejoin:miter;stroke-opacity:1"
         d="m 140.88038,17.122295 14.68311,1.903009 6.06092,12.626907 -16.16244,-2.525381 -4.54569,-12.121831"
         id="path3885"
         inkscape:connector-curvature="0"
         transform="translate(0,737.35975)"
         sodipodi:nodetypes="ccccc" />
      <path
         style="fill:none;stroke:#000000;stroke-width:1px;stroke-linecap:butt;stroke-linejoin:miter;stroke-opacity:1"
         d="M 155.71429,19.285714 167.5,5.7142852 l 5,9.9999998 -10.71429,15.714286"
         id="path3887"
         inkscape:connector-curvature="0"
         transform="translate(0,737.35975)" />
      <path
         style="fill:none;stroke:#000000;stroke-width:1px;stroke-linecap:butt;stroke-linejoin:miter;stroke-opacity:1"
         d="M 141.07143,17.5 155.35714,6.0714281 166.07143,5.3571424"
         id="path3889"
         inkscape:connector-curvature="0"
         transform="translate(0,737.35975)" />
      <path
         sodipodi:type="arc"
         style="fill:none;stroke:#000000;stroke-width:1;stroke-linecap:round;stroke-linejoin:round;stroke-miterlimit:4;stroke-opacity:1;stroke-dasharray:none"
         id="path3891"
         sodipodi:cx="152.72322"
         sodipodi:cy="25.044641"
         sodipodi:rx="2.0089285"
         sodipodi:ry="2.9910715"
         d="m 154.73215,25.044641 c 0,1.651924 -0.89943,2.991072 -2.00893,2.991072 -1.1095,0 -2.00893,-1.339148 -2.00893,-2.991072 0,-1.651923 0.89943,-2.991071 2.00893,-2.991071 1.1095,0 2.00893,1.339148 2.00893,2.991071 z"
         transform="matrix(0.88222692,-0.47082444,0.47082444,0.88222692,6.1950541,812.21516)" />
    </g>
    <g
       id="g4587">
      <g
         id="g4583">
        <path
           sodipodi:type="arc"
           style="opacity:0.62211986;fill:#ba00ff;fill-opacity:1;stroke:#cccccc;stroke-width:1;stroke-linecap:round;stroke-linejoin:round;stroke-miterlimit:4;stroke-opacity:1;stroke-dasharray:none"
           id="path4423"
           sodipodi:cx="287.4389"
           sodipodi:cy="278.58401"
           sodipodi:rx="7.4246211"
           sodipodi:ry="7.4246211"
           d="m 294.86352,278.58401 a 7.4246211,7.4246211 0 1 1 -14.84924,0 7.4246211,7.4246211 0 1 1 14.84924,0 z"
           transform="matrix(0.64308361,0,0,0.64308361,61.59166,798.87064)" />
        <path
           transform="matrix(0.11466718,0,0,0.11466718,213.4791,946.07901)"
           d="m 294.86352,278.58401 a 7.4246211,7.4246211 0 1 1 -14.84924,0 7.4246211,7.4246211 0 1 1 14.84924,0 z"
           sodipodi:ry="7.4246211"
           sodipodi:rx="7.4246211"
           sodipodi:cy="278.58401"
           sodipodi:cx="287.4389"
           id="path4581"
           style="opacity:0.62211985999999997;fill:#0e232e;fill-opacity:1;stroke:none;stroke-width:1;stroke-linecap:round;stroke-linejoin:round;stroke-miterlimit:4;stroke-opacity:1;stroke-dasharray:none"
           sodipodi:type="arc" />
      </g>
      <g
         style="fill:#ffffff"
         transform="matrix(0.93063916,-0.36593819,0.36593819,0.93063916,-400.99939,154.43965)"
         id="g4308">
        <path
           style="fill:#ffffff;stroke:#000000;stroke-width:1px;stroke-linecap:butt;stroke-linejoin:miter;stroke-opacity:1"
           d="m 301.58104,189.13499 0,88.38835 8.83884,0 0,-88.38835"
           id="path4232"
           inkscape:connector-curvature="0"
           transform="translate(0,737.35975)" />
        <path
           style="fill:#ffffff;stroke:#000000;stroke-width:1.06770968px;stroke-linecap:butt;stroke-linejoin:miter;stroke-opacity:1"
           d="m 301.52651,1014.7609 2.76071,0"
           id="path4234"
           inkscape:connector-curvature="0" />
        <path
           inkscape:connector-curvature="0"
           id="path4238"
           d="m 301.52651,1012.2566 2.76071,0"
           style="fill:#ffffff;stroke:#000000;stroke-width:1.06770968px;stroke-linecap:butt;stroke-linejoin:miter;stroke-opacity:1" />
        <path
           style="fill:#ffffff;stroke:#000000;stroke-width:1.06770968px;stroke-linecap:butt;stroke-linejoin:miter;stroke-opacity:1"
           d="m 301.52651,1009.7525 2.76071,0"
           id="path4240"
           inkscape:connector-curvature="0" />
        <path
           inkscape:connector-curvature="0"
           id="path4242"
           d="m 301.52651,1007.2482 2.76071,0"
           style="fill:#ffffff;stroke:#000000;stroke-width:1.06770968px;stroke-linecap:butt;stroke-linejoin:miter;stroke-opacity:1" />
        <path
           inkscape:connector-curvature="0"
           id="path4244"
           d="m 301.52651,1004.7442 2.76071,0"
           style="fill:#ffffff;stroke:#000000;stroke-width:1.06770968px;stroke-linecap:butt;stroke-linejoin:miter;stroke-opacity:1" />
        <path
           style="fill:#ffffff;stroke:#000000;stroke-width:1.06770968px;stroke-linecap:butt;stroke-linejoin:miter;stroke-opacity:1"
           d="m 301.52651,1002.24 2.76071,0"
           id="path4246"
           inkscape:connector-curvature="0" />
        <path
           inkscape:connector-curvature="0"
           id="path4248"
           d="m 301.52651,999.73579 2.76071,0"
           style="fill:#ffffff;stroke:#000000;stroke-width:1.06770968px;stroke-linecap:butt;stroke-linejoin:miter;stroke-opacity:1" />
        <path
           style="fill:#ffffff;stroke:#000000;stroke-width:1.06770968px;stroke-linecap:butt;stroke-linejoin:miter;stroke-opacity:1"
           d="m 301.52651,997.23166 2.76071,0"
           id="path4250"
           inkscape:connector-curvature="0" />
        <path
           style="fill:#ffffff;stroke:#000000;stroke-width:1.06770968px;stroke-linecap:butt;stroke-linejoin:miter;stroke-opacity:1"
           d="m 301.52651,994.72749 2.76071,0"
           id="path4252"
           inkscape:connector-curvature="0" />
        <path
           inkscape:connector-curvature="0"
           id="path4254"
           d="m 301.52651,992.22331 2.76071,0"
           style="fill:#ffffff;stroke:#000000;stroke-width:1.06770968px;stroke-linecap:butt;stroke-linejoin:miter;stroke-opacity:1" />
        <path
           style="fill:#ffffff;stroke:#000000;stroke-width:1.06770968px;stroke-linecap:butt;stroke-linejoin:miter;stroke-opacity:1"
           d="m 301.52651,989.71914 2.76071,0"
           id="path4256"
           inkscape:connector-curvature="0" />
        <path
           inkscape:connector-curvature="0"
           id="path4258"
           d="m 301.52651,987.21497 2.76071,0"
           style="fill:#ffffff;stroke:#000000;stroke-width:1.06770968px;stroke-linecap:butt;stroke-linejoin:miter;stroke-opacity:1" />
        <path
           inkscape:connector-curvature="0"
           id="path4260"
           d="m 301.52651,984.7108 2.76071,0"
           style="fill:#ffffff;stroke:#000000;stroke-width:1.06770968px;stroke-linecap:butt;stroke-linejoin:miter;stroke-opacity:1" />
        <path
           style="fill:#ffffff;stroke:#000000;stroke-width:1.06770968px;stroke-linecap:butt;stroke-linejoin:miter;stroke-opacity:1"
           d="m 301.52651,982.20663 2.76071,0"
           id="path4262"
           inkscape:connector-curvature="0" />
        <path
           inkscape:connector-curvature="0"
           id="path4264"
           d="m 301.52651,979.70247 2.76071,0"
           style="fill:#ffffff;stroke:#000000;stroke-width:1.06770968px;stroke-linecap:butt;stroke-linejoin:miter;stroke-opacity:1" />
        <path
           style="fill:#ffffff;stroke:#000000;stroke-width:1.06770968px;stroke-linecap:butt;stroke-linejoin:miter;stroke-opacity:1"
           d="m 301.52651,977.1983 2.76071,0"
           id="path4266"
           inkscape:connector-curvature="0" />
        <path
           style="fill:#ffffff;stroke:#000000;stroke-width:1.06770968px;stroke-linecap:butt;stroke-linejoin:miter;stroke-opacity:1"
           d="m 301.52651,974.69412 2.76071,0"
           id="path4268"
           inkscape:connector-curvature="0" />
        <path
           inkscape:connector-curvature="0"
           id="path4270"
           d="m 301.52651,972.18994 2.76071,0"
           style="fill:#ffffff;stroke:#000000;stroke-width:1.06770968px;stroke-linecap:butt;stroke-linejoin:miter;stroke-opacity:1" />
        <path
           style="fill:#ffffff;stroke:#000000;stroke-width:1.06770968px;stroke-linecap:butt;stroke-linejoin:miter;stroke-opacity:1"
           d="m 301.52651,969.68578 2.76071,0"
           id="path4272"
           inkscape:connector-curvature="0" />
        <path
           inkscape:connector-curvature="0"
           id="path4274"
           d="m 301.52651,967.18162 2.76071,0"
           style="fill:#ffffff;stroke:#000000;stroke-width:1.06770968px;stroke-linecap:butt;stroke-linejoin:miter;stroke-opacity:1" />
        <path
           inkscape:connector-curvature="0"
           id="path4276"
           d="m 301.52651,964.67745 2.76071,0"
           style="fill:#ffffff;stroke:#000000;stroke-width:1.06770968px;stroke-linecap:butt;stroke-linejoin:miter;stroke-opacity:1" />
        <path
           style="fill:#ffffff;stroke:#000000;stroke-width:1.06770968px;stroke-linecap:butt;stroke-linejoin:miter;stroke-opacity:1"
           d="m 301.52651,962.17328 2.76071,0"
           id="path4278"
           inkscape:connector-curvature="0" />
        <path
           inkscape:connector-curvature="0"
           id="path4280"
           d="m 301.52651,959.66911 2.76071,0"
           style="fill:#ffffff;stroke:#000000;stroke-width:1.06770968px;stroke-linecap:butt;stroke-linejoin:miter;stroke-opacity:1" />
        <path
           style="fill:#ffffff;stroke:#000000;stroke-width:1.06770968px;stroke-linecap:butt;stroke-linejoin:miter;stroke-opacity:1"
           d="m 301.52651,957.16495 2.76071,0"
           id="path4282"
           inkscape:connector-curvature="0" />
        <path
           style="fill:#ffffff;stroke:#000000;stroke-width:1.06770968px;stroke-linecap:butt;stroke-linejoin:miter;stroke-opacity:1"
           d="m 301.52651,954.66076 2.76071,0"
           id="path4284"
           inkscape:connector-curvature="0" />
        <path
           inkscape:connector-curvature="0"
           id="path4286"
           d="m 301.52651,952.15659 2.76071,0"
           style="fill:#ffffff;stroke:#000000;stroke-width:1.06770968px;stroke-linecap:butt;stroke-linejoin:miter;stroke-opacity:1" />
        <path
           style="fill:#ffffff;stroke:#000000;stroke-width:1.06770968px;stroke-linecap:butt;stroke-linejoin:miter;stroke-opacity:1"
           d="m 301.52651,949.65243 2.76071,0"
           id="path4288"
           inkscape:connector-curvature="0" />
        <path
           inkscape:connector-curvature="0"
           id="path4290"
           d="m 301.52651,947.14826 2.76071,0"
           style="fill:#ffffff;stroke:#000000;stroke-width:1.06770968px;stroke-linecap:butt;stroke-linejoin:miter;stroke-opacity:1" />
        <path
           inkscape:connector-curvature="0"
           id="path4292"
           d="m 301.52651,944.64409 2.76071,0"
           style="fill:#ffffff;stroke:#000000;stroke-width:1.06770968px;stroke-linecap:butt;stroke-linejoin:miter;stroke-opacity:1" />
        <path
           style="fill:#ffffff;stroke:#000000;stroke-width:1.06770968px;stroke-linecap:butt;stroke-linejoin:miter;stroke-opacity:1"
           d="m 301.52651,942.13992 2.76071,0"
           id="path4294"
           inkscape:connector-curvature="0" />
        <path
           inkscape:connector-curvature="0"
           id="path4296"
           d="m 301.52651,939.63576 2.76071,0"
           style="fill:#ffffff;stroke:#000000;stroke-width:1.06770968px;stroke-linecap:butt;stroke-linejoin:miter;stroke-opacity:1" />
        <path
           style="fill:#ffffff;stroke:#000000;stroke-width:1.06770968px;stroke-linecap:butt;stroke-linejoin:miter;stroke-opacity:1"
           d="m 301.52651,937.13157 2.76071,0"
           id="path4298"
           inkscape:connector-curvature="0" />
        <path
           style="fill:#ffffff;stroke:#000000;stroke-width:1.06770968px;stroke-linecap:butt;stroke-linejoin:miter;stroke-opacity:1"
           d="m 301.52651,934.6274 2.76071,0"
           id="path4300"
           inkscape:connector-curvature="0" />
        <path
           inkscape:connector-curvature="0"
           id="path4302"
           d="m 301.52651,932.12324 2.76071,0"
           style="fill:#ffffff;stroke:#000000;stroke-width:1.06770968px;stroke-linecap:butt;stroke-linejoin:miter;stroke-opacity:1" />
        <path
           style="fill:#ffffff;stroke:#000000;stroke-width:1.06770968px;stroke-linecap:butt;stroke-linejoin:miter;stroke-opacity:1"
           d="m 301.52651,929.61907 2.76071,0"
           id="path4304"
           inkscape:connector-curvature="0" />
        <path
           inkscape:connector-curvature="0"
           id="path4306"
           d="m 301.52651,927.1149 2.76071,0"
           style="fill:#ffffff;stroke:#000000;stroke-width:1.06770968px;stroke-linecap:butt;stroke-linejoin:miter;stroke-opacity:1" />
      </g>
      <g
         style="fill:#ffffff"
         id="g4347"
         transform="matrix(-0.32286881,-0.93603223,-0.93603223,0.32286881,1229.7761,875.36968)">
        <path
           transform="translate(0,737.35975)"
           inkscape:connector-curvature="0"
           id="path4349"
           d="m 301.58104,189.13499 0,88.38835 8.83884,0 0,-88.38835"
           style="fill:#ffffff;stroke:#000000;stroke-width:1px;stroke-linecap:butt;stroke-linejoin:miter;stroke-opacity:1" />
        <path
           inkscape:connector-curvature="0"
           id="path4351"
           d="m 301.52651,1014.7609 2.76071,0"
           style="fill:#ffffff;stroke:#000000;stroke-width:1.06770968px;stroke-linecap:butt;stroke-linejoin:miter;stroke-opacity:1" />
        <path
           style="fill:#ffffff;stroke:#000000;stroke-width:1.06770968px;stroke-linecap:butt;stroke-linejoin:miter;stroke-opacity:1"
           d="m 301.52651,1012.2566 2.76071,0"
           id="path4353"
           inkscape:connector-curvature="0" />
        <path
           inkscape:connector-curvature="0"
           id="path4355"
           d="m 301.52651,1009.7525 2.76071,0"
           style="fill:#ffffff;stroke:#000000;stroke-width:1.06770968px;stroke-linecap:butt;stroke-linejoin:miter;stroke-opacity:1" />
        <path
           style="fill:#ffffff;stroke:#000000;stroke-width:1.06770968px;stroke-linecap:butt;stroke-linejoin:miter;stroke-opacity:1"
           d="m 301.52651,1007.2482 2.76071,0"
           id="path4357"
           inkscape:connector-curvature="0" />
        <path
           style="fill:#ffffff;stroke:#000000;stroke-width:1.06770968px;stroke-linecap:butt;stroke-linejoin:miter;stroke-opacity:1"
           d="m 301.52651,1004.7442 2.76071,0"
           id="path4359"
           inkscape:connector-curvature="0" />
        <path
           inkscape:connector-curvature="0"
           id="path4361"
           d="m 301.52651,1002.24 2.76071,0"
           style="fill:#ffffff;stroke:#000000;stroke-width:1.06770968px;stroke-linecap:butt;stroke-linejoin:miter;stroke-opacity:1" />
        <path
           style="fill:#ffffff;stroke:#000000;stroke-width:1.06770968px;stroke-linecap:butt;stroke-linejoin:miter;stroke-opacity:1"
           d="m 301.52651,999.73579 2.76071,0"
           id="path4363"
           inkscape:connector-curvature="0" />
        <path
           inkscape:connector-curvature="0"
           id="path4365"
           d="m 301.52651,997.23166 2.76071,0"
           style="fill:#ffffff;stroke:#000000;stroke-width:1.06770968px;stroke-linecap:butt;stroke-linejoin:miter;stroke-opacity:1" />
        <path
           inkscape:connector-curvature="0"
           id="path4367"
           d="m 301.52651,994.72749 2.76071,0"
           style="fill:#ffffff;stroke:#000000;stroke-width:1.06770968px;stroke-linecap:butt;stroke-linejoin:miter;stroke-opacity:1" />
        <path
           style="fill:#ffffff;stroke:#000000;stroke-width:1.06770968px;stroke-linecap:butt;stroke-linejoin:miter;stroke-opacity:1"
           d="m 301.52651,992.22331 2.76071,0"
           id="path4369"
           inkscape:connector-curvature="0" />
        <path
           inkscape:connector-curvature="0"
           id="path4371"
           d="m 301.52651,989.71914 2.76071,0"
           style="fill:#ffffff;stroke:#000000;stroke-width:1.06770968px;stroke-linecap:butt;stroke-linejoin:miter;stroke-opacity:1" />
        <path
           style="fill:#ffffff;stroke:#000000;stroke-width:1.06770968px;stroke-linecap:butt;stroke-linejoin:miter;stroke-opacity:1"
           d="m 301.52651,987.21497 2.76071,0"
           id="path4373"
           inkscape:connector-curvature="0" />
        <path
           style="fill:#ffffff;stroke:#000000;stroke-width:1.06770968px;stroke-linecap:butt;stroke-linejoin:miter;stroke-opacity:1"
           d="m 301.52651,984.7108 2.76071,0"
           id="path4375"
           inkscape:connector-curvature="0" />
        <path
           inkscape:connector-curvature="0"
           id="path4377"
           d="m 301.52651,982.20663 2.76071,0"
           style="fill:#ffffff;stroke:#000000;stroke-width:1.06770968px;stroke-linecap:butt;stroke-linejoin:miter;stroke-opacity:1" />
        <path
           style="fill:#ffffff;stroke:#000000;stroke-width:1.06770968px;stroke-linecap:butt;stroke-linejoin:miter;stroke-opacity:1"
           d="m 301.52651,979.70247 2.76071,0"
           id="path4379"
           inkscape:connector-curvature="0" />
        <path
           inkscape:connector-curvature="0"
           id="path4381"
           d="m 301.52651,977.1983 2.76071,0"
           style="fill:#ffffff;stroke:#000000;stroke-width:1.06770968px;stroke-linecap:butt;stroke-linejoin:miter;stroke-opacity:1" />
        <path
           inkscape:connector-curvature="0"
           id="path4383"
           d="m 301.52651,974.69412 2.76071,0"
           style="fill:#ffffff;stroke:#000000;stroke-width:1.06770968px;stroke-linecap:butt;stroke-linejoin:miter;stroke-opacity:1" />
        <path
           style="fill:#ffffff;stroke:#000000;stroke-width:1.06770968px;stroke-linecap:butt;stroke-linejoin:miter;stroke-opacity:1"
           d="m 301.52651,972.18994 2.76071,0"
           id="path4385"
           inkscape:connector-curvature="0" />
        <path
           inkscape:connector-curvature="0"
           id="path4387"
           d="m 301.52651,969.68578 2.76071,0"
           style="fill:#ffffff;stroke:#000000;stroke-width:1.06770968px;stroke-linecap:butt;stroke-linejoin:miter;stroke-opacity:1" />
        <path
           style="fill:#ffffff;stroke:#000000;stroke-width:1.06770968px;stroke-linecap:butt;stroke-linejoin:miter;stroke-opacity:1"
           d="m 301.52651,967.18162 2.76071,0"
           id="path4389"
           inkscape:connector-curvature="0" />
        <path
           style="fill:#ffffff;stroke:#000000;stroke-width:1.06770968px;stroke-linecap:butt;stroke-linejoin:miter;stroke-opacity:1"
           d="m 301.52651,964.67745 2.76071,0"
           id="path4391"
           inkscape:connector-curvature="0" />
        <path
           inkscape:connector-curvature="0"
           id="path4393"
           d="m 301.52651,962.17328 2.76071,0"
           style="fill:#ffffff;stroke:#000000;stroke-width:1.06770968px;stroke-linecap:butt;stroke-linejoin:miter;stroke-opacity:1" />
        <path
           style="fill:#ffffff;stroke:#000000;stroke-width:1.06770968px;stroke-linecap:butt;stroke-linejoin:miter;stroke-opacity:1"
           d="m 301.52651,959.66911 2.76071,0"
           id="path4395"
           inkscape:connector-curvature="0" />
        <path
           inkscape:connector-curvature="0"
           id="path4397"
           d="m 301.52651,957.16495 2.76071,0"
           style="fill:#ffffff;stroke:#000000;stroke-width:1.06770968px;stroke-linecap:butt;stroke-linejoin:miter;stroke-opacity:1" />
        <path
           inkscape:connector-curvature="0"
           id="path4399"
           d="m 301.52651,954.66076 2.76071,0"
           style="fill:#ffffff;stroke:#000000;stroke-width:1.06770968px;stroke-linecap:butt;stroke-linejoin:miter;stroke-opacity:1" />
        <path
           style="fill:#ffffff;stroke:#000000;stroke-width:1.06770968px;stroke-linecap:butt;stroke-linejoin:miter;stroke-opacity:1"
           d="m 301.52651,952.15659 2.76071,0"
           id="path4401"
           inkscape:connector-curvature="0" />
        <path
           inkscape:connector-curvature="0"
           id="path4403"
           d="m 301.52651,949.65243 2.76071,0"
           style="fill:#ffffff;stroke:#000000;stroke-width:1.06770968px;stroke-linecap:butt;stroke-linejoin:miter;stroke-opacity:1" />
        <path
           style="fill:#ffffff;stroke:#000000;stroke-width:1.06770968px;stroke-linecap:butt;stroke-linejoin:miter;stroke-opacity:1"
           d="m 301.52651,947.14826 2.76071,0"
           id="path4405"
           inkscape:connector-curvature="0" />
        <path
           style="fill:#ffffff;stroke:#000000;stroke-width:1.06770968px;stroke-linecap:butt;stroke-linejoin:miter;stroke-opacity:1"
           d="m 301.52651,944.64409 2.76071,0"
           id="path4407"
           inkscape:connector-curvature="0" />
        <path
           inkscape:connector-curvature="0"
           id="path4409"
           d="m 301.52651,942.13992 2.76071,0"
           style="fill:#ffffff;stroke:#000000;stroke-width:1.06770968px;stroke-linecap:butt;stroke-linejoin:miter;stroke-opacity:1" />
        <path
           style="fill:#ffffff;stroke:#000000;stroke-width:1.06770968px;stroke-linecap:butt;stroke-linejoin:miter;stroke-opacity:1"
           d="m 301.52651,939.63576 2.76071,0"
           id="path4411"
           inkscape:connector-curvature="0" />
        <path
           inkscape:connector-curvature="0"
           id="path4413"
           d="m 301.52651,937.13157 2.76071,0"
           style="fill:#ffffff;stroke:#000000;stroke-width:1.06770968px;stroke-linecap:butt;stroke-linejoin:miter;stroke-opacity:1" />
        <path
           inkscape:connector-curvature="0"
           id="path4415"
           d="m 301.52651,934.6274 2.76071,0"
           style="fill:#ffffff;stroke:#000000;stroke-width:1.06770968px;stroke-linecap:butt;stroke-linejoin:miter;stroke-opacity:1" />
        <path
           style="fill:#ffffff;stroke:#000000;stroke-width:1.06770968px;stroke-linecap:butt;stroke-linejoin:miter;stroke-opacity:1"
           d="m 301.52651,932.12324 2.76071,0"
           id="path4417"
           inkscape:connector-curvature="0" />
        <path
           inkscape:connector-curvature="0"
           id="path4419"
           d="m 301.52651,929.61907 2.76071,0"
           style="fill:#ffffff;stroke:#000000;stroke-width:1.06770968px;stroke-linecap:butt;stroke-linejoin:miter;stroke-opacity:1" />
        <path
           style="fill:#ffffff;stroke:#000000;stroke-width:1.06770968px;stroke-linecap:butt;stroke-linejoin:miter;stroke-opacity:1"
           d="m 301.52651,927.1149 2.76071,0"
           id="path4421"
           inkscape:connector-curvature="0" />
      </g>
    </g>
    <g
       id="g3956"
       transform="translate(-28,1.4142101)">
      <path
         inkscape:connector-curvature="0"
         id="path3893"
         d="m 351.42139,833.07403 c 1.79306,-31.01869 -27.76083,-56.63952 -57.48507,-57.43632 -22.39674,-1.58911 -46.44232,13.06143 -50.51242,36.07659 -2.69213,16.3148 7.34324,31.17853 16.71158,43.56329 13.58299,16.8348 30.3533,30.90663 42.69008,48.78314 17.41222,20.0943 55.86652,16.11431 66.56924,-9.11613 6.23291,-14.54273 -2.56904,-29.4773 -11.54086,-40.59927 -4.47378,-6.06577 -8.17965,-13.53568 -6.43255,-21.2713 z"
         style="fill:#ffffff;stroke:#000000;stroke-width:1px;stroke-linecap:butt;stroke-linejoin:miter;stroke-opacity:1" />
      <path
         id="path3929"
         transform="translate(0,737.35975)"
         d="m 275.9375,40.15625 c -16.18083,4.650071 -30.19886,17.110926 -33.21875,34.1875 -2.69213,16.3148 7.35041,31.17774 16.71875,43.5625 13.58299,16.8348 30.35072,30.90474 42.6875,48.78125 14.73581,17.00563 44.51052,16.76722 59.8125,1 -34.07159,-7.18329 -64.8671,-28.6876 -83.6875,-57.96875 -16.31841,-20.603723 -9.45974,-46.397699 -2.3125,-69.5625 z"
         style="opacity:0.48387098;fill:url(#linearGradient3954);fill-opacity:1;stroke:none"
         inkscape:connector-curvature="0" />
    </g>
    <g
       id="g4042"
       transform="matrix(0.29664773,-0.95498698,0.95498698,0.29664773,-321.47327,1093.3689)">
      <path
         inkscape:connector-curvature="0"
         id="path3972"
         d="m 502.58929,744.50261 1.42857,12.14285"
         style="fill:none;stroke:#000000;stroke-width:1px;stroke-linecap:butt;stroke-linejoin:miter;stroke-opacity:1" />
      <path
         transform="translate(408.30358,733.69904)"
         d="m 112.85714,22.5 c 0,3.747646 -3.83756,6.785714 -8.57143,6.785714 -4.733866,0 -8.571425,-3.038068 -8.571425,-6.785714 0,-3.747646 3.837559,-6.785714 8.571425,-6.785714 4.73387,0 8.57143,3.038068 8.57143,6.785714 z"
         sodipodi:ry="6.7857141"
         sodipodi:rx="8.5714283"
         sodipodi:cy="22.5"
         sodipodi:cx="104.28571"
         id="path3974"
         style="fill:none;stroke:#000000;stroke-width:1;stroke-linecap:round;stroke-linejoin:round;stroke-miterlimit:4;stroke-opacity:1;stroke-dasharray:none"
         sodipodi:type="arc" />
      <path
         inkscape:connector-curvature="0"
         id="path3976"
         d="m 521.25,756.37761 0.53572,-12.32143"
         style="fill:none;stroke:#000000;stroke-width:1px;stroke-linecap:butt;stroke-linejoin:miter;stroke-opacity:1" />
      <path
         sodipodi:type="arc"
         style="fill:none;stroke:#000000;stroke-width:1.96899235;stroke-linecap:round;stroke-linejoin:round;stroke-miterlimit:4;stroke-opacity:1;stroke-dasharray:none"
         id="path3978"
         sodipodi:cx="104.28571"
         sodipodi:cy="22.5"
         sodipodi:rx="8.5714283"
         sodipodi:ry="6.7857141"
         d="m 112.85714,22.5 c 0,3.747646 -3.83756,6.785714 -8.57143,6.785714 -4.733866,0 -8.571425,-3.038068 -8.571425,-6.785714 0,-3.747646 3.837559,-6.785714 8.571425,-6.785714 4.73387,0 8.57143,3.038068 8.57143,6.785714 z"
         transform="matrix(0.507874,0,0,0.507874,459.62529,746.11117)" />
    </g>
    <g
       id="g4038"
       transform="matrix(1.025238,0.39025219,0.39025219,-1.025238,-211.42597,1372.2747)">
      <path
         inkscape:connector-curvature="0"
         id="path3970"
         d="m 432.85715,745.21689 21.42857,25.71429 21.42857,-12.14286 -17.85714,-17.85714"
         style="fill:none;stroke:#000000;stroke-width:1px;stroke-linecap:butt;stroke-linejoin:miter;stroke-opacity:1" />
      <path
         inkscape:connector-curvature="0"
         id="path3980"
         d="m 470.31329,763.45612 6.56599,4.04061 -12.12183,8.08122 -3.53553,-9.09137"
         style="fill:none;stroke:#000000;stroke-width:1px;stroke-linecap:butt;stroke-linejoin:miter;stroke-opacity:1" />
    </g>
    <g
       id="g4026"
       transform="translate(20.203051,-98.994949)">
      <path
         transform="translate(0,737.35975)"
         inkscape:connector-curvature="0"
         id="path4016"
         d="m 433.21429,210.35714 4.375,11.69643 16.07143,2.32143 11.07142,-15.98214 -5.08928,-10 -12.14286,0.625 z"
         style="fill:#ffffff;stroke:#ffffff;stroke-width:1px;stroke-linecap:butt;stroke-linejoin:miter;stroke-opacity:1" />
      <g
         transform="translate(-118.57143,192.85714)"
         id="g4008">
        <path
           style="fill:none;stroke:#000000;stroke-width:1px;stroke-linecap:butt;stroke-linejoin:miter;stroke-opacity:1"
           d="m 551.59467,754.48204 14.68311,1.90301 6.06092,12.62691 -16.16244,-2.52538 -4.54569,-12.12183"
           id="path3982"
           inkscape:connector-curvature="0"
           sodipodi:nodetypes="ccccc" />
        <path
           style="fill:none;stroke:#000000;stroke-width:1px;stroke-linecap:butt;stroke-linejoin:miter;stroke-opacity:1"
           d="m 566.42858,756.64546 11.78571,-13.57142 5,9.99999 L 572.5,768.78832"
           id="path3984"
           inkscape:connector-curvature="0" />
        <path
           style="fill:none;stroke:#000000;stroke-width:1px;stroke-linecap:butt;stroke-linejoin:miter;stroke-opacity:1"
           d="m 551.78572,754.85975 14.28571,-11.42857 10.71429,-0.71429"
           id="path3986"
           inkscape:connector-curvature="0" />
        <path
           sodipodi:type="arc"
           style="fill:none;stroke:#000000;stroke-width:1;stroke-linecap:round;stroke-linejoin:round;stroke-miterlimit:4;stroke-opacity:1;stroke-dasharray:none"
           id="path3988"
           sodipodi:cx="152.72322"
           sodipodi:cy="25.044641"
           sodipodi:rx="2.0089285"
           sodipodi:ry="2.9910715"
           d="m 154.73215,25.044641 c 0,1.651924 -0.89943,2.991072 -2.00893,2.991072 -1.1095,0 -2.00893,-1.339148 -2.00893,-2.991072 0,-1.651923 0.89943,-2.991071 2.00893,-2.991071 1.1095,0 2.00893,1.339148 2.00893,2.991071 z"
           transform="matrix(0.88222692,-0.47082444,0.47082444,0.88222692,416.90934,812.21516)" />
      </g>
    </g>
    <path
       sodipodi:type="arc"
       style="opacity:0.61290325;fill:#b50000;fill-opacity:1;stroke:#ffffff;stroke-width:1.5;stroke-linecap:round;stroke-linejoin:round;stroke-miterlimit:4;stroke-opacity:1;stroke-dasharray:none"
       id="path4050"
       sodipodi:cx="242.5"
       sodipodi:cy="131.78572"
       sodipodi:rx="29.642857"
       sodipodi:ry="29.642857"
       d="m 272.14286,131.78572 a 29.642857,29.642857 0 1 1 -59.28572,0 29.642857,29.642857 0 1 1 59.28572,0 z"
       transform="matrix(0.14218565,0,0,0.14218565,411.89056,739.10321)" />
    <path
       transform="matrix(0.14218565,0,0,0.14218565,542.2869,871.23549)"
       d="m 272.14286,131.78572 a 29.642857,29.642857 0 1 1 -59.28572,0 29.642857,29.642857 0 1 1 59.28572,0 z"
       sodipodi:ry="29.642857"
       sodipodi:rx="29.642857"
       sodipodi:cy="131.78572"
       sodipodi:cx="242.5"
       id="path4052"
       style="opacity:0.61290325;fill:#b50000;fill-opacity:1;stroke:#ffffff;stroke-width:1.5;stroke-linecap:round;stroke-linejoin:round;stroke-miterlimit:4;stroke-opacity:1;stroke-dasharray:none"
       sodipodi:type="arc" />
    <path
       transform="matrix(0.14218565,0,0,0.14218565,584.71947,748.04229)"
       d="m 272.14286,131.78572 a 29.642857,29.642857 0 1 1 -59.28572,0 29.642857,29.642857 0 1 1 59.28572,0 z"
       sodipodi:ry="29.642857"
       sodipodi:rx="29.642857"
       sodipodi:cy="131.78572"
       sodipodi:cx="242.5"
       id="path4056"
       style="opacity:0.61290325;fill:#b50000;fill-opacity:1;stroke:#ffffff;stroke-width:1.5;stroke-linecap:round;stroke-linejoin:round;stroke-miterlimit:4;stroke-opacity:1;stroke-dasharray:none"
       sodipodi:type="arc" />
    <path
       sodipodi:type="arc"
       style="opacity:0.61290325;fill:#b50000;fill-opacity:1;stroke:#ffffff;stroke-width:1.5;stroke-linecap:round;stroke-linejoin:round;stroke-miterlimit:4;stroke-opacity:1;stroke-dasharray:none"
       id="path4058"
       sodipodi:cx="242.5"
       sodipodi:cy="131.78572"
       sodipodi:rx="29.642857"
       sodipodi:ry="29.642857"
       d="m 272.14286,131.78572 a 29.642857,29.642857 0 1 1 -59.28572,0 29.642857,29.642857 0 1 1 59.28572,0 z"
       transform="matrix(0.14218565,0,0,0.14218565,565.5628,827.02636)" />
    <g
       transform="translate(215,5.7142857)"
       id="g4065"
       style="opacity:0.61290323">
      <path
         sodipodi:type="arc"
         style="fill:none;stroke:#000000;stroke-width:1;stroke-linecap:round;stroke-linejoin:round;stroke-miterlimit:4;stroke-opacity:1;stroke-dasharray:none"
         id="path4067"
         sodipodi:cx="300.71429"
         sodipodi:cy="102.14286"
         sodipodi:rx="12.142858"
         sodipodi:ry="12.142858"
         d="m 312.85715,102.14286 c 0,6.70632 -5.43654,12.14286 -12.14286,12.14286 -6.70631,0 -12.14285,-5.43654 -12.14285,-12.14286 0,-6.706315 5.43654,-12.142857 12.14285,-12.142857 6.70632,0 12.14286,5.436542 12.14286,12.142857 z"
         transform="translate(0,737.35975)" />
      <path
         transform="translate(0,737.35975)"
         d="m 312.85715,102.14286 c 0,6.70632 -5.43654,12.14286 -12.14286,12.14286 l 0,-12.14286 z"
         sodipodi:ry="12.142858"
         sodipodi:rx="12.142858"
         sodipodi:cy="102.14286"
         sodipodi:cx="300.71429"
         id="path4069"
         style="fill:#0e232e;stroke:#000000;stroke-width:1;stroke-linecap:round;stroke-linejoin:round;stroke-miterlimit:4;stroke-opacity:1;stroke-dasharray:none"
         sodipodi:type="arc"
         sodipodi:start="0"
         sodipodi:end="1.5707963" />
      <path
         sodipodi:type="arc"
         style="fill:#0e232e;stroke:#000000;stroke-width:1;stroke-linecap:round;stroke-linejoin:round;stroke-miterlimit:4;stroke-opacity:1;stroke-dasharray:none"
         id="path4071"
         sodipodi:cx="300.71429"
         sodipodi:cy="102.14286"
         sodipodi:rx="12.142858"
         sodipodi:ry="12.142858"
         d="m 288.57144,102.14579 c -0.002,-6.642147 5.33387,-12.053025 11.97538,-12.144632 l 0.16747,12.141702 z"
         transform="translate(0,737.35975)"
         sodipodi:start="3.1413516"
         sodipodi:end="4.6985968" />
    </g>
    <g
       id="g4085"
       transform="matrix(0.5245992,0,0,0.94476725,294.17123,42.364711)"
       style="stroke-width:1.42044288;stroke-miterlimit:4;stroke-dasharray:none">
      <path
         transform="translate(0,737.35975)"
         inkscape:connector-curvature="0"
         id="path4073"
         d="m 618.21429,30.357142 -32.14286,27.5 12.85714,-1.428571 -22.14285,32.142857 18.92857,-0.357143 -12.14286,26.071425 21.07143,-5.71428 -1.42857,36.78571"
         style="fill:none;stroke:#000000;stroke-width:1.42044288;stroke-linecap:butt;stroke-linejoin:miter;stroke-opacity:1;stroke-miterlimit:4;stroke-dasharray:none" />
      <path
         style="fill:none;stroke:#000000;stroke-width:1.42044288;stroke-linecap:butt;stroke-linejoin:miter;stroke-opacity:1;stroke-miterlimit:4;stroke-dasharray:none"
         d="m 619.21597,767.52329 32.25109,27.59259 -12.90043,-1.43338 22.21741,32.25108 -18.99231,-0.35834 12.18375,26.15921 -21.14238,-5.73352 1.43338,36.90957"
         id="path4075"
         inkscape:connector-curvature="0" />
    </g>
    <path
       style="fill:none;stroke:#000000;stroke-width:1px;stroke-linecap:butt;stroke-linejoin:miter;stroke-opacity:1"
       d="m 417.14286,59.285714 30,-37.857143 16.42857,17.857143 9.28571,-12.142857 15,7.857143"
       id="path4077"
       inkscape:connector-curvature="0"
       transform="translate(0,737.35975)" />
    <path
       style="fill:none;stroke:#000000;stroke-width:1px;stroke-linecap:butt;stroke-linejoin:miter;stroke-opacity:1"
       d="M 456.42857,29.285714 482.85714,20 l 21.42857,7.857143"
       id="path4079"
       inkscape:connector-curvature="0"
       transform="translate(0,737.35975)" />
    <path
       style="fill:none;stroke:#000000;stroke-width:1px;stroke-linecap:butt;stroke-linejoin:miter;stroke-opacity:1"
       d="m 429.28571,43.571428 -13.57142,-15 -29.28572,24.285715"
       id="path4081"
       inkscape:connector-curvature="0"
       transform="translate(0,737.35975)" />
    <path
       style="fill:none;stroke:#000000;stroke-width:1px;stroke-linecap:butt;stroke-linejoin:miter;stroke-opacity:1"
       d="m 441.96429,28.303571 0.35714,3.035714 1.69643,-1.696429 1.78571,7.678572 1.07143,-7.410714 5.08929,4.553571 -0.26786,-7.321429"
       id="path4083"
       inkscape:connector-curvature="0"
       transform="translate(0,737.35975)" />
    <g
       id="g4099"
       transform="matrix(0.52922567,0.57575188,-0.57575188,0.52922567,693.23965,164.63958)">
      <path
         sodipodi:nodetypes="ccccc"
         transform="translate(0,737.35975)"
         inkscape:connector-curvature="0"
         id="path4089"
         d="M 411.30602,105.96683 445,107.85714 l -20,35 -32.85714,-2.14285 z"
         style="fill:none;stroke:#000000;stroke-width:1px;stroke-linecap:butt;stroke-linejoin:miter;stroke-opacity:1" />
      <path
         sodipodi:nodetypes="cc"
         transform="translate(0,737.35975)"
         inkscape:connector-curvature="0"
         id="path4091"
         d="m 427.29453,106.65604 -18.43529,34.59772"
         style="fill:none;stroke:#000000;stroke-width:1px;stroke-linecap:butt;stroke-linejoin:miter;stroke-opacity:1" />
      <path
         sodipodi:nodetypes="cc"
         transform="translate(0,737.35975)"
         inkscape:connector-curvature="0"
         id="path4093"
         d="m 435.37575,123.82863 -33.08249,-1.76777"
         style="fill:none;stroke:#000000;stroke-width:1px;stroke-linecap:butt;stroke-linejoin:miter;stroke-opacity:1" />
      <path
         transform="translate(0,737.35975)"
         inkscape:connector-curvature="0"
         id="path4095"
         d="m 426.91572,106.90858 18.05648,1.01015 -9.09138,15.9099 -17.29886,-1.01015 z"
         style="fill:#0e232e;stroke:#000000;stroke-width:1px;stroke-linecap:butt;stroke-linejoin:miter;stroke-opacity:1" />
      <path
         transform="translate(0,737.35975)"
         inkscape:connector-curvature="0"
         id="path4097"
         d="m 408.2279,141.88511 10.35406,-19.1929 -16.03617,-0.63135 -10.35406,18.56156 z"
         style="fill:#0e232e;stroke:#000000;stroke-width:1px;stroke-linecap:butt;stroke-linejoin:miter;stroke-opacity:1" />
    </g>
    <path
       sodipodi:type="arc"
       style="opacity:0.61290325;fill:#b50000;fill-opacity:1;stroke:#ffffff;stroke-width:1.5;stroke-linecap:round;stroke-linejoin:round;stroke-miterlimit:4;stroke-opacity:1;stroke-dasharray:none"
       id="path4054"
       sodipodi:cx="242.5"
       sodipodi:cy="131.78572"
       sodipodi:rx="29.642857"
       sodipodi:ry="29.642857"
       d="m 272.14286,131.78572 a 29.642857,29.642857 0 1 1 -59.28572,0 29.642857,29.642857 0 1 1 59.28572,0 z"
       transform="matrix(0.14218565,0,0,0.14218565,383.81062,841.52601)" />
    <g
       id="g4118"
       transform="matrix(0.52922567,0.57575188,-0.57575188,0.52922567,709.66822,184.99672)">
      <path
         sodipodi:nodetypes="ccccc"
         transform="translate(0,737.35975)"
         inkscape:connector-curvature="0"
         id="path4120"
         d="M 411.30602,105.96683 445,107.85714 l -20,35 -32.85714,-2.14285 z"
         style="fill:none;stroke:#000000;stroke-width:1px;stroke-linecap:butt;stroke-linejoin:miter;stroke-opacity:1" />
      <path
         sodipodi:nodetypes="cc"
         transform="translate(0,737.35975)"
         inkscape:connector-curvature="0"
         id="path4122"
         d="m 427.29453,106.65604 -18.43529,34.59772"
         style="fill:none;stroke:#000000;stroke-width:1px;stroke-linecap:butt;stroke-linejoin:miter;stroke-opacity:1" />
      <path
         sodipodi:nodetypes="cc"
         transform="translate(0,737.35975)"
         inkscape:connector-curvature="0"
         id="path4124"
         d="m 435.37575,123.82863 -33.08249,-1.76777"
         style="fill:none;stroke:#000000;stroke-width:1px;stroke-linecap:butt;stroke-linejoin:miter;stroke-opacity:1" />
      <path
         transform="translate(0,737.35975)"
         inkscape:connector-curvature="0"
         id="path4126"
         d="m 426.91572,106.90858 18.05648,1.01015 -9.09138,15.9099 -17.29886,-1.01015 z"
         style="fill:#0e232e;stroke:#000000;stroke-width:1px;stroke-linecap:butt;stroke-linejoin:miter;stroke-opacity:1" />
      <path
         transform="translate(0,737.35975)"
         inkscape:connector-curvature="0"
         id="path4128"
         d="m 408.2279,141.88511 10.35406,-19.1929 -16.03617,-0.63135 -10.35406,18.56156 z"
         style="fill:#0e232e;stroke:#000000;stroke-width:1px;stroke-linecap:butt;stroke-linejoin:miter;stroke-opacity:1" />
    </g>
    <g
       transform="matrix(0.52922567,0.57575188,-0.57575188,0.52922567,676.45393,144.28243)"
       id="g4130">
      <path
         style="fill:none;stroke:#000000;stroke-width:1px;stroke-linecap:butt;stroke-linejoin:miter;stroke-opacity:1"
         d="M 411.30602,105.96683 445,107.85714 l -20,35 -32.85714,-2.14285 z"
         id="path4132"
         inkscape:connector-curvature="0"
         transform="translate(0,737.35975)"
         sodipodi:nodetypes="ccccc" />
      <path
         style="fill:none;stroke:#000000;stroke-width:1px;stroke-linecap:butt;stroke-linejoin:miter;stroke-opacity:1"
         d="m 427.29453,106.65604 -18.43529,34.59772"
         id="path4134"
         inkscape:connector-curvature="0"
         transform="translate(0,737.35975)"
         sodipodi:nodetypes="cc" />
      <path
         style="fill:none;stroke:#000000;stroke-width:1px;stroke-linecap:butt;stroke-linejoin:miter;stroke-opacity:1"
         d="m 435.37575,123.82863 -33.08249,-1.76777"
         id="path4136"
         inkscape:connector-curvature="0"
         transform="translate(0,737.35975)"
         sodipodi:nodetypes="cc" />
      <path
         style="fill:#0e232e;stroke:#000000;stroke-width:1px;stroke-linecap:butt;stroke-linejoin:miter;stroke-opacity:1"
         d="m 426.91572,106.90858 18.05648,1.01015 -9.09138,15.9099 -17.29886,-1.01015 z"
         id="path4138"
         inkscape:connector-curvature="0"
         transform="translate(0,737.35975)" />
      <path
         style="fill:#0e232e;stroke:#000000;stroke-width:1px;stroke-linecap:butt;stroke-linejoin:miter;stroke-opacity:1"
         d="m 408.2279,141.88511 10.35406,-19.1929 -16.03617,-0.63135 -10.35406,18.56156 z"
         id="path4140"
         inkscape:connector-curvature="0"
         transform="translate(0,737.35975)" />
    </g>
    <g
       id="g4142"
       transform="matrix(0.52922567,0.57575188,-0.57575188,0.52922567,707.16822,136.961)">
      <path
         sodipodi:nodetypes="ccccc"
         transform="translate(0,737.35975)"
         inkscape:connector-curvature="0"
         id="path4144"
         d="M 411.30602,105.96683 445,107.85714 l -20,35 -32.85714,-2.14285 z"
         style="fill:none;stroke:#000000;stroke-width:1px;stroke-linecap:butt;stroke-linejoin:miter;stroke-opacity:1" />
      <path
         sodipodi:nodetypes="cc"
         transform="translate(0,737.35975)"
         inkscape:connector-curvature="0"
         id="path4146"
         d="m 427.29453,106.65604 -18.43529,34.59772"
         style="fill:none;stroke:#000000;stroke-width:1px;stroke-linecap:butt;stroke-linejoin:miter;stroke-opacity:1" />
      <path
         sodipodi:nodetypes="cc"
         transform="translate(0,737.35975)"
         inkscape:connector-curvature="0"
         id="path4148"
         d="m 435.37575,123.82863 -33.08249,-1.76777"
         style="fill:none;stroke:#000000;stroke-width:1px;stroke-linecap:butt;stroke-linejoin:miter;stroke-opacity:1" />
      <path
         transform="translate(0,737.35975)"
         inkscape:connector-curvature="0"
         id="path4150"
         d="m 426.91572,106.90858 18.05648,1.01015 -9.09138,15.9099 -17.29886,-1.01015 z"
         style="fill:#0e232e;stroke:#000000;stroke-width:1px;stroke-linecap:butt;stroke-linejoin:miter;stroke-opacity:1" />
      <path
         transform="translate(0,737.35975)"
         inkscape:connector-curvature="0"
         id="path4152"
         d="m 408.2279,141.88511 10.35406,-19.1929 -16.03617,-0.63135 -10.35406,18.56156 z"
         style="fill:#0e232e;stroke:#000000;stroke-width:1px;stroke-linecap:butt;stroke-linejoin:miter;stroke-opacity:1" />
    </g>
    <g
       transform="matrix(0.52922567,0.57575188,-0.57575188,0.52922567,679.31108,192.67529)"
       id="g4154">
      <path
         style="fill:none;stroke:#000000;stroke-width:1px;stroke-linecap:butt;stroke-linejoin:miter;stroke-opacity:1"
         d="M 411.30602,105.96683 445,107.85714 l -20,35 -32.85714,-2.14285 z"
         id="path4156"
         inkscape:connector-curvature="0"
         transform="translate(0,737.35975)"
         sodipodi:nodetypes="ccccc" />
      <path
         style="fill:none;stroke:#000000;stroke-width:1px;stroke-linecap:butt;stroke-linejoin:miter;stroke-opacity:1"
         d="m 427.29453,106.65604 -18.43529,34.59772"
         id="path4158"
         inkscape:connector-curvature="0"
         transform="translate(0,737.35975)"
         sodipodi:nodetypes="cc" />
      <path
         style="fill:none;stroke:#000000;stroke-width:1px;stroke-linecap:butt;stroke-linejoin:miter;stroke-opacity:1"
         d="m 435.37575,123.82863 -33.08249,-1.76777"
         id="path4160"
         inkscape:connector-curvature="0"
         transform="translate(0,737.35975)"
         sodipodi:nodetypes="cc" />
      <path
         style="fill:#0e232e;stroke:#000000;stroke-width:1px;stroke-linecap:butt;stroke-linejoin:miter;stroke-opacity:1"
         d="m 426.91572,106.90858 18.05648,1.01015 -9.09138,15.9099 -17.29886,-1.01015 z"
         id="path4162"
         inkscape:connector-curvature="0"
         transform="translate(0,737.35975)" />
      <path
         style="fill:#0e232e;stroke:#000000;stroke-width:1px;stroke-linecap:butt;stroke-linejoin:miter;stroke-opacity:1"
         d="m 408.2279,141.88511 10.35406,-19.1929 -16.03617,-0.63135 -10.35406,18.56156 z"
         id="path4164"
         inkscape:connector-curvature="0"
         transform="translate(0,737.35975)" />
    </g>
    <path
       style="fill:none;stroke:#000000;stroke-width:1px;stroke-linecap:butt;stroke-linejoin:miter;stroke-opacity:1"
       d="m 617.20321,997.48663 0,24.49617"
       id="path4168"
       inkscape:connector-curvature="0" />
    <path
       style="fill:none;stroke:#000000;stroke-width:1px;stroke-linecap:butt;stroke-linejoin:miter;stroke-opacity:1"
       d="m 582.1004,968.19221 -0.75761,21.46574"
       id="path4170"
       inkscape:connector-curvature="0" />
    <path
       style="fill:none;stroke:#cccccc;stroke-width:1px;stroke-linecap:butt;stroke-linejoin:miter;stroke-opacity:1"
       d="m 582.35294,990.16303 9.09138,-7.82869"
       id="path4172"
       inkscape:connector-curvature="0" />
    <path
       style="fill:none;stroke:#cccccc;stroke-width:1px;stroke-linecap:butt;stroke-linejoin:miter;stroke-opacity:1"
       d="m 617.70828,1021.7303 8.08122,-8.3338"
       id="path4174"
       inkscape:connector-curvature="0" />
    <text
       xml:space="preserve"
       style="font-size:10.90317726px;font-style:normal;font-variant:normal;font-weight:bold;font-stretch:normal;text-align:center;line-height:125%;letter-spacing:0px;word-spacing:0px;text-anchor:middle;fill:#000000;fill-opacity:1;stroke:none;font-family:Arial;-inkscape-font-specification:Arial Bold"
       x="589.73706"
       y="542.56622"
       id="text4186"
       sodipodi:linespacing="125%"
       transform="matrix(1.1099028,0.81697581,-0.09483751,0.8311719,0,0)"><tspan
         sodipodi:role="line"
         id="tspan4188"
         x="589.73706"
         y="542.56622">My</tspan><tspan
         sodipodi:role="line"
         x="589.73706"
         y="556.19519"
         id="tspan4192">Optical</tspan><tspan
         sodipodi:role="line"
         x="589.73706"
         y="569.82416"
         id="tspan4190">Fiducial</tspan></text>
    <path
       transform="matrix(0.64308361,0,0,0.64308361,-141.36018,824.77014)"
       d="m 294.86352,278.58401 a 7.4246211,7.4246211 0 1 1 -14.84924,0 7.4246211,7.4246211 0 1 1 14.84924,0 z"
       sodipodi:ry="7.4246211"
       sodipodi:rx="7.4246211"
       sodipodi:cy="278.58401"
       sodipodi:cx="287.4389"
       id="path4425"
       style="opacity:0.62211986;fill:#ba00ff;fill-opacity:1;stroke:#cccccc;stroke-width:1;stroke-linecap:round;stroke-linejoin:round;stroke-miterlimit:4;stroke-opacity:1;stroke-dasharray:none"
       sodipodi:type="arc" />
    <g
       id="g3924"
       transform="translate(-28.714286,5.7142857)"
       style="opacity:0.62211986">
      <path
         transform="translate(0,737.35975)"
         d="m 312.85715,102.14286 c 0,6.70632 -5.43654,12.14286 -12.14286,12.14286 -6.70631,0 -12.14285,-5.43654 -12.14285,-12.14286 0,-6.706315 5.43654,-12.142857 12.14285,-12.142857 6.70632,0 12.14286,5.436542 12.14286,12.142857 z"
         sodipodi:ry="12.142858"
         sodipodi:rx="12.142858"
         sodipodi:cy="102.14286"
         sodipodi:cx="300.71429"
         id="path3918"
         style="fill:none;stroke:#000000;stroke-width:1;stroke-linecap:round;stroke-linejoin:round;stroke-miterlimit:4;stroke-opacity:1;stroke-dasharray:none"
         sodipodi:type="arc" />
      <path
         sodipodi:end="1.5707963"
         sodipodi:start="0"
         sodipodi:type="arc"
         style="fill:#0e232e;stroke:#000000;stroke-width:1;stroke-linecap:round;stroke-linejoin:round;stroke-miterlimit:4;stroke-opacity:1;stroke-dasharray:none"
         id="path3920"
         sodipodi:cx="300.71429"
         sodipodi:cy="102.14286"
         sodipodi:rx="12.142858"
         sodipodi:ry="12.142858"
         d="m 312.85715,102.14286 c 0,6.70632 -5.43654,12.14286 -12.14286,12.14286 l 0,-12.14286 z"
         transform="translate(0,737.35975)" />
      <path
         sodipodi:end="4.6985968"
         sodipodi:start="3.1413516"
         transform="translate(0,737.35975)"
         d="m 288.57144,102.14579 c -0.002,-6.642147 5.33387,-12.053025 11.97538,-12.144632 l 0.16747,12.141702 z"
         sodipodi:ry="12.142858"
         sodipodi:rx="12.142858"
         sodipodi:cy="102.14286"
         sodipodi:cx="300.71429"
         id="path3922"
         style="fill:#0e232e;stroke:#000000;stroke-width:1;stroke-linecap:round;stroke-linejoin:round;stroke-miterlimit:4;stroke-opacity:1;stroke-dasharray:none"
         sodipodi:type="arc" />
    </g>
    <g
       id="g3048"
       transform="translate(164.85714,0)">
      <path
         sodipodi:type="arc"
         style="opacity:0.61290325;fill:#b50000;fill-opacity:1;stroke:#ffffff;stroke-width:1.5;stroke-linecap:round;stroke-linejoin:round;stroke-miterlimit:4;stroke-opacity:1;stroke-dasharray:none"
         id="path3050"
         sodipodi:cx="242.5"
         sodipodi:cy="131.78572"
         sodipodi:rx="29.642857"
         sodipodi:ry="29.642857"
         d="m 272.14286,131.78572 c 0,16.3713 -13.27156,29.64286 -29.64286,29.64286 -16.3713,0 -29.64286,-13.27156 -29.64286,-29.64286 0,-16.3713 13.27156,-29.64286 29.64286,-29.64286 16.3713,0 29.64286,13.27156 29.64286,29.64286 z"
         transform="matrix(0.14218565,0,0,0.14218565,82.662834,776.47885)" />
      <path
         transform="matrix(0.14218565,0,0,0.14218565,71.948548,798.62171)"
         d="m 272.14286,131.78572 c 0,16.3713 -13.27156,29.64286 -29.64286,29.64286 -16.3713,0 -29.64286,-13.27156 -29.64286,-29.64286 0,-16.3713 13.27156,-29.64286 29.64286,-29.64286 16.3713,0 29.64286,13.27156 29.64286,29.64286 z"
         sodipodi:ry="29.642857"
         sodipodi:rx="29.642857"
         sodipodi:cy="131.78572"
         sodipodi:cx="242.5"
         id="path3052"
         style="opacity:0.61290325;fill:#b50000;fill-opacity:1;stroke:#ffffff;stroke-width:1.5;stroke-linecap:round;stroke-linejoin:round;stroke-miterlimit:4;stroke-opacity:1;stroke-dasharray:none"
         sodipodi:type="arc" />
      <path
         sodipodi:type="arc"
         style="opacity:0.61290325;fill:#b50000;fill-opacity:1;stroke:#ffffff;stroke-width:1.5;stroke-linecap:round;stroke-linejoin:round;stroke-miterlimit:4;stroke-opacity:1;stroke-dasharray:none"
         id="path3054"
         sodipodi:cx="242.5"
         sodipodi:cy="131.78572"
         sodipodi:rx="29.642857"
         sodipodi:ry="29.642857"
         d="m 272.14286,131.78572 c 0,16.3713 -13.27156,29.64286 -29.64286,29.64286 -16.3713,0 -29.64286,-13.27156 -29.64286,-29.64286 0,-16.3713 13.27156,-29.64286 29.64286,-29.64286 16.3713,0 29.64286,13.27156 29.64286,29.64286 z"
         transform="matrix(0.14218565,0,0,0.14218565,48.377119,787.19314)" />
      <path
         transform="matrix(0.14218565,0,0,0.14218565,101.94855,791.47885)"
         d="m 272.14286,131.78572 c 0,16.3713 -13.27156,29.64286 -29.64286,29.64286 -16.3713,0 -29.64286,-13.27156 -29.64286,-29.64286 0,-16.3713 13.27156,-29.64286 29.64286,-29.64286 16.3713,0 29.64286,13.27156 29.64286,29.64286 z"
         sodipodi:ry="29.642857"
         sodipodi:rx="29.642857"
         sodipodi:cy="131.78572"
         sodipodi:cx="242.5"
         id="path3056"
         style="opacity:0.61290325;fill:#b50000;fill-opacity:1;stroke:#ffffff;stroke-width:1.5;stroke-linecap:round;stroke-linejoin:round;stroke-miterlimit:4;stroke-opacity:1;stroke-dasharray:none"
         sodipodi:type="arc" />
      <path
         sodipodi:type="arc"
         style="opacity:0.61290325;fill:#b50000;fill-opacity:1;stroke:#ffffff;stroke-width:1.5;stroke-linecap:round;stroke-linejoin:round;stroke-miterlimit:4;stroke-opacity:1;stroke-dasharray:none"
         id="path3058"
         sodipodi:cx="242.5"
         sodipodi:cy="131.78572"
         sodipodi:rx="29.642857"
         sodipodi:ry="29.642857"
         d="m 272.14286,131.78572 c 0,16.3713 -13.27156,29.64286 -29.64286,29.64286 -16.3713,0 -29.64286,-13.27156 -29.64286,-29.64286 0,-16.3713 13.27156,-29.64286 29.64286,-29.64286 16.3713,0 29.64286,13.27156 29.64286,29.64286 z"
         transform="matrix(0.14218565,0,0,0.14218565,74.091407,844.33599)" />
    </g>
    <g
       id="g4838">
      <path
         sodipodi:nodetypes="ccccc"
         transform="translate(0,737.35975)"
         inkscape:connector-curvature="0"
         id="path4828"
         d="m 264.27524,155.12121 -6.19757,-6.98484 2.44508,-0.63951 7.22346,6.40717 z"
         style="fill:#ffffff;stroke:#ffffff;stroke-width:1px;stroke-linecap:butt;stroke-linejoin:miter;stroke-opacity:1" />
      <path
         sodipodi:nodetypes="cc"
         transform="translate(0,737.35975)"
         inkscape:connector-curvature="0"
         id="path4830"
         d="m 263.36298,155.47476 5.17872,-1.75065"
         style="fill:none;stroke:#000000;stroke-width:1px;stroke-linecap:butt;stroke-linejoin:miter;stroke-opacity:1" />
      <path
         sodipodi:nodetypes="cc"
         transform="translate(0,737.35975)"
         inkscape:connector-curvature="0"
         id="path4832"
         d="m 256.99177,148.43815 4.10864,-1.46404"
         style="fill:none;stroke:#000000;stroke-width:1px;stroke-linecap:butt;stroke-linejoin:miter;stroke-opacity:1" />
      <path
         sodipodi:nodetypes="cc"
         transform="translate(0,737.35975)"
         inkscape:connector-curvature="0"
         id="path4834"
         d="m 264.59052,155.03919 -0.88389,-2.49697"
         style="fill:none;stroke:#000000;stroke-width:1px;stroke-linecap:butt;stroke-linejoin:miter;stroke-opacity:1" />
    </g>
    <g
       id="g4844"
       transform="translate(246.0405,3.5625)">
      <path
         style="fill:#ffffff;stroke:#ffffff;stroke-width:1px;stroke-linecap:butt;stroke-linejoin:miter;stroke-opacity:1"
         d="m 264.27524,155.12121 -6.19757,-6.98484 2.44508,-0.63951 7.22346,6.40717 z"
         id="path4846"
         inkscape:connector-curvature="0"
         transform="translate(0,737.35975)"
         sodipodi:nodetypes="ccccc" />
      <path
         style="fill:none;stroke:#000000;stroke-width:1px;stroke-linecap:butt;stroke-linejoin:miter;stroke-opacity:1"
         d="m 263.36298,155.47476 5.17872,-1.75065"
         id="path4848"
         inkscape:connector-curvature="0"
         transform="translate(0,737.35975)"
         sodipodi:nodetypes="cc" />
      <path
         style="fill:none;stroke:#000000;stroke-width:1px;stroke-linecap:butt;stroke-linejoin:miter;stroke-opacity:1"
         d="m 256.99177,148.43815 4.10864,-1.46404"
         id="path4850"
         inkscape:connector-curvature="0"
         transform="translate(0,737.35975)"
         sodipodi:nodetypes="cc" />
      <path
         style="fill:none;stroke:#000000;stroke-width:1px;stroke-linecap:butt;stroke-linejoin:miter;stroke-opacity:1"
         d="m 264.59052,155.03919 -0.88389,-2.49697"
         id="path4852"
         inkscape:connector-curvature="0"
         transform="translate(0,737.35975)"
         sodipodi:nodetypes="cc" />
    </g>
  </g>
</svg>
