<?xml version="1.0" encoding="UTF-8" standalone="no"?>
<!-- Created with Inkscape (http://www.inkscape.org/) -->

<svg
   xmlns:dc="http://purl.org/dc/elements/1.1/"
   xmlns:cc="http://creativecommons.org/ns#"
   xmlns:rdf="http://www.w3.org/1999/02/22-rdf-syntax-ns#"
   xmlns:svg="http://www.w3.org/2000/svg"
   xmlns="http://www.w3.org/2000/svg"
   xmlns:sodipodi="http://sodipodi.sourceforge.net/DTD/sodipodi-0.dtd"
   xmlns:inkscape="http://www.inkscape.org/namespaces/inkscape"
   id="svg5288"
   version="1.1"
   inkscape:version="0.48.4 r9939"
   width="414.423"
   height="621.6345"
   xml:space="preserve"
   sodipodi:docname="Demo8Frame4Mod.svg"><metadata
     id="metadata5294"><rdf:RDF><cc:Work
         rdf:about=""><dc:format>image/svg+xml</dc:format><dc:type
           rdf:resource="http://purl.org/dc/dcmitype/StillImage" /><dc:title></dc:title></cc:Work></rdf:RDF></metadata><defs
     id="defs5292"><clipPath
       clipPathUnits="userSpaceOnUse"
       id="clipPath5306"><path
         d="m 0,0 331.5384,0 0,497.3076 L 0,497.3076 0,0 z"
         id="path5308" /></clipPath><clipPath
       clipPathUnits="userSpaceOnUse"
       id="clipPath5316"><path
         d="m 0,0 331.5384,0 0,497.3076 L 0,497.3076 0,0 z"
         id="path5318" /></clipPath><clipPath
       clipPathUnits="userSpaceOnUse"
       id="clipPath5326"><path
         d="m 0,0 331.5384,0 0,497.3076 L 0,497.3076 0,0 z"
         id="path5328" /></clipPath><clipPath
       clipPathUnits="userSpaceOnUse"
       id="clipPath5336"><path
         d="m 0,0 331.5384,0 0,497.3076 L 0,497.3076 0,0 z"
         id="path5338" /></clipPath><clipPath
       clipPathUnits="userSpaceOnUse"
       id="clipPath5346"><path
         d="m 0,0 331.5384,0 0,497.3076 L 0,497.3076 0,0 z"
         id="path5348" /></clipPath><clipPath
       clipPathUnits="userSpaceOnUse"
       id="clipPath5356"><path
         d="m 0,0 331.5384,0 0,497.3076 L 0,497.3076 0,0 z"
         id="path5358" /></clipPath><clipPath
       clipPathUnits="userSpaceOnUse"
       id="clipPath5366"><path
         d="m 0,0 331.5384,0 0,497.3076 L 0,497.3076 0,0 z"
         id="path5368" /></clipPath><clipPath
       clipPathUnits="userSpaceOnUse"
       id="clipPath5376"><path
         d="m 0,0 331.5384,0 0,497.3076 L 0,497.3076 0,0 z"
         id="path5378" /></clipPath><clipPath
       clipPathUnits="userSpaceOnUse"
       id="clipPath5386"><path
         d="m 0,0 331.5384,0 0,497.3076 L 0,497.3076 0,0 z"
         id="path5388" /></clipPath><clipPath
       clipPathUnits="userSpaceOnUse"
       id="clipPath5396"><path
         d="m 0,0 331.5384,0 0,497.3076 L 0,497.3076 0,0 z"
         id="path5398" /></clipPath><clipPath
       clipPathUnits="userSpaceOnUse"
       id="clipPath5406"><path
         d="m 0,0 331.5384,0 0,497.3076 L 0,497.3076 0,0 z"
         id="path5408" /></clipPath><clipPath
       clipPathUnits="userSpaceOnUse"
       id="clipPath5416"><path
         d="m 0,0 331.5384,0 0,497.3076 L 0,497.3076 0,0 z"
         id="path5418" /></clipPath><clipPath
       clipPathUnits="userSpaceOnUse"
       id="clipPath5426"><path
         d="m 0,0 331.5384,0 0,497.3076 L 0,497.3076 0,0 z"
         id="path5428" /></clipPath><clipPath
       clipPathUnits="userSpaceOnUse"
       id="clipPath5436"><path
         d="m 0,0 331.5384,0 0,497.3076 L 0,497.3076 0,0 z"
         id="path5438" /></clipPath><clipPath
       clipPathUnits="userSpaceOnUse"
       id="clipPath5446"><path
         d="m 0,0 331.5384,0 0,497.3076 L 0,497.3076 0,0 z"
         id="path5448" /></clipPath><clipPath
       clipPathUnits="userSpaceOnUse"
       id="clipPath5456"><path
         d="m 0,0 331.5384,0 0,497.3076 L 0,497.3076 0,0 z"
         id="path5458" /></clipPath><clipPath
       clipPathUnits="userSpaceOnUse"
       id="clipPath5466"><path
         d="m 0,0 331.5384,0 0,497.3076 L 0,497.3076 0,0 z"
         id="path5468" /></clipPath><clipPath
       clipPathUnits="userSpaceOnUse"
       id="clipPath5476"><path
         d="m 0,0 331.5384,0 0,497.3076 L 0,497.3076 0,0 z"
         id="path5478" /></clipPath><clipPath
       clipPathUnits="userSpaceOnUse"
       id="clipPath5486"><path
         d="m 0,0 331.5384,0 0,497.3076 L 0,497.3076 0,0 z"
         id="path5488" /></clipPath><clipPath
       clipPathUnits="userSpaceOnUse"
       id="clipPath5496"><path
         d="m 0,0 331.5384,0 0,497.3076 L 0,497.3076 0,0 z"
         id="path5498" /></clipPath><clipPath
       clipPathUnits="userSpaceOnUse"
       id="clipPath5506"><path
         d="m 0,0 331.5384,0 0,497.3076 L 0,497.3076 0,0 z"
         id="path5508" /></clipPath><clipPath
       clipPathUnits="userSpaceOnUse"
       id="clipPath5516"><path
         d="m 0,0 331.5384,0 0,497.3076 L 0,497.3076 0,0 z"
         id="path5518" /></clipPath><clipPath
       clipPathUnits="userSpaceOnUse"
       id="clipPath5526"><path
         d="m 0,0 331.5384,0 0,497.3076 L 0,497.3076 0,0 z"
         id="path5528" /></clipPath><clipPath
       clipPathUnits="userSpaceOnUse"
       id="clipPath5536"><path
         d="m 0,0 331.5384,0 0,497.3076 L 0,497.3076 0,0 z"
         id="path5538" /></clipPath><clipPath
       clipPathUnits="userSpaceOnUse"
       id="clipPath5546"><path
         d="m 0,0 331.5384,0 0,497.3076 L 0,497.3076 0,0 z"
         id="path5548" /></clipPath><clipPath
       clipPathUnits="userSpaceOnUse"
       id="clipPath5556"><path
         d="m 0,0 331.5384,0 0,497.3076 L 0,497.3076 0,0 z"
         id="path5558" /></clipPath><clipPath
       clipPathUnits="userSpaceOnUse"
       id="clipPath5566"><path
         d="m 0,0 331.5384,0 0,497.3076 L 0,497.3076 0,0 z"
         id="path5568" /></clipPath><clipPath
       clipPathUnits="userSpaceOnUse"
       id="clipPath5576"><path
         d="m 0,0 331.5384,0 0,497.3076 L 0,497.3076 0,0 z"
         id="path5578" /></clipPath><clipPath
       clipPathUnits="userSpaceOnUse"
       id="clipPath5586"><path
         d="m 0,0 331.5384,0 0,497.3076 L 0,497.3076 0,0 z"
         id="path5588" /></clipPath><clipPath
       clipPathUnits="userSpaceOnUse"
       id="clipPath5596"><path
         d="m 0,0 331.5384,0 0,497.3076 L 0,497.3076 0,0 z"
         id="path5598" /></clipPath><clipPath
       clipPathUnits="userSpaceOnUse"
       id="clipPath5606"><path
         d="m 0,0 331.5384,0 0,497.3076 L 0,497.3076 0,0 z"
         id="path5608" /></clipPath><clipPath
       clipPathUnits="userSpaceOnUse"
       id="clipPath5616"><path
         d="m 0,0 331.5384,0 0,497.3076 L 0,497.3076 0,0 z"
         id="path5618" /></clipPath><clipPath
       clipPathUnits="userSpaceOnUse"
       id="clipPath5626"><path
         d="m 0,0 331.5384,0 0,497.3076 L 0,497.3076 0,0 z"
         id="path5628" /></clipPath><clipPath
       clipPathUnits="userSpaceOnUse"
       id="clipPath5636"><path
         d="m 0,0 331.5384,0 0,497.3076 L 0,497.3076 0,0 z"
         id="path5638" /></clipPath><clipPath
       clipPathUnits="userSpaceOnUse"
       id="clipPath5646"><path
         d="m -7.5,-7.5 15,0 0,15 -15,0 0,-15 z"
         id="path5648" /></clipPath><clipPath
       clipPathUnits="userSpaceOnUse"
       id="clipPath5656"><path
         d="m 0,0 331.5384,0 0,497.3076 L 0,497.3076 0,0 z"
         id="path5658" /></clipPath><clipPath
       clipPathUnits="userSpaceOnUse"
       id="clipPath5666"><path
         d="m -7.5,-7.5 15,0 0,15 -15,0 0,-15 z"
         id="path5668" /></clipPath><clipPath
       clipPathUnits="userSpaceOnUse"
       id="clipPath5676"><path
         d="m 0,0 331.5384,0 0,497.3076 L 0,497.3076 0,0 z"
         id="path5678" /></clipPath><clipPath
       clipPathUnits="userSpaceOnUse"
       id="clipPath5686"><path
         d="m -7.5,-7.5 15,0 0,15 -15,0 0,-15 z"
         id="path5688" /></clipPath><clipPath
       clipPathUnits="userSpaceOnUse"
       id="clipPath5696"><path
         d="m 0,0 331.5384,0 0,497.3076 L 0,497.3076 0,0 z"
         id="path5698" /></clipPath><clipPath
       clipPathUnits="userSpaceOnUse"
       id="clipPath5706"><path
         d="m 0,0 331.5384,0 0,497.3076 L 0,497.3076 0,0 z"
         id="path5708" /></clipPath><clipPath
       clipPathUnits="userSpaceOnUse"
       id="clipPath5716"><path
         d="m 0,0 331.5384,0 0,497.3076 L 0,497.3076 0,0 z"
         id="path5718" /></clipPath><clipPath
       clipPathUnits="userSpaceOnUse"
       id="clipPath5736"><path
         d="m 0,0 331.5384,0 0,497.3076 L 0,497.3076 0,0 z"
         id="path5738" /></clipPath><clipPath
       clipPathUnits="userSpaceOnUse"
       id="clipPath5756"><path
         d="m 0,0 331.5384,0 0,497.3076 L 0,497.3076 0,0 z"
         id="path5758" /></clipPath><clipPath
       clipPathUnits="userSpaceOnUse"
       id="clipPath5776"><path
         d="m 0,0 331.5384,0 0,497.3076 L 0,497.3076 0,0 z"
         id="path5778" /></clipPath><clipPath
       clipPathUnits="userSpaceOnUse"
       id="clipPath5796"><path
         d="m 0,0 331.5384,0 0,497.3076 L 0,497.3076 0,0 z"
         id="path5798" /></clipPath><clipPath
       clipPathUnits="userSpaceOnUse"
       id="clipPath5816"><path
         d="m 0,0 331.5384,0 0,497.3076 L 0,497.3076 0,0 z"
         id="path5818" /></clipPath><clipPath
       clipPathUnits="userSpaceOnUse"
       id="clipPath5836"><path
         d="m 0,0 331.5384,0 0,497.3076 L 0,497.3076 0,0 z"
         id="path5838" /></clipPath><clipPath
       clipPathUnits="userSpaceOnUse"
       id="clipPath5856"><path
         d="m 0,0 331.5384,0 0,497.3076 L 0,497.3076 0,0 z"
         id="path5858" /></clipPath><clipPath
       clipPathUnits="userSpaceOnUse"
       id="clipPath5876"><path
         d="m 0,0 331.5384,0 0,497.3076 L 0,497.3076 0,0 z"
         id="path5878" /></clipPath><clipPath
       clipPathUnits="userSpaceOnUse"
       id="clipPath5896"><path
         d="m 0,0 331.5384,0 0,497.3076 L 0,497.3076 0,0 z"
         id="path5898" /></clipPath></defs><sodipodi:namedview
     pagecolor="#ffffff"
     bordercolor="#666666"
     borderopacity="1"
     objecttolerance="10"
     gridtolerance="10"
     guidetolerance="10"
     inkscape:pageopacity="0"
     inkscape:pageshadow="2"
     inkscape:window-width="640"
     inkscape:window-height="480"
     id="namedview5290"
     showgrid="false"
     inkscape:zoom="1.5185772"
     inkscape:cx="116.28708"
     inkscape:cy="598.36874"
     inkscape:window-x="0"
     inkscape:window-y="0"
     inkscape:window-maximized="0"
     inkscape:current-layer="g5296" /><g
     id="g5296"
     inkscape:groupmode="layer"
     inkscape:label="Demo8Frame177"
     transform="matrix(1.25,0,0,-1.25,0,621.6345)"><path
       d="m 0,0 331.5384,0 0,497.3076 L 0,497.3076 0,0 z"
       style="fill:#ffffff;fill-opacity:1;fill-rule:nonzero;stroke:none"
       id="path5298" /><path
       d="m 0,0 331.5384,0 0,497.3076 L 0,497.3076 0,0 z"
       style="fill:#ffffff;fill-opacity:1;fill-rule:nonzero;stroke:none"
       id="path5300" /><g
       id="g5302"><g
         id="g5304"
         clip-path="url(#clipPath5306)"><path
           d="m 96.6987,317.7243 8.19712,1.85057 8.0524,1.59057 8.09253,1.37151 8.12724,1.14836 7.96155,0.90242 7.9833,0.68373 7.99913,0.46297 8.0089,0.24079 8.0125,0.0179 8.0099,-0.2051 8.00111,-0.42744 7.98625,-0.64847 7.96541,-0.86752 7.93888,-1.084 8.09921,-1.33157 8.06004,-1.55141 8.01556,-1.76671 7.44362,-1.63506 5.0109,-0.84049 5.04222,-0.62559 5.06463,-0.40603 5.07755,-0.1834 5.0807,0.0407 5.07398,0.26439 5.05756,0.48609 5.03186,0.70413 4.99746,0.91702 4.00589,0.89171 0,0"
           style="fill:none;stroke:#d6d2c4;stroke-opacity:1;stroke-width:9;stroke-linecap:round;stroke-linejoin:round;stroke-miterlimit:10;stroke-dasharray:none"
           id="path5310" /></g></g><g
       id="g5312"><g
         id="g5314"
         clip-path="url(#clipPath5316)"><path
           d="m 186.75939,325.2473 1.05264,-0.0787 1.05234,-0.0825 1.05203,-0.0863 1.05171,-0.0902 1.05138,-0.094 1.05103,-0.0978 1.05067,-0.10159 1.0503,-0.10538 1.0499,-0.10918 1.04952,-0.11297 1.04908,-0.11674 1.04868,-0.12052 1.04821,-0.12429 1.0478,-0.12805 1.04729,-0.1318 1.04685,-0.13556 1.04631,-0.13929 1.04586,-0.14303 1.0453,-0.14675 1.04481,-0.15048 1.04422,-0.15419 1.04373,-0.15789 1.0431,-0.16159 1.04258,-0.16528 1.04193,-0.16895 1.04139,-0.17263 1.04071,-0.17629 1.04015,-0.17995 1.03945,-0.18359 1.03887,-0.18723 1.03814,-0.19085 1.03753,-0.19448 1.03678,-0.19807 1.03616,-0.20169 1.03539,-0.20526 1.03473,-0.20885 1.03395,-0.21242 1.03326,-0.21598 1.03247,-0.21952 1.03175,-0.22307 1.03094,-0.22659 1.0302,-0.23011 1.02938,-0.23362 1.02861,-0.23711 1.02777,-0.2406 1.02697,-0.24408 1.02721,-0.24321 1.02917,-0.23463 1.03113,-0.22585 1.03301,-0.21701 1.03484,-0.20809 1.03663,-0.19913 1.03831,-0.19009 1.03993,-0.181 1.04148,-0.17185 1.04297,-0.16266 1.04436,-0.15341 1.04568,-0.14411 1.04692,-0.13476 1.0481,-0.12538 1.04918,-0.11595 1.05018,-0.10649 1.0511,-0.097 1.05194,-0.0874 1.05269,-0.0779 1.05336,-0.0683 1.05393,-0.0587 1.05442,-0.0491 1.05483,-0.0394 1.05515,-0.0298 1.05538,-0.0201 1.05551,-0.0104 1.05557,-7.5e-4 1.05553,0.009 1.0554,0.0186 1.05519,0.0283 1.05488,0.0379 1.0545,0.0476 1.05401,0.0572 1.05345,0.0668 1.0528,0.0764 1.05206,0.086 1.05124,0.0955 1.05033,0.10502 1.04933,0.1145 1.04827,0.12392 1.04712,0.13332 1.04588,0.14267 1.04456,0.15198 1.04318,0.16123 1.04172,0.17044 1.04018,0.1796 1.03856,0.18869 1.03688,0.19773 1.03513,0.20672 1.03331,0.21563 1.03141,0.22449 1.02947,0.23328 1.02747,0.24201"
           style="fill:none;stroke:#dfab80;stroke-opacity:1;stroke-width:9;stroke-linecap:round;stroke-linejoin:round;stroke-miterlimit:10;stroke-dasharray:none"
           id="path5320" /></g></g><g
       id="g5322"><g
         id="g5324"
         clip-path="url(#clipPath5326)"><path
           d="m 96.6987,317.7243 c 46.047,11.05128 92.094,11.05128 138.141,0 18.4188,-4.42051 36.8376,-4.42051 55.2564,0"
           style="fill:none;stroke:#bf5700;stroke-opacity:1;stroke-width:4;stroke-linecap:butt;stroke-linejoin:round;stroke-miterlimit:10;stroke-dasharray:none"
           id="path5330" /></g></g><g
       id="g5332"><g
         id="g5334"
         clip-path="url(#clipPath5336)"><path
           d="m 241.74675,13.8141 -140.81651,243.90136 281.63303,0 L 241.74675,13.8141 z"
           style="fill:#dfab80;fill-opacity:1;fill-rule:nonzero;stroke:#bf5700;stroke-opacity:1;stroke-width:3;stroke-linecap:butt;stroke-linejoin:round;stroke-miterlimit:10;stroke-dasharray:none"
           id="path5340" /></g></g><g
       id="g5342"><g
         id="g5344"
         clip-path="url(#clipPath5346)"><path
           d="m 165.7692,428.2371 35.20413,-60.97534 -70.40826,0 35.20413,60.97534 z"
           style="fill:#dfab80;fill-opacity:1;fill-rule:nonzero;stroke:#bf5700;stroke-opacity:1;stroke-width:3;stroke-linecap:butt;stroke-linejoin:round;stroke-miterlimit:10;stroke-dasharray:none"
           id="path5350" /></g></g><g
       id="g5352"><g
         id="g5354"
         clip-path="url(#clipPath5356)"><path
           d="m 300.45668,13.8141 -140.81652,243.90136 281.63303,0 L 300.45668,13.8141 z"
           style="fill:#dfab80;fill-opacity:1;fill-rule:nonzero;stroke:#bf5700;stroke-opacity:1;stroke-width:3;stroke-linecap:butt;stroke-linejoin:round;stroke-miterlimit:10;stroke-dasharray:none"
           id="path5360" /></g></g><g
       id="g5362"><g
         id="g5364"
         clip-path="url(#clipPath5366)"><path
           d="M 289.82124,317.88935 C 238.33,352.02496 196.97932,388.80754 165.7692,428.2371"
           style="fill:none;stroke:#000000;stroke-opacity:1;stroke-width:3;stroke-linecap:butt;stroke-linejoin:round;stroke-miterlimit:10;stroke-dasharray:none"
           id="path5370" /></g></g><g
       id="g5372"><g
         id="g5374"
         clip-path="url(#clipPath5376)"><path
           d="m 289.82124,317.88935 c 61.66052,-3.81668 87.46973,13.1548 77.42764,50.91445"
           style="fill:none;stroke:#000000;stroke-opacity:1;stroke-width:3;stroke-linecap:butt;stroke-linejoin:round;stroke-miterlimit:10;stroke-dasharray:none"
           id="path5380" /></g></g><g
       id="g5382"><g
         id="g5384"
         clip-path="url(#clipPath5386)"><path
           d="M 289.82124,317.88935 C 278.24034,215.57848 262.21551,114.22007 241.74675,13.8141"
           style="fill:none;stroke:#000000;stroke-opacity:1;stroke-width:3;stroke-linecap:butt;stroke-linejoin:round;stroke-miterlimit:10;stroke-dasharray:none"
           id="path5390" /></g></g><g
       id="g5392"><g
         id="g5394"
         clip-path="url(#clipPath5396)"><path
           d="M 289.82124,317.88935 C 346.71392,232.07062 350.25906,130.71221 300.45668,13.8141"
           style="fill:none;stroke:#000000;stroke-opacity:1;stroke-width:3;stroke-linecap:butt;stroke-linejoin:round;stroke-miterlimit:10;stroke-dasharray:none"
           id="path5400" /></g></g><g
       id="g5402"><g
         id="g5404"
         clip-path="url(#clipPath5406)"><path
           d="m 241.74675,13.8141 0,10e-6 1e-5,-3e-6 0,10e-6 -1e-5,-7e-6 0,1e-6 0,-1.1e-5 0,0 z"
           style="fill:#43695b;fill-opacity:0.9;fill-rule:nonzero;stroke:none"
           id="path5410" /></g></g><g
       id="g5412"><g
         id="g5414"
         clip-path="url(#clipPath5416)"><path
           d="m 164.27378,429.10048 -30.02382,-52.00281 -2.7595,5.58098 -0.92537,-15.41689 12.88873,8.50984 -6.21302,-0.40069 30.02382,52.00281 -2.99084,1.72676 z"
           style="fill:#43695b;fill-opacity:0.9;fill-rule:nonzero;stroke:none"
           id="path5420" /></g></g><g
       id="g5422"><g
         id="g5424"
         clip-path="url(#clipPath5426)"><path
           d="m 302.1342,14.223512 -41.56345,170.301918 5.8514,-2.12681 -9.9854,11.78255 -3.4348,-15.05785 4.21375,4.58329 41.56345,-170.301922 3.35505,0.818824 z"
           style="fill:#43695b;fill-opacity:0.9;fill-rule:nonzero;stroke:none"
           id="path5430" /></g></g><g
       id="g5432"><g
         id="g5434"
         clip-path="url(#clipPath5436)"><path
           d="m -13786.472,-13938.427 0,0 0,0 0,0 0,0 0,0 0,0 z"
           style="fill:#43695b;fill-opacity:0.9;fill-rule:nonzero;stroke:none"
           id="path5440" /></g></g><g
       id="g5442"><g
         id="g5444"
         clip-path="url(#clipPath5446)"><path
           d="m 289.82124,300.62173 c 4.57942,0 8.97191,1.81942 12.21005,5.05757 3.23815,3.23814 5.05757,7.63063 5.05757,12.21005 0,4.57943 -1.81942,8.97191 -5.05757,12.21006 -3.23814,3.23814 -7.63063,5.05757 -12.21005,5.05757 -4.57943,0 -8.97191,-1.81943 -12.21006,-5.05757 -3.23814,-3.23815 -5.05757,-7.63063 -5.05757,-12.21006 0,-4.57942 1.81943,-8.97191 5.05757,-12.21005 3.23815,-3.23815 7.63063,-5.05757 12.21006,-5.05757 z"
           style="fill:#ffffff;fill-opacity:1;fill-rule:nonzero;stroke:#000000;stroke-opacity:1;stroke-width:2;stroke-linecap:butt;stroke-linejoin:round;stroke-miterlimit:10;stroke-dasharray:none"
           id="path5450" /></g></g><g
       id="g5452"><g
         id="g5454"
         clip-path="url(#clipPath5456)"><path
           d="m 289.82124,335.15698 c -4.57791,0 -8.97299,-1.82051 -12.21006,-5.05757 -3.23706,-3.23707 -5.05757,-7.63215 -5.05757,-12.21006 l 17.26763,0 0,17.26763 z"
           style="fill:#000000;fill-opacity:1;fill-rule:nonzero;stroke:#000000;stroke-opacity:1;stroke-width:1;stroke-linecap:butt;stroke-linejoin:round;stroke-miterlimit:10;stroke-dasharray:none"
           id="path5460" /></g></g><g
       id="g5462"><g
         id="g5464"
         clip-path="url(#clipPath5466)"><path
           d="m 289.82124,300.62173 c 4.5779,0 8.97299,1.8205 12.21005,5.05757 3.23707,3.23706 5.05757,7.63215 5.05757,12.21005 l -17.26762,0 0,-17.26762 z"
           style="fill:#000000;fill-opacity:1;fill-rule:nonzero;stroke:#000000;stroke-opacity:1;stroke-width:1;stroke-linecap:butt;stroke-linejoin:round;stroke-miterlimit:10;stroke-dasharray:none"
           id="path5470" /></g></g><g
       id="g5472"><g
         id="g5474"
         clip-path="url(#clipPath5476)"><path
           d="m 289.42356,319.5697 -69.14194,-16.36321 2.16767,5.83638 -11.85208,-9.90277 15.03347,-3.54 -4.55372,4.24569 69.14195,16.36322 -0.79535,3.36069 z"
           style="fill:#005f86;fill-opacity:0.9;fill-rule:nonzero;stroke:none"
           id="path5480" /></g></g><g
       id="g5482"><g
         id="g5484"
         clip-path="url(#clipPath5486)"><path
           d="m 289.84564,317.80901 0.80342,0.24402 -0.0875,-0.28983 0.54513,0.51659 -0.74034,0.12615 0.23389,-0.19222 -0.80342,-0.24402 0.0488,-0.16069 z"
           style="fill:#f2a900;fill-opacity:0.9;fill-rule:nonzero;stroke:none"
           id="path5490" /></g></g><g
       id="g5492"><g
         id="g5494"
         clip-path="url(#clipPath5496)"><path
           d="m 289.80682,317.88935 0,-0.14418 -0.0433,0.0288 0.0577,-0.11535 0.0577,0.11535 -0.0433,-0.0288 0,0.14418 -0.0288,0 z"
           style="fill:#ffc0cb;fill-opacity:0.8;fill-rule:nonzero;stroke:none"
           id="path5500" /></g></g><g
       id="g5502"><g
         id="g5504"
         clip-path="url(#clipPath5506)"><path
           d="m 27.6282,13.8141 69.0705,0"
           style="fill:none;stroke:#000000;stroke-opacity:1;stroke-width:4;stroke-linecap:square;stroke-linejoin:round;stroke-miterlimit:10;stroke-dasharray:none"
           id="path5510" /></g></g><g
       id="g5512"><g
         id="g5514"
         clip-path="url(#clipPath5516)"><path
           d="m 234.8397,13.8141 69.0705,0"
           style="fill:none;stroke:#000000;stroke-opacity:1;stroke-width:4;stroke-linecap:square;stroke-linejoin:round;stroke-miterlimit:10;stroke-dasharray:none"
           id="path5520" /></g></g><g
       id="g5522"><g
         id="g5524"
         clip-path="url(#clipPath5526)"><path
           d="m 234.8397,428.2371 -138.141,0"
           style="fill:none;stroke:#000000;stroke-opacity:1;stroke-width:4;stroke-linecap:square;stroke-linejoin:round;stroke-miterlimit:10;stroke-dasharray:none"
           id="path5530" /></g></g><g
       id="g5532"><g
         id="g5534"
         clip-path="url(#clipPath5536)"><path
           d="m 96.6987,317.7243 -6.447674,26.86531"
           style="fill:none;stroke:#bf5700;stroke-opacity:1;stroke-width:1;stroke-linecap:square;stroke-linejoin:round;stroke-miterlimit:10;stroke-dasharray:none"
           id="path5540" /></g></g><g
       id="g5542"><g
         id="g5544"
         clip-path="url(#clipPath5546)"><path
           d="m 117.9535,322.04057 -4.52823,27.25459"
           style="fill:none;stroke:#bf5700;stroke-opacity:1;stroke-width:1;stroke-linecap:square;stroke-linejoin:round;stroke-miterlimit:10;stroke-dasharray:none"
           id="path5550" /></g></g><g
       id="g5552"><g
         id="g5554"
         clip-path="url(#clipPath5556)"><path
           d="m 139.46412,324.81059 -2.5148,27.51351"
           style="fill:none;stroke:#bf5700;stroke-opacity:1;stroke-width:1;stroke-linecap:square;stroke-linejoin:round;stroke-miterlimit:10;stroke-dasharray:none"
           id="path5560" /></g></g><g
       id="g5562"><g
         id="g5564"
         clip-path="url(#clipPath5566)"><path
           d="m 161.12087,325.97522 -0.44618,27.6246"
           style="fill:none;stroke:#bf5700;stroke-opacity:1;stroke-width:1;stroke-linecap:square;stroke-linejoin:round;stroke-miterlimit:10;stroke-dasharray:none"
           id="path5570" /></g></g><g
       id="g5572"><g
         id="g5574"
         clip-path="url(#clipPath5576)"><path
           d="m 182.80387,325.50862 1.63247,27.57992"
           style="fill:none;stroke:#bf5700;stroke-opacity:1;stroke-width:1;stroke-linecap:square;stroke-linejoin:round;stroke-miterlimit:10;stroke-dasharray:none"
           id="path5580" /></g></g><g
       id="g5582"><g
         id="g5584"
         clip-path="url(#clipPath5586)"><path
           d="m 204.39132,323.4212 3.67478,27.38272"
           style="fill:none;stroke:#bf5700;stroke-opacity:1;stroke-width:1;stroke-linecap:square;stroke-linejoin:round;stroke-miterlimit:10;stroke-dasharray:none"
           id="path5590" /></g></g><g
       id="g5592"><g
         id="g5594"
         clip-path="url(#clipPath5596)"><path
           d="m 225.76825,319.75848 5.63867,27.04668"
           style="fill:none;stroke:#bf5700;stroke-opacity:1;stroke-width:1;stroke-linecap:square;stroke-linejoin:round;stroke-miterlimit:10;stroke-dasharray:none"
           id="path5600" /></g></g><g
       id="g5602"><g
         id="g5604"
         clip-path="url(#clipPath5606)"><path
           d="m 247.01905,315.44554 3.67478,27.38272"
           style="fill:none;stroke:#bf5700;stroke-opacity:1;stroke-width:1;stroke-linecap:square;stroke-linejoin:round;stroke-miterlimit:10;stroke-dasharray:none"
           id="path5610" /></g></g><g
       id="g5612"><g
         id="g5614"
         clip-path="url(#clipPath5616)"><path
           d="m 268.66295,314.57561 -1.48466,27.58828"
           style="fill:none;stroke:#bf5700;stroke-opacity:1;stroke-width:1;stroke-linecap:square;stroke-linejoin:round;stroke-miterlimit:10;stroke-dasharray:none"
           id="path5620" /></g></g><g
       id="g5622"><g
         id="g5624"
         clip-path="url(#clipPath5626)"><path
           d="m 290.0961,317.7243 -6.44767,26.86531"
           style="fill:none;stroke:#bf5700;stroke-opacity:1;stroke-width:1;stroke-linecap:square;stroke-linejoin:round;stroke-miterlimit:10;stroke-dasharray:none"
           id="path5630" /></g></g><g
       id="g5632"><g
         id="g5634"
         clip-path="url(#clipPath5636)"><g
           id="g5640"
           transform="translate(241.74675,13.8141)"><g
             id="g5642"><g
               id="g5644"
               clip-path="url(#clipPath5646)"><path
                 d="m 0,-6 c 1.5912186,0 3.1174792,0.6321979 4.2426407,1.7573593 C 5.3678021,-3.1174792 6,-1.5912186 6,0 6,1.5912186 5.3678021,3.1174792 4.2426407,4.2426407 3.1174792,5.3678021 1.5912186,6 0,6 -1.5912186,6 -3.1174792,5.3678021 -4.2426407,4.2426407 -5.3678021,3.1174792 -6,1.5912186 -6,0 -6,-1.5912186 -5.3678021,-3.1174792 -4.2426407,-4.2426407 -3.1174792,-5.3678021 -1.5912186,-6 0,-6 z"
                 style="fill:#dfab80;fill-opacity:1;fill-rule:nonzero;stroke:#bf5700;stroke-opacity:1;stroke-width:3;stroke-linecap:butt;stroke-linejoin:round;stroke-miterlimit:10;stroke-dasharray:none"
                 id="path5650" /></g></g></g></g></g><g
       id="g5652"><g
         id="g5654"
         clip-path="url(#clipPath5656)"><g
           id="g5660"
           transform="translate(165.7692,428.2371)"><g
             id="g5662"><g
               id="g5664"
               clip-path="url(#clipPath5666)"><path
                 d="m 0,-6 c 1.5912186,0 3.1174792,0.6321979 4.2426407,1.7573593 C 5.3678021,-3.1174792 6,-1.5912186 6,0 6,1.5912186 5.3678021,3.1174792 4.2426407,4.2426407 3.1174792,5.3678021 1.5912186,6 0,6 -1.5912186,6 -3.1174792,5.3678021 -4.2426407,4.2426407 -5.3678021,3.1174792 -6,1.5912186 -6,0 -6,-1.5912186 -5.3678021,-3.1174792 -4.2426407,-4.2426407 -3.1174792,-5.3678021 -1.5912186,-6 0,-6 z"
                 style="fill:#dfab80;fill-opacity:1;fill-rule:nonzero;stroke:#bf5700;stroke-opacity:1;stroke-width:3;stroke-linecap:butt;stroke-linejoin:round;stroke-miterlimit:10;stroke-dasharray:none"
                 id="path5670" /></g></g></g></g></g><g
       id="g5672"><g
         id="g5674"
         clip-path="url(#clipPath5676)"><g
           id="g5680"
           transform="translate(300.45668,13.8141)"><g
             id="g5682"><g
               id="g5684"
               clip-path="url(#clipPath5686)"><path
                 d="m 0,-6 c 1.5912186,0 3.1174792,0.6321979 4.2426407,1.7573593 C 5.3678021,-3.1174792 6,-1.5912186 6,0 6,1.5912186 5.3678021,3.1174792 4.2426407,4.2426407 3.1174792,5.3678021 1.5912186,6 0,6 -1.5912186,6 -3.1174792,5.3678021 -4.2426407,4.2426407 -5.3678021,3.1174792 -6,1.5912186 -6,0 -6,-1.5912186 -5.3678021,-3.1174792 -4.2426407,-4.2426407 -3.1174792,-5.3678021 -1.5912186,-6 0,-6 z"
                 style="fill:#dfab80;fill-opacity:1;fill-rule:nonzero;stroke:#bf5700;stroke-opacity:1;stroke-width:3;stroke-linecap:butt;stroke-linejoin:round;stroke-miterlimit:10;stroke-dasharray:none"
                 id="path5690" /></g></g></g></g></g><g
       id="g5692"><g
         id="g5694"
         clip-path="url(#clipPath5696)"><path
           d="m 185.75453,311.4698 -0.50243,-6.88875"
           style="fill:none;stroke:#bf5700;stroke-opacity:1;stroke-width:3;stroke-linecap:round;stroke-linejoin:round;stroke-miterlimit:10;stroke-dasharray:none"
           id="path5700" /></g></g><g
       id="g5702"><g
         id="g5704"
         clip-path="url(#clipPath5706)"><path
           d="m 293.31994,304.29165 1.61192,-6.71633"
           style="fill:none;stroke:#bf5700;stroke-opacity:1;stroke-width:3;stroke-linecap:round;stroke-linejoin:round;stroke-miterlimit:10;stroke-dasharray:none"
           id="path5710" /></g></g><g
       id="g5712"><g
         id="g5714"
         clip-path="url(#clipPath5716)"><path
           d="m 27.6282,0 0,497.3076"
           style="fill:none;stroke:#000000;stroke-opacity:1;stroke-width:0.5;stroke-linecap:butt;stroke-linejoin:round;stroke-miterlimit:10;stroke-dasharray:1,3;stroke-dashoffset:0"
           id="path5720" /></g></g><g
       id="g5722"><path
         d="m 27.6282,0 0,4"
         style="fill:#000000;fill-opacity:1;fill-rule:nonzero;stroke:#000000;stroke-opacity:1;stroke-width:0.5;stroke-linecap:butt;stroke-linejoin:round;stroke-miterlimit:10;stroke-dasharray:none"
         id="path5724" /><path
         d="m 27.6282,497.3076 0,-4"
         style="fill:#000000;fill-opacity:1;fill-rule:nonzero;stroke:#000000;stroke-opacity:1;stroke-width:0.5;stroke-linecap:butt;stroke-linejoin:round;stroke-miterlimit:10;stroke-dasharray:none"
         id="path5726" /><text
         transform="matrix(1,0,0,-1,18.8782,-13.125)"
         id="text5728"><tspan
           style="fill:#000000;fill-opacity:1;fill-rule:nonzero;stroke:none;font-family:DejaVu Sans;font-variant:normal;font-weight:normal;font-size:12;writing-mode:lr;-inkscape-font-specification:DejaVuSans"
           x="0 7.632 11.448"
           y="0"
           sodipodi:role="line"
           id="tspan5730">0.0</tspan></text>
</g><g
       id="g5732"><g
         id="g5734"
         clip-path="url(#clipPath5736)"><path
           d="m 82.8846,0 0,497.3076"
           style="fill:none;stroke:#000000;stroke-opacity:1;stroke-width:0.5;stroke-linecap:butt;stroke-linejoin:round;stroke-miterlimit:10;stroke-dasharray:1,3;stroke-dashoffset:0"
           id="path5740" /></g></g><g
       id="g5742"><path
         d="m 82.8846,0 0,4"
         style="fill:#000000;fill-opacity:1;fill-rule:nonzero;stroke:#000000;stroke-opacity:1;stroke-width:0.5;stroke-linecap:butt;stroke-linejoin:round;stroke-miterlimit:10;stroke-dasharray:none"
         id="path5744" /><path
         d="m 82.8846,497.3076 0,-4"
         style="fill:#000000;fill-opacity:1;fill-rule:nonzero;stroke:#000000;stroke-opacity:1;stroke-width:0.5;stroke-linecap:butt;stroke-linejoin:round;stroke-miterlimit:10;stroke-dasharray:none"
         id="path5746" /><text
         transform="matrix(1,0,0,-1,74.337725,-13.125)"
         id="text5748"><tspan
           style="fill:#000000;fill-opacity:1;fill-rule:nonzero;stroke:none;font-family:DejaVu Sans;font-variant:normal;font-weight:normal;font-size:12;writing-mode:lr;-inkscape-font-specification:DejaVuSans"
           x="0 7.632 11.448"
           y="0"
           sodipodi:role="line"
           id="tspan5750">0.2</tspan></text>
</g><g
       id="g5752"><g
         id="g5754"
         clip-path="url(#clipPath5756)"><path
           d="m 138.141,0 0,497.3076"
           style="fill:none;stroke:#000000;stroke-opacity:1;stroke-width:0.5;stroke-linecap:butt;stroke-linejoin:round;stroke-miterlimit:10;stroke-dasharray:1,3;stroke-dashoffset:0"
           id="path5760" /></g></g><g
       id="g5762"><path
         d="m 138.141,0 0,4"
         style="fill:#000000;fill-opacity:1;fill-rule:nonzero;stroke:#000000;stroke-opacity:1;stroke-width:0.5;stroke-linecap:butt;stroke-linejoin:round;stroke-miterlimit:10;stroke-dasharray:none"
         id="path5764" /><path
         d="m 138.141,497.3076 0,-4"
         style="fill:#000000;fill-opacity:1;fill-rule:nonzero;stroke:#000000;stroke-opacity:1;stroke-width:0.5;stroke-linecap:butt;stroke-linejoin:round;stroke-miterlimit:10;stroke-dasharray:none"
         id="path5766" /><text
         transform="matrix(1,0,0,-1,129.3285,-13.125)"
         id="text5768"><tspan
           style="fill:#000000;fill-opacity:1;fill-rule:nonzero;stroke:none;font-family:DejaVu Sans;font-variant:normal;font-weight:normal;font-size:12;writing-mode:lr;-inkscape-font-specification:DejaVuSans"
           x="0 7.632 11.448"
           y="0"
           sodipodi:role="line"
           id="tspan5770">0.4</tspan></text>
</g><g
       id="g5772"><g
         id="g5774"
         clip-path="url(#clipPath5776)"><path
           d="m 193.3974,0 0,497.3076"
           style="fill:none;stroke:#000000;stroke-opacity:1;stroke-width:0.5;stroke-linecap:butt;stroke-linejoin:round;stroke-miterlimit:10;stroke-dasharray:1,3;stroke-dashoffset:0"
           id="path5780" /></g></g><g
       id="g5782"><path
         d="m 193.3974,0 0,4"
         style="fill:#000000;fill-opacity:1;fill-rule:nonzero;stroke:#000000;stroke-opacity:1;stroke-width:0.5;stroke-linecap:butt;stroke-linejoin:round;stroke-miterlimit:10;stroke-dasharray:none"
         id="path5784" /><path
         d="m 193.3974,497.3076 0,-4"
         style="fill:#000000;fill-opacity:1;fill-rule:nonzero;stroke:#000000;stroke-opacity:1;stroke-width:0.5;stroke-linecap:butt;stroke-linejoin:round;stroke-miterlimit:10;stroke-dasharray:none"
         id="path5786" /><text
         transform="matrix(1,0,0,-1,184.63178,-13.125)"
         id="text5788"><tspan
           style="fill:#000000;fill-opacity:1;fill-rule:nonzero;stroke:none;font-family:DejaVu Sans;font-variant:normal;font-weight:normal;font-size:12;writing-mode:lr;-inkscape-font-specification:DejaVuSans"
           x="0 7.632 11.448"
           y="0"
           sodipodi:role="line"
           id="tspan5790">0.6</tspan></text>
</g><g
       id="g5792"><g
         id="g5794"
         clip-path="url(#clipPath5796)"><path
           d="m 248.6538,0 0,497.3076"
           style="fill:none;stroke:#000000;stroke-opacity:1;stroke-width:0.5;stroke-linecap:butt;stroke-linejoin:round;stroke-miterlimit:10;stroke-dasharray:1,3;stroke-dashoffset:0"
           id="path5800" /></g></g><g
       id="g5802"><path
         d="m 248.6538,0 0,4"
         style="fill:#000000;fill-opacity:1;fill-rule:nonzero;stroke:#000000;stroke-opacity:1;stroke-width:0.5;stroke-linecap:butt;stroke-linejoin:round;stroke-miterlimit:10;stroke-dasharray:none"
         id="path5804" /><path
         d="m 248.6538,497.3076 0,-4"
         style="fill:#000000;fill-opacity:1;fill-rule:nonzero;stroke:#000000;stroke-opacity:1;stroke-width:0.5;stroke-linecap:butt;stroke-linejoin:round;stroke-miterlimit:10;stroke-dasharray:none"
         id="path5806" /><text
         transform="matrix(1,0,0,-1,239.91943,-13.125)"
         id="text5808"><tspan
           style="fill:#000000;fill-opacity:1;fill-rule:nonzero;stroke:none;font-family:DejaVu Sans;font-variant:normal;font-weight:normal;font-size:12;writing-mode:lr;-inkscape-font-specification:DejaVuSans"
           x="0 7.632 11.448"
           y="0"
           sodipodi:role="line"
           id="tspan5810">0.8</tspan></text>
</g><g
       id="g5812"><g
         id="g5814"
         clip-path="url(#clipPath5816)"><path
           d="m 303.9102,0 0,497.3076"
           style="fill:none;stroke:#000000;stroke-opacity:1;stroke-width:0.5;stroke-linecap:butt;stroke-linejoin:round;stroke-miterlimit:10;stroke-dasharray:1,3;stroke-dashoffset:0"
           id="path5820" /></g></g><g
       id="g5822"><path
         d="m 303.9102,0 0,4"
         style="fill:#000000;fill-opacity:1;fill-rule:nonzero;stroke:#000000;stroke-opacity:1;stroke-width:0.5;stroke-linecap:butt;stroke-linejoin:round;stroke-miterlimit:10;stroke-dasharray:none"
         id="path5824" /><path
         d="m 303.9102,497.3076 0,-4"
         style="fill:#000000;fill-opacity:1;fill-rule:nonzero;stroke:#000000;stroke-opacity:1;stroke-width:0.5;stroke-linecap:butt;stroke-linejoin:round;stroke-miterlimit:10;stroke-dasharray:none"
         id="path5826" /><text
         transform="matrix(1,0,0,-1,295.41801,-13.125)"
         id="text5828"><tspan
           style="fill:#000000;fill-opacity:1;fill-rule:nonzero;stroke:none;font-family:DejaVu Sans;font-variant:normal;font-weight:normal;font-size:12;writing-mode:lr;-inkscape-font-specification:DejaVuSans"
           x="0 7.632 11.448"
           y="0"
           sodipodi:role="line"
           id="tspan5830">1.0</tspan></text>
</g><g
       id="g5832"><g
         id="g5834"
         clip-path="url(#clipPath5836)"><path
           d="m 0,13.8141 331.5384,0"
           style="fill:none;stroke:#000000;stroke-opacity:1;stroke-width:0.5;stroke-linecap:butt;stroke-linejoin:round;stroke-miterlimit:10;stroke-dasharray:1,3;stroke-dashoffset:0"
           id="path5840" /></g></g><g
       id="g5842"><path
         d="m 0,13.8141 4,0"
         style="fill:#000000;fill-opacity:1;fill-rule:nonzero;stroke:#000000;stroke-opacity:1;stroke-width:0.5;stroke-linecap:butt;stroke-linejoin:round;stroke-miterlimit:10;stroke-dasharray:none"
         id="path5844" /><path
         d="m 331.5384,13.8141 -4,0"
         style="fill:#000000;fill-opacity:1;fill-rule:nonzero;stroke:#000000;stroke-opacity:1;stroke-width:0.5;stroke-linecap:butt;stroke-linejoin:round;stroke-miterlimit:10;stroke-dasharray:none"
         id="path5846" /><text
         transform="matrix(1,0,0,-1,-21.25,10.5016)"
         id="text5848"><tspan
           style="fill:#000000;fill-opacity:1;fill-rule:nonzero;stroke:none;font-family:DejaVu Sans;font-variant:normal;font-weight:normal;font-size:12;writing-mode:lr;-inkscape-font-specification:DejaVuSans"
           x="0 7.632 11.448"
           y="0"
           sodipodi:role="line"
           id="tspan5850">0.5</tspan></text>
</g><g
       id="g5852"><g
         id="g5854"
         clip-path="url(#clipPath5856)"><path
           d="m 0,151.9551 331.5384,0"
           style="fill:none;stroke:#000000;stroke-opacity:1;stroke-width:0.5;stroke-linecap:butt;stroke-linejoin:round;stroke-miterlimit:10;stroke-dasharray:1,3;stroke-dashoffset:0"
           id="path5860" /></g></g><g
       id="g5862"><path
         d="m 0,151.9551 4,0"
         style="fill:#000000;fill-opacity:1;fill-rule:nonzero;stroke:#000000;stroke-opacity:1;stroke-width:0.5;stroke-linecap:butt;stroke-linejoin:round;stroke-miterlimit:10;stroke-dasharray:none"
         id="path5864" /><path
         d="m 331.5384,151.9551 -4,0"
         style="fill:#000000;fill-opacity:1;fill-rule:nonzero;stroke:#000000;stroke-opacity:1;stroke-width:0.5;stroke-linecap:butt;stroke-linejoin:round;stroke-miterlimit:10;stroke-dasharray:none"
         id="path5866" /><text
         transform="matrix(1,0,0,-1,-20.984375,148.6426)"
         id="text5868"><tspan
           style="fill:#000000;fill-opacity:1;fill-rule:nonzero;stroke:none;font-family:DejaVu Sans;font-variant:normal;font-weight:normal;font-size:12;writing-mode:lr;-inkscape-font-specification:DejaVuSans"
           x="0 7.632 11.448"
           y="0"
           sodipodi:role="line"
           id="tspan5870">1.0</tspan></text>
</g><g
       id="g5872"><g
         id="g5874"
         clip-path="url(#clipPath5876)"><path
           d="m 0,290.0961 331.5384,0"
           style="fill:none;stroke:#000000;stroke-opacity:1;stroke-width:0.5;stroke-linecap:butt;stroke-linejoin:round;stroke-miterlimit:10;stroke-dasharray:1,3;stroke-dashoffset:0"
           id="path5880" /></g></g><g
       id="g5882"><path
         d="m 0,290.0961 4,0"
         style="fill:#000000;fill-opacity:1;fill-rule:nonzero;stroke:#000000;stroke-opacity:1;stroke-width:0.5;stroke-linecap:butt;stroke-linejoin:round;stroke-miterlimit:10;stroke-dasharray:none"
         id="path5884" /><path
         d="m 331.5384,290.0961 -4,0"
         style="fill:#000000;fill-opacity:1;fill-rule:nonzero;stroke:#000000;stroke-opacity:1;stroke-width:0.5;stroke-linecap:butt;stroke-linejoin:round;stroke-miterlimit:10;stroke-dasharray:none"
         id="path5886" /><text
         transform="matrix(1,0,0,-1,-20.734375,286.7836)"
         id="text5888"><tspan
           style="fill:#000000;fill-opacity:1;fill-rule:nonzero;stroke:none;font-family:DejaVu Sans;font-variant:normal;font-weight:normal;font-size:12;writing-mode:lr;-inkscape-font-specification:DejaVuSans"
           x="0 7.632 11.448"
           y="0"
           sodipodi:role="line"
           id="tspan5890">1.5</tspan></text>
</g><g
       id="g5892"><g
         id="g5894"
         clip-path="url(#clipPath5896)"><path
           d="m 0,428.2371 331.5384,0"
           style="fill:none;stroke:#000000;stroke-opacity:1;stroke-width:0.5;stroke-linecap:butt;stroke-linejoin:round;stroke-miterlimit:10;stroke-dasharray:1,3;stroke-dashoffset:0"
           id="path5900" /></g></g><path
       inkscape:connector-curvature="0"
       id="path5904"
       style="fill:#000000;fill-opacity:1;fill-rule:nonzero;stroke:#000000;stroke-width:0.5;stroke-linecap:butt;stroke-linejoin:round;stroke-miterlimit:10;stroke-opacity:1;stroke-dasharray:none"
       d="m 0,428.2371 4,0" /><path
       inkscape:connector-curvature="0"
       id="path5906"
       style="fill:#000000;fill-opacity:1;fill-rule:nonzero;stroke:#000000;stroke-width:0.5;stroke-linecap:butt;stroke-linejoin:round;stroke-miterlimit:10;stroke-opacity:1;stroke-dasharray:none"
       d="m 331.5384,428.2371 -4,0" /><text
       id="text5908"
       transform="scale(1,-1)"
       x="-21.421875"
       y="-424.92459"><tspan
         id="tspan5910"
         sodipodi:role="line"
         y="-424.92459"
         x="-21.421875 -13.789875 -9.973875"
         style="font-size:12px;font-variant:normal;font-weight:normal;writing-mode:lr-tb;fill:#000000;fill-opacity:1;fill-rule:nonzero;stroke:none;font-family:DejaVu Sans;-inkscape-font-specification:DejaVuSans">2.0</tspan></text>
<path
       inkscape:connector-curvature="0"
       id="path5912"
       style="fill:none;stroke:#000000;stroke-width:1;stroke-linecap:butt;stroke-linejoin:round;stroke-miterlimit:10;stroke-opacity:1;stroke-dasharray:none"
       d="m 0,497.3076 331.5384,0" /><path
       inkscape:connector-curvature="0"
       id="path5914"
       style="fill:none;stroke:#000000;stroke-width:1;stroke-linecap:butt;stroke-linejoin:round;stroke-miterlimit:10;stroke-opacity:1;stroke-dasharray:none"
       d="m 331.5384,0 0,497.3076" /><path
       inkscape:connector-curvature="0"
       id="path5916"
       style="fill:none;stroke:#000000;stroke-width:1;stroke-linecap:butt;stroke-linejoin:round;stroke-miterlimit:10;stroke-opacity:1;stroke-dasharray:none"
       d="M 0,0 331.5384,0" /><path
       inkscape:connector-curvature="0"
       id="path5918"
       style="fill:none;stroke:#000000;stroke-width:1;stroke-linecap:butt;stroke-linejoin:round;stroke-miterlimit:10;stroke-opacity:1;stroke-dasharray:none"
       d="M 0,0 0,497.3076" /><text
       id="text5920"
       transform="scale(1,-1)"
       x="16.57692"
       y="-472.44223"><tspan
         id="tspan5922"
         sodipodi:role="line"
         y="-472.44223"
         x="16.57692 21.28092 24.61692 36.30492 43.684921 47.500919 57.556919 61.372921 69.004921 72.820923 80.452919 88.084923 95.716919"
         style="font-size:12px;font-variant:normal;font-weight:normal;writing-mode:lr-tb;fill:#000000;fill-opacity:1;fill-rule:nonzero;stroke:none;font-family:DejaVu Sans;-inkscape-font-specification:DejaVuSans">time = 0.885s</tspan></text>
<text
       id="text5924"
       transform="scale(1,-1)"
       x="16.57692"
       y="-447.57684"><tspan
         id="tspan5926"
         sodipodi:role="line"
         y="-447.57684"
         x="16.57692 28.264919 35.608921 47.296921 54.676918 62.28492 66.988922 70.804924 78.184921 83.11692 88.04892 95.392921 100.32492 104.14092 114.19692 118.01292 125.64492 129.46092 137.09293 144.72491 152.35692 159.98892 167.62093 171.43692 180.41292"
         style="font-size:12px;font-variant:normal;font-weight:normal;writing-mode:lr-tb;fill:#000000;fill-opacity:1;fill-rule:nonzero;stroke:none;font-family:DejaVu Sans;-inkscape-font-specification:DejaVuSans">moment error = 0.09395 Nm</tspan></text>
<text
       id="text5928"
       transform="scale(1,-1)"
       x="21.382561"
       y="-464.90414"><tspan
         id="tspan5930"
         sodipodi:role="line"
         y="-464.90414"
         x="21.382561 30.540955 41.62896 46.20816 58.635361 67.764954 71.768158 77.412964 81.416153 86.614563 96.665756 105.47856 114.60815 120.25296 129.08015 137.00015 142.64496 147.22415 161.46576 170.27855 176.19696 180.20015"
         style="font-size:14.39999962px;font-variant:normal;font-weight:normal;writing-mode:lr-tb;fill:#000000;fill-opacity:1;fill-rule:nonzero;stroke:none;font-family:DejaVu Sans;-inkscape-font-specification:DejaVuSans">2D Multi-Contact World</tspan></text>
<rect
       style="fill:#ffffff;fill-opacity:1;stroke:none"
       id="rect5951"
       width="241.67358"
       height="52.680893"
       x="9.2191563"
       y="12.511711"
       transform="matrix(0.8,0,0,-0.8,0,497.3076)" /></g></svg>