<?xml version="1.0" encoding="UTF-8" standalone="no"?>
<!-- Created with Inkscape (http://www.inkscape.org/) -->

<svg
   xmlns:dc="http://purl.org/dc/elements/1.1/"
   xmlns:cc="http://creativecommons.org/ns#"
   xmlns:rdf="http://www.w3.org/1999/02/22-rdf-syntax-ns#"
   xmlns:svg="http://www.w3.org/2000/svg"
   xmlns="http://www.w3.org/2000/svg"
   xmlns:sodipodi="http://sodipodi.sourceforge.net/DTD/sodipodi-0.dtd"
   xmlns:inkscape="http://www.inkscape.org/namespaces/inkscape"
   id="svg4588"
   version="1.1"
   inkscape:version="0.48.4 r9939"
   width="414.423"
   height="621.6345"
   xml:space="preserve"
   sodipodi:docname="Demo8Frame3Mod.svg"><metadata
     id="metadata4594"><rdf:RDF><cc:Work
         rdf:about=""><dc:format>image/svg+xml</dc:format><dc:type
           rdf:resource="http://purl.org/dc/dcmitype/StillImage" /><dc:title></dc:title></cc:Work></rdf:RDF></metadata><defs
     id="defs4592"><clipPath
       clipPathUnits="userSpaceOnUse"
       id="clipPath4606"><path
         d="m 0,0 331.5384,0 0,497.3076 L 0,497.3076 0,0 z"
         id="path4608" /></clipPath><clipPath
       clipPathUnits="userSpaceOnUse"
       id="clipPath4616"><path
         d="m 0,0 331.5384,0 0,497.3076 L 0,497.3076 0,0 z"
         id="path4618" /></clipPath><clipPath
       clipPathUnits="userSpaceOnUse"
       id="clipPath4626"><path
         d="m 0,0 331.5384,0 0,497.3076 L 0,497.3076 0,0 z"
         id="path4628" /></clipPath><clipPath
       clipPathUnits="userSpaceOnUse"
       id="clipPath4636"><path
         d="m 0,0 331.5384,0 0,497.3076 L 0,497.3076 0,0 z"
         id="path4638" /></clipPath><clipPath
       clipPathUnits="userSpaceOnUse"
       id="clipPath4646"><path
         d="m 0,0 331.5384,0 0,497.3076 L 0,497.3076 0,0 z"
         id="path4648" /></clipPath><clipPath
       clipPathUnits="userSpaceOnUse"
       id="clipPath4656"><path
         d="m 0,0 331.5384,0 0,497.3076 L 0,497.3076 0,0 z"
         id="path4658" /></clipPath><clipPath
       clipPathUnits="userSpaceOnUse"
       id="clipPath4666"><path
         d="m 0,0 331.5384,0 0,497.3076 L 0,497.3076 0,0 z"
         id="path4668" /></clipPath><clipPath
       clipPathUnits="userSpaceOnUse"
       id="clipPath4676"><path
         d="m 0,0 331.5384,0 0,497.3076 L 0,497.3076 0,0 z"
         id="path4678" /></clipPath><clipPath
       clipPathUnits="userSpaceOnUse"
       id="clipPath4686"><path
         d="m 0,0 331.5384,0 0,497.3076 L 0,497.3076 0,0 z"
         id="path4688" /></clipPath><clipPath
       clipPathUnits="userSpaceOnUse"
       id="clipPath4696"><path
         d="m 0,0 331.5384,0 0,497.3076 L 0,497.3076 0,0 z"
         id="path4698" /></clipPath><clipPath
       clipPathUnits="userSpaceOnUse"
       id="clipPath4706"><path
         d="m 0,0 331.5384,0 0,497.3076 L 0,497.3076 0,0 z"
         id="path4708" /></clipPath><clipPath
       clipPathUnits="userSpaceOnUse"
       id="clipPath4716"><path
         d="m 0,0 331.5384,0 0,497.3076 L 0,497.3076 0,0 z"
         id="path4718" /></clipPath><clipPath
       clipPathUnits="userSpaceOnUse"
       id="clipPath4726"><path
         d="m 0,0 331.5384,0 0,497.3076 L 0,497.3076 0,0 z"
         id="path4728" /></clipPath><clipPath
       clipPathUnits="userSpaceOnUse"
       id="clipPath4736"><path
         d="m 0,0 331.5384,0 0,497.3076 L 0,497.3076 0,0 z"
         id="path4738" /></clipPath><clipPath
       clipPathUnits="userSpaceOnUse"
       id="clipPath4746"><path
         d="m 0,0 331.5384,0 0,497.3076 L 0,497.3076 0,0 z"
         id="path4748" /></clipPath><clipPath
       clipPathUnits="userSpaceOnUse"
       id="clipPath4756"><path
         d="m 0,0 331.5384,0 0,497.3076 L 0,497.3076 0,0 z"
         id="path4758" /></clipPath><clipPath
       clipPathUnits="userSpaceOnUse"
       id="clipPath4766"><path
         d="m 0,0 331.5384,0 0,497.3076 L 0,497.3076 0,0 z"
         id="path4768" /></clipPath><clipPath
       clipPathUnits="userSpaceOnUse"
       id="clipPath4776"><path
         d="m 0,0 331.5384,0 0,497.3076 L 0,497.3076 0,0 z"
         id="path4778" /></clipPath><clipPath
       clipPathUnits="userSpaceOnUse"
       id="clipPath4786"><path
         d="m 0,0 331.5384,0 0,497.3076 L 0,497.3076 0,0 z"
         id="path4788" /></clipPath><clipPath
       clipPathUnits="userSpaceOnUse"
       id="clipPath4796"><path
         d="m 0,0 331.5384,0 0,497.3076 L 0,497.3076 0,0 z"
         id="path4798" /></clipPath><clipPath
       clipPathUnits="userSpaceOnUse"
       id="clipPath4806"><path
         d="m 0,0 331.5384,0 0,497.3076 L 0,497.3076 0,0 z"
         id="path4808" /></clipPath><clipPath
       clipPathUnits="userSpaceOnUse"
       id="clipPath4816"><path
         d="m 0,0 331.5384,0 0,497.3076 L 0,497.3076 0,0 z"
         id="path4818" /></clipPath><clipPath
       clipPathUnits="userSpaceOnUse"
       id="clipPath4826"><path
         d="m 0,0 331.5384,0 0,497.3076 L 0,497.3076 0,0 z"
         id="path4828" /></clipPath><clipPath
       clipPathUnits="userSpaceOnUse"
       id="clipPath4836"><path
         d="m 0,0 331.5384,0 0,497.3076 L 0,497.3076 0,0 z"
         id="path4838" /></clipPath><clipPath
       clipPathUnits="userSpaceOnUse"
       id="clipPath4846"><path
         d="m 0,0 331.5384,0 0,497.3076 L 0,497.3076 0,0 z"
         id="path4848" /></clipPath><clipPath
       clipPathUnits="userSpaceOnUse"
       id="clipPath4856"><path
         d="m 0,0 331.5384,0 0,497.3076 L 0,497.3076 0,0 z"
         id="path4858" /></clipPath><clipPath
       clipPathUnits="userSpaceOnUse"
       id="clipPath4866"><path
         d="m 0,0 331.5384,0 0,497.3076 L 0,497.3076 0,0 z"
         id="path4868" /></clipPath><clipPath
       clipPathUnits="userSpaceOnUse"
       id="clipPath4876"><path
         d="m 0,0 331.5384,0 0,497.3076 L 0,497.3076 0,0 z"
         id="path4878" /></clipPath><clipPath
       clipPathUnits="userSpaceOnUse"
       id="clipPath4886"><path
         d="m 0,0 331.5384,0 0,497.3076 L 0,497.3076 0,0 z"
         id="path4888" /></clipPath><clipPath
       clipPathUnits="userSpaceOnUse"
       id="clipPath4896"><path
         d="m 0,0 331.5384,0 0,497.3076 L 0,497.3076 0,0 z"
         id="path4898" /></clipPath><clipPath
       clipPathUnits="userSpaceOnUse"
       id="clipPath4906"><path
         d="m 0,0 331.5384,0 0,497.3076 L 0,497.3076 0,0 z"
         id="path4908" /></clipPath><clipPath
       clipPathUnits="userSpaceOnUse"
       id="clipPath4916"><path
         d="m 0,0 331.5384,0 0,497.3076 L 0,497.3076 0,0 z"
         id="path4918" /></clipPath><clipPath
       clipPathUnits="userSpaceOnUse"
       id="clipPath4926"><path
         d="m 0,0 331.5384,0 0,497.3076 L 0,497.3076 0,0 z"
         id="path4928" /></clipPath><clipPath
       clipPathUnits="userSpaceOnUse"
       id="clipPath4936"><path
         d="m -7.5,-7.5 15,0 0,15 -15,0 0,-15 z"
         id="path4938" /></clipPath><clipPath
       clipPathUnits="userSpaceOnUse"
       id="clipPath4946"><path
         d="m 0,0 331.5384,0 0,497.3076 L 0,497.3076 0,0 z"
         id="path4948" /></clipPath><clipPath
       clipPathUnits="userSpaceOnUse"
       id="clipPath4956"><path
         d="m -7.5,-7.5 15,0 0,15 -15,0 0,-15 z"
         id="path4958" /></clipPath><clipPath
       clipPathUnits="userSpaceOnUse"
       id="clipPath4966"><path
         d="m 0,0 331.5384,0 0,497.3076 L 0,497.3076 0,0 z"
         id="path4968" /></clipPath><clipPath
       clipPathUnits="userSpaceOnUse"
       id="clipPath4976"><path
         d="m 0,0 331.5384,0 0,497.3076 L 0,497.3076 0,0 z"
         id="path4978" /></clipPath><clipPath
       clipPathUnits="userSpaceOnUse"
       id="clipPath4986"><path
         d="m 0,0 331.5384,0 0,497.3076 L 0,497.3076 0,0 z"
         id="path4988" /></clipPath><clipPath
       clipPathUnits="userSpaceOnUse"
       id="clipPath5006"><path
         d="m 0,0 331.5384,0 0,497.3076 L 0,497.3076 0,0 z"
         id="path5008" /></clipPath><clipPath
       clipPathUnits="userSpaceOnUse"
       id="clipPath5026"><path
         d="m 0,0 331.5384,0 0,497.3076 L 0,497.3076 0,0 z"
         id="path5028" /></clipPath><clipPath
       clipPathUnits="userSpaceOnUse"
       id="clipPath5046"><path
         d="m 0,0 331.5384,0 0,497.3076 L 0,497.3076 0,0 z"
         id="path5048" /></clipPath><clipPath
       clipPathUnits="userSpaceOnUse"
       id="clipPath5066"><path
         d="m 0,0 331.5384,0 0,497.3076 L 0,497.3076 0,0 z"
         id="path5068" /></clipPath><clipPath
       clipPathUnits="userSpaceOnUse"
       id="clipPath5086"><path
         d="m 0,0 331.5384,0 0,497.3076 L 0,497.3076 0,0 z"
         id="path5088" /></clipPath><clipPath
       clipPathUnits="userSpaceOnUse"
       id="clipPath5106"><path
         d="m 0,0 331.5384,0 0,497.3076 L 0,497.3076 0,0 z"
         id="path5108" /></clipPath><clipPath
       clipPathUnits="userSpaceOnUse"
       id="clipPath5126"><path
         d="m 0,0 331.5384,0 0,497.3076 L 0,497.3076 0,0 z"
         id="path5128" /></clipPath><clipPath
       clipPathUnits="userSpaceOnUse"
       id="clipPath5146"><path
         d="m 0,0 331.5384,0 0,497.3076 L 0,497.3076 0,0 z"
         id="path5148" /></clipPath><clipPath
       clipPathUnits="userSpaceOnUse"
       id="clipPath5166"><path
         d="m 0,0 331.5384,0 0,497.3076 L 0,497.3076 0,0 z"
         id="path5168" /></clipPath></defs><sodipodi:namedview
     pagecolor="#ffffff"
     bordercolor="#666666"
     borderopacity="1"
     objecttolerance="10"
     gridtolerance="10"
     guidetolerance="10"
     inkscape:pageopacity="0"
     inkscape:pageshadow="2"
     inkscape:window-width="640"
     inkscape:window-height="480"
     id="namedview4590"
     showgrid="false"
     inkscape:zoom="0.75928859"
     inkscape:cx="117.41557"
     inkscape:cy="524.24523"
     inkscape:window-x="0"
     inkscape:window-y="0"
     inkscape:window-maximized="0"
     inkscape:current-layer="g4596" /><g
     id="g4596"
     inkscape:groupmode="layer"
     inkscape:label="Demo8Frame121"
     transform="matrix(1.25,0,0,-1.25,0,621.6345)"><path
       d="m 0,0 331.5384,0 0,497.3076 L 0,497.3076 0,0 z"
       style="fill:#ffffff;fill-opacity:1;fill-rule:nonzero;stroke:none"
       id="path4598" /><path
       d="m 0,0 331.5384,0 0,497.3076 L 0,497.3076 0,0 z"
       style="fill:#ffffff;fill-opacity:1;fill-rule:nonzero;stroke:none"
       id="path4600" /><g
       id="g4602"><g
         id="g4604"
         clip-path="url(#clipPath4606)"><path
           d="m 96.6987,317.7243 8.19712,1.85057 8.0524,1.59057 8.09253,1.37151 8.12724,1.14836 7.96155,0.90242 7.9833,0.68373 7.99913,0.46297 8.0089,0.24079 8.0125,0.0179 8.0099,-0.2051 8.00111,-0.42744 7.98625,-0.64847 7.96541,-0.86752 7.93888,-1.084 8.09921,-1.33157 8.06004,-1.55141 8.01556,-1.76671 7.44362,-1.63506 5.0109,-0.84049 5.04222,-0.62559 5.06463,-0.40603 5.07755,-0.1834 5.0807,0.0407 5.07398,0.26439 5.05756,0.48609 5.03186,0.70413 4.99746,0.91702 4.00589,0.89171 0,0"
           style="fill:none;stroke:#d6d2c4;stroke-opacity:1;stroke-width:9;stroke-linecap:round;stroke-linejoin:round;stroke-miterlimit:10;stroke-dasharray:none"
           id="path4610" /></g></g><g
       id="g4612"><g
         id="g4614"
         clip-path="url(#clipPath4616)"><path
           d="m 120.77894,322.49614 1.70414,0.26136 1.70564,0.25148 1.70704,0.24157 1.70846,0.23164 1.70974,0.22165 1.71105,0.21166 1.71222,0.20161 1.71341,0.19156 1.71448,0.18147 1.71554,0.17136 1.71651,0.16122 1.71745,0.15106 1.7183,0.14088 1.71911,0.13067 1.71986,0.12046 1.72053,0.11023 1.72118,0.1 1.72173,0.0897 1.72224,0.0794 1.72268,0.0691 1.72307,0.0588 1.72338,0.0485 1.72365,0.0382 1.72384,0.0279 1.72398,0.0176 1.72405,0.007 1.72407,-0.003 1.72402,-0.0134 1.7239,-0.0237 1.72374,-0.0341 1.72349,-0.0444 1.72321,-0.0547 1.72284,-0.065 1.72243,-0.0753 1.72194,-0.0856 1.7214,-0.0958 1.7208,-0.1061 1.72014,-0.11634 1.71942,-0.12657 1.71863,-0.13677 1.7178,-0.14697 1.71689,-0.15713 1.71594,-0.16728 1.71491,-0.1774 1.71386,-0.1875 1.71269,-0.19757 1.71155,-0.20762 1.71025,-0.21763 1.709,-0.22762 1.7076,-0.23758 1.70623,-0.2475 1.70474,-0.25738 1.70323,-0.26725 1.70166,-0.27706 1.70004,-0.28685 1.69838,-0.2966 1.69662,-0.30629 1.69491,-0.31597 1.69301,-0.32559 1.69119,-0.33518 1.68924,-0.34471 1.6873,-0.35421 1.68528,-0.36367 1.68321,-0.37307 1.68116,-0.38244 1.67893,-0.39173 1.67733,-0.39899 1.6811,-0.38249 1.68626,-0.35901 1.69116,-0.33523 1.69574,-0.31121 1.70001,-0.28691 1.70397,-0.26238 1.7076,-0.23765 1.71088,-0.21269 1.71383,-0.18757 1.7164,-0.16228 1.71862,-0.13685 1.72046,-0.1113 1.72192,-0.0856 1.72302,-0.0599 1.72372,-0.0341 1.72403,-0.008 1.72397,0.0175 1.72351,0.0433 1.72267,0.0691 1.72145,0.0948 1.71985,0.12038 1.71787,0.14589 1.71554,0.17128 1.71281,0.1965 1.70976,0.22158 1.70635,0.24645 1.7026,0.27112 1.69854,0.29556 1.69415,0.31977 1.68945,0.3437 1.68447,0.36738 1.67919,0.39076"
           style="fill:none;stroke:#bda18b;stroke-opacity:1;stroke-width:9;stroke-linecap:round;stroke-linejoin:round;stroke-miterlimit:10;stroke-dasharray:none"
           id="path4620" /></g></g><g
       id="g4622"><g
         id="g4624"
         clip-path="url(#clipPath4626)"><path
           d="m 96.6987,317.7243 c 46.047,11.05128 92.094,11.05128 138.141,0 18.4188,-4.42051 36.8376,-4.42051 55.2564,0"
           style="fill:none;stroke:#bf5700;stroke-opacity:1;stroke-width:4;stroke-linecap:butt;stroke-linejoin:round;stroke-miterlimit:10;stroke-dasharray:none"
           id="path4630" /></g></g><g
       id="g4632"><g
         id="g4634"
         clip-path="url(#clipPath4636)"><path
           d="m 241.74675,13.8141 -140.81651,243.90136 281.63303,0 L 241.74675,13.8141 z"
           style="fill:#bda18b;fill-opacity:1;fill-rule:nonzero;stroke:#7b4316;stroke-opacity:1;stroke-width:3;stroke-linecap:butt;stroke-linejoin:round;stroke-miterlimit:10;stroke-dasharray:none"
           id="path4640" /></g></g><g
       id="g4642"><g
         id="g4644"
         clip-path="url(#clipPath4646)"><path
           d="m 165.7692,428.2371 35.20413,-60.97534 -70.40826,0 35.20413,60.97534 z"
           style="fill:#bda18b;fill-opacity:1;fill-rule:nonzero;stroke:#7b4316;stroke-opacity:1;stroke-width:3;stroke-linecap:butt;stroke-linejoin:round;stroke-miterlimit:10;stroke-dasharray:none"
           id="path4650" /></g></g><g
       id="g4652"><g
         id="g4654"
         clip-path="url(#clipPath4656)"><path
           d="M 234.45503,317.81639 C 182.96379,351.95199 160.06852,388.7589 165.7692,428.2371"
           style="fill:none;stroke:#000000;stroke-opacity:1;stroke-width:3;stroke-linecap:butt;stroke-linejoin:round;stroke-miterlimit:10;stroke-dasharray:none"
           id="path4660" /></g></g><g
       id="g4662"><g
         id="g4664"
         clip-path="url(#clipPath4666)"><path
           d="m 234.45503,317.81639 c 61.66052,-3.81669 87.46974,13.1548 77.42764,50.91445"
           style="fill:none;stroke:#000000;stroke-opacity:1;stroke-width:3;stroke-linecap:butt;stroke-linejoin:round;stroke-miterlimit:10;stroke-dasharray:none"
           id="path4670" /></g></g><g
       id="g4672"><g
         id="g4674"
         clip-path="url(#clipPath4676)"><path
           d="M 234.45503,317.81639 C 222.87413,215.50552 225.30471,114.17142 241.74675,13.8141"
           style="fill:none;stroke:#000000;stroke-opacity:1;stroke-width:3;stroke-linecap:butt;stroke-linejoin:round;stroke-miterlimit:10;stroke-dasharray:none"
           id="path4680" /></g></g><g
       id="g4682"><g
         id="g4684"
         clip-path="url(#clipPath4686)"><path
           d="M 234.45503,317.81639 C 291.34771,231.99766 288.35916,180.60236 225.48939,163.6305"
           style="fill:none;stroke:#000000;stroke-opacity:1;stroke-width:3;stroke-linecap:butt;stroke-linejoin:round;stroke-miterlimit:10;stroke-dasharray:none"
           id="path4690" /></g></g><g
       id="g4692"><g
         id="g4694"
         clip-path="url(#clipPath4696)"><path
           d="m 243.47302,13.855568 -2.78692,116.017212 5.26173,-3.32813 -7.2368,13.64425 -6.57332,-13.97599 5.09586,3.57694 2.78692,-116.017218 3.45253,0.08294 z"
           style="fill:#43695b;fill-opacity:0.9;fill-rule:nonzero;stroke:none"
           id="path4700" /></g></g><g
       id="g4702"><g
         id="g4704"
         clip-path="url(#clipPath4706)"><path
           d="m 165.75177,428.22704 0.10063,-0.17429 -0.0724,0.005 0.15021,-0.0992 -0.0108,0.17969 -0.0322,-0.065 -0.10063,0.17429 -0.0349,-0.0201 z"
           style="fill:#43695b;fill-opacity:0.9;fill-rule:nonzero;stroke:none"
           id="path4710" /></g></g><g
       id="g4712"><g
         id="g4714"
         clip-path="url(#clipPath4716)"><path
           d="m -13786.472,-13938.427 0,0 0,0 0,0 0,0 0,0 0,0 z"
           style="fill:#43695b;fill-opacity:0.9;fill-rule:nonzero;stroke:none"
           id="path4720" /></g></g><g
       id="g4722"><g
         id="g4724"
         clip-path="url(#clipPath4726)"><path
           d="m -13786.472,-13938.427 0,0 0,0 0,0 0,0 0,0 0,0 z"
           style="fill:#43695b;fill-opacity:0.9;fill-rule:nonzero;stroke:none"
           id="path4730" /></g></g><g
       id="g4732"><g
         id="g4734"
         clip-path="url(#clipPath4736)"><path
           d="m 234.45503,300.54876 c 4.57943,0 8.97191,1.81943 12.21006,5.05757 3.23814,3.23815 5.05757,7.63063 5.05757,12.21006 0,4.57943 -1.81943,8.97191 -5.05757,12.21005 -3.23815,3.23815 -7.63063,5.05757 -12.21006,5.05757 -4.57943,0 -8.97191,-1.81942 -12.21005,-5.05757 -3.23815,-3.23814 -5.05757,-7.63062 -5.05757,-12.21005 0,-4.57943 1.81942,-8.97191 5.05757,-12.21006 3.23814,-3.23814 7.63062,-5.05757 12.21005,-5.05757 z"
           style="fill:#ffffff;fill-opacity:1;fill-rule:nonzero;stroke:#000000;stroke-opacity:1;stroke-width:2;stroke-linecap:butt;stroke-linejoin:round;stroke-miterlimit:10;stroke-dasharray:none"
           id="path4740" /></g></g><g
       id="g4742"><g
         id="g4744"
         clip-path="url(#clipPath4746)"><path
           d="m 234.45503,335.08401 c -4.5779,0 -8.97299,-1.8205 -12.21005,-5.05757 -3.23707,-3.23706 -5.05757,-7.63215 -5.05757,-12.21005 l 17.26762,0 0,17.26762 z"
           style="fill:#000000;fill-opacity:1;fill-rule:nonzero;stroke:#000000;stroke-opacity:1;stroke-width:1;stroke-linecap:butt;stroke-linejoin:round;stroke-miterlimit:10;stroke-dasharray:none"
           id="path4750" /></g></g><g
       id="g4752"><g
         id="g4754"
         clip-path="url(#clipPath4756)"><path
           d="m 234.45503,300.54876 c 4.5779,0 8.97299,1.82051 12.21006,5.05757 3.23706,3.23707 5.05757,7.63216 5.05757,12.21006 l -17.26763,0 0,-17.26763 z"
           style="fill:#000000;fill-opacity:1;fill-rule:nonzero;stroke:#000000;stroke-opacity:1;stroke-width:1;stroke-linecap:butt;stroke-linejoin:round;stroke-miterlimit:10;stroke-dasharray:none"
           id="path4760" /></g></g><g
       id="g4762"><g
         id="g4764"
         clip-path="url(#clipPath4766)"><path
           d="m 233.70221,317.99606 -1.79669,-7.52817 -1.89911,2.04464 1.5739,-6.74121 4.44863,5.30386 -2.61779,-0.96663 1.7967,7.52817 -1.50564,0.35934 z"
           style="fill:#005f86;fill-opacity:0.9;fill-rule:nonzero;stroke:none"
           id="path4770" /></g></g><g
       id="g4772"><g
         id="g4774"
         clip-path="url(#clipPath4776)"><path
           d="m 234.0551,316.14066 16.7573,-3.99935 -4.55127,-4.22732 15.00559,3.50344 -11.80611,9.9024 2.15166,-5.82706 -16.7573,3.99935 -0.79987,-3.35146 z"
           style="fill:#f2a900;fill-opacity:0.9;fill-rule:nonzero;stroke:none"
           id="path4780" /></g></g><g
       id="g4782"><g
         id="g4784"
         clip-path="url(#clipPath4786)"><path
           d="m 234.45503,317.81639 0,-2e-5 -1e-5,10e-6 1e-5,-2e-5 1e-5,2e-5 -1e-5,-10e-6 0,2e-5 0,0 z"
           style="fill:#ffc0cb;fill-opacity:0.8;fill-rule:nonzero;stroke:none"
           id="path4790" /></g></g><g
       id="g4792"><g
         id="g4794"
         clip-path="url(#clipPath4796)"><path
           d="m 27.6282,13.8141 69.0705,0"
           style="fill:none;stroke:#000000;stroke-opacity:1;stroke-width:4;stroke-linecap:square;stroke-linejoin:round;stroke-miterlimit:10;stroke-dasharray:none"
           id="path4800" /></g></g><g
       id="g4802"><g
         id="g4804"
         clip-path="url(#clipPath4806)"><path
           d="m 234.8397,13.8141 69.0705,0"
           style="fill:none;stroke:#000000;stroke-opacity:1;stroke-width:4;stroke-linecap:square;stroke-linejoin:round;stroke-miterlimit:10;stroke-dasharray:none"
           id="path4810" /></g></g><g
       id="g4812"><g
         id="g4814"
         clip-path="url(#clipPath4816)"><path
           d="m 234.8397,428.2371 -138.141,0"
           style="fill:none;stroke:#000000;stroke-opacity:1;stroke-width:4;stroke-linecap:square;stroke-linejoin:round;stroke-miterlimit:10;stroke-dasharray:none"
           id="path4820" /></g></g><g
       id="g4822"><g
         id="g4824"
         clip-path="url(#clipPath4826)"><path
           d="m 96.6987,317.7243 -6.447674,26.86531"
           style="fill:none;stroke:#bf5700;stroke-opacity:1;stroke-width:1;stroke-linecap:square;stroke-linejoin:round;stroke-miterlimit:10;stroke-dasharray:none"
           id="path4830" /></g></g><g
       id="g4832"><g
         id="g4834"
         clip-path="url(#clipPath4836)"><path
           d="m 117.9535,322.04057 -4.52823,27.25459"
           style="fill:none;stroke:#bf5700;stroke-opacity:1;stroke-width:1;stroke-linecap:square;stroke-linejoin:round;stroke-miterlimit:10;stroke-dasharray:none"
           id="path4840" /></g></g><g
       id="g4842"><g
         id="g4844"
         clip-path="url(#clipPath4846)"><path
           d="m 139.46412,324.81059 -2.5148,27.51351"
           style="fill:none;stroke:#bf5700;stroke-opacity:1;stroke-width:1;stroke-linecap:square;stroke-linejoin:round;stroke-miterlimit:10;stroke-dasharray:none"
           id="path4850" /></g></g><g
       id="g4852"><g
         id="g4854"
         clip-path="url(#clipPath4856)"><path
           d="m 161.12087,325.97522 -0.44618,27.6246"
           style="fill:none;stroke:#bf5700;stroke-opacity:1;stroke-width:1;stroke-linecap:square;stroke-linejoin:round;stroke-miterlimit:10;stroke-dasharray:none"
           id="path4860" /></g></g><g
       id="g4862"><g
         id="g4864"
         clip-path="url(#clipPath4866)"><path
           d="m 182.80387,325.50862 1.63247,27.57992"
           style="fill:none;stroke:#bf5700;stroke-opacity:1;stroke-width:1;stroke-linecap:square;stroke-linejoin:round;stroke-miterlimit:10;stroke-dasharray:none"
           id="path4870" /></g></g><g
       id="g4872"><g
         id="g4874"
         clip-path="url(#clipPath4876)"><path
           d="m 204.39132,323.4212 3.67478,27.38272"
           style="fill:none;stroke:#bf5700;stroke-opacity:1;stroke-width:1;stroke-linecap:square;stroke-linejoin:round;stroke-miterlimit:10;stroke-dasharray:none"
           id="path4880" /></g></g><g
       id="g4882"><g
         id="g4884"
         clip-path="url(#clipPath4886)"><path
           d="m 225.76825,319.75848 5.63867,27.04668"
           style="fill:none;stroke:#bf5700;stroke-opacity:1;stroke-width:1;stroke-linecap:square;stroke-linejoin:round;stroke-miterlimit:10;stroke-dasharray:none"
           id="path4890" /></g></g><g
       id="g4892"><g
         id="g4894"
         clip-path="url(#clipPath4896)"><path
           d="m 247.01905,315.44554 3.67478,27.38272"
           style="fill:none;stroke:#bf5700;stroke-opacity:1;stroke-width:1;stroke-linecap:square;stroke-linejoin:round;stroke-miterlimit:10;stroke-dasharray:none"
           id="path4900" /></g></g><g
       id="g4902"><g
         id="g4904"
         clip-path="url(#clipPath4906)"><path
           d="m 268.66295,314.57561 -1.48466,27.58828"
           style="fill:none;stroke:#bf5700;stroke-opacity:1;stroke-width:1;stroke-linecap:square;stroke-linejoin:round;stroke-miterlimit:10;stroke-dasharray:none"
           id="path4910" /></g></g><g
       id="g4912"><g
         id="g4914"
         clip-path="url(#clipPath4916)"><path
           d="m 290.0961,317.7243 -6.44767,26.86531"
           style="fill:none;stroke:#bf5700;stroke-opacity:1;stroke-width:1;stroke-linecap:square;stroke-linejoin:round;stroke-miterlimit:10;stroke-dasharray:none"
           id="path4920" /></g></g><g
       id="g4922"><g
         id="g4924"
         clip-path="url(#clipPath4926)"><g
           id="g4930"
           transform="translate(241.74675,13.8141)"><g
             id="g4932"><g
               id="g4934"
               clip-path="url(#clipPath4936)"><path
                 d="m 0,-6 c 1.5912186,0 3.1174792,0.6321979 4.2426407,1.7573593 C 5.3678021,-3.1174792 6,-1.5912186 6,0 6,1.5912186 5.3678021,3.1174792 4.2426407,4.2426407 3.1174792,5.3678021 1.5912186,6 0,6 -1.5912186,6 -3.1174792,5.3678021 -4.2426407,4.2426407 -5.3678021,3.1174792 -6,1.5912186 -6,0 -6,-1.5912186 -5.3678021,-3.1174792 -4.2426407,-4.2426407 -3.1174792,-5.3678021 -1.5912186,-6 0,-6 z"
                 style="fill:#bda18b;fill-opacity:1;fill-rule:nonzero;stroke:#7b4316;stroke-opacity:1;stroke-width:3;stroke-linecap:butt;stroke-linejoin:round;stroke-miterlimit:10;stroke-dasharray:none"
                 id="path4940" /></g></g></g></g></g><g
       id="g4942"><g
         id="g4944"
         clip-path="url(#clipPath4946)"><g
           id="g4950"
           transform="translate(165.7692,428.2371)"><g
             id="g4952"><g
               id="g4954"
               clip-path="url(#clipPath4956)"><path
                 d="m 0,-6 c 1.5912186,0 3.1174792,0.6321979 4.2426407,1.7573593 C 5.3678021,-3.1174792 6,-1.5912186 6,0 6,1.5912186 5.3678021,3.1174792 4.2426407,4.2426407 3.1174792,5.3678021 1.5912186,6 0,6 -1.5912186,6 -3.1174792,5.3678021 -4.2426407,4.2426407 -5.3678021,3.1174792 -6,1.5912186 -6,0 -6,-1.5912186 -5.3678021,-3.1174792 -4.2426407,-4.2426407 -3.1174792,-5.3678021 -1.5912186,-6 0,-6 z"
                 style="fill:#bda18b;fill-opacity:1;fill-rule:nonzero;stroke:#7b4316;stroke-opacity:1;stroke-width:3;stroke-linecap:butt;stroke-linejoin:round;stroke-miterlimit:10;stroke-dasharray:none"
                 id="path4960" /></g></g></g></g></g><g
       id="g4962"><g
         id="g4964"
         clip-path="url(#clipPath4966)"><path
           d="m 122.91256,308.84781 1.06681,-6.82417"
           style="fill:none;stroke:#7b4316;stroke-opacity:1;stroke-width:3;stroke-linecap:round;stroke-linejoin:round;stroke-miterlimit:10;stroke-dasharray:none"
           id="path4970" /></g></g><g
       id="g4972"><g
         id="g4974"
         clip-path="url(#clipPath4976)"><path
           d="m 293.31994,304.29165 1.61192,-6.71633"
           style="fill:none;stroke:#7b4316;stroke-opacity:1;stroke-width:3;stroke-linecap:round;stroke-linejoin:round;stroke-miterlimit:10;stroke-dasharray:none"
           id="path4980" /></g></g><g
       id="g4982"><g
         id="g4984"
         clip-path="url(#clipPath4986)"><path
           d="m 27.6282,0 0,497.3076"
           style="fill:none;stroke:#000000;stroke-opacity:1;stroke-width:0.5;stroke-linecap:butt;stroke-linejoin:round;stroke-miterlimit:10;stroke-dasharray:1,3;stroke-dashoffset:0"
           id="path4990" /></g></g><g
       id="g4992"><path
         d="m 27.6282,0 0,4"
         style="fill:#000000;fill-opacity:1;fill-rule:nonzero;stroke:#000000;stroke-opacity:1;stroke-width:0.5;stroke-linecap:butt;stroke-linejoin:round;stroke-miterlimit:10;stroke-dasharray:none"
         id="path4994" /><path
         d="m 27.6282,497.3076 0,-4"
         style="fill:#000000;fill-opacity:1;fill-rule:nonzero;stroke:#000000;stroke-opacity:1;stroke-width:0.5;stroke-linecap:butt;stroke-linejoin:round;stroke-miterlimit:10;stroke-dasharray:none"
         id="path4996" /><text
         transform="matrix(1,0,0,-1,18.8782,-13.125)"
         id="text4998"><tspan
           style="fill:#000000;fill-opacity:1;fill-rule:nonzero;stroke:none;font-family:DejaVu Sans;font-variant:normal;font-weight:normal;font-size:12;writing-mode:lr;-inkscape-font-specification:DejaVuSans"
           x="0 7.632 11.448"
           y="0"
           sodipodi:role="line"
           id="tspan5000">0.0</tspan></text>
</g><g
       id="g5002"><g
         id="g5004"
         clip-path="url(#clipPath5006)"><path
           d="m 82.8846,0 0,497.3076"
           style="fill:none;stroke:#000000;stroke-opacity:1;stroke-width:0.5;stroke-linecap:butt;stroke-linejoin:round;stroke-miterlimit:10;stroke-dasharray:1,3;stroke-dashoffset:0"
           id="path5010" /></g></g><g
       id="g5012"><path
         d="m 82.8846,0 0,4"
         style="fill:#000000;fill-opacity:1;fill-rule:nonzero;stroke:#000000;stroke-opacity:1;stroke-width:0.5;stroke-linecap:butt;stroke-linejoin:round;stroke-miterlimit:10;stroke-dasharray:none"
         id="path5014" /><path
         d="m 82.8846,497.3076 0,-4"
         style="fill:#000000;fill-opacity:1;fill-rule:nonzero;stroke:#000000;stroke-opacity:1;stroke-width:0.5;stroke-linecap:butt;stroke-linejoin:round;stroke-miterlimit:10;stroke-dasharray:none"
         id="path5016" /><text
         transform="matrix(1,0,0,-1,74.337725,-13.125)"
         id="text5018"><tspan
           style="fill:#000000;fill-opacity:1;fill-rule:nonzero;stroke:none;font-family:DejaVu Sans;font-variant:normal;font-weight:normal;font-size:12;writing-mode:lr;-inkscape-font-specification:DejaVuSans"
           x="0 7.632 11.448"
           y="0"
           sodipodi:role="line"
           id="tspan5020">0.2</tspan></text>
</g><g
       id="g5022"><g
         id="g5024"
         clip-path="url(#clipPath5026)"><path
           d="m 138.141,0 0,497.3076"
           style="fill:none;stroke:#000000;stroke-opacity:1;stroke-width:0.5;stroke-linecap:butt;stroke-linejoin:round;stroke-miterlimit:10;stroke-dasharray:1,3;stroke-dashoffset:0"
           id="path5030" /></g></g><g
       id="g5032"><path
         d="m 138.141,0 0,4"
         style="fill:#000000;fill-opacity:1;fill-rule:nonzero;stroke:#000000;stroke-opacity:1;stroke-width:0.5;stroke-linecap:butt;stroke-linejoin:round;stroke-miterlimit:10;stroke-dasharray:none"
         id="path5034" /><path
         d="m 138.141,497.3076 0,-4"
         style="fill:#000000;fill-opacity:1;fill-rule:nonzero;stroke:#000000;stroke-opacity:1;stroke-width:0.5;stroke-linecap:butt;stroke-linejoin:round;stroke-miterlimit:10;stroke-dasharray:none"
         id="path5036" /><text
         transform="matrix(1,0,0,-1,129.3285,-13.125)"
         id="text5038"><tspan
           style="fill:#000000;fill-opacity:1;fill-rule:nonzero;stroke:none;font-family:DejaVu Sans;font-variant:normal;font-weight:normal;font-size:12;writing-mode:lr;-inkscape-font-specification:DejaVuSans"
           x="0 7.632 11.448"
           y="0"
           sodipodi:role="line"
           id="tspan5040">0.4</tspan></text>
</g><g
       id="g5042"><g
         id="g5044"
         clip-path="url(#clipPath5046)"><path
           d="m 193.3974,0 0,497.3076"
           style="fill:none;stroke:#000000;stroke-opacity:1;stroke-width:0.5;stroke-linecap:butt;stroke-linejoin:round;stroke-miterlimit:10;stroke-dasharray:1,3;stroke-dashoffset:0"
           id="path5050" /></g></g><g
       id="g5052"><path
         d="m 193.3974,0 0,4"
         style="fill:#000000;fill-opacity:1;fill-rule:nonzero;stroke:#000000;stroke-opacity:1;stroke-width:0.5;stroke-linecap:butt;stroke-linejoin:round;stroke-miterlimit:10;stroke-dasharray:none"
         id="path5054" /><path
         d="m 193.3974,497.3076 0,-4"
         style="fill:#000000;fill-opacity:1;fill-rule:nonzero;stroke:#000000;stroke-opacity:1;stroke-width:0.5;stroke-linecap:butt;stroke-linejoin:round;stroke-miterlimit:10;stroke-dasharray:none"
         id="path5056" /><text
         transform="matrix(1,0,0,-1,184.63178,-13.125)"
         id="text5058"><tspan
           style="fill:#000000;fill-opacity:1;fill-rule:nonzero;stroke:none;font-family:DejaVu Sans;font-variant:normal;font-weight:normal;font-size:12;writing-mode:lr;-inkscape-font-specification:DejaVuSans"
           x="0 7.632 11.448"
           y="0"
           sodipodi:role="line"
           id="tspan5060">0.6</tspan></text>
</g><g
       id="g5062"><g
         id="g5064"
         clip-path="url(#clipPath5066)"><path
           d="m 248.6538,0 0,497.3076"
           style="fill:none;stroke:#000000;stroke-opacity:1;stroke-width:0.5;stroke-linecap:butt;stroke-linejoin:round;stroke-miterlimit:10;stroke-dasharray:1,3;stroke-dashoffset:0"
           id="path5070" /></g></g><g
       id="g5072"><path
         d="m 248.6538,0 0,4"
         style="fill:#000000;fill-opacity:1;fill-rule:nonzero;stroke:#000000;stroke-opacity:1;stroke-width:0.5;stroke-linecap:butt;stroke-linejoin:round;stroke-miterlimit:10;stroke-dasharray:none"
         id="path5074" /><path
         d="m 248.6538,497.3076 0,-4"
         style="fill:#000000;fill-opacity:1;fill-rule:nonzero;stroke:#000000;stroke-opacity:1;stroke-width:0.5;stroke-linecap:butt;stroke-linejoin:round;stroke-miterlimit:10;stroke-dasharray:none"
         id="path5076" /><text
         transform="matrix(1,0,0,-1,239.91943,-13.125)"
         id="text5078"><tspan
           style="fill:#000000;fill-opacity:1;fill-rule:nonzero;stroke:none;font-family:DejaVu Sans;font-variant:normal;font-weight:normal;font-size:12;writing-mode:lr;-inkscape-font-specification:DejaVuSans"
           x="0 7.632 11.448"
           y="0"
           sodipodi:role="line"
           id="tspan5080">0.8</tspan></text>
</g><g
       id="g5082"><g
         id="g5084"
         clip-path="url(#clipPath5086)"><path
           d="m 303.9102,0 0,497.3076"
           style="fill:none;stroke:#000000;stroke-opacity:1;stroke-width:0.5;stroke-linecap:butt;stroke-linejoin:round;stroke-miterlimit:10;stroke-dasharray:1,3;stroke-dashoffset:0"
           id="path5090" /></g></g><g
       id="g5092"><path
         d="m 303.9102,0 0,4"
         style="fill:#000000;fill-opacity:1;fill-rule:nonzero;stroke:#000000;stroke-opacity:1;stroke-width:0.5;stroke-linecap:butt;stroke-linejoin:round;stroke-miterlimit:10;stroke-dasharray:none"
         id="path5094" /><path
         d="m 303.9102,497.3076 0,-4"
         style="fill:#000000;fill-opacity:1;fill-rule:nonzero;stroke:#000000;stroke-opacity:1;stroke-width:0.5;stroke-linecap:butt;stroke-linejoin:round;stroke-miterlimit:10;stroke-dasharray:none"
         id="path5096" /><text
         transform="matrix(1,0,0,-1,295.41801,-13.125)"
         id="text5098"><tspan
           style="fill:#000000;fill-opacity:1;fill-rule:nonzero;stroke:none;font-family:DejaVu Sans;font-variant:normal;font-weight:normal;font-size:12;writing-mode:lr;-inkscape-font-specification:DejaVuSans"
           x="0 7.632 11.448"
           y="0"
           sodipodi:role="line"
           id="tspan5100">1.0</tspan></text>
</g><g
       id="g5102"><g
         id="g5104"
         clip-path="url(#clipPath5106)"><path
           d="m 0,13.8141 331.5384,0"
           style="fill:none;stroke:#000000;stroke-opacity:1;stroke-width:0.5;stroke-linecap:butt;stroke-linejoin:round;stroke-miterlimit:10;stroke-dasharray:1,3;stroke-dashoffset:0"
           id="path5110" /></g></g><g
       id="g5112"><path
         d="m 0,13.8141 4,0"
         style="fill:#000000;fill-opacity:1;fill-rule:nonzero;stroke:#000000;stroke-opacity:1;stroke-width:0.5;stroke-linecap:butt;stroke-linejoin:round;stroke-miterlimit:10;stroke-dasharray:none"
         id="path5114" /><path
         d="m 331.5384,13.8141 -4,0"
         style="fill:#000000;fill-opacity:1;fill-rule:nonzero;stroke:#000000;stroke-opacity:1;stroke-width:0.5;stroke-linecap:butt;stroke-linejoin:round;stroke-miterlimit:10;stroke-dasharray:none"
         id="path5116" /><text
         transform="matrix(1,0,0,-1,-21.25,10.5016)"
         id="text5118"><tspan
           style="fill:#000000;fill-opacity:1;fill-rule:nonzero;stroke:none;font-family:DejaVu Sans;font-variant:normal;font-weight:normal;font-size:12;writing-mode:lr;-inkscape-font-specification:DejaVuSans"
           x="0 7.632 11.448"
           y="0"
           sodipodi:role="line"
           id="tspan5120">0.5</tspan></text>
</g><g
       id="g5122"><g
         id="g5124"
         clip-path="url(#clipPath5126)"><path
           d="m 0,151.9551 331.5384,0"
           style="fill:none;stroke:#000000;stroke-opacity:1;stroke-width:0.5;stroke-linecap:butt;stroke-linejoin:round;stroke-miterlimit:10;stroke-dasharray:1,3;stroke-dashoffset:0"
           id="path5130" /></g></g><g
       id="g5132"><path
         d="m 0,151.9551 4,0"
         style="fill:#000000;fill-opacity:1;fill-rule:nonzero;stroke:#000000;stroke-opacity:1;stroke-width:0.5;stroke-linecap:butt;stroke-linejoin:round;stroke-miterlimit:10;stroke-dasharray:none"
         id="path5134" /><path
         d="m 331.5384,151.9551 -4,0"
         style="fill:#000000;fill-opacity:1;fill-rule:nonzero;stroke:#000000;stroke-opacity:1;stroke-width:0.5;stroke-linecap:butt;stroke-linejoin:round;stroke-miterlimit:10;stroke-dasharray:none"
         id="path5136" /><text
         transform="matrix(1,0,0,-1,-20.984375,148.6426)"
         id="text5138"><tspan
           style="fill:#000000;fill-opacity:1;fill-rule:nonzero;stroke:none;font-family:DejaVu Sans;font-variant:normal;font-weight:normal;font-size:12;writing-mode:lr;-inkscape-font-specification:DejaVuSans"
           x="0 7.632 11.448"
           y="0"
           sodipodi:role="line"
           id="tspan5140">1.0</tspan></text>
</g><g
       id="g5142"><g
         id="g5144"
         clip-path="url(#clipPath5146)"><path
           d="m 0,290.0961 331.5384,0"
           style="fill:none;stroke:#000000;stroke-opacity:1;stroke-width:0.5;stroke-linecap:butt;stroke-linejoin:round;stroke-miterlimit:10;stroke-dasharray:1,3;stroke-dashoffset:0"
           id="path5150" /></g></g><g
       id="g5152"><path
         d="m 0,290.0961 4,0"
         style="fill:#000000;fill-opacity:1;fill-rule:nonzero;stroke:#000000;stroke-opacity:1;stroke-width:0.5;stroke-linecap:butt;stroke-linejoin:round;stroke-miterlimit:10;stroke-dasharray:none"
         id="path5154" /><path
         d="m 331.5384,290.0961 -4,0"
         style="fill:#000000;fill-opacity:1;fill-rule:nonzero;stroke:#000000;stroke-opacity:1;stroke-width:0.5;stroke-linecap:butt;stroke-linejoin:round;stroke-miterlimit:10;stroke-dasharray:none"
         id="path5156" /><text
         transform="matrix(1,0,0,-1,-20.734375,286.7836)"
         id="text5158"><tspan
           style="fill:#000000;fill-opacity:1;fill-rule:nonzero;stroke:none;font-family:DejaVu Sans;font-variant:normal;font-weight:normal;font-size:12;writing-mode:lr;-inkscape-font-specification:DejaVuSans"
           x="0 7.632 11.448"
           y="0"
           sodipodi:role="line"
           id="tspan5160">1.5</tspan></text>
</g><g
       id="g5162"><g
         id="g5164"
         clip-path="url(#clipPath5166)"><path
           d="m 0,428.2371 331.5384,0"
           style="fill:none;stroke:#000000;stroke-opacity:1;stroke-width:0.5;stroke-linecap:butt;stroke-linejoin:round;stroke-miterlimit:10;stroke-dasharray:1,3;stroke-dashoffset:0"
           id="path5170" /></g></g><path
       inkscape:connector-curvature="0"
       id="path5174"
       style="fill:#000000;fill-opacity:1;fill-rule:nonzero;stroke:#000000;stroke-width:0.5;stroke-linecap:butt;stroke-linejoin:round;stroke-miterlimit:10;stroke-opacity:1;stroke-dasharray:none"
       d="m 0,428.2371 4,0" /><path
       inkscape:connector-curvature="0"
       id="path5176"
       style="fill:#000000;fill-opacity:1;fill-rule:nonzero;stroke:#000000;stroke-width:0.5;stroke-linecap:butt;stroke-linejoin:round;stroke-miterlimit:10;stroke-opacity:1;stroke-dasharray:none"
       d="m 331.5384,428.2371 -4,0" /><text
       id="text5178"
       transform="scale(1,-1)"
       x="-21.421875"
       y="-424.92459"><tspan
         id="tspan5180"
         sodipodi:role="line"
         y="-424.92459"
         x="-21.421875 -13.789875 -9.973875"
         style="font-size:12px;font-variant:normal;font-weight:normal;writing-mode:lr-tb;fill:#000000;fill-opacity:1;fill-rule:nonzero;stroke:none;font-family:DejaVu Sans;-inkscape-font-specification:DejaVuSans">2.0</tspan></text>
<path
       inkscape:connector-curvature="0"
       id="path5182"
       style="fill:none;stroke:#000000;stroke-width:1;stroke-linecap:butt;stroke-linejoin:round;stroke-miterlimit:10;stroke-opacity:1;stroke-dasharray:none"
       d="m 0,497.3076 331.5384,0" /><path
       inkscape:connector-curvature="0"
       id="path5184"
       style="fill:none;stroke:#000000;stroke-width:1;stroke-linecap:butt;stroke-linejoin:round;stroke-miterlimit:10;stroke-opacity:1;stroke-dasharray:none"
       d="m 331.5384,0 0,497.3076" /><path
       inkscape:connector-curvature="0"
       id="path5186"
       style="fill:none;stroke:#000000;stroke-width:1;stroke-linecap:butt;stroke-linejoin:round;stroke-miterlimit:10;stroke-opacity:1;stroke-dasharray:none"
       d="M 0,0 331.5384,0" /><path
       inkscape:connector-curvature="0"
       id="path5188"
       style="fill:none;stroke:#000000;stroke-width:1;stroke-linecap:butt;stroke-linejoin:round;stroke-miterlimit:10;stroke-opacity:1;stroke-dasharray:none"
       d="M 0,0 0,497.3076" /><text
       id="text5190"
       transform="scale(1,-1)"
       x="16.57692"
       y="-472.44223"><tspan
         id="tspan5192"
         sodipodi:role="line"
         y="-472.44223"
         x="16.57692 21.28092 24.61692 36.30492 43.684921 47.500919 57.556919 61.372921 69.004921 72.820923 80.452919 88.084923 95.716919"
         style="font-size:12px;font-variant:normal;font-weight:normal;writing-mode:lr-tb;fill:#000000;fill-opacity:1;fill-rule:nonzero;stroke:none;font-family:DejaVu Sans;-inkscape-font-specification:DejaVuSans">time = 0.605s</tspan></text>
<text
       id="text5194"
       transform="scale(1,-1)"
       x="16.57692"
       y="-447.57684"><tspan
         id="tspan5196"
         sodipodi:role="line"
         y="-447.57684"
         x="16.57692 28.264919 35.608921 47.296921 54.676918 62.28492 66.988922 70.804924 78.184921 83.11692 88.04892 95.392921 100.32492 104.14092 114.19692 118.01292 125.64492 129.46092 137.09293 144.72491 152.35692 159.98892 167.62093 171.43692 180.41292"
         style="font-size:12px;font-variant:normal;font-weight:normal;writing-mode:lr-tb;fill:#000000;fill-opacity:1;fill-rule:nonzero;stroke:none;font-family:DejaVu Sans;-inkscape-font-specification:DejaVuSans">moment error = 0.00000 Nm</tspan></text>
<text
       id="text5198"
       transform="scale(1,-1)"
       x="48.249813"
       y="-463.32373"><tspan
         id="tspan5200"
         sodipodi:role="line"
         y="-463.32373"
         x="48.249813 57.408207 68.496216 73.075417 85.502617 94.63221 98.635414 104.28022 108.28341 113.48182 123.53301 132.34581 141.4754 147.12021 155.9474 163.8674 169.51221 174.0914 188.33301 197.1458 203.06421 207.0674"
         style="font-size:14.39999962px;font-variant:normal;font-weight:normal;writing-mode:lr-tb;fill:#000000;fill-opacity:1;fill-rule:nonzero;stroke:none;font-family:DejaVu Sans;-inkscape-font-specification:DejaVuSans">2D Multi-Contact World</tspan></text>
<rect
       style="fill:#ffffff;fill-opacity:1;stroke:none"
       id="rect5221"
       width="264.72147"
       height="51.363869"
       x="10.536179"
       y="13.170222"
       transform="matrix(0.8,0,0,-0.8,0,497.3076)" /></g></svg>