<?xml version="1.0" encoding="UTF-8" standalone="no"?>
<!-- Created with Inkscape (http://www.inkscape.org/) -->

<svg
   xmlns:dc="http://purl.org/dc/elements/1.1/"
   xmlns:cc="http://creativecommons.org/ns#"
   xmlns:rdf="http://www.w3.org/1999/02/22-rdf-syntax-ns#"
   xmlns:svg="http://www.w3.org/2000/svg"
   xmlns="http://www.w3.org/2000/svg"
   xmlns:sodipodi="http://sodipodi.sourceforge.net/DTD/sodipodi-0.dtd"
   xmlns:inkscape="http://www.inkscape.org/namespaces/inkscape"
   id="svg9435"
   version="1.1"
   inkscape:version="0.48.4 r9939"
   width="419.08146"
   height="277.86026"
   xml:space="preserve"
   sodipodi:docname="Demo8MaxPhaseSpace.pdf"><metadata
     id="metadata9441"><rdf:RDF><cc:Work
         rdf:about=""><dc:format>image/svg+xml</dc:format><dc:type
           rdf:resource="http://purl.org/dc/dcmitype/StillImage" /><dc:title></dc:title></cc:Work></rdf:RDF></metadata><defs
     id="defs9439"><clipPath
       clipPathUnits="userSpaceOnUse"
       id="clipPath9453"><path
         d="m 45.676,204.487 281.328,0 0,-169.777 -281.328,0 0,169.777 z"
         id="path9455" /></clipPath><clipPath
       clipPathUnits="userSpaceOnUse"
       id="clipPath9463"><path
         d="m 74,47 6,0 0,6 -6,0 0,-6 z"
         id="path9465" /></clipPath><clipPath
       clipPathUnits="userSpaceOnUse"
       id="clipPath9473"><path
         d="m 74.203,52.066 5,0 0,-5 -5,0 0,5 z"
         id="path9475" /></clipPath><clipPath
       clipPathUnits="userSpaceOnUse"
       id="clipPath9483"><path
         d="m 74,47 6,0 0,6 -6,0 0,-6 z"
         id="path9485" /></clipPath><clipPath
       clipPathUnits="userSpaceOnUse"
       id="clipPath9497"><path
         d="m 74,47 32,0 0,137 -32,0 0,-137 z"
         id="path9499" /></clipPath><clipPath
       clipPathUnits="userSpaceOnUse"
       id="clipPath9511"><path
         d="m 98,178 12,0 0,12 -12,0 0,-12 z"
         id="path9513" /></clipPath><clipPath
       clipPathUnits="userSpaceOnUse"
       id="clipPath9521"><path
         d="m 98.781,189.941 11,0 0,-11 -11,0 0,11 z"
         id="path9523" /></clipPath><clipPath
       clipPathUnits="userSpaceOnUse"
       id="clipPath9531"><path
         d="m 98,178 12,0 0,12 -12,0 0,-12 z"
         id="path9533" /></clipPath><clipPath
       clipPathUnits="userSpaceOnUse"
       id="clipPath9545"><path
         d="m 101,181 6,0 0,6 -6,0 0,-6 z"
         id="path9547" /></clipPath><clipPath
       clipPathUnits="userSpaceOnUse"
       id="clipPath9555"><path
         d="m 101.781,186.941 5,0 0,-5 -5,0 0,5 z"
         id="path9557" /></clipPath><clipPath
       clipPathUnits="userSpaceOnUse"
       id="clipPath9565"><path
         d="m 101,181 6,0 0,6 -6,0 0,-6 z"
         id="path9567" /></clipPath><clipPath
       clipPathUnits="userSpaceOnUse"
       id="clipPath9579"><path
         d="m 102,182 6,0 0,8 -6,0 0,-8 z"
         id="path9581" /></clipPath><clipPath
       clipPathUnits="userSpaceOnUse"
       id="clipPath9593"><path
         d="m 101,185 12,0 0,12 -12,0 0,-12 z"
         id="path9595" /></clipPath><clipPath
       clipPathUnits="userSpaceOnUse"
       id="clipPath9603"><path
         d="m 101.422,196.551 11,0 0,-11 -11,0 0,11 z"
         id="path9605" /></clipPath><clipPath
       clipPathUnits="userSpaceOnUse"
       id="clipPath9613"><path
         d="m 101,185 12,0 0,12 -12,0 0,-12 z"
         id="path9615" /></clipPath><clipPath
       clipPathUnits="userSpaceOnUse"
       id="clipPath9627"><path
         d="m 104,188 6,0 0,6 -6,0 0,-6 z"
         id="path9629" /></clipPath><clipPath
       clipPathUnits="userSpaceOnUse"
       id="clipPath9637"><path
         d="m 104.422,193.551 5,0 0,-5 -5,0 0,5 z"
         id="path9639" /></clipPath><clipPath
       clipPathUnits="userSpaceOnUse"
       id="clipPath9647"><path
         d="m 104,188 6,0 0,6 -6,0 0,-6 z"
         id="path9649" /></clipPath><clipPath
       clipPathUnits="userSpaceOnUse"
       id="clipPath9661"><path
         d="m 106,190 53,0 0,3 -53,0 0,-3 z"
         id="path9663" /></clipPath><clipPath
       clipPathUnits="userSpaceOnUse"
       id="clipPath9675"><path
         d="m 106,188 53,0 0,6 -53,0 0,-6 z"
         id="path9677" /></clipPath><clipPath
       clipPathUnits="userSpaceOnUse"
       id="clipPath9689"><path
         d="m 153,185 12,0 0,12 -12,0 0,-12 z"
         id="path9691" /></clipPath><clipPath
       clipPathUnits="userSpaceOnUse"
       id="clipPath9699"><path
         d="m 153.449,196.551 11,0 0,-11 -11,0 0,11 z"
         id="path9701" /></clipPath><clipPath
       clipPathUnits="userSpaceOnUse"
       id="clipPath9709"><path
         d="m 153,185 12,0 0,12 -12,0 0,-12 z"
         id="path9711" /></clipPath><clipPath
       clipPathUnits="userSpaceOnUse"
       id="clipPath9723"><path
         d="m 156,188 6,0 0,6 -6,0 0,-6 z"
         id="path9725" /></clipPath><clipPath
       clipPathUnits="userSpaceOnUse"
       id="clipPath9733"><path
         d="m 156.449,193.551 5,0 0,-5 -5,0 0,5 z"
         id="path9735" /></clipPath><clipPath
       clipPathUnits="userSpaceOnUse"
       id="clipPath9743"><path
         d="m 156,188 6,0 0,6 -6,0 0,-6 z"
         id="path9745" /></clipPath><clipPath
       clipPathUnits="userSpaceOnUse"
       id="clipPath9757"><path
         d="m 158,190 113,0 0,3 -113,0 0,-3 z"
         id="path9759" /></clipPath><clipPath
       clipPathUnits="userSpaceOnUse"
       id="clipPath9771"><path
         d="m 158,188 113,0 0,6 -113,0 0,-6 z"
         id="path9773" /></clipPath><clipPath
       clipPathUnits="userSpaceOnUse"
       id="clipPath9785"><path
         d="m 264,185 12,0 0,12 -12,0 0,-12 z"
         id="path9787" /></clipPath><clipPath
       clipPathUnits="userSpaceOnUse"
       id="clipPath9795"><path
         d="m 264.844,196.551 11,0 0,-11 -11,0 0,11 z"
         id="path9797" /></clipPath><clipPath
       clipPathUnits="userSpaceOnUse"
       id="clipPath9805"><path
         d="m 264,185 12,0 0,12 -12,0 0,-12 z"
         id="path9807" /></clipPath><clipPath
       clipPathUnits="userSpaceOnUse"
       id="clipPath9819"><path
         d="m 267,188 6,0 0,6 -6,0 0,-6 z"
         id="path9821" /></clipPath><clipPath
       clipPathUnits="userSpaceOnUse"
       id="clipPath9829"><path
         d="m 267.844,193.551 5,0 0,-5 -5,0 0,5 z"
         id="path9831" /></clipPath><clipPath
       clipPathUnits="userSpaceOnUse"
       id="clipPath9839"><path
         d="m 267,188 6,0 0,6 -6,0 0,-6 z"
         id="path9841" /></clipPath><clipPath
       clipPathUnits="userSpaceOnUse"
       id="clipPath9853"><path
         d="m 268,47 30,0 0,147 -30,0 0,-147 z"
         id="path9855" /></clipPath><clipPath
       clipPathUnits="userSpaceOnUse"
       id="clipPath9867"><path
         d="m 290,44 12,0 0,12 -12,0 0,-12 z"
         id="path9869" /></clipPath><clipPath
       clipPathUnits="userSpaceOnUse"
       id="clipPath9877"><path
         d="m 290.477,55.066 11,0 0,-11 -11,0 0,11 z"
         id="path9879" /></clipPath><clipPath
       clipPathUnits="userSpaceOnUse"
       id="clipPath9887"><path
         d="m 290,44 12,0 0,12 -12,0 0,-12 z"
         id="path9889" /></clipPath></defs><sodipodi:namedview
     pagecolor="#ffffff"
     bordercolor="#666666"
     borderopacity="1"
     objecttolerance="10"
     gridtolerance="10"
     guidetolerance="10"
     inkscape:pageopacity="0"
     inkscape:pageshadow="2"
     inkscape:window-width="922"
     inkscape:window-height="667"
     id="namedview9437"
     showgrid="false"
     inkscape:zoom="1.1660538"
     inkscape:cx="83.44887"
     inkscape:cy="82.625141"
     inkscape:window-x="2307"
     inkscape:window-y="203"
     inkscape:window-maximized="0"
     inkscape:current-layer="g9443" /><g
     id="g9443"
     inkscape:groupmode="layer"
     inkscape:label="Demo8MaxPhaseSpace"
     transform="matrix(1.25,0,0,-1.25,0,277.86026)"><g
       id="g9445"><path
         d="m 45.676,204.487 281.328,0 0,-169.777 -281.328,0 0,169.777 z"
         style="fill:#ffffff;fill-opacity:1;fill-rule:nonzero;stroke:none"
         id="path9447" /></g><g
       id="g9449"><g
         id="g9451"
         clip-path="url(#clipPath9453)"><g
           id="g9457"
           transform="translate(0,-0.711792)"><g
             id="g9459"><g
               id="g9461"
               clip-path="url(#clipPath9463)"><g
                 id="g9467" /><g
                 id="g9469"><g
                   id="g9471"
                   clip-path="url(#clipPath9473)"><g
                     id="g9477"><g
                       id="g9479"><g
                         id="g9481"
                         clip-path="url(#clipPath9483)"><g
                           id="g9487"><path
                             d="m 76.703,47.566 c 0.531,0 1.039,0.211 1.414,0.586 0.375,0.375 0.586,0.887 0.586,1.414 0,0.532 -0.211,1.043 -0.586,1.418 -0.375,0.375 -0.883,0.582 -1.414,0.582 -0.531,0 -1.039,-0.207 -1.414,-0.582 -0.375,-0.375 -0.586,-0.886 -0.586,-1.418 0,-0.527 0.211,-1.039 0.586,-1.414 0.375,-0.375 0.883,-0.586 1.414,-0.586 z"
                             style="fill:#bf5700;fill-opacity:1;fill-rule:nonzero;stroke:#ffffff;stroke-opacity:1;stroke-width:1;stroke-linecap:butt;stroke-linejoin:round;stroke-miterlimit:10;stroke-dasharray:none"
                             id="path9489" /></g></g></g></g></g></g></g></g></g><g
           id="g9491"
           transform="translate(0,-0.711792)"><g
             id="g9493"><g
               id="g9495"
               clip-path="url(#clipPath9497)"><g
                 id="g9501"><path
                   d="m 76.703,49.566 0.223,11.313 0.359,7.547 0.469,6.656 0.66,7.207 0.801,7.004 0.941,6.91 1.102,7.027 1.269,7.114 1.438,7.183 1.574,7.121 1.738,7.196 1.907,7.261 2.07,7.325 2.207,7.293 2.402,7.449 2.539,7.422 2.735,7.566 2.98,7.848 0.164,0.433"
                   style="fill:none;stroke:#bf5700;stroke-opacity:1;stroke-width:4;stroke-linecap:round;stroke-linejoin:round;stroke-miterlimit:10;stroke-dasharray:3,5,1,5;stroke-dashoffset:0"
                   id="path9503" /></g></g></g></g><g
           id="g9505"
           transform="translate(0,-0.711792)"><g
             id="g9507"><g
               id="g9509"
               clip-path="url(#clipPath9511)"><g
                 id="g9515" /><g
                 id="g9517"><g
                   id="g9519"
                   clip-path="url(#clipPath9521)"><g
                     id="g9525"><g
                       id="g9527"><g
                         id="g9529"
                         clip-path="url(#clipPath9531)"><g
                           id="g9535"><path
                             d="m 104.281,179.441 c 1.328,0 2.598,0.528 3.535,1.465 0.938,0.938 1.465,2.207 1.465,3.535 0,1.325 -0.527,2.598 -1.465,3.536 -0.937,0.937 -2.207,1.464 -3.535,1.464 -1.324,0 -2.597,-0.527 -3.535,-1.464 -0.937,-0.938 -1.465,-2.211 -1.465,-3.536 0,-1.328 0.528,-2.597 1.465,-3.535 0.938,-0.937 2.211,-1.465 3.535,-1.465 z"
                             style="fill:#bf5700;fill-opacity:1;fill-rule:nonzero;stroke:#ffffff;stroke-opacity:1;stroke-width:1;stroke-linecap:butt;stroke-linejoin:round;stroke-miterlimit:10;stroke-dasharray:none"
                             id="path9537" /></g></g></g></g></g></g></g></g></g><g
           id="g9539"
           transform="translate(0,-0.711792)"><g
             id="g9541"><g
               id="g9543"
               clip-path="url(#clipPath9545)"><g
                 id="g9549" /><g
                 id="g9551"><g
                   id="g9553"
                   clip-path="url(#clipPath9555)"><g
                     id="g9559"><g
                       id="g9561"><g
                         id="g9563"
                         clip-path="url(#clipPath9565)"><g
                           id="g9569"><path
                             d="m 104.281,182.441 c 0.531,0 1.039,0.211 1.414,0.586 0.375,0.375 0.586,0.883 0.586,1.414 0,0.532 -0.211,1.039 -0.586,1.414 -0.375,0.375 -0.883,0.586 -1.414,0.586 -0.527,0 -1.039,-0.211 -1.414,-0.586 -0.375,-0.375 -0.586,-0.882 -0.586,-1.414 0,-0.531 0.211,-1.039 0.586,-1.414 0.375,-0.375 0.887,-0.586 1.414,-0.586 z"
                             style="fill:#bf5700;fill-opacity:1;fill-rule:nonzero;stroke:#ffffff;stroke-opacity:1;stroke-width:1;stroke-linecap:butt;stroke-linejoin:round;stroke-miterlimit:10;stroke-dasharray:none"
                             id="path9571" /></g></g></g></g></g></g></g></g></g><g
           id="g9573"
           transform="translate(0,-0.711792)"><g
             id="g9575"><g
               id="g9577"
               clip-path="url(#clipPath9579)"><g
                 id="g9583"><path
                   d="m 104.281,184.441 2.641,6.61"
                   style="fill:none;stroke:#bf5700;stroke-opacity:1;stroke-width:4;stroke-linecap:round;stroke-linejoin:round;stroke-miterlimit:10;stroke-dasharray:3,5,1,5;stroke-dashoffset:0"
                   id="path9585" /></g></g></g></g><g
           id="g9587"
           transform="translate(0,-0.711792)"><g
             id="g9589"><g
               id="g9591"
               clip-path="url(#clipPath9593)"><g
                 id="g9597" /><g
                 id="g9599"><g
                   id="g9601"
                   clip-path="url(#clipPath9603)"><g
                     id="g9607"><g
                       id="g9609"><g
                         id="g9611"
                         clip-path="url(#clipPath9613)"><g
                           id="g9617"><path
                             d="m 106.922,186.051 c 1.328,0 2.598,0.527 3.535,1.465 0.941,0.937 1.465,2.211 1.465,3.535 0,1.328 -0.524,2.597 -1.465,3.535 -0.937,0.937 -2.207,1.465 -3.535,1.465 -1.324,0 -2.598,-0.528 -3.535,-1.465 -0.938,-0.938 -1.465,-2.207 -1.465,-3.535 0,-1.324 0.527,-2.598 1.465,-3.535 0.937,-0.938 2.211,-1.465 3.535,-1.465 z"
                             style="fill:#bf5700;fill-opacity:1;fill-rule:nonzero;stroke:#ffffff;stroke-opacity:1;stroke-width:1;stroke-linecap:butt;stroke-linejoin:round;stroke-miterlimit:10;stroke-dasharray:none"
                             id="path9619" /></g></g></g></g></g></g></g></g></g><g
           id="g9621"
           transform="translate(0,-0.711792)"><g
             id="g9623"><g
               id="g9625"
               clip-path="url(#clipPath9627)"><g
                 id="g9631" /><g
                 id="g9633"><g
                   id="g9635"
                   clip-path="url(#clipPath9637)"><g
                     id="g9641"><g
                       id="g9643"><g
                         id="g9645"
                         clip-path="url(#clipPath9647)"><g
                           id="g9651"><path
                             d="m 106.922,189.051 c 0.531,0 1.039,0.211 1.414,0.586 0.375,0.375 0.586,0.883 0.586,1.414 0,0.531 -0.211,1.039 -0.586,1.414 -0.375,0.375 -0.883,0.586 -1.414,0.586 -0.527,0 -1.039,-0.211 -1.414,-0.586 -0.375,-0.375 -0.586,-0.883 -0.586,-1.414 0,-0.531 0.211,-1.039 0.586,-1.414 0.375,-0.375 0.887,-0.586 1.414,-0.586 z"
                             style="fill:#43695b;fill-opacity:1;fill-rule:nonzero;stroke:#ffffff;stroke-opacity:1;stroke-width:1;stroke-linecap:butt;stroke-linejoin:round;stroke-miterlimit:10;stroke-dasharray:none"
                             id="path9653" /></g></g></g></g></g></g></g></g></g><g
           id="g9655"
           transform="translate(0,-0.711792)"><g
             id="g9657"><g
               id="g9659"
               clip-path="url(#clipPath9661)"><g
                 id="g9665"><path
                   d="m 106.922,191.051 52.027,0"
                   style="fill:none;stroke:#43695b;stroke-opacity:1;stroke-width:2;stroke-linecap:butt;stroke-linejoin:round;stroke-miterlimit:10;stroke-dasharray:none"
                   id="path9667" /></g></g></g></g><g
           id="g9669"
           transform="translate(0,-0.711792)"><g
             id="g9671"><g
               id="g9673"
               clip-path="url(#clipPath9675)"><g
                 id="g9679"><path
                   d="m 106.922,191.051 52.027,0"
                   style="fill:none;stroke:#43695b;stroke-opacity:1;stroke-width:5;stroke-linecap:butt;stroke-linejoin:round;stroke-miterlimit:10;stroke-dasharray:6,6;stroke-dashoffset:0"
                   id="path9681" /></g></g></g></g><g
           id="g9683"
           transform="translate(0,-0.711792)"><g
             id="g9685"><g
               id="g9687"
               clip-path="url(#clipPath9689)"><g
                 id="g9693" /><g
                 id="g9695"><g
                   id="g9697"
                   clip-path="url(#clipPath9699)"><g
                     id="g9703"><g
                       id="g9705"><g
                         id="g9707"
                         clip-path="url(#clipPath9709)"><g
                           id="g9713"><path
                             d="m 158.949,186.051 c 1.324,0 2.598,0.527 3.535,1.465 0.938,0.937 1.465,2.211 1.465,3.535 0,1.328 -0.527,2.597 -1.465,3.535 -0.937,0.937 -2.211,1.465 -3.535,1.465 -1.328,0 -2.597,-0.528 -3.535,-1.465 -0.937,-0.938 -1.465,-2.207 -1.465,-3.535 0,-1.324 0.528,-2.598 1.465,-3.535 0.938,-0.938 2.207,-1.465 3.535,-1.465 z"
                             style="fill:#43695b;fill-opacity:1;fill-rule:nonzero;stroke:#ffffff;stroke-opacity:1;stroke-width:1;stroke-linecap:butt;stroke-linejoin:round;stroke-miterlimit:10;stroke-dasharray:none"
                             id="path9715" /></g></g></g></g></g></g></g></g></g><g
           id="g9717"
           transform="translate(0,-0.711792)"><g
             id="g9719"><g
               id="g9721"
               clip-path="url(#clipPath9723)"><g
                 id="g9727" /><g
                 id="g9729"><g
                   id="g9731"
                   clip-path="url(#clipPath9733)"><g
                     id="g9737"><g
                       id="g9739"><g
                         id="g9741"
                         clip-path="url(#clipPath9743)"><g
                           id="g9747"><path
                             d="m 158.949,189.051 c 0.531,0 1.039,0.211 1.414,0.586 0.375,0.375 0.586,0.883 0.586,1.414 0,0.531 -0.211,1.039 -0.586,1.414 -0.375,0.375 -0.883,0.586 -1.414,0.586 -0.531,0 -1.039,-0.211 -1.414,-0.586 -0.375,-0.375 -0.586,-0.883 -0.586,-1.414 0,-0.531 0.211,-1.039 0.586,-1.414 0.375,-0.375 0.883,-0.586 1.414,-0.586 z"
                             style="fill:#43695b;fill-opacity:1;fill-rule:nonzero;stroke:#ffffff;stroke-opacity:1;stroke-width:1;stroke-linecap:butt;stroke-linejoin:round;stroke-miterlimit:10;stroke-dasharray:none"
                             id="path9749" /></g></g></g></g></g></g></g></g></g><g
           id="g9751"
           transform="translate(0,-0.711792)"><g
             id="g9753"><g
               id="g9755"
               clip-path="url(#clipPath9757)"><g
                 id="g9761"><path
                   d="m 158.949,191.051 111.395,0"
                   style="fill:none;stroke:#43695b;stroke-opacity:1;stroke-width:2;stroke-linecap:butt;stroke-linejoin:round;stroke-miterlimit:10;stroke-dasharray:none"
                   id="path9763" /></g></g></g></g><g
           id="g9765"
           transform="translate(0,-0.711792)"><g
             id="g9767"><g
               id="g9769"
               clip-path="url(#clipPath9771)"><g
                 id="g9775"><path
                   d="m 158.949,191.051 111.395,0"
                   style="fill:none;stroke:#43695b;stroke-opacity:1;stroke-width:5;stroke-linecap:butt;stroke-linejoin:round;stroke-miterlimit:10;stroke-dasharray:6,6;stroke-dashoffset:0"
                   id="path9777" /></g></g></g></g><g
           id="g9779"
           transform="translate(0,-0.711792)"><g
             id="g9781"><g
               id="g9783"
               clip-path="url(#clipPath9785)"><g
                 id="g9789" /><g
                 id="g9791"><g
                   id="g9793"
                   clip-path="url(#clipPath9795)"><g
                     id="g9799"><g
                       id="g9801"><g
                         id="g9803"
                         clip-path="url(#clipPath9805)"><g
                           id="g9809"><path
                             d="m 270.344,186.051 c 1.324,0 2.597,0.527 3.535,1.465 0.937,0.937 1.465,2.211 1.465,3.535 0,1.328 -0.528,2.597 -1.465,3.535 -0.938,0.937 -2.211,1.465 -3.535,1.465 -1.328,0 -2.598,-0.528 -3.535,-1.465 -0.938,-0.938 -1.465,-2.207 -1.465,-3.535 0,-1.324 0.527,-2.598 1.465,-3.535 0.937,-0.938 2.207,-1.465 3.535,-1.465 z"
                             style="fill:#43695b;fill-opacity:1;fill-rule:nonzero;stroke:#ffffff;stroke-opacity:1;stroke-width:1;stroke-linecap:butt;stroke-linejoin:round;stroke-miterlimit:10;stroke-dasharray:none"
                             id="path9811" /></g></g></g></g></g></g></g></g></g><g
           id="g9813"
           transform="translate(0,-0.711792)"><g
             id="g9815"><g
               id="g9817"
               clip-path="url(#clipPath9819)"><g
                 id="g9823" /><g
                 id="g9825"><g
                   id="g9827"
                   clip-path="url(#clipPath9829)"><g
                     id="g9833"><g
                       id="g9835"><g
                         id="g9837"
                         clip-path="url(#clipPath9839)"><g
                           id="g9843"><path
                             d="m 270.344,189.051 c 0.527,0 1.039,0.211 1.414,0.586 0.375,0.375 0.586,0.883 0.586,1.414 0,0.531 -0.211,1.039 -0.586,1.414 -0.375,0.375 -0.887,0.586 -1.414,0.586 -0.532,0 -1.039,-0.211 -1.414,-0.586 -0.375,-0.375 -0.586,-0.883 -0.586,-1.414 0,-0.531 0.211,-1.039 0.586,-1.414 0.375,-0.375 0.882,-0.586 1.414,-0.586 z"
                             style="fill:#005f86;fill-opacity:1;fill-rule:nonzero;stroke:#ffffff;stroke-opacity:1;stroke-width:1;stroke-linecap:butt;stroke-linejoin:round;stroke-miterlimit:10;stroke-dasharray:none"
                             id="path9845" /></g></g></g></g></g></g></g></g></g><g
           id="g9847"
           transform="translate(0,-0.711792)"><g
             id="g9849"><g
               id="g9851"
               clip-path="url(#clipPath9853)"><g
                 id="g9857"><path
                   d="m 270.344,191.051 4.695,-14.582 4.414,-14.817 2.231,-8.109 2.105,-8.16 1.949,-8.153 1.797,-8.179 1.641,-8.239 1.437,-8.046 1.282,-8.141 1.128,-8.297 0.926,-8.082 0.742,-8.012 0.59,-8.296 0.387,-7.778 0.23,-8.199 0.079,-6.395"
                   style="fill:none;stroke:#005f86;stroke-opacity:1;stroke-width:4;stroke-linecap:round;stroke-linejoin:round;stroke-miterlimit:10;stroke-dasharray:none"
                   id="path9859" /></g></g></g></g><g
           id="g9861"
           transform="translate(0,-0.711792)"><g
             id="g9863"><g
               id="g9865"
               clip-path="url(#clipPath9867)"><g
                 id="g9871" /><g
                 id="g9873"><g
                   id="g9875"
                   clip-path="url(#clipPath9877)"><g
                     id="g9881"><g
                       id="g9883"><g
                         id="g9885"
                         clip-path="url(#clipPath9887)"><g
                           id="g9891"><path
                             d="m 295.977,44.566 c 1.324,0 2.597,0.528 3.535,1.465 0.937,0.938 1.465,2.211 1.465,3.535 0,1.329 -0.528,2.602 -1.465,3.539 -0.938,0.938 -2.211,1.461 -3.535,1.461 -1.329,0 -2.598,-0.523 -3.536,-1.461 -0.937,-0.937 -1.464,-2.21 -1.464,-3.539 0,-1.324 0.527,-2.597 1.464,-3.535 0.938,-0.937 2.207,-1.465 3.536,-1.465 z"
                             style="fill:#005f86;fill-opacity:1;fill-rule:nonzero;stroke:#ffffff;stroke-opacity:1;stroke-width:1;stroke-linecap:butt;stroke-linejoin:round;stroke-miterlimit:10;stroke-dasharray:none"
                             id="path9893" /></g></g></g></g></g></g></g></g></g></g></g><g
       id="g9895"><path
         d="m 76.703,34.71 0,4"
         style="fill:none;stroke:#000000;stroke-opacity:1;stroke-width:0.5;stroke-linecap:butt;stroke-linejoin:round;stroke-miterlimit:10;stroke-dasharray:none"
         id="path9897" /><path
         d="m 76.703,204.487 0,-4"
         style="fill:none;stroke:#000000;stroke-opacity:1;stroke-width:0.5;stroke-linecap:butt;stroke-linejoin:round;stroke-miterlimit:10;stroke-dasharray:none"
         id="path9899" /><text
         transform="matrix(1,0,0,-1,67.954122,21.583208)"
         id="text9901"><tspan
           style="fill:#000000;fill-opacity:1;fill-rule:nonzero;stroke:none;font-family:DejaVu Sans;font-variant:normal;font-weight:normal;font-size:12;writing-mode:lr;-inkscape-font-specification:DejaVuSans"
           x="0 7.632 11.436"
           y="0"
           sodipodi:role="line"
           id="tspan9903">0.0</tspan></text>
<path
         d="m 138.762,34.71 0,4"
         style="fill:none;stroke:#000000;stroke-opacity:1;stroke-width:0.5;stroke-linecap:butt;stroke-linejoin:round;stroke-miterlimit:10;stroke-dasharray:none"
         id="path9905" /><path
         d="m 138.762,204.487 0,-4"
         style="fill:none;stroke:#000000;stroke-opacity:1;stroke-width:0.5;stroke-linecap:butt;stroke-linejoin:round;stroke-miterlimit:10;stroke-dasharray:none"
         id="path9907" /><text
         transform="matrix(1,0,0,-1,130.21549,21.583208)"
         id="text9909"><tspan
           style="fill:#000000;fill-opacity:1;fill-rule:nonzero;stroke:none;font-family:DejaVu Sans;font-variant:normal;font-weight:normal;font-size:12;writing-mode:lr;-inkscape-font-specification:DejaVuSans"
           x="0 7.632 11.436"
           y="0"
           sodipodi:role="line"
           id="tspan9911">0.2</tspan></text>
<path
         d="m 200.82,34.71 0,4"
         style="fill:none;stroke:#000000;stroke-opacity:1;stroke-width:0.5;stroke-linecap:butt;stroke-linejoin:round;stroke-miterlimit:10;stroke-dasharray:none"
         id="path9913" /><path
         d="m 200.82,204.487 0,-4"
         style="fill:none;stroke:#000000;stroke-opacity:1;stroke-width:0.5;stroke-linecap:butt;stroke-linejoin:round;stroke-miterlimit:10;stroke-dasharray:none"
         id="path9915" /><text
         transform="matrix(1,0,0,-1,192.00811,21.583208)"
         id="text9917"><tspan
           style="fill:#000000;fill-opacity:1;fill-rule:nonzero;stroke:none;font-family:DejaVu Sans;font-variant:normal;font-weight:normal;font-size:12;writing-mode:lr;-inkscape-font-specification:DejaVuSans"
           x="0 7.632 11.436"
           y="0"
           sodipodi:role="line"
           id="tspan9919">0.4</tspan></text>
<path
         d="m 262.879,34.71 0,4"
         style="fill:none;stroke:#000000;stroke-opacity:1;stroke-width:0.5;stroke-linecap:butt;stroke-linejoin:round;stroke-miterlimit:10;stroke-dasharray:none"
         id="path9921" /><path
         d="m 262.879,204.487 0,-4"
         style="fill:none;stroke:#000000;stroke-opacity:1;stroke-width:0.5;stroke-linecap:butt;stroke-linejoin:round;stroke-miterlimit:10;stroke-dasharray:none"
         id="path9923" /><text
         transform="matrix(1,0,0,-1,254.11323,21.583208)"
         id="text9925"><tspan
           style="fill:#000000;fill-opacity:1;fill-rule:nonzero;stroke:none;font-family:DejaVu Sans;font-variant:normal;font-weight:normal;font-size:12;writing-mode:lr;-inkscape-font-specification:DejaVuSans"
           x="0 7.632 11.436"
           y="0"
           sodipodi:role="line"
           id="tspan9927">0.6</tspan></text>
<path
         d="m 324.938,34.71 0,4"
         style="fill:none;stroke:#000000;stroke-opacity:1;stroke-width:0.5;stroke-linecap:butt;stroke-linejoin:round;stroke-miterlimit:10;stroke-dasharray:none"
         id="path9929" /><path
         d="m 324.938,204.487 0,-4"
         style="fill:none;stroke:#000000;stroke-opacity:1;stroke-width:0.5;stroke-linecap:butt;stroke-linejoin:round;stroke-miterlimit:10;stroke-dasharray:none"
         id="path9931" /><text
         transform="matrix(1,0,0,-1,316.20272,21.583208)"
         id="text9933"><tspan
           style="fill:#000000;fill-opacity:1;fill-rule:nonzero;stroke:none;font-family:DejaVu Sans;font-variant:normal;font-weight:normal;font-size:12;writing-mode:lr;-inkscape-font-specification:DejaVuSans"
           x="0 7.632 11.436"
           y="0"
           sodipodi:role="line"
           id="tspan9935">0.8</tspan></text>
<text
         transform="matrix(1,0,0,-1,182.8398,3.739458)"
         id="text9937"><tspan
           style="fill:#000000;fill-opacity:1;fill-rule:nonzero;stroke:none;font-family:Latin Modern Math;font-variant:normal;font-weight:normal;font-size:14;writing-mode:lr;-inkscape-font-specification:LatinModernMath-Regular"
           x="0"
           y="0"
           id="tspan9939">ξ</tspan></text>
<path
         d="m 45.676,48.855 4,0"
         style="fill:none;stroke:#000000;stroke-opacity:1;stroke-width:0.5;stroke-linecap:butt;stroke-linejoin:round;stroke-miterlimit:10;stroke-dasharray:none"
         id="path9941" /><path
         d="m 327.004,48.855 -4,0"
         style="fill:none;stroke:#000000;stroke-opacity:1;stroke-width:0.5;stroke-linecap:butt;stroke-linejoin:round;stroke-miterlimit:10;stroke-dasharray:none"
         id="path9943" /><text
         transform="matrix(1,0,0,-1,24.175,45.544041)"
         id="text9945"><tspan
           style="fill:#000000;fill-opacity:1;fill-rule:nonzero;stroke:none;font-family:DejaVu Sans;font-variant:normal;font-weight:normal;font-size:12;writing-mode:lr;-inkscape-font-specification:DejaVuSans"
           x="0 7.632 11.436"
           y="0"
           sodipodi:role="line"
           id="tspan9947">0.0</tspan></text>
<path
         d="m 45.676,77.151 4,0"
         style="fill:none;stroke:#000000;stroke-opacity:1;stroke-width:0.5;stroke-linecap:butt;stroke-linejoin:round;stroke-miterlimit:10;stroke-dasharray:none"
         id="path9949" /><path
         d="m 327.004,77.151 -4,0"
         style="fill:none;stroke:#000000;stroke-opacity:1;stroke-width:0.5;stroke-linecap:butt;stroke-linejoin:round;stroke-miterlimit:10;stroke-dasharray:none"
         id="path9951" /><text
         transform="matrix(1,0,0,-1,24.58125,73.840708)"
         id="text9953"><tspan
           style="fill:#000000;fill-opacity:1;fill-rule:nonzero;stroke:none;font-family:DejaVu Sans;font-variant:normal;font-weight:normal;font-size:12;writing-mode:lr;-inkscape-font-specification:DejaVuSans"
           x="0 7.632 11.436"
           y="0"
           sodipodi:role="line"
           id="tspan9955">0.2</tspan></text>
<path
         d="m 45.676,105.448 4,0"
         style="fill:none;stroke:#000000;stroke-opacity:1;stroke-width:0.5;stroke-linecap:butt;stroke-linejoin:round;stroke-miterlimit:10;stroke-dasharray:none"
         id="path9957" /><path
         d="m 327.004,105.448 -4,0"
         style="fill:none;stroke:#000000;stroke-opacity:1;stroke-width:0.5;stroke-linecap:butt;stroke-linejoin:round;stroke-miterlimit:10;stroke-dasharray:none"
         id="path9959" /><text
         transform="matrix(1,0,0,-1,24.05,102.13738)"
         id="text9961"><tspan
           style="fill:#000000;fill-opacity:1;fill-rule:nonzero;stroke:none;font-family:DejaVu Sans;font-variant:normal;font-weight:normal;font-size:12;writing-mode:lr;-inkscape-font-specification:DejaVuSans"
           x="0 7.632 11.436"
           y="0"
           sodipodi:role="line"
           id="tspan9963">0.4</tspan></text>
<path
         d="m 45.676,133.745 4,0"
         style="fill:none;stroke:#000000;stroke-opacity:1;stroke-width:0.5;stroke-linecap:butt;stroke-linejoin:round;stroke-miterlimit:10;stroke-dasharray:none"
         id="path9965" /><path
         d="m 327.004,133.745 -4,0"
         style="fill:none;stroke:#000000;stroke-opacity:1;stroke-width:0.5;stroke-linecap:butt;stroke-linejoin:round;stroke-miterlimit:10;stroke-dasharray:none"
         id="path9967" /><text
         transform="matrix(1,0,0,-1,24.14375,130.43404)"
         id="text9969"><tspan
           style="fill:#000000;fill-opacity:1;fill-rule:nonzero;stroke:none;font-family:DejaVu Sans;font-variant:normal;font-weight:normal;font-size:12;writing-mode:lr;-inkscape-font-specification:DejaVuSans"
           x="0 7.632 11.436"
           y="0"
           sodipodi:role="line"
           id="tspan9971">0.6</tspan></text>
<path
         d="m 45.676,162.042 4,0"
         style="fill:none;stroke:#000000;stroke-opacity:1;stroke-width:0.5;stroke-linecap:butt;stroke-linejoin:round;stroke-miterlimit:10;stroke-dasharray:none"
         id="path9973" /><path
         d="m 327.004,162.042 -4,0"
         style="fill:none;stroke:#000000;stroke-opacity:1;stroke-width:0.5;stroke-linecap:butt;stroke-linejoin:round;stroke-miterlimit:10;stroke-dasharray:none"
         id="path9975" /><text
         transform="matrix(1,0,0,-1,24.20625,158.73071)"
         id="text9977"><tspan
           style="fill:#000000;fill-opacity:1;fill-rule:nonzero;stroke:none;font-family:DejaVu Sans;font-variant:normal;font-weight:normal;font-size:12;writing-mode:lr;-inkscape-font-specification:DejaVuSans"
           x="0 7.632 11.436"
           y="0"
           sodipodi:role="line"
           id="tspan9979">0.8</tspan></text>
<path
         d="m 45.676,190.339 4,0"
         style="fill:none;stroke:#000000;stroke-opacity:1;stroke-width:0.5;stroke-linecap:butt;stroke-linejoin:round;stroke-miterlimit:10;stroke-dasharray:none"
         id="path9981" /><path
         d="m 327.004,190.339 -4,0"
         style="fill:none;stroke:#000000;stroke-opacity:1;stroke-width:0.5;stroke-linecap:butt;stroke-linejoin:round;stroke-miterlimit:10;stroke-dasharray:none"
         id="path9983" /><text
         transform="matrix(1,0,0,-1,24.690625,187.02738)"
         id="text9985"><tspan
           style="fill:#000000;fill-opacity:1;fill-rule:nonzero;stroke:none;font-family:DejaVu Sans;font-variant:normal;font-weight:normal;font-size:12;writing-mode:lr;-inkscape-font-specification:DejaVuSans"
           x="0 7.632 11.436"
           y="0"
           sodipodi:role="line"
           id="tspan9987">1.0</tspan></text>
<text
         transform="matrix(0,1,1,0,11.409375,116.92633)"
         id="text9989"><tspan
           style="fill:#000000;fill-opacity:1;fill-rule:nonzero;stroke:none;font-family:DejaVu Sans;font-variant:normal;font-weight:normal;font-size:14;writing-mode:lr;-inkscape-font-specification:DejaVuSans"
           x="0"
           y="0"
           id="tspan9991">˙</tspan></text>
<text
         transform="matrix(0,1,1,0,15.128125,116.09821)"
         id="text9993"><tspan
           style="fill:#000000;fill-opacity:1;fill-rule:nonzero;stroke:none;font-family:Latin Modern Math;font-variant:normal;font-weight:normal;font-size:14;writing-mode:lr;-inkscape-font-specification:LatinModernMath-Regular"
           x="0"
           y="0"
           id="tspan9995">ξ</tspan></text>
<path
         d="m 45.676,204.487 281.328,0"
         style="fill:none;stroke:#000000;stroke-opacity:1;stroke-width:1;stroke-linecap:butt;stroke-linejoin:round;stroke-miterlimit:10;stroke-dasharray:none"
         id="path9997" /><path
         d="m 327.004,34.71 0,169.777"
         style="fill:none;stroke:#000000;stroke-opacity:1;stroke-width:1;stroke-linecap:butt;stroke-linejoin:round;stroke-miterlimit:10;stroke-dasharray:none"
         id="path9999" /><path
         d="m 45.676,34.71 281.328,0"
         style="fill:none;stroke:#000000;stroke-opacity:1;stroke-width:1;stroke-linecap:butt;stroke-linejoin:round;stroke-miterlimit:10;stroke-dasharray:none"
         id="path10001" /><path
         d="m 45.676,34.71 0,169.777"
         style="fill:none;stroke:#000000;stroke-opacity:1;stroke-width:1;stroke-linecap:butt;stroke-linejoin:round;stroke-miterlimit:10;stroke-dasharray:none"
         id="path10003" /><text
         transform="matrix(1,0,0,-1,142.8398,210.20696)"
         id="text10005"><tspan
           style="fill:#000000;fill-opacity:1;fill-rule:nonzero;stroke:none;font-family:cmr10;font-variant:normal;font-weight:normal;font-size:16;writing-mode:lr;-inkscape-font-specification:Cmr10"
           x="0 10.88 19.76 27.76 34.064 46.48 55.36 64.24 72.24 79.328"
           y="0"
           sodipodi:role="line"
           id="tspan10007">PhaseSpace</tspan></text>
</g></g></svg>