<?xml version="1.0" encoding="UTF-8" standalone="no"?>
<!-- Created with Inkscape (http://www.inkscape.org/) -->

<svg
   xmlns:dc="http://purl.org/dc/elements/1.1/"
   xmlns:cc="http://creativecommons.org/ns#"
   xmlns:rdf="http://www.w3.org/1999/02/22-rdf-syntax-ns#"
   xmlns:svg="http://www.w3.org/2000/svg"
   xmlns="http://www.w3.org/2000/svg"
   xmlns:sodipodi="http://sodipodi.sourceforge.net/DTD/sodipodi-0.dtd"
   xmlns:inkscape="http://www.inkscape.org/namespaces/inkscape"
   width="258.66141"
   height="184.25197"
   id="svg4839"
   version="1.1"
   inkscape:version="0.48.4 r9939"
   sodipodi:docname="min_speed_automata.svg">
  <defs
     id="defs4841" />
  <sodipodi:namedview
     id="base"
     pagecolor="#ffffff"
     bordercolor="#666666"
     borderopacity="1.0"
     inkscape:pageopacity="0.0"
     inkscape:pageshadow="2"
     inkscape:zoom="2.8284271"
     inkscape:cx="94.539449"
     inkscape:cy="119.59129"
     inkscape:document-units="mm"
     inkscape:current-layer="layer1"
     showgrid="false"
     inkscape:window-width="1920"
     inkscape:window-height="1030"
     inkscape:window-x="0"
     inkscape:window-y="0"
     inkscape:window-maximized="1"
     units="mm">
    <inkscape:grid
       type="xygrid"
       id="grid6178"
       empspacing="4"
       visible="true"
       enabled="true"
       snapvisiblegridlinesonly="true"
       units="mm"
       spacingx="0.25mm"
       spacingy="0.25mm" />
  </sodipodi:namedview>
  <metadata
     id="metadata4844">
    <rdf:RDF>
      <cc:Work
         rdf:about="">
        <dc:format>image/svg+xml</dc:format>
        <dc:type
           rdf:resource="http://purl.org/dc/dcmitype/StillImage" />
        <dc:title></dc:title>
      </cc:Work>
    </rdf:RDF>
  </metadata>
  <g
     inkscape:label="Layer 1"
     inkscape:groupmode="layer"
     id="layer1"
     transform="translate(0,-868.10775)">
    <path
       transform="translate(-21.64481,902.52967)"
       d="m 100.51017,99.789299 c 0,7.531541 -6.105515,13.637061 -13.637054,13.637061 -7.53154,0 -13.63706,-6.10552 -13.63706,-13.637061 0,-7.53154 6.10552,-13.637059 13.63706,-13.637059 7.531539,0 13.637054,6.105519 13.637054,13.637059 z"
       sodipodi:ry="13.637059"
       sodipodi:rx="13.637059"
       sodipodi:cy="99.789299"
       sodipodi:cx="86.873116"
       id="path6050"
       style="fill:#005f86;stroke:none"
       sodipodi:type="arc" />
    <path
       sodipodi:type="arc"
       style="fill:#bf5700;stroke:none"
       id="path6048"
       sodipodi:cx="86.873116"
       sodipodi:cy="99.789299"
       sodipodi:rx="13.637059"
       sodipodi:ry="13.637059"
       d="m 100.51017,99.789299 c 0,7.531541 -6.105515,13.637061 -13.637054,13.637061 -7.53154,0 -13.63706,-6.10552 -13.63706,-13.637061 0,-7.53154 6.10552,-13.637059 13.63706,-13.637059 7.531539,0 13.637054,6.105519 13.637054,13.637059 z"
       transform="translate(134.0438,902.52528)" />
    <path
       transform="translate(56.042801,824.58138)"
       d="m 100.51017,99.789299 c 0,7.531541 -6.105515,13.637061 -13.637054,13.637061 -7.53154,0 -13.63706,-6.10552 -13.63706,-13.637061 0,-7.53154 6.10552,-13.637059 13.63706,-13.637059 7.531539,0 13.637054,6.105519 13.637054,13.637059 z"
       sodipodi:ry="13.637059"
       sodipodi:rx="13.637059"
       sodipodi:cy="99.789299"
       sodipodi:cx="86.873116"
       id="path6046"
       style="fill:#43695b;stroke:none"
       sodipodi:type="arc" />
    <path
       sodipodi:type="arc"
       style="fill:#333f48;stroke:none"
       id="path6044"
       sodipodi:cx="86.873116"
       sodipodi:cy="99.789299"
       sodipodi:rx="17.208488"
       sodipodi:ry="17.208488"
       d="m 104.0816,99.789299 c 0,9.503981 -7.704499,17.208491 -17.208484,17.208491 -9.503986,0 -17.208489,-7.70451 -17.208489,-17.208491 0,-9.503986 7.704503,-17.208488 17.208489,-17.208488 9.503985,0 17.208484,7.704502 17.208484,17.208488 z"
       transform="translate(-21.362558,824.3298)" />
    <path
       sodipodi:type="arc"
       style="fill:#f2a900;fill-opacity:1;stroke:none"
       id="path6032"
       sodipodi:cx="86.873116"
       sodipodi:cy="99.789299"
       sodipodi:rx="13.637059"
       sodipodi:ry="13.637059"
       d="m 100.51017,99.789299 c 0,7.531541 -6.105515,13.637061 -13.637054,13.637061 -7.53154,0 -13.63706,-6.10552 -13.63706,-13.637061 0,-7.53154 6.10552,-13.637059 13.63706,-13.637059 7.531539,0 13.637054,6.105519 13.637054,13.637059 z"
       transform="translate(56.275394,902.3033)" />
    <g
       id="g6610"
       transform="matrix(1.057363,0,0,2.1097507,41.844318,-1074.4597)">
      <rect
         y="888.64276"
         x="-14.643833"
         height="121.75"
         width="268.5"
         id="rect6099"
         style="opacity:0.5;fill:#ffffff;fill-opacity:1;stroke:none" />
      <g
         style="opacity:0.61290325;stroke-width:0.3521513;stroke-miterlimit:4;stroke-dasharray:none"
         transform="matrix(1.2944073,0.07082393,-0.06553451,1.3988816,2.9251615,-380.3387)"
         id="g5929">
        <g
           style="stroke-width:0.3521513;stroke-miterlimit:4;stroke-dasharray:none"
           transform="translate(56,0)"
           id="g5417">
          <path
             transform="translate(-18.485315,884.7229)"
             inkscape:connector-curvature="0"
             id="path5419"
             d="M 15.556349,7.0395996 46.166257,121.27733"
             style="fill:none;stroke:#ffffff;stroke-width:0.3521513;stroke-linecap:butt;stroke-linejoin:miter;stroke-miterlimit:4;stroke-opacity:1;stroke-dasharray:none" />
          <path
             style="fill:none;stroke:#ffffff;stroke-width:0.3521513;stroke-linecap:butt;stroke-linejoin:miter;stroke-miterlimit:4;stroke-opacity:1;stroke-dasharray:none"
             d="m -0.928966,891.7625 30.609908,114.2377"
             id="path5421"
             inkscape:connector-curvature="0" />
          <path
             inkscape:connector-curvature="0"
             id="path5423"
             d="m 1.071034,891.7625 30.609908,114.2377"
             style="fill:none;stroke:#ffffff;stroke-width:0.3521513;stroke-linecap:butt;stroke-linejoin:miter;stroke-miterlimit:4;stroke-opacity:1;stroke-dasharray:none" />
          <path
             style="fill:none;stroke:#ffffff;stroke-width:0.3521513;stroke-linecap:butt;stroke-linejoin:miter;stroke-miterlimit:4;stroke-opacity:1;stroke-dasharray:none"
             d="m 3.071034,891.7625 30.609908,114.2377"
             id="path5425"
             inkscape:connector-curvature="0" />
          <path
             inkscape:connector-curvature="0"
             id="path5427"
             d="m 5.071034,891.7625 30.609908,114.2377"
             style="fill:none;stroke:#ffffff;stroke-width:0.3521513;stroke-linecap:butt;stroke-linejoin:miter;stroke-miterlimit:4;stroke-opacity:1;stroke-dasharray:none" />
          <path
             style="fill:none;stroke:#ffffff;stroke-width:0.3521513;stroke-linecap:butt;stroke-linejoin:miter;stroke-miterlimit:4;stroke-opacity:1;stroke-dasharray:none"
             d="m 7.071034,891.7625 30.609908,114.2377"
             id="path5429"
             inkscape:connector-curvature="0" />
          <path
             inkscape:connector-curvature="0"
             id="path5431"
             d="m 9.071034,891.7625 30.609908,114.2377"
             style="fill:none;stroke:#ffffff;stroke-width:0.3521513;stroke-linecap:butt;stroke-linejoin:miter;stroke-miterlimit:4;stroke-opacity:1;stroke-dasharray:none" />
          <path
             style="fill:none;stroke:#ffffff;stroke-width:0.3521513;stroke-linecap:butt;stroke-linejoin:miter;stroke-miterlimit:4;stroke-opacity:1;stroke-dasharray:none"
             d="m 11.071034,891.7625 30.609908,114.2377"
             id="path5433"
             inkscape:connector-curvature="0" />
          <path
             inkscape:connector-curvature="0"
             id="path5435"
             d="m 13.071034,891.7625 30.609908,114.2377"
             style="fill:none;stroke:#ffffff;stroke-width:0.3521513;stroke-linecap:butt;stroke-linejoin:miter;stroke-miterlimit:4;stroke-opacity:1;stroke-dasharray:none" />
          <path
             style="fill:none;stroke:#ffffff;stroke-width:0.3521513;stroke-linecap:butt;stroke-linejoin:miter;stroke-miterlimit:4;stroke-opacity:1;stroke-dasharray:none"
             d="m 15.071034,891.7625 30.609908,114.2377"
             id="path5437"
             inkscape:connector-curvature="0" />
          <path
             inkscape:connector-curvature="0"
             id="path5439"
             d="m 17.071034,891.7625 30.609908,114.2377"
             style="fill:none;stroke:#ffffff;stroke-width:0.3521513;stroke-linecap:butt;stroke-linejoin:miter;stroke-miterlimit:4;stroke-opacity:1;stroke-dasharray:none" />
          <path
             style="fill:none;stroke:#ffffff;stroke-width:0.3521513;stroke-linecap:butt;stroke-linejoin:miter;stroke-miterlimit:4;stroke-opacity:1;stroke-dasharray:none"
             d="m 19.071034,891.7625 30.609908,114.2377"
             id="path5441"
             inkscape:connector-curvature="0" />
          <path
             inkscape:connector-curvature="0"
             id="path5443"
             d="m 21.071034,891.7625 30.609908,114.2377"
             style="fill:none;stroke:#ffffff;stroke-width:0.3521513;stroke-linecap:butt;stroke-linejoin:miter;stroke-miterlimit:4;stroke-opacity:1;stroke-dasharray:none" />
          <path
             style="fill:none;stroke:#ffffff;stroke-width:0.3521513;stroke-linecap:butt;stroke-linejoin:miter;stroke-miterlimit:4;stroke-opacity:1;stroke-dasharray:none"
             d="m 23.071034,891.7625 30.609908,114.2377"
             id="path5445"
             inkscape:connector-curvature="0" />
        </g>
        <g
           style="stroke-width:0.3521513;stroke-miterlimit:4;stroke-dasharray:none"
           id="g5371">
          <path
             transform="translate(-18.485315,884.7229)"
             inkscape:connector-curvature="0"
             id="path5343"
             d="M 15.556349,7.0395996 46.166257,121.27733"
             style="fill:none;stroke:#ffffff;stroke-width:0.3521513;stroke-linecap:butt;stroke-linejoin:miter;stroke-miterlimit:4;stroke-opacity:1;stroke-dasharray:none" />
          <path
             style="fill:none;stroke:#ffffff;stroke-width:0.3521513;stroke-linecap:butt;stroke-linejoin:miter;stroke-miterlimit:4;stroke-opacity:1;stroke-dasharray:none"
             d="m -0.928966,891.7625 30.609908,114.2377"
             id="path5345"
             inkscape:connector-curvature="0" />
          <path
             inkscape:connector-curvature="0"
             id="path5347"
             d="m 1.071034,891.7625 30.609908,114.2377"
             style="fill:none;stroke:#ffffff;stroke-width:0.3521513;stroke-linecap:butt;stroke-linejoin:miter;stroke-miterlimit:4;stroke-opacity:1;stroke-dasharray:none" />
          <path
             style="fill:none;stroke:#ffffff;stroke-width:0.3521513;stroke-linecap:butt;stroke-linejoin:miter;stroke-miterlimit:4;stroke-opacity:1;stroke-dasharray:none"
             d="m 3.071034,891.7625 30.609908,114.2377"
             id="path5349"
             inkscape:connector-curvature="0" />
          <path
             inkscape:connector-curvature="0"
             id="path5351"
             d="m 5.071034,891.7625 30.609908,114.2377"
             style="fill:none;stroke:#ffffff;stroke-width:0.3521513;stroke-linecap:butt;stroke-linejoin:miter;stroke-miterlimit:4;stroke-opacity:1;stroke-dasharray:none" />
          <path
             style="fill:none;stroke:#ffffff;stroke-width:0.3521513;stroke-linecap:butt;stroke-linejoin:miter;stroke-miterlimit:4;stroke-opacity:1;stroke-dasharray:none"
             d="m 7.071034,891.7625 30.609908,114.2377"
             id="path5353"
             inkscape:connector-curvature="0" />
          <path
             inkscape:connector-curvature="0"
             id="path5355"
             d="m 9.071034,891.7625 30.609908,114.2377"
             style="fill:none;stroke:#ffffff;stroke-width:0.3521513;stroke-linecap:butt;stroke-linejoin:miter;stroke-miterlimit:4;stroke-opacity:1;stroke-dasharray:none" />
          <path
             style="fill:none;stroke:#ffffff;stroke-width:0.3521513;stroke-linecap:butt;stroke-linejoin:miter;stroke-miterlimit:4;stroke-opacity:1;stroke-dasharray:none"
             d="m 11.071034,891.7625 30.609908,114.2377"
             id="path5357"
             inkscape:connector-curvature="0" />
          <path
             inkscape:connector-curvature="0"
             id="path5359"
             d="m 13.071034,891.7625 30.609908,114.2377"
             style="fill:none;stroke:#ffffff;stroke-width:0.3521513;stroke-linecap:butt;stroke-linejoin:miter;stroke-miterlimit:4;stroke-opacity:1;stroke-dasharray:none" />
          <path
             style="fill:none;stroke:#ffffff;stroke-width:0.3521513;stroke-linecap:butt;stroke-linejoin:miter;stroke-miterlimit:4;stroke-opacity:1;stroke-dasharray:none"
             d="m 15.071034,891.7625 30.609908,114.2377"
             id="path5361"
             inkscape:connector-curvature="0" />
          <path
             inkscape:connector-curvature="0"
             id="path5363"
             d="m 17.071034,891.7625 30.609908,114.2377"
             style="fill:none;stroke:#ffffff;stroke-width:0.3521513;stroke-linecap:butt;stroke-linejoin:miter;stroke-miterlimit:4;stroke-opacity:1;stroke-dasharray:none" />
          <path
             style="fill:none;stroke:#ffffff;stroke-width:0.3521513;stroke-linecap:butt;stroke-linejoin:miter;stroke-miterlimit:4;stroke-opacity:1;stroke-dasharray:none"
             d="m 19.071034,891.7625 30.609908,114.2377"
             id="path5365"
             inkscape:connector-curvature="0" />
          <path
             inkscape:connector-curvature="0"
             id="path5367"
             d="m 21.071034,891.7625 30.609908,114.2377"
             style="fill:none;stroke:#ffffff;stroke-width:0.3521513;stroke-linecap:butt;stroke-linejoin:miter;stroke-miterlimit:4;stroke-opacity:1;stroke-dasharray:none" />
          <path
             style="fill:none;stroke:#ffffff;stroke-width:0.3521513;stroke-linecap:butt;stroke-linejoin:miter;stroke-miterlimit:4;stroke-opacity:1;stroke-dasharray:none"
             d="m 23.071034,891.7625 30.609908,114.2377"
             id="path5369"
             inkscape:connector-curvature="0" />
        </g>
        <g
           style="stroke-width:0.3521513;stroke-miterlimit:4;stroke-dasharray:none"
           id="g5387"
           transform="translate(28,0)">
          <path
             style="fill:none;stroke:#ffffff;stroke-width:0.3521513;stroke-linecap:butt;stroke-linejoin:miter;stroke-miterlimit:4;stroke-opacity:1;stroke-dasharray:none"
             d="M 15.556349,7.0395996 46.166257,121.27733"
             id="path5389"
             inkscape:connector-curvature="0"
             transform="translate(-18.485315,884.7229)" />
          <path
             inkscape:connector-curvature="0"
             id="path5391"
             d="m -0.928966,891.7625 30.609908,114.2377"
             style="fill:none;stroke:#ffffff;stroke-width:0.3521513;stroke-linecap:butt;stroke-linejoin:miter;stroke-miterlimit:4;stroke-opacity:1;stroke-dasharray:none" />
          <path
             style="fill:none;stroke:#ffffff;stroke-width:0.3521513;stroke-linecap:butt;stroke-linejoin:miter;stroke-miterlimit:4;stroke-opacity:1;stroke-dasharray:none"
             d="m 1.071034,891.7625 30.609908,114.2377"
             id="path5393"
             inkscape:connector-curvature="0" />
          <path
             inkscape:connector-curvature="0"
             id="path5395"
             d="m 3.071034,891.7625 30.609908,114.2377"
             style="fill:none;stroke:#ffffff;stroke-width:0.3521513;stroke-linecap:butt;stroke-linejoin:miter;stroke-miterlimit:4;stroke-opacity:1;stroke-dasharray:none" />
          <path
             style="fill:none;stroke:#ffffff;stroke-width:0.3521513;stroke-linecap:butt;stroke-linejoin:miter;stroke-miterlimit:4;stroke-opacity:1;stroke-dasharray:none"
             d="m 5.071034,891.7625 30.609908,114.2377"
             id="path5397"
             inkscape:connector-curvature="0" />
          <path
             inkscape:connector-curvature="0"
             id="path5399"
             d="m 7.071034,891.7625 30.609908,114.2377"
             style="fill:none;stroke:#ffffff;stroke-width:0.3521513;stroke-linecap:butt;stroke-linejoin:miter;stroke-miterlimit:4;stroke-opacity:1;stroke-dasharray:none" />
          <path
             style="fill:none;stroke:#ffffff;stroke-width:0.3521513;stroke-linecap:butt;stroke-linejoin:miter;stroke-miterlimit:4;stroke-opacity:1;stroke-dasharray:none"
             d="m 9.071034,891.7625 30.609908,114.2377"
             id="path5401"
             inkscape:connector-curvature="0" />
          <path
             inkscape:connector-curvature="0"
             id="path5403"
             d="m 11.071034,891.7625 30.609908,114.2377"
             style="fill:none;stroke:#ffffff;stroke-width:0.3521513;stroke-linecap:butt;stroke-linejoin:miter;stroke-miterlimit:4;stroke-opacity:1;stroke-dasharray:none" />
          <path
             style="fill:none;stroke:#ffffff;stroke-width:0.3521513;stroke-linecap:butt;stroke-linejoin:miter;stroke-miterlimit:4;stroke-opacity:1;stroke-dasharray:none"
             d="m 13.071034,891.7625 30.609908,114.2377"
             id="path5405"
             inkscape:connector-curvature="0" />
          <path
             inkscape:connector-curvature="0"
             id="path5407"
             d="m 15.071034,891.7625 30.609908,114.2377"
             style="fill:none;stroke:#ffffff;stroke-width:0.3521513;stroke-linecap:butt;stroke-linejoin:miter;stroke-miterlimit:4;stroke-opacity:1;stroke-dasharray:none" />
          <path
             style="fill:none;stroke:#ffffff;stroke-width:0.3521513;stroke-linecap:butt;stroke-linejoin:miter;stroke-miterlimit:4;stroke-opacity:1;stroke-dasharray:none"
             d="m 17.071034,891.7625 30.609908,114.2377"
             id="path5409"
             inkscape:connector-curvature="0" />
          <path
             inkscape:connector-curvature="0"
             id="path5411"
             d="m 19.071034,891.7625 30.609908,114.2377"
             style="fill:none;stroke:#ffffff;stroke-width:0.3521513;stroke-linecap:butt;stroke-linejoin:miter;stroke-miterlimit:4;stroke-opacity:1;stroke-dasharray:none" />
          <path
             style="fill:none;stroke:#ffffff;stroke-width:0.3521513;stroke-linecap:butt;stroke-linejoin:miter;stroke-miterlimit:4;stroke-opacity:1;stroke-dasharray:none"
             d="m 21.071034,891.7625 30.609908,114.2377"
             id="path5413"
             inkscape:connector-curvature="0" />
          <path
             inkscape:connector-curvature="0"
             id="path5415"
             d="m 23.071034,891.7625 30.609908,114.2377"
             style="fill:none;stroke:#ffffff;stroke-width:0.3521513;stroke-linecap:butt;stroke-linejoin:miter;stroke-miterlimit:4;stroke-opacity:1;stroke-dasharray:none" />
        </g>
        <g
           style="stroke-width:0.3521513;stroke-miterlimit:4;stroke-dasharray:none"
           id="g5447"
           transform="translate(84,0)">
          <path
             style="fill:none;stroke:#ffffff;stroke-width:0.3521513;stroke-linecap:butt;stroke-linejoin:miter;stroke-miterlimit:4;stroke-opacity:1;stroke-dasharray:none"
             d="M 15.556349,7.0395996 46.166257,121.27733"
             id="path5449"
             inkscape:connector-curvature="0"
             transform="translate(-18.485315,884.7229)" />
          <path
             inkscape:connector-curvature="0"
             id="path5451"
             d="m -0.928966,891.7625 30.609908,114.2377"
             style="fill:none;stroke:#ffffff;stroke-width:0.3521513;stroke-linecap:butt;stroke-linejoin:miter;stroke-miterlimit:4;stroke-opacity:1;stroke-dasharray:none" />
          <path
             style="fill:none;stroke:#ffffff;stroke-width:0.3521513;stroke-linecap:butt;stroke-linejoin:miter;stroke-miterlimit:4;stroke-opacity:1;stroke-dasharray:none"
             d="m 1.071034,891.7625 30.609908,114.2377"
             id="path5453"
             inkscape:connector-curvature="0" />
          <path
             inkscape:connector-curvature="0"
             id="path5455"
             d="m 3.071034,891.7625 30.609908,114.2377"
             style="fill:none;stroke:#ffffff;stroke-width:0.3521513;stroke-linecap:butt;stroke-linejoin:miter;stroke-miterlimit:4;stroke-opacity:1;stroke-dasharray:none" />
          <path
             style="fill:none;stroke:#ffffff;stroke-width:0.3521513;stroke-linecap:butt;stroke-linejoin:miter;stroke-miterlimit:4;stroke-opacity:1;stroke-dasharray:none"
             d="m 5.071034,891.7625 30.609908,114.2377"
             id="path5457"
             inkscape:connector-curvature="0" />
          <path
             inkscape:connector-curvature="0"
             id="path5459"
             d="m 7.071034,891.7625 30.609908,114.2377"
             style="fill:none;stroke:#ffffff;stroke-width:0.3521513;stroke-linecap:butt;stroke-linejoin:miter;stroke-miterlimit:4;stroke-opacity:1;stroke-dasharray:none" />
          <path
             style="fill:none;stroke:#ffffff;stroke-width:0.3521513;stroke-linecap:butt;stroke-linejoin:miter;stroke-miterlimit:4;stroke-opacity:1;stroke-dasharray:none"
             d="m 9.071034,891.7625 30.609908,114.2377"
             id="path5461"
             inkscape:connector-curvature="0" />
          <path
             inkscape:connector-curvature="0"
             id="path5463"
             d="m 11.071034,891.7625 30.609908,114.2377"
             style="fill:none;stroke:#ffffff;stroke-width:0.3521513;stroke-linecap:butt;stroke-linejoin:miter;stroke-miterlimit:4;stroke-opacity:1;stroke-dasharray:none" />
          <path
             style="fill:none;stroke:#ffffff;stroke-width:0.3521513;stroke-linecap:butt;stroke-linejoin:miter;stroke-miterlimit:4;stroke-opacity:1;stroke-dasharray:none"
             d="m 13.071034,891.7625 30.609908,114.2377"
             id="path5465"
             inkscape:connector-curvature="0" />
          <path
             inkscape:connector-curvature="0"
             id="path5467"
             d="m 15.071034,891.7625 30.609908,114.2377"
             style="fill:none;stroke:#ffffff;stroke-width:0.3521513;stroke-linecap:butt;stroke-linejoin:miter;stroke-miterlimit:4;stroke-opacity:1;stroke-dasharray:none" />
          <path
             style="fill:none;stroke:#ffffff;stroke-width:0.3521513;stroke-linecap:butt;stroke-linejoin:miter;stroke-miterlimit:4;stroke-opacity:1;stroke-dasharray:none"
             d="m 17.071034,891.7625 30.609908,114.2377"
             id="path5469"
             inkscape:connector-curvature="0" />
          <path
             inkscape:connector-curvature="0"
             id="path5471"
             d="m 19.071034,891.7625 30.609908,114.2377"
             style="fill:none;stroke:#ffffff;stroke-width:0.3521513;stroke-linecap:butt;stroke-linejoin:miter;stroke-miterlimit:4;stroke-opacity:1;stroke-dasharray:none" />
          <path
             style="fill:none;stroke:#ffffff;stroke-width:0.3521513;stroke-linecap:butt;stroke-linejoin:miter;stroke-miterlimit:4;stroke-opacity:1;stroke-dasharray:none"
             d="m 21.071034,891.7625 30.609908,114.2377"
             id="path5473"
             inkscape:connector-curvature="0" />
          <path
             inkscape:connector-curvature="0"
             id="path5475"
             d="m 23.071034,891.7625 30.609908,114.2377"
             style="fill:none;stroke:#ffffff;stroke-width:0.3521513;stroke-linecap:butt;stroke-linejoin:miter;stroke-miterlimit:4;stroke-opacity:1;stroke-dasharray:none" />
        </g>
        <g
           style="stroke-width:0.3521513;stroke-miterlimit:4;stroke-dasharray:none"
           transform="translate(112,0)"
           id="g5477">
          <path
             transform="translate(-18.485315,884.7229)"
             inkscape:connector-curvature="0"
             id="path5479"
             d="M 15.556349,7.0395996 46.166257,121.27733"
             style="fill:none;stroke:#ffffff;stroke-width:0.3521513;stroke-linecap:butt;stroke-linejoin:miter;stroke-miterlimit:4;stroke-opacity:1;stroke-dasharray:none" />
          <path
             style="fill:none;stroke:#ffffff;stroke-width:0.3521513;stroke-linecap:butt;stroke-linejoin:miter;stroke-miterlimit:4;stroke-opacity:1;stroke-dasharray:none"
             d="m -0.928966,891.7625 30.609908,114.2377"
             id="path5481"
             inkscape:connector-curvature="0" />
          <path
             inkscape:connector-curvature="0"
             id="path5483"
             d="m 1.071034,891.7625 30.609908,114.2377"
             style="fill:none;stroke:#ffffff;stroke-width:0.3521513;stroke-linecap:butt;stroke-linejoin:miter;stroke-miterlimit:4;stroke-opacity:1;stroke-dasharray:none" />
          <path
             style="fill:none;stroke:#ffffff;stroke-width:0.3521513;stroke-linecap:butt;stroke-linejoin:miter;stroke-miterlimit:4;stroke-opacity:1;stroke-dasharray:none"
             d="m 3.071034,891.7625 30.609908,114.2377"
             id="path5485"
             inkscape:connector-curvature="0" />
          <path
             inkscape:connector-curvature="0"
             id="path5487"
             d="m 5.071034,891.7625 30.609908,114.2377"
             style="fill:none;stroke:#ffffff;stroke-width:0.3521513;stroke-linecap:butt;stroke-linejoin:miter;stroke-miterlimit:4;stroke-opacity:1;stroke-dasharray:none" />
          <path
             style="fill:none;stroke:#ffffff;stroke-width:0.3521513;stroke-linecap:butt;stroke-linejoin:miter;stroke-miterlimit:4;stroke-opacity:1;stroke-dasharray:none"
             d="m 7.071034,891.7625 30.609908,114.2377"
             id="path5489"
             inkscape:connector-curvature="0" />
          <path
             inkscape:connector-curvature="0"
             id="path5491"
             d="m 9.071034,891.7625 30.609908,114.2377"
             style="fill:none;stroke:#ffffff;stroke-width:0.3521513;stroke-linecap:butt;stroke-linejoin:miter;stroke-miterlimit:4;stroke-opacity:1;stroke-dasharray:none" />
          <path
             style="fill:none;stroke:#ffffff;stroke-width:0.3521513;stroke-linecap:butt;stroke-linejoin:miter;stroke-miterlimit:4;stroke-opacity:1;stroke-dasharray:none"
             d="m 11.071034,891.7625 30.609908,114.2377"
             id="path5493"
             inkscape:connector-curvature="0" />
          <path
             inkscape:connector-curvature="0"
             id="path5495"
             d="m 13.071034,891.7625 30.609908,114.2377"
             style="fill:none;stroke:#ffffff;stroke-width:0.3521513;stroke-linecap:butt;stroke-linejoin:miter;stroke-miterlimit:4;stroke-opacity:1;stroke-dasharray:none" />
          <path
             style="fill:none;stroke:#ffffff;stroke-width:0.3521513;stroke-linecap:butt;stroke-linejoin:miter;stroke-miterlimit:4;stroke-opacity:1;stroke-dasharray:none"
             d="m 15.071034,891.7625 30.609908,114.2377"
             id="path5497"
             inkscape:connector-curvature="0" />
          <path
             inkscape:connector-curvature="0"
             id="path5499"
             d="m 17.071034,891.7625 30.609908,114.2377"
             style="fill:none;stroke:#ffffff;stroke-width:0.3521513;stroke-linecap:butt;stroke-linejoin:miter;stroke-miterlimit:4;stroke-opacity:1;stroke-dasharray:none" />
          <path
             style="fill:none;stroke:#ffffff;stroke-width:0.3521513;stroke-linecap:butt;stroke-linejoin:miter;stroke-miterlimit:4;stroke-opacity:1;stroke-dasharray:none"
             d="m 19.071034,891.7625 30.609908,114.2377"
             id="path5501"
             inkscape:connector-curvature="0" />
          <path
             inkscape:connector-curvature="0"
             id="path5503"
             d="m 21.071034,891.7625 30.609908,114.2377"
             style="fill:none;stroke:#ffffff;stroke-width:0.3521513;stroke-linecap:butt;stroke-linejoin:miter;stroke-miterlimit:4;stroke-opacity:1;stroke-dasharray:none" />
          <path
             style="fill:none;stroke:#ffffff;stroke-width:0.3521513;stroke-linecap:butt;stroke-linejoin:miter;stroke-miterlimit:4;stroke-opacity:1;stroke-dasharray:none"
             d="m 23.071034,891.7625 30.609908,114.2377"
             id="path5505"
             inkscape:connector-curvature="0" />
        </g>
        <g
           style="stroke-width:0.3521513;stroke-miterlimit:4;stroke-dasharray:none"
           id="g5507"
           transform="translate(140,0)">
          <path
             style="fill:none;stroke:#ffffff;stroke-width:0.3521513;stroke-linecap:butt;stroke-linejoin:miter;stroke-miterlimit:4;stroke-opacity:1;stroke-dasharray:none"
             d="M 15.556349,7.0395996 46.166257,121.27733"
             id="path5509"
             inkscape:connector-curvature="0"
             transform="translate(-18.485315,884.7229)" />
          <path
             inkscape:connector-curvature="0"
             id="path5511"
             d="m -0.928966,891.7625 30.609908,114.2377"
             style="fill:none;stroke:#ffffff;stroke-width:0.3521513;stroke-linecap:butt;stroke-linejoin:miter;stroke-miterlimit:4;stroke-opacity:1;stroke-dasharray:none" />
          <path
             style="fill:none;stroke:#ffffff;stroke-width:0.3521513;stroke-linecap:butt;stroke-linejoin:miter;stroke-miterlimit:4;stroke-opacity:1;stroke-dasharray:none"
             d="m 1.071034,891.7625 30.609908,114.2377"
             id="path5513"
             inkscape:connector-curvature="0" />
          <path
             inkscape:connector-curvature="0"
             id="path5515"
             d="m 3.071034,891.7625 30.609908,114.2377"
             style="fill:none;stroke:#ffffff;stroke-width:0.3521513;stroke-linecap:butt;stroke-linejoin:miter;stroke-miterlimit:4;stroke-opacity:1;stroke-dasharray:none" />
          <path
             style="fill:none;stroke:#ffffff;stroke-width:0.3521513;stroke-linecap:butt;stroke-linejoin:miter;stroke-miterlimit:4;stroke-opacity:1;stroke-dasharray:none"
             d="m 5.071034,891.7625 30.609908,114.2377"
             id="path5517"
             inkscape:connector-curvature="0" />
          <path
             inkscape:connector-curvature="0"
             id="path5519"
             d="m 7.071034,891.7625 30.609908,114.2377"
             style="fill:none;stroke:#ffffff;stroke-width:0.3521513;stroke-linecap:butt;stroke-linejoin:miter;stroke-miterlimit:4;stroke-opacity:1;stroke-dasharray:none" />
          <path
             style="fill:none;stroke:#ffffff;stroke-width:0.3521513;stroke-linecap:butt;stroke-linejoin:miter;stroke-miterlimit:4;stroke-opacity:1;stroke-dasharray:none"
             d="m 9.071034,891.7625 30.609908,114.2377"
             id="path5521"
             inkscape:connector-curvature="0" />
          <path
             inkscape:connector-curvature="0"
             id="path5523"
             d="m 11.071034,891.7625 30.609908,114.2377"
             style="fill:none;stroke:#ffffff;stroke-width:0.3521513;stroke-linecap:butt;stroke-linejoin:miter;stroke-miterlimit:4;stroke-opacity:1;stroke-dasharray:none" />
          <path
             style="fill:none;stroke:#ffffff;stroke-width:0.3521513;stroke-linecap:butt;stroke-linejoin:miter;stroke-miterlimit:4;stroke-opacity:1;stroke-dasharray:none"
             d="m 13.071034,891.7625 30.609908,114.2377"
             id="path5525"
             inkscape:connector-curvature="0" />
          <path
             inkscape:connector-curvature="0"
             id="path5527"
             d="m 15.071034,891.7625 30.609908,114.2377"
             style="fill:none;stroke:#ffffff;stroke-width:0.3521513;stroke-linecap:butt;stroke-linejoin:miter;stroke-miterlimit:4;stroke-opacity:1;stroke-dasharray:none" />
          <path
             style="fill:none;stroke:#ffffff;stroke-width:0.3521513;stroke-linecap:butt;stroke-linejoin:miter;stroke-miterlimit:4;stroke-opacity:1;stroke-dasharray:none"
             d="m 17.071034,891.7625 30.609908,114.2377"
             id="path5529"
             inkscape:connector-curvature="0" />
          <path
             inkscape:connector-curvature="0"
             id="path5531"
             d="m 19.071034,891.7625 30.609908,114.2377"
             style="fill:none;stroke:#ffffff;stroke-width:0.3521513;stroke-linecap:butt;stroke-linejoin:miter;stroke-miterlimit:4;stroke-opacity:1;stroke-dasharray:none" />
          <path
             style="fill:none;stroke:#ffffff;stroke-width:0.3521513;stroke-linecap:butt;stroke-linejoin:miter;stroke-miterlimit:4;stroke-opacity:1;stroke-dasharray:none"
             d="m 21.071034,891.7625 30.609908,114.2377"
             id="path5533"
             inkscape:connector-curvature="0" />
          <path
             inkscape:connector-curvature="0"
             id="path5535"
             d="m 23.071034,891.7625 30.609908,114.2377"
             style="fill:none;stroke:#ffffff;stroke-width:0.3521513;stroke-linecap:butt;stroke-linejoin:miter;stroke-miterlimit:4;stroke-opacity:1;stroke-dasharray:none" />
        </g>
        <g
           style="stroke-width:0.3521513;stroke-miterlimit:4;stroke-dasharray:none"
           transform="translate(168,0)"
           id="g5537">
          <path
             transform="translate(-18.485315,884.7229)"
             inkscape:connector-curvature="0"
             id="path5539"
             d="M 15.556349,7.0395996 46.166257,121.27733"
             style="fill:none;stroke:#ffffff;stroke-width:0.3521513;stroke-linecap:butt;stroke-linejoin:miter;stroke-miterlimit:4;stroke-opacity:1;stroke-dasharray:none" />
          <path
             style="fill:none;stroke:#ffffff;stroke-width:0.3521513;stroke-linecap:butt;stroke-linejoin:miter;stroke-miterlimit:4;stroke-opacity:1;stroke-dasharray:none"
             d="m -0.928966,891.7625 30.609908,114.2377"
             id="path5541"
             inkscape:connector-curvature="0" />
          <path
             inkscape:connector-curvature="0"
             id="path5543"
             d="m 1.071034,891.7625 30.609908,114.2377"
             style="fill:none;stroke:#ffffff;stroke-width:0.3521513;stroke-linecap:butt;stroke-linejoin:miter;stroke-miterlimit:4;stroke-opacity:1;stroke-dasharray:none" />
          <path
             style="fill:none;stroke:#ffffff;stroke-width:0.3521513;stroke-linecap:butt;stroke-linejoin:miter;stroke-miterlimit:4;stroke-opacity:1;stroke-dasharray:none"
             d="m 3.071034,891.7625 30.609908,114.2377"
             id="path5545"
             inkscape:connector-curvature="0" />
          <path
             inkscape:connector-curvature="0"
             id="path5547"
             d="m 5.071034,891.7625 30.609908,114.2377"
             style="fill:none;stroke:#ffffff;stroke-width:0.3521513;stroke-linecap:butt;stroke-linejoin:miter;stroke-miterlimit:4;stroke-opacity:1;stroke-dasharray:none" />
          <path
             style="fill:none;stroke:#ffffff;stroke-width:0.3521513;stroke-linecap:butt;stroke-linejoin:miter;stroke-miterlimit:4;stroke-opacity:1;stroke-dasharray:none"
             d="m 7.071034,891.7625 30.609908,114.2377"
             id="path5549"
             inkscape:connector-curvature="0" />
          <path
             inkscape:connector-curvature="0"
             id="path5551"
             d="m 9.071034,891.7625 30.609908,114.2377"
             style="fill:none;stroke:#ffffff;stroke-width:0.3521513;stroke-linecap:butt;stroke-linejoin:miter;stroke-miterlimit:4;stroke-opacity:1;stroke-dasharray:none" />
          <path
             style="fill:none;stroke:#ffffff;stroke-width:0.3521513;stroke-linecap:butt;stroke-linejoin:miter;stroke-miterlimit:4;stroke-opacity:1;stroke-dasharray:none"
             d="m 11.071034,891.7625 30.609908,114.2377"
             id="path5553"
             inkscape:connector-curvature="0" />
          <path
             inkscape:connector-curvature="0"
             id="path5555"
             d="m 13.071034,891.7625 30.609908,114.2377"
             style="fill:none;stroke:#ffffff;stroke-width:0.3521513;stroke-linecap:butt;stroke-linejoin:miter;stroke-miterlimit:4;stroke-opacity:1;stroke-dasharray:none" />
          <path
             style="fill:none;stroke:#ffffff;stroke-width:0.3521513;stroke-linecap:butt;stroke-linejoin:miter;stroke-miterlimit:4;stroke-opacity:1;stroke-dasharray:none"
             d="m 15.071034,891.7625 30.609908,114.2377"
             id="path5557"
             inkscape:connector-curvature="0" />
          <path
             inkscape:connector-curvature="0"
             id="path5559"
             d="m 17.071034,891.7625 30.609908,114.2377"
             style="fill:none;stroke:#ffffff;stroke-width:0.3521513;stroke-linecap:butt;stroke-linejoin:miter;stroke-miterlimit:4;stroke-opacity:1;stroke-dasharray:none" />
          <path
             style="fill:none;stroke:#ffffff;stroke-width:0.3521513;stroke-linecap:butt;stroke-linejoin:miter;stroke-miterlimit:4;stroke-opacity:1;stroke-dasharray:none"
             d="m 19.071034,891.7625 30.609908,114.2377"
             id="path5561"
             inkscape:connector-curvature="0" />
          <path
             inkscape:connector-curvature="0"
             id="path5563"
             d="m 21.071034,891.7625 30.609908,114.2377"
             style="fill:none;stroke:#ffffff;stroke-width:0.3521513;stroke-linecap:butt;stroke-linejoin:miter;stroke-miterlimit:4;stroke-opacity:1;stroke-dasharray:none" />
          <path
             style="fill:none;stroke:#ffffff;stroke-width:0.3521513;stroke-linecap:butt;stroke-linejoin:miter;stroke-miterlimit:4;stroke-opacity:1;stroke-dasharray:none"
             d="m 23.071034,891.7625 30.609908,114.2377"
             id="path5565"
             inkscape:connector-curvature="0" />
        </g>
        <g
           style="stroke-width:0.3521513;stroke-miterlimit:4;stroke-dasharray:none"
           id="g5567"
           transform="translate(196,0)">
          <path
             style="fill:none;stroke:#ffffff;stroke-width:0.3521513;stroke-linecap:butt;stroke-linejoin:miter;stroke-miterlimit:4;stroke-opacity:1;stroke-dasharray:none"
             d="M 15.556349,7.0395996 46.166257,121.27733"
             id="path5569"
             inkscape:connector-curvature="0"
             transform="translate(-18.485315,884.7229)" />
          <path
             inkscape:connector-curvature="0"
             id="path5571"
             d="m -0.928966,891.7625 30.609908,114.2377"
             style="fill:none;stroke:#ffffff;stroke-width:0.3521513;stroke-linecap:butt;stroke-linejoin:miter;stroke-miterlimit:4;stroke-opacity:1;stroke-dasharray:none" />
          <path
             style="fill:none;stroke:#ffffff;stroke-width:0.3521513;stroke-linecap:butt;stroke-linejoin:miter;stroke-miterlimit:4;stroke-opacity:1;stroke-dasharray:none"
             d="m 1.071034,891.7625 30.609908,114.2377"
             id="path5573"
             inkscape:connector-curvature="0" />
          <path
             inkscape:connector-curvature="0"
             id="path5575"
             d="m 3.071034,891.7625 30.609908,114.2377"
             style="fill:none;stroke:#ffffff;stroke-width:0.3521513;stroke-linecap:butt;stroke-linejoin:miter;stroke-miterlimit:4;stroke-opacity:1;stroke-dasharray:none" />
          <path
             style="fill:none;stroke:#ffffff;stroke-width:0.3521513;stroke-linecap:butt;stroke-linejoin:miter;stroke-miterlimit:4;stroke-opacity:1;stroke-dasharray:none"
             d="m 5.071034,891.7625 30.609908,114.2377"
             id="path5577"
             inkscape:connector-curvature="0" />
          <path
             inkscape:connector-curvature="0"
             id="path5579"
             d="m 7.071034,891.7625 30.609908,114.2377"
             style="fill:none;stroke:#ffffff;stroke-width:0.3521513;stroke-linecap:butt;stroke-linejoin:miter;stroke-miterlimit:4;stroke-opacity:1;stroke-dasharray:none" />
          <path
             style="fill:none;stroke:#ffffff;stroke-width:0.3521513;stroke-linecap:butt;stroke-linejoin:miter;stroke-miterlimit:4;stroke-opacity:1;stroke-dasharray:none"
             d="m 9.071034,891.7625 30.609908,114.2377"
             id="path5581"
             inkscape:connector-curvature="0" />
          <path
             inkscape:connector-curvature="0"
             id="path5583"
             d="m 11.071034,891.7625 30.609908,114.2377"
             style="fill:none;stroke:#ffffff;stroke-width:0.3521513;stroke-linecap:butt;stroke-linejoin:miter;stroke-miterlimit:4;stroke-opacity:1;stroke-dasharray:none" />
          <path
             style="fill:none;stroke:#ffffff;stroke-width:0.3521513;stroke-linecap:butt;stroke-linejoin:miter;stroke-miterlimit:4;stroke-opacity:1;stroke-dasharray:none"
             d="m 13.071034,891.7625 30.609908,114.2377"
             id="path5585"
             inkscape:connector-curvature="0" />
          <path
             inkscape:connector-curvature="0"
             id="path5587"
             d="m 15.071034,891.7625 30.609908,114.2377"
             style="fill:none;stroke:#ffffff;stroke-width:0.3521513;stroke-linecap:butt;stroke-linejoin:miter;stroke-miterlimit:4;stroke-opacity:1;stroke-dasharray:none" />
          <path
             style="fill:none;stroke:#ffffff;stroke-width:0.3521513;stroke-linecap:butt;stroke-linejoin:miter;stroke-miterlimit:4;stroke-opacity:1;stroke-dasharray:none"
             d="m 17.071034,891.7625 30.609908,114.2377"
             id="path5589"
             inkscape:connector-curvature="0" />
          <path
             inkscape:connector-curvature="0"
             id="path5591"
             d="m 19.071034,891.7625 30.609908,114.2377"
             style="fill:none;stroke:#ffffff;stroke-width:0.3521513;stroke-linecap:butt;stroke-linejoin:miter;stroke-miterlimit:4;stroke-opacity:1;stroke-dasharray:none" />
          <path
             style="fill:none;stroke:#ffffff;stroke-width:0.3521513;stroke-linecap:butt;stroke-linejoin:miter;stroke-miterlimit:4;stroke-opacity:1;stroke-dasharray:none"
             d="m 21.071034,891.7625 30.609908,114.2377"
             id="path5593"
             inkscape:connector-curvature="0" />
          <path
             inkscape:connector-curvature="0"
             id="path5595"
             d="m 23.071034,891.7625 30.609908,114.2377"
             style="fill:none;stroke:#ffffff;stroke-width:0.3521513;stroke-linecap:butt;stroke-linejoin:miter;stroke-miterlimit:4;stroke-opacity:1;stroke-dasharray:none" />
        </g>
        <g
           style="stroke-width:0.3521513;stroke-miterlimit:4;stroke-dasharray:none"
           transform="translate(224,0)"
           id="g5597">
          <path
             transform="translate(-18.485315,884.7229)"
             inkscape:connector-curvature="0"
             id="path5599"
             d="M 15.556349,7.0395996 46.166257,121.27733"
             style="fill:none;stroke:#ffffff;stroke-width:0.3521513;stroke-linecap:butt;stroke-linejoin:miter;stroke-miterlimit:4;stroke-opacity:1;stroke-dasharray:none" />
          <path
             style="fill:none;stroke:#ffffff;stroke-width:0.3521513;stroke-linecap:butt;stroke-linejoin:miter;stroke-miterlimit:4;stroke-opacity:1;stroke-dasharray:none"
             d="m -0.928966,891.7625 30.609908,114.2377"
             id="path5601"
             inkscape:connector-curvature="0" />
          <path
             inkscape:connector-curvature="0"
             id="path5603"
             d="m 1.071034,891.7625 30.609908,114.2377"
             style="fill:none;stroke:#ffffff;stroke-width:0.3521513;stroke-linecap:butt;stroke-linejoin:miter;stroke-miterlimit:4;stroke-opacity:1;stroke-dasharray:none" />
          <path
             style="fill:none;stroke:#ffffff;stroke-width:0.3521513;stroke-linecap:butt;stroke-linejoin:miter;stroke-miterlimit:4;stroke-opacity:1;stroke-dasharray:none"
             d="m 3.071034,891.7625 30.609908,114.2377"
             id="path5605"
             inkscape:connector-curvature="0" />
          <path
             inkscape:connector-curvature="0"
             id="path5607"
             d="m 5.071034,891.7625 30.609908,114.2377"
             style="fill:none;stroke:#ffffff;stroke-width:0.3521513;stroke-linecap:butt;stroke-linejoin:miter;stroke-miterlimit:4;stroke-opacity:1;stroke-dasharray:none" />
          <path
             style="fill:none;stroke:#ffffff;stroke-width:0.3521513;stroke-linecap:butt;stroke-linejoin:miter;stroke-miterlimit:4;stroke-opacity:1;stroke-dasharray:none"
             d="m 7.071034,891.7625 30.609908,114.2377"
             id="path5609"
             inkscape:connector-curvature="0" />
          <path
             inkscape:connector-curvature="0"
             id="path5611"
             d="m 9.071034,891.7625 30.609908,114.2377"
             style="fill:none;stroke:#ffffff;stroke-width:0.3521513;stroke-linecap:butt;stroke-linejoin:miter;stroke-miterlimit:4;stroke-opacity:1;stroke-dasharray:none" />
          <path
             style="fill:none;stroke:#ffffff;stroke-width:0.3521513;stroke-linecap:butt;stroke-linejoin:miter;stroke-miterlimit:4;stroke-opacity:1;stroke-dasharray:none"
             d="m 11.071034,891.7625 30.609908,114.2377"
             id="path5613"
             inkscape:connector-curvature="0" />
          <path
             inkscape:connector-curvature="0"
             id="path5615"
             d="m 13.071034,891.7625 30.609908,114.2377"
             style="fill:none;stroke:#ffffff;stroke-width:0.3521513;stroke-linecap:butt;stroke-linejoin:miter;stroke-miterlimit:4;stroke-opacity:1;stroke-dasharray:none" />
          <path
             style="fill:none;stroke:#ffffff;stroke-width:0.3521513;stroke-linecap:butt;stroke-linejoin:miter;stroke-miterlimit:4;stroke-opacity:1;stroke-dasharray:none"
             d="m 15.071034,891.7625 30.609908,114.2377"
             id="path5617"
             inkscape:connector-curvature="0" />
          <path
             inkscape:connector-curvature="0"
             id="path5619"
             d="m 17.071034,891.7625 30.609908,114.2377"
             style="fill:none;stroke:#ffffff;stroke-width:0.3521513;stroke-linecap:butt;stroke-linejoin:miter;stroke-miterlimit:4;stroke-opacity:1;stroke-dasharray:none" />
          <path
             style="fill:none;stroke:#ffffff;stroke-width:0.3521513;stroke-linecap:butt;stroke-linejoin:miter;stroke-miterlimit:4;stroke-opacity:1;stroke-dasharray:none"
             d="m 19.071034,891.7625 30.609908,114.2377"
             id="path5621"
             inkscape:connector-curvature="0" />
          <path
             inkscape:connector-curvature="0"
             id="path5623"
             d="m 21.071034,891.7625 30.609908,114.2377"
             style="fill:none;stroke:#ffffff;stroke-width:0.3521513;stroke-linecap:butt;stroke-linejoin:miter;stroke-miterlimit:4;stroke-opacity:1;stroke-dasharray:none" />
          <path
             style="fill:none;stroke:#ffffff;stroke-width:0.3521513;stroke-linecap:butt;stroke-linejoin:miter;stroke-miterlimit:4;stroke-opacity:1;stroke-dasharray:none"
             d="m 23.071034,891.7625 30.609908,114.2377"
             id="path5625"
             inkscape:connector-curvature="0" />
        </g>
        <g
           style="stroke-width:0.3521513;stroke-miterlimit:4;stroke-dasharray:none"
           id="g5627"
           transform="translate(-28,0)">
          <path
             style="fill:none;stroke:#ffffff;stroke-width:0.3521513;stroke-linecap:butt;stroke-linejoin:miter;stroke-miterlimit:4;stroke-opacity:1;stroke-dasharray:none"
             d="M 15.556349,7.0395996 46.166257,121.27733"
             id="path5629"
             inkscape:connector-curvature="0"
             transform="translate(-18.485315,884.7229)" />
          <path
             inkscape:connector-curvature="0"
             id="path5631"
             d="m -0.928966,891.7625 30.609908,114.2377"
             style="fill:none;stroke:#ffffff;stroke-width:0.3521513;stroke-linecap:butt;stroke-linejoin:miter;stroke-miterlimit:4;stroke-opacity:1;stroke-dasharray:none" />
          <path
             style="fill:none;stroke:#ffffff;stroke-width:0.3521513;stroke-linecap:butt;stroke-linejoin:miter;stroke-miterlimit:4;stroke-opacity:1;stroke-dasharray:none"
             d="m 1.071034,891.7625 30.609908,114.2377"
             id="path5633"
             inkscape:connector-curvature="0" />
          <path
             inkscape:connector-curvature="0"
             id="path5635"
             d="m 3.071034,891.7625 30.609908,114.2377"
             style="fill:none;stroke:#ffffff;stroke-width:0.3521513;stroke-linecap:butt;stroke-linejoin:miter;stroke-miterlimit:4;stroke-opacity:1;stroke-dasharray:none" />
          <path
             style="fill:none;stroke:#ffffff;stroke-width:0.3521513;stroke-linecap:butt;stroke-linejoin:miter;stroke-miterlimit:4;stroke-opacity:1;stroke-dasharray:none"
             d="m 5.071034,891.7625 30.609908,114.2377"
             id="path5637"
             inkscape:connector-curvature="0" />
          <path
             inkscape:connector-curvature="0"
             id="path5639"
             d="m 7.071034,891.7625 30.609908,114.2377"
             style="fill:none;stroke:#ffffff;stroke-width:0.3521513;stroke-linecap:butt;stroke-linejoin:miter;stroke-miterlimit:4;stroke-opacity:1;stroke-dasharray:none" />
          <path
             style="fill:none;stroke:#ffffff;stroke-width:0.3521513;stroke-linecap:butt;stroke-linejoin:miter;stroke-miterlimit:4;stroke-opacity:1;stroke-dasharray:none"
             d="m 9.071034,891.7625 30.609908,114.2377"
             id="path5641"
             inkscape:connector-curvature="0" />
          <path
             inkscape:connector-curvature="0"
             id="path5643"
             d="m 11.071034,891.7625 30.609908,114.2377"
             style="fill:none;stroke:#ffffff;stroke-width:0.3521513;stroke-linecap:butt;stroke-linejoin:miter;stroke-miterlimit:4;stroke-opacity:1;stroke-dasharray:none" />
          <path
             style="fill:none;stroke:#ffffff;stroke-width:0.3521513;stroke-linecap:butt;stroke-linejoin:miter;stroke-miterlimit:4;stroke-opacity:1;stroke-dasharray:none"
             d="m 13.071034,891.7625 30.609908,114.2377"
             id="path5645"
             inkscape:connector-curvature="0" />
          <path
             inkscape:connector-curvature="0"
             id="path5647"
             d="m 15.071034,891.7625 30.609908,114.2377"
             style="fill:none;stroke:#ffffff;stroke-width:0.3521513;stroke-linecap:butt;stroke-linejoin:miter;stroke-miterlimit:4;stroke-opacity:1;stroke-dasharray:none" />
          <path
             style="fill:none;stroke:#ffffff;stroke-width:0.3521513;stroke-linecap:butt;stroke-linejoin:miter;stroke-miterlimit:4;stroke-opacity:1;stroke-dasharray:none"
             d="m 17.071034,891.7625 30.609908,114.2377"
             id="path5649"
             inkscape:connector-curvature="0" />
          <path
             inkscape:connector-curvature="0"
             id="path5651"
             d="m 19.071034,891.7625 30.609908,114.2377"
             style="fill:none;stroke:#ffffff;stroke-width:0.3521513;stroke-linecap:butt;stroke-linejoin:miter;stroke-miterlimit:4;stroke-opacity:1;stroke-dasharray:none" />
          <path
             style="fill:none;stroke:#ffffff;stroke-width:0.3521513;stroke-linecap:butt;stroke-linejoin:miter;stroke-miterlimit:4;stroke-opacity:1;stroke-dasharray:none"
             d="m 21.071034,891.7625 30.609908,114.2377"
             id="path5653"
             inkscape:connector-curvature="0" />
          <path
             inkscape:connector-curvature="0"
             id="path5655"
             d="m 23.071034,891.7625 30.609908,114.2377"
             style="fill:none;stroke:#ffffff;stroke-width:0.3521513;stroke-linecap:butt;stroke-linejoin:miter;stroke-miterlimit:4;stroke-opacity:1;stroke-dasharray:none" />
        </g>
      </g>
    </g>
    <text
       xml:space="preserve"
       style="font-size:14px;font-style:italic;font-variant:normal;font-weight:normal;font-stretch:normal;line-height:125%;letter-spacing:0px;word-spacing:0px;fill:#005f86;fill-opacity:1;stroke:#000000;stroke-width:0.25;stroke-miterlimit:4;stroke-dasharray:none;font-family:Latin Modern Math;-inkscape-font-specification:Latin Modern Math Italic"
       x="54.126278"
       y="1006.4649"
       id="text3573"
       sodipodi:linespacing="125%"><tspan
         sodipodi:role="line"
         id="tspan3575"
         x="54.126278"
         y="1006.4649"
         style="font-size:14px;font-style:italic;font-variant:normal;font-weight:normal;font-stretch:normal;fill:#005f86;font-family:Latin Modern Math;-inkscape-font-specification:Latin Modern Math Italic">DF</tspan></text>
    <text
       sodipodi:linespacing="125%"
       id="text3555"
       y="928.55573"
       x="50.05204"
       style="font-size:14px;font-style:italic;font-variant:normal;font-weight:normal;font-stretch:normal;line-height:125%;letter-spacing:0px;word-spacing:0px;fill:#333f48;fill-opacity:1;stroke:#000000;stroke-width:0.25;stroke-miterlimit:4;stroke-dasharray:none;font-family:Latin Modern Math;-inkscape-font-specification:Latin Modern Math Italic"
       xml:space="preserve"><tspan
         style="font-size:14px;font-style:italic;font-variant:normal;font-weight:normal;font-stretch:normal;fill:#333f48;font-family:Latin Modern Math;-inkscape-font-specification:Latin Modern Math Italic"
         y="928.55573"
         x="50.05204"
         id="tspan3557"
         sodipodi:role="line">QSF</tspan></text>
    <text
       xml:space="preserve"
       style="font-size:14px;font-style:italic;font-variant:normal;font-weight:normal;font-stretch:normal;line-height:125%;letter-spacing:0px;word-spacing:0px;fill:#f2a900;fill-opacity:1;stroke:#000000;stroke-width:0.25;stroke-miterlimit:4;stroke-dasharray:none;font-family:Latin Modern Math;-inkscape-font-specification:Latin Modern Math Italic"
       x="133.79901"
       y="1006.4202"
       id="text3232"
       sodipodi:linespacing="125%"><tspan
         sodipodi:role="line"
         id="tspan3234"
         x="133.79901"
         y="1006.4202"
         style="font-size:14px;font-style:italic;font-variant:normal;font-weight:normal;font-stretch:normal;fill:#f2a900;font-family:Latin Modern Math;-inkscape-font-specification:Latin Modern Math Italic">SA</tspan></text>
    <text
       xml:space="preserve"
       style="font-size:14px;font-style:italic;font-variant:normal;font-weight:normal;font-stretch:normal;line-height:125%;letter-spacing:0px;word-spacing:0px;fill:#43695b;fill-opacity:1;stroke:#000000;stroke-width:0.25;stroke-miterlimit:4;stroke-dasharray:none;font-family:Latin Modern Math;-inkscape-font-specification:Latin Modern Math Italic"
       x="132.98792"
       y="929.255"
       id="text3236-3"
       sodipodi:linespacing="125%"><tspan
         sodipodi:role="line"
         id="tspan3238-2"
         x="132.98792"
         y="929.255"
         style="font-size:14px;font-style:italic;font-variant:normal;font-weight:normal;font-stretch:normal;fill:#43695b;font-family:Latin Modern Math;-inkscape-font-specification:Latin Modern Math Italic">FF</tspan></text>
    <text
       inkscape:transform-center-y="50.623675"
       inkscape:transform-center-x="-21.109486"
       sodipodi:linespacing="125%"
       id="text3240-6"
       y="1005.9592"
       x="209.80064"
       style="font-size:14px;font-style:italic;font-variant:normal;font-weight:normal;font-stretch:normal;line-height:125%;letter-spacing:0px;word-spacing:0px;fill:#bf5700;fill-opacity:1;stroke:#000000;stroke-width:0.25;stroke-miterlimit:4;stroke-dasharray:none;font-family:Latin Modern Math;-inkscape-font-specification:Latin Modern Math Italic"
       xml:space="preserve"><tspan
         style="font-size:14px;font-style:italic;font-variant:normal;font-weight:normal;font-stretch:normal;font-family:Latin Modern Math;-inkscape-font-specification:Latin Modern Math Italic"
         y="1005.9592"
         x="209.80064"
         id="tspan3242-3"
         sodipodi:role="line">AB</tspan></text>
    <path
       transform="translate(56.275394,902.3033)"
       d="m 100.51017,99.789299 c 0,7.531541 -6.105515,13.637061 -13.637054,13.637061 -7.53154,0 -13.63706,-6.10552 -13.63706,-13.637061 0,-7.53154 6.10552,-13.637059 13.63706,-13.637059 7.531539,0 13.637054,6.105519 13.637054,13.637059 z"
       sodipodi:ry="13.637059"
       sodipodi:rx="13.637059"
       sodipodi:cy="99.789299"
       sodipodi:cx="86.873116"
       id="path6034"
       style="fill:none;stroke:#f2a900;stroke-width:1.77165353;stroke-linecap:round;stroke-linejoin:round;stroke-miterlimit:4;stroke-opacity:1;stroke-dasharray:none;stroke-dashoffset:0"
       sodipodi:type="arc" />
    <path
       sodipodi:type="arc"
       style="fill:none;stroke:#005f86;stroke-width:1.77165353;stroke-linecap:round;stroke-linejoin:round;stroke-miterlimit:4;stroke-opacity:1;stroke-dasharray:none;stroke-dashoffset:0"
       id="path6036"
       sodipodi:cx="86.873116"
       sodipodi:cy="99.789299"
       sodipodi:rx="13.637059"
       sodipodi:ry="13.637059"
       d="m 100.51017,99.789299 c 0,7.531541 -6.105515,13.637061 -13.637054,13.637061 -7.53154,0 -13.63706,-6.10552 -13.63706,-13.637061 0,-7.53154 6.10552,-13.637059 13.63706,-13.637059 7.531539,0 13.637054,6.105519 13.637054,13.637059 z"
       transform="translate(-21.64481,902.52967)" />
    <path
       transform="translate(134.0438,902.52528)"
       d="m 100.51017,99.789299 c 0,7.531541 -6.105515,13.637061 -13.637054,13.637061 -7.53154,0 -13.63706,-6.10552 -13.63706,-13.637061 0,-7.53154 6.10552,-13.637059 13.63706,-13.637059 7.531539,0 13.637054,6.105519 13.637054,13.637059 z"
       sodipodi:ry="13.637059"
       sodipodi:rx="13.637059"
       sodipodi:cy="99.789299"
       sodipodi:cx="86.873116"
       id="path6038"
       style="fill:none;stroke:#bf5700;stroke-width:1.77165353;stroke-linecap:round;stroke-linejoin:round;stroke-miterlimit:4;stroke-opacity:1;stroke-dasharray:none;stroke-dashoffset:0"
       sodipodi:type="arc" />
    <path
       sodipodi:type="arc"
       style="fill:none;stroke:#43695b;stroke-width:1.77165353;stroke-linecap:round;stroke-linejoin:round;stroke-miterlimit:4;stroke-opacity:1;stroke-dasharray:none;stroke-dashoffset:0"
       id="path6040"
       sodipodi:cx="86.873116"
       sodipodi:cy="99.789299"
       sodipodi:rx="13.637059"
       sodipodi:ry="13.637059"
       d="m 100.51017,99.789299 c 0,7.531541 -6.105515,13.637061 -13.637054,13.637061 -7.53154,0 -13.63706,-6.10552 -13.63706,-13.637061 0,-7.53154 6.10552,-13.637059 13.63706,-13.637059 7.531539,0 13.637054,6.105519 13.637054,13.637059 z"
       transform="translate(56.042801,824.58138)" />
    <path
       transform="translate(-21.362558,824.3298)"
       d="m 104.0816,99.789299 c 0,9.503981 -7.704499,17.208491 -17.208484,17.208491 -9.503986,0 -17.208489,-7.70451 -17.208489,-17.208491 0,-9.503986 7.704503,-17.208488 17.208489,-17.208488 9.503985,0 17.208484,7.704502 17.208484,17.208488 z"
       sodipodi:ry="17.208488"
       sodipodi:rx="17.208488"
       sodipodi:cy="99.789299"
       sodipodi:cx="86.873116"
       id="path6042"
       style="fill:none;stroke:#333f48;stroke-width:1.77165353;stroke-linecap:round;stroke-linejoin:round;stroke-miterlimit:4;stroke-opacity:1;stroke-dasharray:none;stroke-dashoffset:0"
       sodipodi:type="arc" />
    <text
       xml:space="preserve"
       style="font-size:14px;font-style:italic;font-variant:normal;font-weight:normal;font-stretch:normal;line-height:125%;letter-spacing:0px;word-spacing:0px;fill:#000000;fill-opacity:1;stroke:none;font-family:Latin Modern Math;-inkscape-font-specification:Latin Modern Math Italic"
       x="58.903194"
       y="1044.0913"
       id="text6056"
       sodipodi:linespacing="125%"
       inkscape:transform-center-x="-21.109486"
       inkscape:transform-center-y="50.623675"><tspan
         sodipodi:role="line"
         id="tspan6058"
         x="58.903194"
         y="1044.0913"
         style="font-size:14px;font-style:italic;font-variant:normal;font-weight:normal;font-stretch:normal;fill:#000000;stroke:none;font-family:Latin Modern Math;-inkscape-font-specification:Latin Modern Math Italic">F</tspan></text>
    <text
       xml:space="preserve"
       style="font-size:14px;font-style:italic;font-variant:normal;font-weight:normal;font-stretch:normal;line-height:125%;letter-spacing:0px;word-spacing:0px;fill:#000000;fill-opacity:1;stroke:none;font-family:Latin Modern Math;-inkscape-font-specification:Latin Modern Math Italic"
       x="61.625469"
       y="885.40796"
       id="text6060"
       sodipodi:linespacing="125%"
       inkscape:transform-center-x="1.5152288"><tspan
         sodipodi:role="line"
         id="tspan6062"
         x="61.625469"
         y="885.40796"
         style="font-size:14px;font-style:italic;font-variant:normal;font-weight:normal;font-stretch:normal;fill:#000000;stroke:none;font-family:Latin Modern Math;-inkscape-font-specification:Latin Modern Math Italic">S</tspan></text>
    <path
       style="fill:none;stroke:#000000;stroke-width:1;stroke-linecap:butt;stroke-linejoin:miter;stroke-miterlimit:4;stroke-opacity:1;stroke-dasharray:none"
       d="m 66.087582,905.77414 c 0,-12.67857 0,-12.67857 0,-12.67857"
       id="path6088"
       inkscape:connector-curvature="0" />
    <path
       style="fill:none;stroke:#000000;stroke-width:1;stroke-linecap:butt;stroke-linejoin:miter;stroke-miterlimit:4;stroke-opacity:1;stroke-dasharray:none"
       d="m 64.835786,1017.1596 0,8.5715"
       id="path6090"
       inkscape:connector-curvature="0" />
    <path
       style="fill:none;stroke:#000000;stroke-width:0.94508111;stroke-linecap:butt;stroke-linejoin:miter;stroke-miterlimit:4;stroke-opacity:1;stroke-dasharray:none"
       d="m 79.747105,1002.3399 41.811075,0"
       id="path6096"
       inkscape:connector-curvature="0"
       sodipodi:nodetypes="cc" />
    <path
       inkscape:connector-curvature="0"
       id="path6132"
       d="m 29.247719,924.11867 c 5.149409,0 13.27242,0 13.27242,0"
       style="fill:none;stroke:#000000;stroke-width:0.88582677;stroke-linecap:butt;stroke-linejoin:miter;stroke-miterlimit:4;stroke-opacity:1;stroke-dasharray:none"
       sodipodi:nodetypes="cc" />
    <path
       sodipodi:type="arc"
       style="fill:none;stroke:#000000;stroke-width:0.88582677;stroke-linecap:round;stroke-linejoin:round;stroke-miterlimit:4;stroke-opacity:1;stroke-dasharray:none;stroke-dashoffset:0"
       id="path6134"
       sodipodi:cx="67.743355"
       sodipodi:cy="32.235344"
       sodipodi:rx="8.0812206"
       sodipodi:ry="8.0812206"
       d="m 75.824575,32.235344 c 0,4.463135 -3.618085,8.081221 -8.08122,8.081221 -4.463135,0 -8.081221,-3.618086 -8.081221,-8.081221 0,-4.463135 3.618086,-8.081221 8.081221,-8.081221 4.463135,0 8.08122,3.618086 8.08122,8.081221 z"
       transform="translate(-1.5909903,848.73843)" />
    <path
       transform="matrix(1.1851641,0,0,1.1851641,-14.134625,842.7696)"
       d="m 75.824575,32.235344 c 0,4.463135 -3.618085,8.081221 -8.08122,8.081221 -4.463135,0 -8.081221,-3.618086 -8.081221,-8.081221 0,-4.463135 3.618086,-8.081221 8.081221,-8.081221 4.463135,0 8.08122,3.618086 8.08122,8.081221 z"
       sodipodi:ry="8.0812206"
       sodipodi:rx="8.0812206"
       sodipodi:cy="32.235344"
       sodipodi:cx="67.743355"
       id="path6136"
       style="fill:none;stroke:#000000;stroke-width:0.74742961;stroke-linecap:round;stroke-linejoin:round;stroke-miterlimit:4;stroke-opacity:1;stroke-dasharray:none;stroke-dashoffset:0"
       sodipodi:type="arc" />
    <path
       sodipodi:type="arc"
       style="fill:none;stroke:#000000;stroke-width:0.88582677;stroke-linecap:round;stroke-linejoin:round;stroke-miterlimit:4;stroke-opacity:1;stroke-dasharray:none;stroke-dashoffset:0"
       id="path6134-8"
       sodipodi:cx="67.743355"
       sodipodi:cy="32.235344"
       sodipodi:rx="8.0812206"
       sodipodi:ry="8.0812206"
       d="m 75.824575,32.235344 c 0,4.463135 -3.618085,8.081221 -8.08122,8.081221 -4.463135,0 -8.081221,-3.618086 -8.081221,-8.081221 0,-4.463135 3.618086,-8.081221 8.081221,-8.081221 4.463135,0 8.08122,3.618086 8.08122,8.081221 z"
       transform="translate(-3.3966401,1007.3279)" />
    <path
       transform="matrix(1.1851641,0,0,1.1851641,-15.940275,1001.3591)"
       d="m 75.824575,32.235344 c 0,4.463135 -3.618085,8.081221 -8.08122,8.081221 -4.463135,0 -8.081221,-3.618086 -8.081221,-8.081221 0,-4.463135 3.618086,-8.081221 8.081221,-8.081221 4.463135,0 8.08122,3.618086 8.08122,8.081221 z"
       sodipodi:ry="8.0812206"
       sodipodi:rx="8.0812206"
       sodipodi:cy="32.235344"
       sodipodi:cx="67.743355"
       id="path6136-3"
       style="fill:none;stroke:#000000;stroke-width:0.74742961;stroke-linecap:round;stroke-linejoin:round;stroke-miterlimit:4;stroke-opacity:1;stroke-dasharray:none;stroke-dashoffset:0"
       sodipodi:type="arc" />
    <path
       sodipodi:type="arc"
       style="fill:none;stroke:#f2a900;stroke-width:1.77165353;stroke-linecap:round;stroke-linejoin:round;stroke-miterlimit:4;stroke-opacity:1;stroke-dasharray:none;stroke-dashoffset:0"
       id="path6172"
       sodipodi:cx="86.873116"
       sodipodi:cy="99.789299"
       sodipodi:rx="13.637059"
       sodipodi:ry="13.637059"
       d="m 100.51017,99.789299 c 0,7.531541 -6.105515,13.637061 -13.637054,13.637061 -7.53154,0 -13.63706,-6.10552 -13.63706,-13.637061 0,-7.53154 6.10552,-13.637059 13.63706,-13.637059 7.531539,0 13.637054,6.105519 13.637054,13.637059 z"
       transform="translate(56.275394,902.3033)" />
    <path
       inkscape:transform-center-x="3.89721"
       style="fill:#000000;stroke:none"
       d="m 206.89767,998.65417 c -5.81506,-5.40302 -5.81506,-5.40302 -5.81506,-5.40302 l -1.97936,6.90455 z"
       id="path6184"
       inkscape:connector-curvature="0"
       inkscape:transform-center-y="-1.950735" />
    <path
       inkscape:transform-center-y="1.746735"
       inkscape:connector-curvature="0"
       id="path6186"
       d="m 157.08831,1005.9434 c 5.97376,5.227 5.97376,5.227 5.97376,5.227 l 1.77236,-6.9606 z"
       style="fill:#000000;stroke:none"
       inkscape:transform-center-x="-3.87306" />
    <g
       id="g6364"
       transform="translate(0,52.5)">
      <path
         inkscape:transform-center-y="22.830315"
         inkscape:transform-center-x="-12.968162"
         sodipodi:type="arc"
         style="fill:#ffffff;fill-opacity:1;stroke:#43695b;stroke-width:2;stroke-linecap:round;stroke-linejoin:round;stroke-miterlimit:4;stroke-opacity:1;stroke-dasharray:none;stroke-dashoffset:0"
         id="path3601-5"
         sodipodi:cx="340.64868"
         sodipodi:cy="46.737251"
         sodipodi:rx="2.2980971"
         sodipodi:ry="2.2980971"
         d="m 342.94678,46.737251 c 0,1.269204 -1.02889,2.298097 -2.2981,2.298097 -1.2692,0 -2.2981,-1.028893 -2.2981,-2.298097 0,-1.269204 1.0289,-2.298097 2.2981,-2.298097 1.26921,0 2.2981,1.028893 2.2981,2.298097 z"
         transform="matrix(-1.0605098,0.627015,-0.627015,-1.0605098,555.92443,730.49714)" />
      <path
         inkscape:connector-curvature="0"
         id="path6212"
         d="m 146.55647,885.66536 c 5.07425,18.93737 19.23688,9.20154 11.32679,1.29145"
         style="fill:none;stroke:#000000;stroke-width:1;stroke-linecap:butt;stroke-linejoin:miter;stroke-miterlimit:4;stroke-opacity:1;stroke-dasharray:none"
         inkscape:transform-center-y="-2.0078556"
         inkscape:transform-center-x="-19.07866"
         sodipodi:nodetypes="cc" />
      <path
         inkscape:connector-curvature="0"
         id="path6214"
         d="m 152.92828,882.02063 c 2.44173,7.55285 2.44173,7.55285 2.44173,7.55285 l 5.09554,-5.06226 z"
         style="fill:#000000;stroke:none"
         inkscape:transform-center-x="-3.9625268"
         inkscape:transform-center-y="3.3317636" />
    </g>
    <path
       inkscape:connector-curvature="0"
       id="path6216"
       d="m 64.939577,1030.1115 c 3.59134,-7.0788 3.59134,-7.0788 3.59134,-7.0788 l -7.182682,0 z"
       style="fill:#000000;stroke:none" />
    <text
       inkscape:transform-center-y="50.623675"
       inkscape:transform-center-x="-21.109486"
       sodipodi:linespacing="125%"
       id="text6228"
       y="1043.72"
       x="215.62991"
       style="font-size:14px;font-style:italic;font-variant:normal;font-weight:normal;font-stretch:normal;line-height:125%;letter-spacing:0px;word-spacing:0px;fill:#000000;fill-opacity:1;stroke:#000000;stroke-width:0.25;stroke-miterlimit:4;stroke-dasharray:none;font-family:Latin Modern Math;-inkscape-font-specification:Latin Modern Math Italic"
       xml:space="preserve"><tspan
         style="font-size:14px;font-style:italic;font-variant:normal;font-weight:normal;font-stretch:normal;fill:#000000;font-family:Latin Modern Math;-inkscape-font-specification:Latin Modern Math Italic"
         y="1043.72"
         x="215.62991"
         id="tspan6230"
         sodipodi:role="line">F</tspan></text>
    <path
       inkscape:connector-curvature="0"
       id="path6232"
       d="m 221.5625,1016.7883 0,8.5714"
       style="fill:none;stroke:#000000;stroke-width:1;stroke-linecap:butt;stroke-linejoin:miter;stroke-miterlimit:4;stroke-opacity:1;stroke-dasharray:none" />
    <path
       transform="translate(153.33007,1006.9566)"
       d="m 75.824575,32.235344 c 0,4.463135 -3.618085,8.081221 -8.08122,8.081221 -4.463135,0 -8.081221,-3.618086 -8.081221,-8.081221 0,-4.463135 3.618086,-8.081221 8.081221,-8.081221 4.463135,0 8.08122,3.618086 8.08122,8.081221 z"
       sodipodi:ry="8.0812206"
       sodipodi:rx="8.0812206"
       sodipodi:cy="32.235344"
       sodipodi:cx="67.743355"
       id="path6234"
       style="fill:none;stroke:#000000;stroke-width:0.88582677;stroke-linecap:round;stroke-linejoin:round;stroke-miterlimit:4;stroke-opacity:1;stroke-dasharray:none;stroke-dashoffset:0"
       sodipodi:type="arc" />
    <path
       sodipodi:type="arc"
       style="fill:none;stroke:#000000;stroke-width:0.74742961;stroke-linecap:round;stroke-linejoin:round;stroke-miterlimit:4;stroke-opacity:1;stroke-dasharray:none;stroke-dashoffset:0"
       id="path6236"
       sodipodi:cx="67.743355"
       sodipodi:cy="32.235344"
       sodipodi:rx="8.0812206"
       sodipodi:ry="8.0812206"
       d="m 75.824575,32.235344 c 0,4.463135 -3.618085,8.081221 -8.08122,8.081221 -4.463135,0 -8.081221,-3.618086 -8.081221,-8.081221 0,-4.463135 3.618086,-8.081221 8.081221,-8.081221 4.463135,0 8.08122,3.618086 8.08122,8.081221 z"
       transform="matrix(1.1851641,0,0,1.1851641,140.78644,1000.9878)" />
    <path
       style="fill:#000000;stroke:none"
       d="m 221.66629,1029.7402 c 3.59134,-7.0789 3.59134,-7.0789 3.59134,-7.0789 l -7.18268,0 z"
       id="path6238"
       inkscape:connector-curvature="0" />
    <text
       xml:space="preserve"
       style="font-size:14px;font-style:italic;font-variant:normal;font-weight:normal;font-stretch:normal;line-height:125%;letter-spacing:0px;word-spacing:0px;fill:#000000;fill-opacity:1;stroke:none;font-family:Latin Modern Math;-inkscape-font-specification:Latin Modern Math Italic"
       x="215.62991"
       y="1043.72"
       id="text6240"
       sodipodi:linespacing="125%"
       inkscape:transform-center-x="-21.109486"
       inkscape:transform-center-y="50.623675"><tspan
         sodipodi:role="line"
         id="tspan6242"
         x="215.62991"
         y="1043.72"
         style="font-size:14px;font-style:italic;font-variant:normal;font-weight:normal;font-stretch:normal;fill:#000000;stroke:none;font-family:Latin Modern Math;-inkscape-font-specification:Latin Modern Math Italic">F</tspan></text>
    <path
       sodipodi:type="arc"
       style="fill:none;stroke:#000000;stroke-width:0.88582677;stroke-linecap:round;stroke-linejoin:round;stroke-miterlimit:4;stroke-opacity:1;stroke-dasharray:none;stroke-dashoffset:0"
       id="path6244"
       sodipodi:cx="67.743355"
       sodipodi:cy="32.235344"
       sodipodi:rx="8.0812206"
       sodipodi:ry="8.0812206"
       d="m 75.824575,32.235344 c 0,4.463135 -3.618085,8.081221 -8.08122,8.081221 -4.463135,0 -8.081221,-3.618086 -8.081221,-8.081221 0,-4.463135 3.618086,-8.081221 8.081221,-8.081221 4.463135,0 8.08122,3.618086 8.08122,8.081221 z"
       transform="translate(153.33007,1006.9566)" />
    <path
       transform="matrix(1.1851641,0,0,1.1851641,140.78644,1000.9878)"
       d="m 75.824575,32.235344 c 0,4.463135 -3.618085,8.081221 -8.08122,8.081221 -4.463135,0 -8.081221,-3.618086 -8.081221,-8.081221 0,-4.463135 3.618086,-8.081221 8.081221,-8.081221 4.463135,0 8.08122,3.618086 8.08122,8.081221 z"
       sodipodi:ry="8.0812206"
       sodipodi:rx="8.0812206"
       sodipodi:cy="32.235344"
       sodipodi:cx="67.743355"
       id="path6246"
       style="fill:none;stroke:#000000;stroke-width:0.74742961;stroke-linecap:round;stroke-linejoin:round;stroke-miterlimit:4;stroke-opacity:1;stroke-dasharray:none;stroke-dashoffset:0"
       sodipodi:type="arc" />
    <path
       inkscape:connector-curvature="0"
       id="path6248"
       d="m 221.66629,1029.7402 c 3.59134,-7.0789 3.59134,-7.0789 3.59134,-7.0789 l -7.18268,0 z"
       style="fill:#000000;stroke:none" />
    <path
       inkscape:connector-curvature="0"
       id="path6250"
       d="m 66.08573,890.71572 c -3.59134,7.07883 -3.59134,7.07883 -3.59134,7.07883 l 7.18268,0 z"
       style="fill:#000000;stroke:none" />
    <path
       style="fill:#000000;stroke:none"
       d="m 69.686124,941.56892 c -1.832422,7.72333 -1.832422,7.72333 -1.832422,7.72333 l 6.982663,-1.68324 z"
       id="path6268"
       inkscape:connector-curvature="0"
       inkscape:transform-center-y="3.861665"
       inkscape:transform-center-x="-1.6589095" />
    <path
       inkscape:connector-curvature="0"
       id="path6270"
       d="m 61.790746,988.38952 c 1.650561,-7.76422 1.650561,-7.76422 1.650561,-7.76422 l -6.941212,1.84674 z"
       style="fill:#000000;stroke:none"
       inkscape:transform-center-y="-3.88211"
       inkscape:transform-center-x="1.820045" />
    <path
       inkscape:transform-center-y="-12.404768"
       inkscape:connector-curvature="0"
       id="path6272"
       d="m 81.530314,915.72661 c 7.931661,-0.31028 7.931661,-0.31028 7.931661,-0.31028 l -3.497623,-6.27357 z"
       style="fill:#000000;stroke:none"
       inkscape:transform-center-x="-20.33531" />
    <path
       inkscape:transform-center-y="2.006955"
       inkscape:connector-curvature="0"
       id="path6280"
       d="m 128.97546,928.41573 c -7.80657,-1.43702 -7.80657,-1.43702 -7.80657,-1.43702 l 2.03641,6.88795 z"
       style="fill:#000000;stroke:none"
       inkscape:transform-center-x="3.903285" />
    <path
       style="fill:none;stroke:#000000;stroke-width:1px;stroke-linecap:butt;stroke-linejoin:miter;stroke-opacity:1"
       d="m 88.6875,918.60975 c 15.45592,-4.1414 24.30645,-2.05554 40.13201,2.20158"
       id="path6284"
       inkscape:connector-curvature="0"
       sodipodi:nodetypes="cc" />
    <g
       id="g6395"
       transform="translate(0,52.5)">
      <path
         inkscape:transform-center-x="-3.3883075"
         inkscape:transform-center-y="-3.95484"
         inkscape:connector-curvature="0"
         id="path6282"
         d="m 72.479555,937.52978 c 6.776615,-4.1334 6.776615,-4.1334 6.776615,-4.1334 l -6.109879,-3.77628 z"
         style="fill:#000000;stroke:none" />
      <path
         sodipodi:nodetypes="cc"
         transform="translate(0,782.35975)"
         inkscape:connector-curvature="0"
         id="path6292"
         d="m 75.40625,150.1875 c 14.14447,-24.23082 31.0885,-39.24624 55.20009,-53.113384"
         style="fill:none;stroke:#000000;stroke-width:1px;stroke-linecap:butt;stroke-linejoin:miter;stroke-opacity:1" />
    </g>
    <path
       style="fill:none;stroke:#000000;stroke-width:1px;stroke-linecap:butt;stroke-linejoin:miter;stroke-opacity:1"
       d="m 69.125,988.48475 c 3.511229,-13.33333 5.578464,-28.20875 1.896447,-42.01083"
       id="path6334"
       inkscape:connector-curvature="0"
       sodipodi:nodetypes="cc" />
    <path
       style="fill:none;stroke:#000000;stroke-width:1px;stroke-linecap:butt;stroke-linejoin:miter;stroke-opacity:1"
       d="m 60.943766,941.65067 c -3.517052,11.96227 -4.162527,25.84157 -0.707107,41.03429"
       id="path6338"
       inkscape:connector-curvature="0"
       sodipodi:nodetypes="cc" />
    <path
       style="fill:none;stroke:#000000;stroke-width:1px;stroke-linecap:butt;stroke-linejoin:miter;stroke-opacity:1"
       d="m 82.797785,929.46412 c 8.136857,2.17211 27.210175,4.06291 40.122715,0.603"
       id="path6346"
       inkscape:connector-curvature="0"
       sodipodi:nodetypes="cc" />
    <path
       inkscape:transform-center-y="-1.59592"
       inkscape:connector-curvature="0"
       id="path6276"
       d="m 83.110908,920.06547 c 7.706252,1.90296 7.706252,1.90296 7.706252,1.90296 l -1.619333,-6.99776 z"
       style="fill:#000000;stroke:none"
       inkscape:transform-center-x="-3.853126" />
    <path
       style="fill:none;stroke:#000000;stroke-width:1px;stroke-linecap:butt;stroke-linejoin:miter;stroke-opacity:1"
       d="M 87.567855,912.21866 C 137.87728,883.17249 201.33324,928.16254 217.46094,988.35194"
       id="path6348"
       inkscape:connector-curvature="0"
       sodipodi:nodetypes="cc" />
    <path
       style="fill:none;stroke:#000000;stroke-width:1px;stroke-linecap:butt;stroke-linejoin:miter;stroke-opacity:1"
       d="m 206.87293,1006.0637 c -16.26931,4.3262 -30.24765,4.7968 -45.69678,0.9722"
       id="path6350"
       inkscape:connector-curvature="0"
       sodipodi:nodetypes="cc" />
    <path
       style="fill:none;stroke:#000000;stroke-width:1px;stroke-linecap:butt;stroke-linejoin:miter;stroke-opacity:1"
       d="m 157.18763,998.47332 c 17.86294,-4.80846 30.80276,-4.99972 45.8625,-0.90598"
       id="path6352"
       inkscape:connector-curvature="0"
       sodipodi:nodetypes="cc" />
    <path
       inkscape:connector-curvature="0"
       id="path6182"
       d="m 128.6325,1002.334 c -7.07883,-3.59133 -7.07883,-3.59133 -7.07883,-3.59133 l 0,7.18263 z"
       style="fill:#000000;stroke:none"
       inkscape:transform-center-x="3.539415" />
    <g
       id="g6369"
       transform="matrix(0.70710678,-0.70710678,0.70710678,0.70710678,-496.39073,486.67746)">
      <path
         transform="matrix(-1.0605098,0.627015,-0.627015,-1.0605098,555.92443,730.49714)"
         d="m 342.94678,46.737251 c 0,1.269204 -1.02889,2.298097 -2.2981,2.298097 -1.2692,0 -2.2981,-1.028893 -2.2981,-2.298097 0,-1.269204 1.0289,-2.298097 2.2981,-2.298097 1.26921,0 2.2981,1.028893 2.2981,2.298097 z"
         sodipodi:ry="2.2980971"
         sodipodi:rx="2.2980971"
         sodipodi:cy="46.737251"
         sodipodi:cx="340.64868"
         id="path6371"
         style="fill:#ffffff;fill-opacity:1;stroke:#bf5700;stroke-width:2;stroke-linecap:round;stroke-linejoin:round;stroke-miterlimit:4;stroke-opacity:1;stroke-dasharray:none;stroke-dashoffset:0"
         sodipodi:type="arc"
         inkscape:transform-center-x="-12.968162"
         inkscape:transform-center-y="22.830315" />
      <path
         sodipodi:nodetypes="cc"
         inkscape:transform-center-x="-19.07866"
         inkscape:transform-center-y="-2.0078556"
         style="fill:none;stroke:#000000;stroke-width:1;stroke-linecap:butt;stroke-linejoin:miter;stroke-miterlimit:4;stroke-opacity:1;stroke-dasharray:none"
         d="m 146.55647,885.66536 c 5.07425,18.93737 19.23688,9.20154 11.32679,1.29145"
         id="path6373"
         inkscape:connector-curvature="0" />
      <path
         inkscape:transform-center-y="3.3317636"
         inkscape:transform-center-x="-3.9625268"
         style="fill:#000000;stroke:none"
         d="m 152.92828,882.02063 c 2.44173,7.55285 2.44173,7.55285 2.44173,7.55285 l 5.09554,-5.06226 z"
         id="path6375"
         inkscape:connector-curvature="0" />
    </g>
    <g
       transform="matrix(-0.70710678,0.70710678,-0.70710678,-0.70710678,782.546,1517.8751)"
       id="g6377">
      <path
         inkscape:transform-center-y="22.830315"
         inkscape:transform-center-x="-12.968162"
         sodipodi:type="arc"
         style="fill:#ffffff;fill-opacity:1;stroke:#005f86;stroke-width:2;stroke-linecap:round;stroke-linejoin:round;stroke-miterlimit:4;stroke-opacity:1;stroke-dasharray:none;stroke-dashoffset:0"
         id="path6379"
         sodipodi:cx="340.64868"
         sodipodi:cy="46.737251"
         sodipodi:rx="2.2980971"
         sodipodi:ry="2.2980971"
         d="m 342.94678,46.737251 c 0,1.269204 -1.02889,2.298097 -2.2981,2.298097 -1.2692,0 -2.2981,-1.028893 -2.2981,-2.298097 0,-1.269204 1.0289,-2.298097 2.2981,-2.298097 1.26921,0 2.2981,1.028893 2.2981,2.298097 z"
         transform="matrix(-1.0605098,0.627015,-0.627015,-1.0605098,555.92443,730.49714)" />
      <path
         inkscape:connector-curvature="0"
         id="path6381"
         d="m 146.55647,885.66536 c 5.07425,18.93737 19.23688,9.20154 11.32679,1.29145"
         style="fill:none;stroke:#000000;stroke-width:1;stroke-linecap:butt;stroke-linejoin:miter;stroke-miterlimit:4;stroke-opacity:1;stroke-dasharray:none"
         inkscape:transform-center-y="-2.0078556"
         inkscape:transform-center-x="-19.07866"
         sodipodi:nodetypes="cc" />
      <path
         inkscape:connector-curvature="0"
         id="path6383"
         d="m 152.92828,882.02063 c 2.44173,7.55285 2.44173,7.55285 2.44173,7.55285 l 5.09554,-5.06226 z"
         style="fill:#000000;stroke:none"
         inkscape:transform-center-x="-3.9625268"
         inkscape:transform-center-y="3.3317636" />
    </g>
    <g
       id="g6385"
       transform="matrix(-0.99999999,0,0,-0.99999999,205.56565,1793.7566)">
      <path
         transform="matrix(-1.0605098,0.627015,-0.627015,-1.0605098,555.92443,730.49714)"
         d="m 342.94678,46.737251 c 0,1.269204 -1.02889,2.298097 -2.2981,2.298097 -1.2692,0 -2.2981,-1.028893 -2.2981,-2.298097 0,-1.269204 1.0289,-2.298097 2.2981,-2.298097 1.26921,0 2.2981,1.028893 2.2981,2.298097 z"
         sodipodi:ry="2.2980971"
         sodipodi:rx="2.2980971"
         sodipodi:cy="46.737251"
         sodipodi:cx="340.64868"
         id="path6387"
         style="fill:#ffffff;fill-opacity:1;stroke:#333f48;stroke-width:2;stroke-linecap:round;stroke-linejoin:round;stroke-miterlimit:4;stroke-opacity:1;stroke-dasharray:none;stroke-dashoffset:0"
         sodipodi:type="arc"
         inkscape:transform-center-x="-12.968162"
         inkscape:transform-center-y="22.830315" />
      <path
         sodipodi:nodetypes="cc"
         inkscape:transform-center-x="-19.07866"
         inkscape:transform-center-y="-2.0078556"
         style="fill:none;stroke:#000000;stroke-width:1;stroke-linecap:butt;stroke-linejoin:miter;stroke-miterlimit:4;stroke-opacity:1;stroke-dasharray:none"
         d="m 146.08853,886.60124 c 5.07425,18.93737 19.70482,8.26566 11.79473,0.35557"
         id="path6389"
         inkscape:connector-curvature="0" />
      <path
         inkscape:transform-center-y="3.3317636"
         inkscape:transform-center-x="-3.9625268"
         style="fill:#000000;stroke:none"
         d="m 152.92828,882.02063 c 2.44173,7.55285 2.44173,7.55285 2.44173,7.55285 l 5.09554,-5.06226 z"
         id="path6391"
         inkscape:connector-curvature="0" />
    </g>
    <g
       id="g6399"
       transform="matrix(-1,0,0,-1,208.18437,1874.2427)">
      <path
         style="fill:#000000;stroke:none"
         d="m 72.479555,937.52978 c 6.776615,-4.1334 6.776615,-4.1334 6.776615,-4.1334 l -6.109879,-3.77628 z"
         id="path6401"
         inkscape:connector-curvature="0"
         inkscape:transform-center-y="-3.95484"
         inkscape:transform-center-x="-3.3883075" />
      <path
         style="fill:none;stroke:#000000;stroke-width:1px;stroke-linecap:butt;stroke-linejoin:miter;stroke-opacity:1"
         d="m 75.40625,150.1875 c 14.14447,-24.23082 31.0885,-39.24624 55.20009,-53.113384"
         id="path6403"
         inkscape:connector-curvature="0"
         transform="translate(0,782.35975)"
         sodipodi:nodetypes="cc" />
    </g>
    <path
       inkscape:transform-center-x="-3.89541"
       style="fill:#000000;stroke:none"
       d="m 156.81018,928.1085 c 5.82793,5.38913 5.82793,5.38913 5.82793,5.38913 l 1.96289,-6.90928 z"
       id="path6409"
       inkscape:connector-curvature="0"
       inkscape:transform-center-y="1.93449" />
    <path
       style="fill:none;stroke:#000000;stroke-width:1px;stroke-linecap:butt;stroke-linejoin:miter;stroke-opacity:1"
       d="M 217.4375,988.25038 C 205.60022,951.42522 185.05528,935.67475 163.40625,929.9535"
       id="path6413"
       inkscape:connector-curvature="0"
       sodipodi:nodetypes="cc" />
    <text
       xml:space="preserve"
       style="font-size:40px;font-style:normal;font-variant:normal;font-weight:normal;font-stretch:normal;line-height:125%;letter-spacing:0px;word-spacing:0px;fill:#000000;fill-opacity:1;stroke:none;font-family:Latin Modern Math;-inkscape-font-specification:Latin Modern Math"
       x="72.478447"
       y="954.77631"
       id="text6415"
       sodipodi:linespacing="125%"><tspan
         sodipodi:role="line"
         id="tspan6417"
         x="72.478447"
         y="954.77631"
         style="font-size:14px;font-style:italic;-inkscape-font-specification:Latin Modern Math Italic">q</tspan></text>
    <text
       sodipodi:linespacing="125%"
       id="text6419"
       y="980.55908"
       x="43.87616"
       style="font-size:40px;font-style:normal;font-variant:normal;font-weight:normal;font-stretch:normal;line-height:125%;letter-spacing:0px;word-spacing:0px;fill:#000000;fill-opacity:1;stroke:none;font-family:Latin Modern Math;-inkscape-font-specification:Latin Modern Math"
       xml:space="preserve"><tspan
         style="font-size:14px;font-style:italic;-inkscape-font-specification:Latin Modern Math Italic"
         y="980.55908"
         x="43.87616"
         id="tspan6421"
         sodipodi:role="line">d</tspan></text>
    <text
       xml:space="preserve"
       style="font-size:40px;font-style:normal;font-variant:normal;font-weight:normal;font-stretch:normal;line-height:125%;letter-spacing:0px;word-spacing:0px;fill:#000000;fill-opacity:1;stroke:none;font-family:Latin Modern Math;-inkscape-font-specification:Latin Modern Math"
       x="80.610176"
       y="982.53027"
       id="text6423"
       sodipodi:linespacing="125%"><tspan
         sodipodi:role="line"
         id="tspan6425"
         x="80.610176"
         y="982.53027"
         style="font-size:14px;font-style:italic;-inkscape-font-specification:Latin Modern Math Italic">d</tspan></text>
    <text
       sodipodi:linespacing="125%"
       id="text6431"
       y="954.68799"
       x="128.33989"
       style="font-size:40px;font-style:normal;font-variant:normal;font-weight:normal;font-stretch:normal;line-height:125%;letter-spacing:0px;word-spacing:0px;fill:#000000;fill-opacity:1;stroke:none;font-family:Latin Modern Math;-inkscape-font-specification:Latin Modern Math"
       xml:space="preserve"><tspan
         style="font-size:14px;font-style:italic;-inkscape-font-specification:Latin Modern Math Italic"
         y="954.68799"
         x="128.33989"
         id="tspan6433"
         sodipodi:role="line">f</tspan></text>
    <text
       xml:space="preserve"
       style="font-size:40px;font-style:normal;font-variant:normal;font-weight:normal;font-stretch:normal;line-height:125%;letter-spacing:0px;word-spacing:0px;fill:#000000;fill-opacity:1;stroke:none;font-family:Latin Modern Math;-inkscape-font-specification:Latin Modern Math"
       x="93.416534"
       y="924.06525"
       id="text6435"
       sodipodi:linespacing="125%"><tspan
         sodipodi:role="line"
         id="tspan6437"
         x="93.416534"
         y="924.06525"
         style="font-size:14px;font-style:italic;-inkscape-font-specification:Latin Modern Math Italic">q</tspan></text>
    <text
       sodipodi:linespacing="125%"
       id="text6439"
       y="942.26935"
       x="91.260971"
       style="font-size:40px;font-style:normal;font-variant:normal;font-weight:normal;font-stretch:normal;line-height:125%;letter-spacing:0px;word-spacing:0px;fill:#000000;fill-opacity:1;stroke:none;font-family:Latin Modern Math;-inkscape-font-specification:Latin Modern Math"
       xml:space="preserve"><tspan
         style="font-size:14px;font-style:italic;-inkscape-font-specification:Latin Modern Math Italic"
         y="942.26935"
         x="91.260971"
         id="tspan6441"
         sodipodi:role="line">f</tspan></text>
    <text
       sodipodi:linespacing="125%"
       id="text6447"
       y="991.74774"
       x="189.72765"
       style="font-size:40px;font-style:normal;font-variant:normal;font-weight:normal;font-stretch:normal;line-height:125%;letter-spacing:0px;word-spacing:0px;fill:#000000;fill-opacity:1;stroke:none;font-family:Latin Modern Math;-inkscape-font-specification:Latin Modern Math"
       xml:space="preserve"><tspan
         style="font-size:14px;font-style:italic;-inkscape-font-specification:Latin Modern Math Italic"
         y="991.74774"
         x="189.72765"
         id="tspan6449"
         sodipodi:role="line">a</tspan></text>
    <text
       xml:space="preserve"
       style="font-size:40px;font-style:normal;font-variant:normal;font-weight:normal;font-stretch:normal;line-height:125%;letter-spacing:0px;word-spacing:0px;fill:#000000;fill-opacity:1;stroke:none;font-family:Latin Modern Math;-inkscape-font-specification:Latin Modern Math"
       x="162.72295"
       y="1017.0017"
       id="text6451"
       sodipodi:linespacing="125%"><tspan
         sodipodi:role="line"
         id="tspan6453"
         x="162.72295"
         y="1017.0017"
         style="font-size:14px;font-style:italic;-inkscape-font-specification:Latin Modern Math Italic">s</tspan></text>
    <text
       sodipodi:linespacing="125%"
       id="text6455"
       y="905.35211"
       x="80.252937"
       style="font-size:40px;font-style:normal;font-variant:normal;font-weight:normal;font-stretch:normal;line-height:125%;letter-spacing:0px;word-spacing:0px;fill:#000000;fill-opacity:1;stroke:none;font-family:Latin Modern Math;-inkscape-font-specification:Latin Modern Math"
       xml:space="preserve"><tspan
         style="font-size:14px;font-style:italic;-inkscape-font-specification:Latin Modern Math Italic"
         y="905.35211"
         x="80.252937"
         id="tspan6457"
         sodipodi:role="line">q</tspan></text>
    <text
       xml:space="preserve"
       style="font-size:40px;font-style:normal;font-variant:normal;font-weight:normal;font-stretch:normal;line-height:125%;letter-spacing:0px;word-spacing:0px;fill:#000000;fill-opacity:1;stroke:none;font-family:Latin Modern Math;-inkscape-font-specification:Latin Modern Math"
       x="185.61552"
       y="958.13507"
       id="text6459"
       sodipodi:linespacing="125%"><tspan
         sodipodi:role="line"
         id="tspan6461"
         x="185.61552"
         y="958.13507"
         style="font-size:14px;font-style:italic;-inkscape-font-specification:Latin Modern Math Italic">f</tspan></text>
    <text
       sodipodi:linespacing="125%"
       id="text6463"
       y="1013.0303"
       x="95.610176"
       style="font-size:40px;font-style:normal;font-variant:normal;font-weight:normal;font-stretch:normal;line-height:125%;letter-spacing:0px;word-spacing:0px;fill:#000000;fill-opacity:1;stroke:none;font-family:Latin Modern Math;-inkscape-font-specification:Latin Modern Math"
       xml:space="preserve"><tspan
         style="font-size:14px;font-style:italic;-inkscape-font-specification:Latin Modern Math Italic"
         y="1013.0303"
         x="95.610176"
         id="tspan6465"
         sodipodi:role="line">s</tspan></text>
    <text
       xml:space="preserve"
       style="font-size:10px;font-style:normal;font-variant:normal;font-weight:normal;font-stretch:normal;line-height:125%;letter-spacing:0px;word-spacing:0px;fill:#000000;fill-opacity:1;stroke:none;font-family:Latin Modern Math;-inkscape-font-specification:Latin Modern Math"
       x="87.500786"
       y="908.88763"
       id="text6506"
       sodipodi:linespacing="125%"><tspan
         sodipodi:role="line"
         id="tspan6508"
         x="87.500786"
         y="908.88763">a</tspan></text>
    <text
       sodipodi:linespacing="125%"
       id="text6510"
       y="929.02057"
       x="100.16989"
       style="font-size:10px;font-style:normal;font-variant:normal;font-weight:normal;font-stretch:normal;line-height:125%;letter-spacing:0px;word-spacing:0px;fill:#000000;fill-opacity:1;stroke:none;font-family:Latin Modern Math;-inkscape-font-specification:Latin Modern Math"
       xml:space="preserve"><tspan
         y="929.02057"
         x="100.16989"
         id="tspan6512"
         sodipodi:role="line">f</tspan></text>
    <text
       xml:space="preserve"
       style="font-size:10px;font-style:normal;font-variant:normal;font-weight:normal;font-stretch:normal;line-height:125%;letter-spacing:0px;word-spacing:0px;fill:#000000;fill-opacity:1;stroke:none;font-family:Latin Modern Math;-inkscape-font-specification:Latin Modern Math"
       x="79.372742"
       y="959.3725"
       id="text6514"
       sodipodi:linespacing="125%"><tspan
         sodipodi:role="line"
         id="tspan6516"
         x="79.372742"
         y="959.3725">d</tspan></text>
    <text
       sodipodi:linespacing="125%"
       id="text6518"
       y="1015.2339"
       x="100.85112"
       style="font-size:10px;font-style:normal;font-variant:normal;font-weight:normal;font-stretch:normal;line-height:125%;letter-spacing:0px;word-spacing:0px;fill:#000000;fill-opacity:1;stroke:none;font-family:Latin Modern Math;-inkscape-font-specification:Latin Modern Math"
       xml:space="preserve"><tspan
         y="1015.2339"
         x="100.85112"
         id="tspan6520"
         sodipodi:role="line">d</tspan></text>
    <text
       sodipodi:linespacing="125%"
       id="text6522"
       y="956.63251"
       x="132.58253"
       style="font-size:10px;font-style:normal;font-variant:normal;font-weight:normal;font-stretch:normal;line-height:125%;letter-spacing:0px;word-spacing:0px;fill:#000000;fill-opacity:1;stroke:none;font-family:Latin Modern Math;-inkscape-font-specification:Latin Modern Math"
       xml:space="preserve"><tspan
         y="956.63251"
         x="132.58253"
         id="tspan6524"
         sodipodi:role="line">d</tspan></text>
    <text
       xml:space="preserve"
       style="font-size:10px;font-style:normal;font-variant:normal;font-weight:normal;font-stretch:normal;line-height:125%;letter-spacing:0px;word-spacing:0px;fill:#000000;fill-opacity:1;stroke:none;font-family:Latin Modern Math;-inkscape-font-specification:Latin Modern Math"
       x="97.050407"
       y="928.25983"
       id="text6526"
       sodipodi:linespacing="125%"><tspan
         sodipodi:role="line"
         id="tspan6528"
         x="97.050407"
         y="928.25983" /></text>
    <text
       xml:space="preserve"
       style="font-size:10px;font-style:normal;font-variant:normal;font-weight:normal;font-stretch:normal;line-height:125%;letter-spacing:0px;word-spacing:0px;fill:#000000;fill-opacity:1;stroke:none;font-family:Latin Modern Math;-inkscape-font-specification:Latin Modern Math"
       x="95.326843"
       y="943.68353"
       id="text6530"
       sodipodi:linespacing="125%"><tspan
         sodipodi:role="line"
         id="tspan6532"
         x="95.326843"
         y="943.68353">q</tspan></text>
    <text
       sodipodi:linespacing="125%"
       id="text6534"
       y="959.3725"
       x="190.21173"
       style="font-size:10px;font-style:normal;font-variant:normal;font-weight:normal;font-stretch:normal;line-height:125%;letter-spacing:0px;word-spacing:0px;fill:#000000;fill-opacity:1;stroke:none;font-family:Latin Modern Math;-inkscape-font-specification:Latin Modern Math"
       xml:space="preserve"><tspan
         y="959.3725"
         x="190.21173"
         id="tspan6536"
         sodipodi:role="line">a</tspan></text>
    <text
       xml:space="preserve"
       style="font-size:10px;font-style:normal;font-variant:normal;font-weight:normal;font-stretch:normal;line-height:125%;letter-spacing:0px;word-spacing:0px;fill:#000000;fill-opacity:1;stroke:none;font-family:Latin Modern Math;-inkscape-font-specification:Latin Modern Math"
       x="168.02626"
       y="1019.123"
       id="text6538"
       sodipodi:linespacing="125%"><tspan
         sodipodi:role="line"
         id="tspan6540"
         x="168.02626"
         y="1019.123">a</tspan></text>
    <text
       sodipodi:linespacing="125%"
       id="text6542"
       y="994.04584"
       x="196.93445"
       style="font-size:10px;font-style:normal;font-variant:normal;font-weight:normal;font-stretch:normal;line-height:125%;letter-spacing:0px;word-spacing:0px;fill:#000000;fill-opacity:1;stroke:none;font-family:Latin Modern Math;-inkscape-font-specification:Latin Modern Math"
       xml:space="preserve"><tspan
         y="994.04584"
         x="196.93445"
         id="tspan6544"
         sodipodi:role="line">s</tspan></text>
    <text
       xml:space="preserve"
       style="font-size:10px;font-style:normal;font-variant:normal;font-weight:normal;font-stretch:normal;line-height:125%;letter-spacing:0px;word-spacing:0px;fill:#000000;fill-opacity:1;stroke:none;font-family:Latin Modern Math;-inkscape-font-specification:Latin Modern Math"
       x="87.858017"
       y="985.18195"
       id="text6546"
       sodipodi:linespacing="125%"><tspan
         sodipodi:role="line"
         id="tspan6548"
         x="87.858017"
         y="985.18195">f</tspan></text>
    <text
       sodipodi:linespacing="125%"
       id="text6550"
       y="982.24286"
       x="51.270454"
       style="font-size:10px;font-style:normal;font-variant:normal;font-weight:normal;font-stretch:normal;line-height:125%;letter-spacing:0px;word-spacing:0px;fill:#000000;fill-opacity:1;stroke:none;font-family:Latin Modern Math;-inkscape-font-specification:Latin Modern Math"
       xml:space="preserve"><tspan
         y="982.24286"
         x="51.270454"
         id="tspan6552"
         sodipodi:role="line">q</tspan></text>
    <path
       inkscape:connector-curvature="0"
       id="path6216-0"
       d="m 47.356912,924.16269 c -7.07883,-3.59134 -7.07883,-3.59134 -7.07883,-3.59134 l 0,7.18269 z"
       style="fill:#000000;stroke:none"
       inkscape:transform-center-x="62.225397"
       inkscape:transform-center-y="10.960155" />
    <text
       xml:space="preserve"
       style="font-size:12px;font-style:normal;font-variant:normal;font-weight:normal;font-stretch:normal;line-height:125%;letter-spacing:0px;word-spacing:0px;fill:#000000;fill-opacity:1;stroke:none;font-family:Latin Modern Math;-inkscape-font-specification:Latin Modern Math"
       x="3.7123108"
       y="926.49207"
       id="text6583"
       sodipodi:linespacing="125%"><tspan
         sodipodi:role="line"
         id="tspan6585"
         x="3.7123108"
         y="926.49207">start</tspan></text>
  </g>
</svg>
