<?xml version="1.0" encoding="UTF-8" standalone="no"?>
<!-- Created with Inkscape (http://www.inkscape.org/) -->

<svg
   xmlns:dc="http://purl.org/dc/elements/1.1/"
   xmlns:cc="http://creativecommons.org/ns#"
   xmlns:rdf="http://www.w3.org/1999/02/22-rdf-syntax-ns#"
   xmlns:svg="http://www.w3.org/2000/svg"
   xmlns="http://www.w3.org/2000/svg"
   xmlns:sodipodi="http://sodipodi.sourceforge.net/DTD/sodipodi-0.dtd"
   xmlns:inkscape="http://www.inkscape.org/namespaces/inkscape"
   width="307.40811"
   height="377.32355"
   id="svg4199"
   version="1.1"
   inkscape:version="0.48.4 r9939"
   sodipodi:docname="overview.svg"
   inkscape:export-filename="/home/gray/wk/grayutils/tex/MultiContactTAC2015/figures/overview.png"
   inkscape:export-xdpi="400"
   inkscape:export-ydpi="400">
  <defs
     id="defs4201" />
  <sodipodi:namedview
     id="base"
     pagecolor="#ffffff"
     bordercolor="#666666"
     borderopacity="1.0"
     inkscape:pageopacity="0.0"
     inkscape:pageshadow="2"
     inkscape:zoom="1.5494505"
     inkscape:cx="6.8412036"
     inkscape:cy="190.61689"
     inkscape:current-layer="layer1"
     inkscape:document-units="px"
     showgrid="false"
     units="mm"
     fit-margin-top="1"
     fit-margin-right="1"
     fit-margin-bottom="1"
     fit-margin-left="1"
     inkscape:window-width="1920"
     inkscape:window-height="1030"
     inkscape:window-x="1920"
     inkscape:window-y="0"
     inkscape:window-maximized="1" />
  <metadata
     id="metadata4204">
    <rdf:RDF>
      <cc:Work
         rdf:about="">
        <dc:format>image/svg+xml</dc:format>
        <dc:type
           rdf:resource="http://purl.org/dc/dcmitype/StillImage" />
      </cc:Work>
    </rdf:RDF>
  </metadata>
  <g
     id="layer1"
     inkscape:label="Layer 1"
     inkscape:groupmode="layer"
     transform="translate(7.1910221,-268.67668)">
    <flowRoot
       xml:space="preserve"
       id="flowRoot4225"
       style="font-size:12px;font-style:normal;font-variant:normal;font-weight:normal;font-stretch:normal;line-height:125%;letter-spacing:0px;word-spacing:0px;fill:#000000;fill-opacity:1;stroke:none;font-family:BKM-cmr8;-inkscape-font-specification:BKM-cmr8"
       transform="translate(0,277.5)"><flowRegion
         id="flowRegion4227"><rect
           id="rect4229"
           width="66.475182"
           height="20.652483"
           x="50.017731"
           y="14.691488" /></flowRegion><flowPara
         id="flowPara4231"></flowPara></flowRoot>    <g
       id="g4375"
       transform="translate(65.467752,-11.661853)">
      <rect
         y="398.18433"
         x="-4.1547837"
         height="14.288008"
         width="205.32022"
         id="rect4263"
         style="fill:none;stroke:#bf5700;stroke-width:1.25;stroke-linejoin:round;stroke-miterlimit:0;stroke-dasharray:none"
         ry="2.8235817" />
      <text
         xml:space="preserve"
         style="font-size:12px;font-style:normal;font-variant:normal;font-weight:normal;font-stretch:normal;text-align:center;line-height:125%;letter-spacing:0px;word-spacing:0px;text-anchor:middle;fill:#000000;fill-opacity:1;stroke:none;font-family:BKM-cmr8;-inkscape-font-specification:BKM-cmr8"
         x="98.33252"
         y="408.62128"
         id="text4265"
         sodipodi:linespacing="125%"><tspan
           id="tspan4287"
           sodipodi:role="line"
           x="98.33252"
           y="408.62128">Phase Space Multi-Contact Planner</tspan></text>
    </g>
    <path
       style="fill:none;stroke:#000000;stroke-width:1px;stroke-linecap:butt;stroke-linejoin:miter;stroke-opacity:1"
       d="M 48.244992,438.29567 7.0199567,438.162 7.4763164,331.74403"
       id="path4309"
       inkscape:connector-curvature="0"
       sodipodi:nodetypes="ccc" />
    <g
       id="g4345"
       transform="translate(-39.677305,-6.5478723)">
      <rect
         y="296.56381"
         x="43.681641"
         height="36.464539"
         width="220.79175"
         id="rect4319"
         style="opacity:0.61290325;fill:#bf5700;fill-opacity:1;stroke:none" />
      <rect
         style="fill:#bf5700;fill-opacity:1;stroke:none"
         id="rect4311"
         width="220.79175"
         height="36.464539"
         x="40.79353"
         y="293.82565" />
      <text
         sodipodi:linespacing="125%"
         id="text4209"
         y="314.005"
         x="48.379692"
         style="font-size:12px;font-style:normal;font-variant:normal;font-weight:normal;font-stretch:normal;line-height:125%;letter-spacing:0px;word-spacing:0px;fill:#ffffff;fill-opacity:1;stroke:none;font-family:BKM-cmr8;-inkscape-font-specification:BKM-cmr8"
         xml:space="preserve"><tspan
           y="314.005"
           x="48.379692"
           id="tspan4211"
           sodipodi:role="line">user</tspan></text>
      <text
         xml:space="preserve"
         style="font-size:12px;font-style:normal;font-variant:normal;font-weight:normal;font-stretch:normal;line-height:125%;letter-spacing:0px;word-spacing:0px;fill:#ffffff;fill-opacity:1;stroke:none;font-family:BKM-cmr8;-inkscape-font-specification:BKM-cmr8"
         x="210.80255"
         y="308.97559"
         id="text4217"
         sodipodi:linespacing="125%"><tspan
           style="text-align:center;text-anchor:middle;fill:#ffffff"
           sodipodi:role="line"
           id="tspan4219"
           x="212.92365"
           y="308.97559">other non-linear </tspan><tspan
           style="text-align:center;text-anchor:middle;fill:#ffffff"
           id="tspan4221"
           sodipodi:role="line"
           x="210.80255"
           y="323.97559">optimization</tspan></text>
      <text
         sodipodi:linespacing="125%"
         id="text4313"
         y="291.34888"
         x="40.487335"
         style="font-size:12px;font-style:normal;font-variant:normal;font-weight:normal;font-stretch:normal;text-align:start;line-height:125%;letter-spacing:0px;word-spacing:0px;text-anchor:start;fill:#000000;fill-opacity:1;stroke:none;font-family:BKM-cmr8;-inkscape-font-specification:BKM-cmr8"
         xml:space="preserve"><tspan
           y="291.34888"
           x="40.487335"
           id="tspan4315"
           sodipodi:role="line">high level planning process</tspan></text>
      <text
         xml:space="preserve"
         style="font-size:12px;font-style:normal;font-variant:normal;font-weight:normal;font-stretch:normal;text-align:center;line-height:125%;letter-spacing:0px;word-spacing:0px;text-anchor:middle;fill:#ffffff;fill-opacity:1;stroke:none;font-family:BKM-cmr8;-inkscape-font-specification:BKM-cmr8"
         x="119.60447"
         y="307.61597"
         id="text4950"
         sodipodi:linespacing="125%"><tspan
           sodipodi:role="line"
           id="tspan4952"
           x="119.60447"
           y="307.61597">path</tspan><tspan
           sodipodi:role="line"
           x="119.60447"
           y="322.61597"
           id="tspan4954">optimizer</tspan></text>
    </g>
    <path
       style="fill:#000000;stroke:#000000;stroke-width:0.27482641px;stroke-linecap:butt;stroke-linejoin:miter;stroke-opacity:1"
       d="m 1.5217561,336.64294 5.7326805,-9.9293 5.7028394,9.8776 z"
       id="path4317"
       inkscape:connector-curvature="0" />
    <g
       id="g4408"
       transform="translate(-22,-16)">
      <rect
         style="fill:#bf5700;fill-opacity:1;stroke:none"
         id="rect4307"
         width="250.20468"
         height="39.844151"
         x="60.985329"
         y="432.82828" />
      <rect
         y="435.77841"
         x="63.787319"
         height="39.844151"
         width="250.20468"
         id="rect4321"
         style="opacity:0.61290325;fill:#bf5700;fill-opacity:1;stroke:none" />
      <text
         sodipodi:linespacing="125%"
         id="text4273"
         y="450.80692"
         x="99.514557"
         style="font-size:12px;font-style:normal;font-variant:normal;font-weight:normal;font-stretch:normal;text-align:center;line-height:125%;letter-spacing:0px;word-spacing:0px;text-anchor:middle;fill:#ffffff;fill-opacity:1;stroke:none;font-family:BKM-cmr8;-inkscape-font-specification:BKM-cmr8"
         xml:space="preserve"><tspan
           y="450.80692"
           x="99.514557"
           id="tspan4275"
           sodipodi:role="line">completion</tspan><tspan
           id="tspan4386"
           y="465.80692"
           x="99.514557"
           sodipodi:role="line">time</tspan></text>
      <text
         sodipodi:linespacing="125%"
         id="text4281"
         y="450.80692"
         x="169.45517"
         style="font-size:12px;font-style:normal;font-variant:normal;font-weight:normal;font-stretch:normal;text-align:center;line-height:125%;letter-spacing:0px;word-spacing:0px;text-anchor:middle;fill:#ffffff;fill-opacity:1;stroke:none;font-family:BKM-cmr8;-inkscape-font-specification:BKM-cmr8"
         xml:space="preserve"><tspan
           y="450.80692"
           x="169.45517"
           id="tspan4283"
           sodipodi:role="line">failure</tspan><tspan
           id="tspan4384"
           y="465.80692"
           x="169.45517"
           sodipodi:role="line">information</tspan></text>
      <text
         sodipodi:linespacing="125%"
         id="text4289"
         y="450.80692"
         x="280.59207"
         style="font-size:12px;font-style:normal;font-variant:normal;font-weight:normal;font-stretch:normal;text-align:center;line-height:125%;letter-spacing:0px;word-spacing:0px;text-anchor:middle;fill:#ffffff;fill-opacity:1;stroke:none;font-family:BKM-cmr8;-inkscape-font-specification:BKM-cmr8"
         xml:space="preserve"><tspan
           y="450.80692"
           x="280.59207"
           id="tspan4291"
           sodipodi:role="line">stance</tspan><tspan
           id="tspan4382"
           y="465.80692"
           x="280.59207"
           sodipodi:role="line">selection</tspan></text>
      <text
         sodipodi:linespacing="125%"
         id="text4293"
         y="450.80692"
         x="229.54172"
         style="font-size:12px;font-style:normal;font-variant:normal;font-weight:normal;font-stretch:normal;text-align:center;line-height:125%;letter-spacing:0px;word-spacing:0px;text-anchor:middle;fill:#ffffff;fill-opacity:1;stroke:none;font-family:BKM-cmr8;-inkscape-font-specification:BKM-cmr8"
         xml:space="preserve"><tspan
           y="450.80692"
           x="229.54172"
           id="tspan4295"
           sodipodi:role="line">contact</tspan><tspan
           id="tspan4380"
           y="465.80692"
           x="229.54172"
           sodipodi:role="line">forces</tspan></text>
      <text
         sodipodi:linespacing="125%"
         id="text4337"
         y="430.14957"
         x="60.477131"
         style="font-size:12px;font-style:normal;font-variant:normal;font-weight:normal;font-stretch:normal;text-align:start;line-height:125%;letter-spacing:0px;word-spacing:0px;text-anchor:start;fill:#000000;fill-opacity:1;stroke:none;font-family:BKM-cmr8;-inkscape-font-specification:BKM-cmr8"
         xml:space="preserve"><tspan
           y="430.14957"
           x="60.477131"
           id="tspan4339"
           sodipodi:role="line">planner result</tspan></text>
    </g>
    <g
       id="g4360"
       transform="translate(0,-10)">
      <rect
         style="opacity:0.61290325;fill:#bf5700;fill-opacity:1;stroke:none"
         id="rect4257"
         width="205.88182"
         height="36.464539"
         x="41.012611"
         y="353.6412" />
      <rect
         y="350.41425"
         x="37.142651"
         height="36.464539"
         width="205.88182"
         id="rect4207"
         style="fill:#bf5700;fill-opacity:1;stroke:none" />
      <text
         sodipodi:linespacing="125%"
         id="text4235"
         y="365.25818"
         x="66.830589"
         style="font-size:12px;font-style:normal;font-variant:normal;font-weight:normal;font-stretch:normal;text-align:center;line-height:125%;letter-spacing:0px;word-spacing:0px;text-anchor:middle;fill:#ffffff;fill-opacity:1;stroke:none;font-family:BKM-cmr8;-inkscape-font-specification:BKM-cmr8"
         xml:space="preserve"><tspan
           y="365.25818"
           x="66.830589"
           id="tspan4237"
           sodipodi:role="line">set of</tspan><tspan
           id="tspan4239"
           y="380.25818"
           x="66.830589"
           sodipodi:role="line">stances</tspan></text>
      <text
         sodipodi:linespacing="125%"
         id="text4241"
         y="364.2901"
         x="123.62492"
         style="font-size:12px;font-style:normal;font-variant:normal;font-weight:normal;font-stretch:normal;text-align:center;line-height:125%;letter-spacing:0px;word-spacing:0px;text-anchor:middle;fill:#ffffff;fill-opacity:1;stroke:none;font-family:BKM-cmr8;-inkscape-font-specification:BKM-cmr8"
         xml:space="preserve"><tspan
           y="364.2901"
           x="123.62492"
           id="tspan4243"
           sodipodi:role="line">maximum</tspan><tspan
           id="tspan4245"
           y="379.2901"
           x="123.62492"
           sodipodi:role="line">speed</tspan></text>
      <text
         sodipodi:linespacing="125%"
         id="text4247"
         y="364.2901"
         x="196.23129"
         style="font-size:12px;font-style:normal;font-variant:normal;font-weight:normal;font-stretch:normal;text-align:center;line-height:125%;letter-spacing:0px;word-spacing:0px;text-anchor:middle;fill:#ffffff;fill-opacity:1;stroke:none;font-family:BKM-cmr8;-inkscape-font-specification:BKM-cmr8"
         xml:space="preserve"><tspan
           y="364.2901"
           x="196.23129"
           id="tspan4249"
           sodipodi:role="line">center of mass</tspan><tspan
           id="tspan4251"
           y="379.2901"
           x="196.23129"
           sodipodi:role="line">path</tspan></text>
      <text
         sodipodi:linespacing="125%"
         id="text4253"
         y="347.46906"
         x="36.485706"
         style="font-size:12px;font-style:normal;font-variant:normal;font-weight:normal;font-stretch:normal;text-align:start;line-height:125%;letter-spacing:0px;word-spacing:0px;text-anchor:start;fill:#000000;fill-opacity:1;stroke:none;font-family:BKM-cmr8;-inkscape-font-specification:BKM-cmr8"
         xml:space="preserve"><tspan
           y="347.46906"
           x="36.485706"
           id="tspan4255"
           sodipodi:role="line">multi-contact problem definition</tspan></text>
    </g>
    <g
       id="g4392"
       transform="translate(-0.9127194,-0.4563597)">
      <path
         inkscape:transform-center-y="-4.8951106"
         inkscape:connector-curvature="0"
         id="path4341"
         d="m 230.45461,331.16215 5.50014,9.52653 5.47152,-9.47693 z"
         style="fill:#000000;stroke:#000000;stroke-width:0.26367852px;stroke-linecap:butt;stroke-linejoin:miter;stroke-opacity:1" />
      <path
         sodipodi:nodetypes="ccc"
         style="fill:none;stroke:#000000;stroke-width:0.9594366px;stroke-linecap:butt;stroke-linejoin:miter;stroke-opacity:1"
         d="m 225.80148,308.89915 10.20613,0 0,26.35137"
         id="path4343"
         inkscape:connector-curvature="0" />
    </g>
    <g
       transform="translate(20.764366,50.199567)"
       id="g4396">
      <path
         style="fill:#000000;stroke:#000000;stroke-width:0.26367852px;stroke-linecap:butt;stroke-linejoin:miter;stroke-opacity:1"
         d="m 230.45461,325.87011 5.50014,9.52653 5.47152,-9.47693 z"
         id="path4398"
         inkscape:connector-curvature="0"
         inkscape:transform-center-y="-4.8951106" />
      <path
         inkscape:connector-curvature="0"
         id="path4400"
         d="m 226.25784,311.15802 9.74977,0 0,20.19051"
         style="fill:none;stroke:#000000;stroke-width:0.9594366px;stroke-linecap:butt;stroke-linejoin:miter;stroke-opacity:1"
         sodipodi:nodetypes="ccc" />
    </g>
    <g
       id="g4402"
       transform="translate(40.998079,73.273773)">
      <path
         inkscape:transform-center-y="-4.8951106"
         inkscape:connector-curvature="0"
         id="path4404"
         d="m 230.45461,333.85641 5.50014,9.52653 5.47152,-9.47693 z"
         style="fill:#000000;stroke:#000000;stroke-width:0.26367852px;stroke-linecap:butt;stroke-linejoin:miter;stroke-opacity:1" />
      <path
         sodipodi:nodetypes="ccc"
         style="fill:none;stroke:#000000;stroke-width:0.9594366px;stroke-linecap:butt;stroke-linejoin:miter;stroke-opacity:1"
         d="m 226.25784,320.65041 9.74977,0 0,14.02966"
         id="path4406"
         inkscape:connector-curvature="0" />
    </g>
    <rect
       style="fill:none;stroke:#bf5700;stroke-width:1.07368886;stroke-linecap:round;stroke-linejoin:round;stroke-miterlimit:4;stroke-opacity:1;stroke-dasharray:none;stroke-dashoffset:0"
       id="rect4426"
       width="299.2478"
       height="190.42526"
       x="-3.1108706"
       y="272.75684"
       ry="1.0915027" />
    <g
       transform="translate(127.30758,198.12696)"
       id="g166098">
      <rect
         ry="2.8671753"
         style="fill:none;stroke:#bf5700;stroke-width:1.02940547;stroke-linejoin:round;stroke-miterlimit:0;stroke-dasharray:none"
         id="rect166100"
         width="137.12947"
         height="14.508602"
         x="29.940594"
         y="398.07404" />
      <text
         sodipodi:linespacing="125%"
         id="text166102"
         y="408.62128"
         x="98.33252"
         style="font-size:12px;font-style:normal;font-variant:normal;font-weight:normal;font-stretch:normal;text-align:center;line-height:125%;letter-spacing:0px;word-spacing:0px;text-anchor:middle;fill:#000000;fill-opacity:1;stroke:none;font-family:BKM-cmr8;-inkscape-font-specification:BKM-cmr8"
         xml:space="preserve"><tspan
           y="408.62128"
           x="98.33252"
           sodipodi:role="line"
           id="tspan166104">Whole Body Controller</tspan></text>
    </g>
    <g
       id="g166112"
       transform="translate(57.535845,229.35958)">
      <rect
         y="398.07404"
         x="29.940594"
         height="14.508602"
         width="137.12947"
         id="rect166114"
         style="fill:none;stroke:#bf5700;stroke-width:1.02940547;stroke-linejoin:round;stroke-miterlimit:0;stroke-dasharray:none"
         ry="2.8671753" />
      <text
         xml:space="preserve"
         style="font-size:12px;font-style:normal;font-variant:normal;font-weight:normal;font-stretch:normal;text-align:center;line-height:125%;letter-spacing:0px;word-spacing:0px;text-anchor:middle;fill:#000000;fill-opacity:1;stroke:none;font-family:BKM-cmr8;-inkscape-font-specification:BKM-cmr8"
         x="98.33252"
         y="408.62128"
         id="text166116"
         sodipodi:linespacing="125%"><tspan
           id="tspan166118"
           sodipodi:role="line"
           x="98.33252"
           y="408.62128">Force Controlled Robot</tspan></text>
    </g>
    <g
       id="g166120"
       transform="translate(7.48978,169.55524)">
      <rect
         y="398.17679"
         x="-1.5807815"
         height="14.303125"
         width="200.17223"
         id="rect166122"
         style="fill:none;stroke:#bf5700;stroke-width:1.23488259;stroke-linejoin:round;stroke-miterlimit:0;stroke-dasharray:none"
         ry="2.8265691" />
      <text
         xml:space="preserve"
         style="font-size:12px;font-style:normal;font-variant:normal;font-weight:normal;font-stretch:normal;text-align:center;line-height:125%;letter-spacing:0px;word-spacing:0px;text-anchor:middle;fill:#000000;fill-opacity:1;stroke:none;font-family:BKM-cmr8;-inkscape-font-specification:BKM-cmr8"
         x="98.33252"
         y="408.62128"
         id="text166124"
         sodipodi:linespacing="125%"><tspan
           id="tspan166126"
           sodipodi:role="line"
           x="98.33252"
           y="408.62128">End-Effector Trajectory Generator</tspan></text>
    </g>
    <g
       transform="translate(-39.81053,78.950228)"
       id="g166128">
      <rect
         y="432.82828"
         x="60.985329"
         height="39.844151"
         width="250.20468"
         id="rect166130"
         style="fill:#bf5700;fill-opacity:1;stroke:none" />
      <rect
         style="opacity:0.61290325;fill:#bf5700;fill-opacity:1;stroke:none"
         id="rect166132"
         width="250.20468"
         height="39.844151"
         x="63.787319"
         y="435.77841" />
      <text
         xml:space="preserve"
         style="font-size:12px;font-style:normal;font-variant:normal;font-weight:normal;font-stretch:normal;text-align:center;line-height:125%;letter-spacing:0px;word-spacing:0px;text-anchor:middle;fill:#ffffff;fill-opacity:1;stroke:none;font-family:BKM-cmr8;-inkscape-font-specification:BKM-cmr8"
         x="99.514557"
         y="450.80692"
         id="text166134"
         sodipodi:linespacing="125%"><tspan
           sodipodi:role="line"
           x="99.514557"
           y="450.80692"
           id="tspan166138">com</tspan><tspan
           sodipodi:role="line"
           x="99.514557"
           y="465.80692"
           id="tspan166164">trajectory</tspan></text>
      <text
         xml:space="preserve"
         style="font-size:12px;font-style:normal;font-variant:normal;font-weight:normal;font-stretch:normal;text-align:center;line-height:125%;letter-spacing:0px;word-spacing:0px;text-anchor:middle;fill:#ffffff;fill-opacity:1;stroke:none;font-family:BKM-cmr8;-inkscape-font-specification:BKM-cmr8"
         x="183.14597"
         y="440.767"
         id="text166140"
         sodipodi:linespacing="125%"><tspan
           sodipodi:role="line"
           x="183.14597"
           y="440.767"
           id="tspan166144">end-effector</tspan><tspan
           sodipodi:role="line"
           x="183.14597"
           y="455.767"
           id="tspan166168">stances without</tspan><tspan
           sodipodi:role="line"
           x="183.14597"
           y="470.767"
           id="tspan166170">chatter</tspan></text>
      <text
         xml:space="preserve"
         style="font-size:12px;font-style:normal;font-variant:normal;font-weight:normal;font-stretch:normal;text-align:center;line-height:125%;letter-spacing:0px;word-spacing:0px;text-anchor:middle;fill:#ffffff;fill-opacity:1;stroke:none;font-family:BKM-cmr8;-inkscape-font-specification:BKM-cmr8"
         x="270.61411"
         y="450.35056"
         id="text166152"
         sodipodi:linespacing="125%"><tspan
           sodipodi:role="line"
           id="tspan166154"
           x="270.61411"
           y="450.35056">contact</tspan><tspan
           sodipodi:role="line"
           x="270.61411"
           y="465.35056"
           id="tspan166156">forces</tspan></text>
      <text
         xml:space="preserve"
         style="font-size:12px;font-style:normal;font-variant:normal;font-weight:normal;font-stretch:normal;text-align:start;line-height:125%;letter-spacing:0px;word-spacing:0px;text-anchor:start;fill:#000000;fill-opacity:1;stroke:none;font-family:BKM-cmr8;-inkscape-font-specification:BKM-cmr8"
         x="60.477131"
         y="430.14957"
         id="text166158"
         sodipodi:linespacing="125%"><tspan
           sodipodi:role="line"
           id="tspan166160"
           x="60.477131"
           y="430.14957">end result</tspan></text>
    </g>
    <g
       transform="translate(29.39264,86.215976)"
       id="g166172">
      <rect
         ry="2.874285"
         style="fill:none;stroke:#bf5700;stroke-width:0.99342936;stroke-linejoin:round;stroke-miterlimit:0;stroke-dasharray:none"
         id="rect166174"
         width="127.39613"
         height="14.544579"
         x="34.80727"
         y="398.05606" />
      <text
         sodipodi:linespacing="125%"
         id="text166176"
         y="408.62128"
         x="98.33252"
         style="font-size:12px;font-style:normal;font-variant:normal;font-weight:normal;font-stretch:normal;text-align:center;line-height:125%;letter-spacing:0px;word-spacing:0px;text-anchor:middle;fill:#000000;fill-opacity:1;stroke:none;font-family:BKM-cmr8;-inkscape-font-specification:BKM-cmr8"
         xml:space="preserve"><tspan
           y="408.62128"
           x="98.33252"
           sodipodi:role="line"
           id="tspan166178">Chatter Approximator</tspan></text>
    </g>
    <g
       transform="translate(49.414525,212.46348)"
       id="g166180">
      <path
         style="fill:#000000;stroke:#000000;stroke-width:0.26367852px;stroke-linecap:butt;stroke-linejoin:miter;stroke-opacity:1"
         d="m 230.45461,373.85641 5.50014,9.52653 5.47152,-9.47693 z"
         id="path166182"
         inkscape:connector-curvature="0"
         inkscape:transform-center-y="-4.8951106" />
      <path
         inkscape:connector-curvature="0"
         id="path166184"
         d="m 226.25784,320.65041 9.74977,0 0,57.38383"
         style="fill:none;stroke:#000000;stroke-width:0.9594366px;stroke-linecap:butt;stroke-linejoin:miter;stroke-opacity:1"
         sodipodi:nodetypes="ccc" />
    </g>
    <g
       id="g166186"
       transform="translate(-18.194034,252.16677)">
      <path
         inkscape:transform-center-y="-4.8951106"
         inkscape:connector-curvature="0"
         id="path166188"
         d="m 230.45461,333.85641 5.50014,9.52653 5.47152,-9.47693 z"
         style="fill:#000000;stroke:#000000;stroke-width:0.26367852px;stroke-linecap:butt;stroke-linejoin:miter;stroke-opacity:1" />
      <path
         sodipodi:nodetypes="ccc"
         style="fill:none;stroke:#000000;stroke-width:0.9594366px;stroke-linecap:butt;stroke-linejoin:miter;stroke-opacity:1"
         d="m 224.88876,322.58994 11.11885,0 0,12.09013"
         id="path166190"
         inkscape:connector-curvature="0" />
    </g>
    <g
       transform="matrix(-0.90873028,0,0,1,225.71536,223.41611)"
       id="g166192">
      <path
         style="fill:#000000;stroke:#000000;stroke-width:0.26367852px;stroke-linecap:butt;stroke-linejoin:miter;stroke-opacity:1"
         d="m 230.45461,333.85641 5.50014,9.52653 5.47152,-9.47693 z"
         id="path166194"
         inkscape:connector-curvature="0"
         inkscape:transform-center-y="-4.8951106" />
      <path
         inkscape:connector-curvature="0"
         id="path166196"
         d="m 226.25784,320.65041 9.74977,0 0,14.02966"
         style="fill:none;stroke:#000000;stroke-width:0.9594366px;stroke-linecap:butt;stroke-linejoin:miter;stroke-opacity:1"
         sodipodi:nodetypes="ccc" />
    </g>
    <path
       style="fill:#000000;stroke:#000000;stroke-width:0.26367852px;stroke-linecap:butt;stroke-linejoin:miter;stroke-opacity:1"
       d="m 193.52102,621.98073 -0.69591,-10.97826 -9.11181,6.06008 z"
       id="path166198"
       inkscape:connector-curvature="0"
       inkscape:transform-center-y="5.6008944"
       inkscape:transform-center-x="4.27934" />
    <path
       style="fill:#000000;stroke:#000000;stroke-width:0.26367852px;stroke-linecap:butt;stroke-linejoin:miter;stroke-opacity:1"
       d="m 209.59656,616.44004 2.29314,10.75861 8.12814,-7.32688 z"
       id="path166198-8"
       inkscape:connector-curvature="0"
       inkscape:transform-center-y="-5.5003106"
       inkscape:transform-center-x="-2.97178" />
    <path
       style="fill:none;stroke:#000000;stroke-width:1px;stroke-linecap:butt;stroke-linejoin:miter;stroke-opacity:1"
       d="m 191.29924,614.89461 c -3.87906,6.16086 -0.45636,12.09354 -0.45636,12.09354"
       id="path166225"
       inkscape:connector-curvature="0" />
    <path
       inkscape:connector-curvature="0"
       id="path166227"
       d="m 214.26961,621.95677 c 0.94852,-7.21828 -4.64077,-11.177 -4.64077,-11.177"
       style="fill:none;stroke:#000000;stroke-width:1px;stroke-linecap:butt;stroke-linejoin:miter;stroke-opacity:1"
       inkscape:transform-center-x="-9.9924311"
       inkscape:transform-center-y="-4.57311" />
    <g
       transform="translate(-33.188985,167.74023)"
       id="g166229">
      <path
         style="fill:#000000;stroke:#000000;stroke-width:0.26367852px;stroke-linecap:butt;stroke-linejoin:miter;stroke-opacity:1"
         d="m 230.45461,333.85641 5.50014,9.52653 5.47152,-9.47693 z"
         id="path166231"
         inkscape:connector-curvature="0"
         inkscape:transform-center-y="-4.8951106" />
      <path
         inkscape:connector-curvature="0"
         id="path166233"
         d="m 224.88876,322.58994 11.11885,0 0,12.09013"
         style="fill:none;stroke:#000000;stroke-width:0.9594366px;stroke-linecap:butt;stroke-linejoin:miter;stroke-opacity:1"
         sodipodi:nodetypes="ccc" />
    </g>
    <g
       id="g166235"
       transform="translate(-97.992062,140.35865)">
      <path
         inkscape:transform-center-y="-4.8951106"
         inkscape:connector-curvature="0"
         id="path166237"
         d="m 230.45461,333.85641 5.50014,9.52653 5.47152,-9.47693 z"
         style="fill:#000000;stroke:#000000;stroke-width:0.26367852px;stroke-linecap:butt;stroke-linejoin:miter;stroke-opacity:1" />
      <path
         sodipodi:nodetypes="cc"
         style="fill:none;stroke:#000000;stroke-width:0.9594366px;stroke-linecap:butt;stroke-linejoin:miter;stroke-opacity:1"
         d="m 236.00761,323.84493 0,10.83514"
         id="path166239"
         inkscape:connector-curvature="0" />
    </g>
  </g>
</svg>
