\relax 
\@writefile{toc}{\contentsline {section}{\numberline {1}Implementation of a simple pendulum controller using another differentiable, off-white network}{1}}
\@writefile{toc}{\contentsline {section}{\numberline {2}Preliminary steps leading up to proper training}{1}}
\@writefile{toc}{\contentsline {section}{\numberline {3}Optimal input calculation}{1}}
\@writefile{lof}{\contentsline {figure}{\numberline {1}{\ignorespaces Constructor for the optimal PD gain tuning network\relax }}{2}}
\providecommand*\caption@xref[2]{\@setref\relax\@undefined{#1}}
\newlabel{lst:newVersion}{{1}{2}}
\@writefile{lof}{\contentsline {figure}{\numberline {2}{\ignorespaces Constructor which tests the ability of the solver to find solutions without unfair lookahead when the system is explicitly stable. Until I ran this test, I was a little worried that the solver would be unable to train a PD controller (as opposed to simply determining an optimal input) since the solver can basically cheat and preempt any changes in the reference signal. However, when I simulated this highly stable plant the resulting states showed evidence of the charactoristic single sided exponential functions. I suspect that if I were simulating an anti-stable function the solver would show the same thing in negative time.\relax }}{3}}
\newlabel{lst:exampleStable}{{2}{3}}
\@writefile{lof}{\contentsline {figure}{\numberline {3}{\ignorespaces Optimal control signal and pendulum angle. Unfortunately this impulse based method of moving the pendulum does not facilitate the training of PD gains, so I had to remove the input relaxation variable to train that. This solves surprisingly fast, effectively determining the optimal control signal as though it were low pass filtering the error signal.\relax }}{4}}
\newlabel{fig:criticTrain}{{3}{4}}
\@writefile{toc}{\contentsline {section}{\numberline {4}Stability}{4}}
\@writefile{lof}{\contentsline {figure}{\numberline {4}{\ignorespaces This experiment tests the ability of the solver to adequately deal with the monodirectional filtering effect of stable systems. Here we simulate not a pendulum, but a simple second order linear system with no overshoot. Solution shown at 30 epochs with a high tolerance for tracking error. As in the examples of system identification the most effective strategy here was to first re-create a low pass filter and then tune the error tolerances until that filter reached a time constant that seemed justified by the highest frequency content of the data. Then, to mark the end point of the solution the measurement error tolerance is increased to effectively require high reliance on the model in the final epochs of training. Then the model components are added in a few at a time to make sure no component is significantly mistraining on the data.\relax }}{5}}
\newlabel{fig:stableMono}{{4}{5}}
\@writefile{lof}{\contentsline {figure}{\numberline {5}{\ignorespaces The effect of the geometric error term variation is that the top two plots from the fourth epoch fit the data (tracking error) very accurately while ignoring the model's predictions (use an ideal acceleration signal), but later epochs such as the 29th shown more accurately use the model since tolerance on internal consistancy is designed to rise relative to the other error terms. The training here is only of the states, the controller gains were fixed for this test.\relax }}{6}}
\newlabel{fig:trainGeom}{{5}{6}}
\@writefile{lof}{\contentsline {figure}{\numberline {6}{\ignorespaces Theta after 29 epochs the first time training produced a stable solution. This came after the introduction of error scalings that were exponentially increasing with time\relax }}{7}}
\newlabel{fig:criticTrain}{{6}{7}}
\@writefile{lof}{\contentsline {figure}{\numberline {7}{\ignorespaces Training of the PD controller using a loose tolerance for actual tracking and a tight tolerance on controller effort which weakens as training progresses (not for convergence, but for illustration). Epochs 3, 7, 12, 16, 22, and 29. These plots show the shooting response of these controllers. They are all stable!\relax }}{8}}
\newlabel{fig:criticTrain}{{7}{8}}
